1914-01-01 00:00:00+00:00	1
1914-07-03 00:00:00+00:00	1
1914-07-04 00:00:00+00:00	1
1920-07-07 00:00:00+00:00	1
1926-01-01 00:00:00+00:00	1
1928-01-01 00:00:00+00:00	1
1929-10-11 00:00:00+00:00	1
1930-01-01 00:00:00+00:00	2
1931-01-01 00:00:00+00:00	2
1931-11-25 00:00:00+00:00	1
1933-01-01 00:00:00+00:00	1
1933-06-18 00:00:00+00:00	1
1934-01-01 00:00:00+00:00	1
1934-06-19 00:00:00+00:00	1
1935-10-13 00:00:00+00:00	1
1936-01-01 00:00:00+00:00	2
1936-01-16 00:00:00+00:00	1
1936-02-27 00:00:00+00:00	1
1936-03-15 00:00:00+00:00	2
1937-01-01 00:00:00+00:00	2
1937-07-04 00:00:00+00:00	1
1937-09-21 00:00:00+00:00	1
1938-01-01 00:00:00+00:00	1
1938-12-16 00:00:00+00:00	1
1939-01-01 00:00:00+00:00	1
1939-03-26 00:00:00+00:00	1
1945-12-31 23:00:00+00:00	1
1955-09-20 00:00:00+00:00	1
1958-03-02 00:00:00+00:00	1
1960-01-01 00:00:00+00:00	1
1960-11-24 00:00:00+00:00	1
1961-02-28 00:00:00+00:00	1
1962-04-06 00:00:00+00:00	1
1963-06-30 00:00:00+00:00	1
1965-01-01 00:00:00+00:00	1
1965-03-26 00:00:00+00:00	1
1966-01-01 00:00:00+00:00	3
1966-09-06 00:00:00+00:00	1
1966-11-09 00:00:00+00:00	1
1967-07-15 00:00:00+00:00	1
1968-01-01 00:00:00+00:00	1
1969-07-19 00:00:00+00:00	1
1969-12-05 00:00:00+00:00	1
1970-06-14 00:00:00+00:00	1
1970-10-08 00:00:00+00:00	1
1971-01-01 00:00:00+00:00	1
1972-01-01 00:00:00+00:00	2
1973-03-15 00:00:00+00:00	1
1975-01-01 00:00:00+00:00	1
1975-08-17 00:00:00+00:00	1
1976-01-01 00:00:00+00:00	1
1977-01-01 00:00:00+00:00	5
1978-05-31 00:00:00+00:00	1
1979-01-01 00:00:00+00:00	5
1979-06-09 00:00:00+00:00	1
1979-09-30 00:00:00+00:00	1
1981-06-30 00:00:00+00:00	1
1983-01-01 00:00:00+00:00	2
1984-01-01 00:00:00+00:00	3
1985-01-01 00:00:00+00:00	1
1986-01-01 00:00:00+00:00	2
1988-01-01 00:00:00+00:00	2
1990-01-01 00:00:00+00:00	2
1991-01-01 00:00:00+00:00	1
1991-03-29 00:00:00+00:00	1
1992-01-01 00:00:00+00:00	1
1993-01-01 00:00:00+00:00	2
1993-06-01 00:00:00+00:00	1
1993-07-02 00:00:00+00:00	1
1994-01-01 00:00:00+00:00	3
1994-07-27 00:00:00+00:00	1
1995-01-01 00:00:00+00:00	7
1995-01-14 00:00:00+00:00	1
1995-05-19 00:00:00+00:00	1
1995-11-30 00:00:00+00:00	2
1996-01-01 00:00:00+00:00	8
1996-01-25 00:00:00+00:00	1
1996-01-30 00:00:00+00:00	1
1996-02-21 00:00:00+00:00	1
1996-05-29 00:00:00+00:00	1
1996-06-27 00:00:00+00:00	1
1996-07-06 00:00:00+00:00	1
1996-07-23 00:00:00+00:00	2
1996-09-18 00:00:00+00:00	1
1996-11-26 00:00:00+00:00	1
1996-12-02 00:00:00+00:00	1
1997-01-01 00:00:00+00:00	10
1997-01-07 00:00:00+00:00	1
1997-01-28 00:00:00+00:00	1
1997-05-09 00:00:00+00:00	1
1997-07-01 00:00:00+00:00	1
1997-12-02 00:00:00+00:00	1
1998-01-01 00:00:00+00:00	20
1998-03-03 00:00:00+00:00	1
1998-04-02 00:00:00+00:00	1
1998-04-09 00:00:00+00:00	1
1998-04-23 00:00:00+00:00	1
1998-06-10 00:00:00+00:00	1
1998-08-13 00:00:00+00:00	1
1998-08-20 00:00:00+00:00	1
1998-09-02 00:00:00+00:00	1
1998-10-22 00:00:00+00:00	1
1998-10-28 00:00:00+00:00	1
1998-10-29 00:00:00+00:00	1
1998-11-05 00:00:00+00:00	1
1998-11-19 00:00:00+00:00	1
1998-11-26 00:00:00+00:00	1
1998-12-03 00:00:00+00:00	1
1998-12-10 00:00:00+00:00	1
1999-01-01 00:00:00+00:00	26
1999-01-14 00:00:00+00:00	1
1999-01-20 00:00:00+00:00	1
1999-03-03 00:00:00+00:00	1
1999-03-30 00:00:00+00:00	1
1999-04-01 00:00:00+00:00	1
1999-04-08 00:00:00+00:00	1
1999-04-29 00:00:00+00:00	1
1999-07-08 00:00:00+00:00	1
1999-07-29 00:00:00+00:00	1
1999-08-05 00:00:00+00:00	1
1999-08-11 00:00:00+00:00	2
1999-08-12 00:00:00+00:00	1
1999-08-19 00:00:00+00:00	1
1999-08-23 00:00:00+00:00	1
1999-09-03 00:00:00+00:00	1
1999-09-29 00:00:00+00:00	1
1999-09-30 00:00:00+00:00	1
1999-10-06 00:00:00+00:00	1
1999-10-20 00:00:00+00:00	1
1999-10-27 00:00:00+00:00	1
1999-11-24 00:00:00+00:00	1
1999-12-01 00:00:00+00:00	1
1999-12-08 00:00:00+00:00	1
1999-12-09 00:00:00+00:00	1
1999-12-10 00:00:00+00:00	1
1999-12-15 00:00:00+00:00	2
1999-12-21 00:00:00+00:00	1
2000-01-01 00:00:00+00:00	31
2000-01-26 00:00:00+00:00	1
2000-02-04 00:00:00+00:00	1
2000-02-09 00:00:00+00:00	1
2000-03-23 00:00:00+00:00	1
2000-03-29 00:00:00+00:00	1
2000-03-30 00:00:00+00:00	1
2000-03-31 00:00:00+00:00	1
2000-04-05 00:00:00+00:00	1
2000-04-06 00:00:00+00:00	1
2000-04-13 00:00:00+00:00	1
2000-04-20 00:00:00+00:00	1
2000-04-27 00:00:00+00:00	1
2000-04-30 00:00:00+00:00	1
2000-05-01 00:00:00+00:00	1
2000-05-26 00:00:00+00:00	1
2000-05-30 00:00:00+00:00	1
2000-06-08 00:00:00+00:00	1
2000-07-21 00:00:00+00:00	1
2000-09-06 00:00:00+00:00	2
2000-09-15 00:00:00+00:00	1
2000-09-18 00:00:00+00:00	1
2000-09-21 00:00:00+00:00	1
2000-09-28 00:00:00+00:00	1
2000-09-30 00:00:00+00:00	1
2000-10-05 00:00:00+00:00	1
2000-10-12 00:00:00+00:00	2
2000-10-19 00:00:00+00:00	1
2000-10-26 00:00:00+00:00	1
2000-11-08 00:00:00+00:00	1
2000-11-09 00:00:00+00:00	1
2000-11-13 00:00:00+00:00	1
2000-11-23 00:00:00+00:00	1
2000-12-07 00:00:00+00:00	1
2000-12-15 00:00:00+00:00	1
2000-12-19 00:00:00+00:00	1
2000-12-22 00:00:00+00:00	1
2001-01-01 00:00:00+00:00	58
2001-01-12 00:00:00+00:00	1
2001-02-01 00:00:00+00:00	2
2001-03-01 00:00:00+00:00	1
2001-03-16 00:00:00+00:00	2
2001-04-26 00:00:00+00:00	2
2001-05-01 00:00:00+00:00	1
2001-05-11 00:00:00+00:00	1
2001-05-17 00:00:00+00:00	2
2001-06-29 00:00:00+00:00	1
2001-07-06 00:00:00+00:00	1
2001-07-19 00:00:00+00:00	1
2001-08-10 00:00:00+00:00	1
2001-09-11 00:00:00+00:00	1
2001-09-24 00:00:00+00:00	1
2001-11-01 00:00:00+00:00	1
2001-12-13 00:00:00+00:00	1
2002-01-01 00:00:00+00:00	82
2002-02-05 00:00:00+00:00	1
2002-03-31 00:00:00+00:00	1
2002-04-17 00:00:00+00:00	1
2002-04-23 00:00:00+00:00	1
2002-05-09 00:00:00+00:00	1
2002-05-10 00:00:00+00:00	1
2002-05-14 00:00:00+00:00	1
2002-06-04 00:00:00+00:00	3
2002-06-12 00:00:00+00:00	1
2002-06-14 00:00:00+00:00	2
2002-06-19 00:00:00+00:00	1
2002-06-20 00:00:00+00:00	1
2002-06-25 00:00:00+00:00	1
2002-06-26 00:00:00+00:00	1
2002-06-27 00:00:00+00:00	2
2002-07-03 00:00:00+00:00	1
2002-07-05 00:00:00+00:00	1
2002-07-09 00:00:00+00:00	1
2002-07-10 00:00:00+00:00	2
2002-07-17 00:00:00+00:00	1
2002-07-23 00:00:00+00:00	1
2002-07-30 00:00:00+00:00	1
2002-08-01 00:00:00+00:00	1
2002-08-09 00:00:00+00:00	1
2002-08-20 00:00:00+00:00	2
2002-08-27 00:00:00+00:00	1
2002-09-01 01:00:00+00:00	1
2002-09-12 00:00:00+00:00	1
2002-09-27 00:00:00+00:00	1
2002-10-03 00:00:00+00:00	1
2002-10-07 00:00:00+00:00	1
2002-10-08 00:00:00+00:00	1
2002-10-18 00:00:00+00:00	1
2002-10-24 00:00:00+00:00	1
2002-10-31 00:00:00+00:00	1
2002-11-04 00:00:00+00:00	1
2002-11-08 00:00:00+00:00	1
2002-11-18 00:00:00+00:00	1
2002-12-17 00:00:00+00:00	1
2003-01-01 00:00:00+00:00	86
2003-01-21 00:00:00+00:00	1
2003-01-23 00:00:00+00:00	13
2003-01-24 00:00:00+00:00	1
2003-02-06 00:00:00+00:00	1
2003-02-27 00:00:00+00:00	3
2003-02-28 00:00:00+00:00	1
2003-03-01 00:00:00+00:00	1
2003-03-14 00:00:00+00:00	1
2003-03-18 00:00:00+00:00	1
2003-03-28 00:00:00+00:00	1
2003-03-31 00:00:00+00:00	1
2003-04-10 00:00:00+00:00	1
2003-05-01 01:00:00+00:00	1
2003-05-26 00:00:00+00:00	1
2003-05-27 00:00:00+00:00	1
2003-05-29 00:00:00+00:00	2
2003-05-31 00:00:00+00:00	2
2003-06-01 01:00:00+00:00	1
2003-06-03 00:00:00+00:00	1
2003-06-12 00:00:00+00:00	1
2003-06-17 00:00:00+00:00	1
2003-07-01 01:00:00+00:00	1
2003-07-14 00:00:00+00:00	1
2003-07-16 00:00:00+00:00	1
2003-07-29 00:00:00+00:00	3
2003-07-31 00:00:00+00:00	1
2003-08-01 01:00:00+00:00	1
2003-08-05 00:00:00+00:00	1
2003-08-19 00:00:00+00:00	1
2003-09-17 00:00:00+00:00	1
2003-09-30 00:00:00+00:00	1
2003-10-02 00:00:00+00:00	1
2003-11-13 00:00:00+00:00	1
2003-11-25 00:00:00+00:00	1
2003-11-30 00:00:00+00:00	4
