1899-01-01 00:00:00+00:00	1
1900-01-01 00:00:00+00:00	1
1904-01-01 00:00:00+00:00	1
1905-01-01 00:00:00+00:00	1
1907-01-01 00:00:00+00:00	1
1910-01-01 00:00:00+00:00	6
1910-01-17 00:00:00+00:00	1
1910-12-03 00:00:00+00:00	1
1911-03-04 00:00:00+00:00	2
1911-05-15 00:00:00+00:00	1
1912-01-01 00:00:00+00:00	5
1913-01-01 00:00:00+00:00	5
1914-01-01 00:00:00+00:00	1
1916-01-01 00:00:00+00:00	1
1917-01-01 00:00:00+00:00	8
1918-01-01 00:00:00+00:00	1
1918-02-01 00:00:00+00:00	1
1919-01-01 00:00:00+00:00	3
1919-03-27 00:00:00+00:00	1
1920-01-01 00:00:00+00:00	4
1921-01-01 00:00:00+00:00	8
1921-07-14 00:00:00+00:00	1
1921-10-30 00:00:00+00:00	1
1922-01-01 00:00:00+00:00	4
1922-06-18 00:00:00+00:00	1
1923-01-01 00:00:00+00:00	10
1923-01-07 00:00:00+00:00	1
1923-06-22 00:00:00+00:00	1
1923-08-31 00:00:00+00:00	1
1924-01-01 00:00:00+00:00	9
1924-09-17 00:00:00+00:00	1
1925-01-01 00:00:00+00:00	12
1925-01-28 00:00:00+00:00	1
1925-04-05 00:00:00+00:00	1
1925-09-01 00:00:00+00:00	1
1925-11-05 00:00:00+00:00	1
1926-01-01 00:00:00+00:00	22
1926-09-01 00:00:00+00:00	1
1927-01-01 00:00:00+00:00	11
1927-01-23 00:00:00+00:00	1
1927-03-01 00:00:00+00:00	1
1927-03-28 00:00:00+00:00	1
1927-04-01 00:00:00+00:00	1
1928-01-01 00:00:00+00:00	15
1928-03-10 00:00:00+00:00	1
1928-11-15 00:00:00+00:00	1
1929-01-01 00:00:00+00:00	9
1929-03-01 00:00:00+00:00	1
1929-04-01 00:00:00+00:00	1
1929-05-01 00:00:00+00:00	1
1929-07-01 00:00:00+00:00	1
1930-01-01 00:00:00+00:00	23
1930-03-01 00:00:00+00:00	2
1930-06-01 00:00:00+00:00	1
1930-10-01 00:00:00+00:00	1
1930-12-04 00:00:00+00:00	1
1930-12-24 00:00:00+00:00	1
1931-01-01 00:00:00+00:00	21
1931-01-17 00:00:00+00:00	1
1931-04-25 00:00:00+00:00	1
1931-05-16 00:00:00+00:00	1
1931-07-01 00:00:00+00:00	1
1931-09-12 00:00:00+00:00	1
1931-11-28 00:00:00+00:00	1
1932-01-01 00:00:00+00:00	23
1932-02-01 00:00:00+00:00	1
1932-08-01 00:00:00+00:00	1
1932-11-01 00:00:00+00:00	1
1932-12-06 00:00:00+00:00	1
1933-01-01 00:00:00+00:00	31
1933-02-01 00:00:00+00:00	2
1933-03-01 00:00:00+00:00	1
1933-04-15 00:00:00+00:00	2
1933-05-01 00:00:00+00:00	1
1933-08-01 00:00:00+00:00	1
1933-08-15 00:00:00+00:00	1
1933-09-01 00:00:00+00:00	2
1933-12-01 00:00:00+00:00	1
1934-01-01 00:00:00+00:00	26
1934-03-01 00:00:00+00:00	4
1934-03-05 00:00:00+00:00	1
1934-04-20 00:00:00+00:00	1
1934-05-19 00:00:00+00:00	1
1934-06-01 00:00:00+00:00	1
1934-09-01 00:00:00+00:00	1
1934-10-01 00:00:00+00:00	2
1934-11-01 00:00:00+00:00	1
1935-01-01 00:00:00+00:00	15
1935-02-01 00:00:00+00:00	1
1935-05-01 00:00:00+00:00	4
1935-05-15 00:00:00+00:00	1
1935-07-01 00:00:00+00:00	1
1935-09-15 00:00:00+00:00	1
1936-01-01 00:00:00+00:00	40
1936-03-01 00:00:00+00:00	1
1936-05-01 00:00:00+00:00	1
1936-06-01 00:00:00+00:00	1
1936-07-01 00:00:00+00:00	2
1936-07-15 00:00:00+00:00	1
1936-10-01 00:00:00+00:00	1
1936-11-01 00:00:00+00:00	3
1936-12-01 00:00:00+00:00	4
1936-12-15 00:00:00+00:00	1
1937-01-01 00:00:00+00:00	33
1937-02-01 00:00:00+00:00	3
1937-02-15 00:00:00+00:00	1
1937-03-01 00:00:00+00:00	1
1937-06-07 00:00:00+00:00	1
1937-09-01 00:00:00+00:00	1
1937-09-19 00:00:00+00:00	1
1937-10-15 00:00:00+00:00	1
1937-12-01 00:00:00+00:00	1
1937-12-15 00:00:00+00:00	1
1938-01-01 00:00:00+00:00	34
1938-01-15 00:00:00+00:00	1
1938-06-01 00:00:00+00:00	1
1938-07-01 00:00:00+00:00	1
1938-08-20 00:00:00+00:00	1
1938-10-01 00:00:00+00:00	1
1938-10-20 00:00:00+00:00	1
1938-11-09 00:00:00+00:00	1
1938-12-01 00:00:00+00:00	1
1938-12-18 00:00:00+00:00	1
1939-01-01 00:00:00+00:00	22
1939-01-08 00:00:00+00:00	1
1939-02-01 00:00:00+00:00	1
1939-03-15 00:00:00+00:00	1
1939-03-31 00:00:00+00:00	1
1939-04-01 00:00:00+00:00	1
1939-04-30 00:00:00+00:00	1
1939-05-01 00:00:00+00:00	1
1939-06-01 00:00:00+00:00	1
1939-06-15 00:00:00+00:00	1
1939-07-01 00:00:00+00:00	1
1939-07-02 00:00:00+00:00	1
1939-08-01 00:00:00+00:00	1
1939-09-03 00:00:00+00:00	1
1944-03-01 00:00:00+00:00	1
1945-01-01 00:00:00+00:00	2
1945-07-18 00:00:00+00:00	1
1946-01-01 00:00:00+00:00	5
1946-07-01 00:00:00+00:00	1
1946-11-04 00:00:00+00:00	1
1947-01-01 00:00:00+00:00	1
1947-04-06 00:00:00+00:00	1
1947-08-04 00:00:00+00:00	1
1947-09-01 00:00:00+00:00	1
1947-12-11 00:00:00+00:00	1
1948-01-01 00:00:00+00:00	5
1948-10-17 00:00:00+00:00	1
1949-02-13 00:00:00+00:00	1
1949-12-06 00:00:00+00:00	1
1950-03-19 00:00:00+00:00	1
1950-04-23 00:00:00+00:00	1
1950-05-14 00:00:00+00:00	1
1950-09-21 00:00:00+00:00	1
1950-10-05 00:00:00+00:00	1
1951-01-26 00:00:00+00:00	1
1951-02-25 00:00:00+00:00	1
1951-03-03 00:00:00+00:00	1
1951-03-12 00:00:00+00:00	1
1951-03-14 00:00:00+00:00	1
1951-04-04 00:00:00+00:00	1
1951-06-08 00:00:00+00:00	1
1951-08-12 00:00:00+00:00	1
1951-09-12 00:00:00+00:00	1
1952-01-01 00:00:00+00:00	1
1952-01-18 00:00:00+00:00	1
1952-06-21 00:00:00+00:00	1
1952-06-29 00:00:00+00:00	1
1952-07-15 00:00:00+00:00	1
1952-10-20 00:00:00+00:00	1
1953-02-08 00:00:00+00:00	1
1953-10-07 00:00:00+00:00	1
1954-01-01 00:00:00+00:00	1
1954-06-15 00:00:00+00:00	1
1954-08-08 00:00:00+00:00	1
1954-10-27 00:00:00+00:00	1
1954-11-25 00:00:00+00:00	1
1955-01-01 00:00:00+00:00	1
1957-01-01 00:00:00+00:00	1
1958-07-31 00:00:00+00:00	1
1959-01-01 00:00:00+00:00	1
1959-01-31 00:00:00+00:00	1
1960-01-01 00:00:00+00:00	1
1961-03-01 00:00:00+00:00	5
1961-04-15 00:00:00+00:00	1
1962-01-01 00:00:00+00:00	2
1963-01-01 00:00:00+00:00	2
1964-01-01 00:00:00+00:00	4
1964-04-15 00:00:00+00:00	1
1965-01-01 00:00:00+00:00	5
1965-02-01 00:00:00+00:00	1
1965-04-30 00:00:00+00:00	1
1965-10-15 00:00:00+00:00	1
1966-01-01 00:00:00+00:00	3
1966-05-31 00:00:00+00:00	2
1966-08-25 00:00:00+00:00	1
1966-12-25 00:00:00+00:00	2
1967-01-01 00:00:00+00:00	1
1967-06-30 00:00:00+00:00	1
1967-12-27 00:00:00+00:00	1
1968-01-01 00:00:00+00:00	4
1968-02-26 00:00:00+00:00	1
1968-06-25 00:00:00+00:00	1
1968-08-26 00:00:00+00:00	1
1969-01-01 00:00:00+00:00	1
1969-06-25 00:00:00+00:00	1
1970-01-01 00:00:00+00:00	3
1970-04-30 00:00:00+00:00	6
1970-07-31 00:00:00+00:00	1
1971-01-01 00:00:00+00:00	11
1971-02-27 00:00:00+00:00	2
1971-02-28 00:00:00+00:00	1
1971-06-30 00:00:00+00:00	1
1971-07-19 00:00:00+00:00	1
1971-08-31 00:00:00+00:00	2
1971-12-31 00:00:00+00:00	1
1972-01-01 00:00:00+00:00	17
1972-02-29 00:00:00+00:00	2
1972-04-29 00:00:00+00:00	1
1972-05-31 00:00:00+00:00	1
1972-06-30 00:00:00+00:00	2
1972-08-31 00:00:00+00:00	1
1972-12-01 00:00:00+00:00	1
1972-12-30 00:00:00+00:00	1
1973-01-01 00:00:00+00:00	6
1973-02-28 00:00:00+00:00	3
1973-11-30 00:00:00+00:00	1
1973-12-31 23:00:00+00:00	1
1974-01-01 00:00:00+00:00	47
1974-02-28 00:00:00+00:00	4
1974-04-30 00:00:00+00:00	2
1974-06-29 00:00:00+00:00	1
1974-08-31 00:00:00+00:00	2
1974-09-08 00:00:00+00:00	1
1974-12-31 00:00:00+00:00	4
1975-01-01 00:00:00+00:00	28
1975-02-28 00:00:00+00:00	2
1975-04-30 00:00:00+00:00	1
1975-06-30 00:00:00+00:00	1
1975-08-30 00:00:00+00:00	3
1975-10-31 00:00:00+00:00	3
1975-11-02 00:00:00+00:00	1
1975-12-31 00:00:00+00:00	1
1976-01-01 00:00:00+00:00	13
1976-02-28 00:00:00+00:00	1
1976-04-30 00:00:00+00:00	3
1976-06-30 00:00:00+00:00	2
1976-07-31 00:00:00+00:00	4
1976-12-31 00:00:00+00:00	1
1977-01-01 00:00:00+00:00	15
1977-02-28 00:00:00+00:00	1
1977-04-30 00:00:00+00:00	1
1977-05-31 00:00:00+00:00	1
1977-06-30 00:00:00+00:00	3
1977-07-31 00:00:00+00:00	3
1977-09-30 00:00:00+00:00	2
1977-10-31 00:00:00+00:00	1
1977-12-31 00:00:00+00:00	2
1978-01-01 00:00:00+00:00	21
1978-03-31 00:00:00+00:00	1
1978-04-29 00:00:00+00:00	1
1978-05-31 00:00:00+00:00	1
1978-06-30 00:00:00+00:00	1
1978-07-23 00:00:00+00:00	1
1978-07-31 00:00:00+00:00	2
1978-08-31 00:00:00+00:00	2
1978-09-30 00:00:00+00:00	1
1978-10-31 00:00:00+00:00	1
1978-12-30 00:00:00+00:00	1
1979-01-01 00:00:00+00:00	20
1979-04-30 00:00:00+00:00	1
1979-05-29 00:00:00+00:00	1
1979-06-30 00:00:00+00:00	1
1979-08-31 00:00:00+00:00	1
1979-10-31 00:00:00+00:00	1
1979-11-30 00:00:00+00:00	2
1980-01-01 00:00:00+00:00	13
1980-01-31 00:00:00+00:00	1
1980-02-29 00:00:00+00:00	1
1980-04-30 00:00:00+00:00	1
1980-05-31 00:00:00+00:00	1
1980-08-30 00:00:00+00:00	1
1981-01-01 00:00:00+00:00	34
1981-02-01 00:00:00+00:00	1
1981-05-31 00:00:00+00:00	1
1981-07-01 00:00:00+00:00	3
1981-08-01 00:00:00+00:00	1
1981-09-01 00:00:00+00:00	1
1981-11-02 00:00:00+00:00	1
1982-01-01 00:00:00+00:00	15
1982-03-01 00:00:00+00:00	2
1983-01-01 00:00:00+00:00	18
1983-09-20 00:00:00+00:00	2
1983-11-30 00:00:00+00:00	1
1983-12-01 00:00:00+00:00	1
1984-01-01 00:00:00+00:00	41
1984-01-31 00:00:00+00:00	2
1984-03-31 00:00:00+00:00	1
1984-05-31 00:00:00+00:00	3
1984-09-29 00:00:00+00:00	1
1984-10-31 00:00:00+00:00	2
1985-01-01 00:00:00+00:00	27
1985-02-28 00:00:00+00:00	1
1985-04-30 00:00:00+00:00	2
1985-06-28 00:00:00+00:00	1
1985-07-31 00:00:00+00:00	2
1985-08-31 00:00:00+00:00	2
1985-11-30 00:00:00+00:00	2
1986-01-01 00:00:00+00:00	31
1986-01-14 00:00:00+00:00	1
1986-04-27 00:00:00+00:00	1
1986-05-31 00:00:00+00:00	1
1986-06-30 00:00:00+00:00	1
1986-07-31 00:00:00+00:00	1
1986-12-01 00:00:00+00:00	2
1986-12-31 00:00:00+00:00	1
1987-01-01 00:00:00+00:00	37
1987-01-31 00:00:00+00:00	1
1987-03-31 00:00:00+00:00	1
1987-04-30 00:00:00+00:00	1
1987-05-20 00:00:00+00:00	1
1987-05-30 00:00:00+00:00	1
1987-06-30 00:00:00+00:00	1
1987-07-31 00:00:00+00:00	1
1987-08-19 00:00:00+00:00	1
1987-11-30 00:00:00+00:00	2
1988-01-01 00:00:00+00:00	28
1988-01-30 00:00:00+00:00	4
1988-02-29 00:00:00+00:00	1
1989-01-01 00:00:00+00:00	28
1989-05-31 00:00:00+00:00	1
1989-07-18 00:00:00+00:00	2
1989-12-30 00:00:00+00:00	1
1989-12-31 23:00:00+00:00	1
1990-01-01 00:00:00+00:00	20
1990-01-31 00:00:00+00:00	1
1990-04-30 00:00:00+00:00	7
1990-05-01 00:00:00+00:00	1
1990-05-31 00:00:00+00:00	2
1990-06-30 00:00:00+00:00	2
1990-07-31 00:00:00+00:00	1
1990-09-28 00:00:00+00:00	1
1990-10-08 00:00:00+00:00	2
1990-10-31 00:00:00+00:00	1
1990-11-30 00:00:00+00:00	2
1991-01-01 00:00:00+00:00	8
1991-01-06 23:00:00+00:00	1
1991-01-31 00:00:00+00:00	4
1991-02-28 00:00:00+00:00	1
1991-04-30 00:00:00+00:00	1
1991-05-11 00:00:00+00:00	2
1991-06-28 00:00:00+00:00	2
1991-08-30 00:00:00+00:00	2
1991-09-30 00:00:00+00:00	2
1991-11-29 00:00:00+00:00	1
1991-12-31 00:00:00+00:00	1
1992-01-01 00:00:00+00:00	22
1992-01-31 00:00:00+00:00	1
1992-02-01 00:00:00+00:00	1
1992-02-28 00:00:00+00:00	1
1992-04-30 00:00:00+00:00	1
1992-05-29 00:00:00+00:00	2
1992-07-31 00:00:00+00:00	1
1992-08-31 00:00:00+00:00	6
1992-09-30 00:00:00+00:00	1
1992-10-30 00:00:00+00:00	2
1992-11-30 00:00:00+00:00	1
1992-12-31 00:00:00+00:00	1
1993-01-01 00:00:00+00:00	21
1993-01-22 00:00:00+00:00	1
1993-02-26 00:00:00+00:00	1
1993-04-30 00:00:00+00:00	2
1993-06-30 00:00:00+00:00	3
1993-07-30 00:00:00+00:00	1
1993-09-19 00:00:00+00:00	1
1993-09-30 00:00:00+00:00	5
1994-01-01 00:00:00+00:00	14
1994-01-31 00:00:00+00:00	1
1994-03-31 00:00:00+00:00	1
1994-05-22 00:00:00+00:00	1
1994-06-30 00:00:00+00:00	2
1994-08-31 00:00:00+00:00	2
1994-10-31 00:00:00+00:00	2
1994-12-30 00:00:00+00:00	3
1995-01-01 00:00:00+00:00	18
1995-03-31 00:00:00+00:00	1
1995-05-26 00:00:00+00:00	1
1995-07-31 00:00:00+00:00	1
1995-12-31 23:00:00+00:00	1
1996-01-01 00:00:00+00:00	42
1996-01-16 00:00:00+00:00	1
1996-01-31 00:00:00+00:00	1
1996-05-20 00:00:00+00:00	1
1996-06-01 00:00:00+00:00	1
1996-08-30 00:00:00+00:00	3
1996-10-31 00:00:00+00:00	1
1996-11-29 00:00:00+00:00	1
1996-12-31 00:00:00+00:00	1
1997-01-01 00:00:00+00:00	27
1997-03-01 00:00:00+00:00	1
1997-04-30 00:00:00+00:00	1
1997-06-25 00:00:00+00:00	1
1997-06-30 00:00:00+00:00	1
1997-11-28 00:00:00+00:00	1
1998-01-01 00:00:00+00:00	23
1998-01-31 00:00:00+00:00	1
1998-05-29 00:00:00+00:00	1
1998-08-03 00:00:00+00:00	1
1998-09-30 00:00:00+00:00	1
1998-10-01 00:00:00+00:00	1
1998-11-30 00:00:00+00:00	1
1999-01-01 00:00:00+00:00	33
1999-01-07 00:00:00+00:00	1
1999-01-21 00:00:00+00:00	1
1999-01-29 00:00:00+00:00	2
1999-02-26 00:00:00+00:00	1
1999-05-31 00:00:00+00:00	1
1999-07-30 00:00:00+00:00	1
1999-08-13 00:00:00+00:00	1
1999-09-30 00:00:00+00:00	1
1999-11-30 00:00:00+00:00	1
1999-12-31 23:00:00+00:00	2
2000-01-01 00:00:00+00:00	27
2000-04-28 00:00:00+00:00	2
2000-05-31 00:00:00+00:00	3
2000-07-31 00:00:00+00:00	1
2000-08-01 00:00:00+00:00	1
2000-09-29 00:00:00+00:00	2
2000-10-10 00:00:00+00:00	1
2000-10-31 00:00:00+00:00	1
2000-12-31 23:00:00+00:00	2
2001-01-01 00:00:00+00:00	27
2001-02-28 00:00:00+00:00	1
2001-08-24 00:00:00+00:00	1
2001-09-28 00:00:00+00:00	1
2001-11-30 00:00:00+00:00	3
2001-12-31 23:00:00+00:00	3
2002-01-01 00:00:00+00:00	30
2002-02-28 00:00:00+00:00	1
2002-03-15 00:00:00+00:00	1
2002-06-06 00:00:00+00:00	2
2002-06-30 00:00:00+00:00	1
2002-07-31 00:00:00+00:00	3
2002-12-31 23:00:00+00:00	1
2003-01-01 00:00:00+00:00	43
2003-01-31 00:00:00+00:00	1
2003-02-14 00:00:00+00:00	1
2003-05-17 00:00:00+00:00	1
2003-05-30 00:00:00+00:00	2
2003-06-01 00:00:00+00:00	1
2003-07-31 00:00:00+00:00	1
2003-08-29 00:00:00+00:00	1
2003-10-31 00:00:00+00:00	1
