1954-01-01 00:00:00+00:00	2
1955-01-01 00:00:00+00:00	1
1961-01-04 00:00:00+00:00	1
1964-05-17 00:00:00+00:00	1
1966-01-01 00:00:00+00:00	1
1967-01-01 00:00:00+00:00	4
1972-01-01 00:00:00+00:00	2
1972-03-19 00:00:00+00:00	1
1973-01-01 00:00:00+00:00	5
1973-03-18 00:00:00+00:00	1
1973-10-13 00:00:00+00:00	1
1974-01-01 00:00:00+00:00	3
1975-01-01 00:00:00+00:00	1
1976-01-01 00:00:00+00:00	1
1977-01-01 00:00:00+00:00	5
1977-10-06 00:00:00+00:00	1
1978-01-01 00:00:00+00:00	2
1979-01-01 00:00:00+00:00	1
1980-01-01 00:00:00+00:00	2
1982-01-01 00:00:00+00:00	7
1984-01-01 00:00:00+00:00	1
1985-01-01 00:00:00+00:00	4
1986-01-01 00:00:00+00:00	1
1987-01-01 00:00:00+00:00	1
1987-09-09 00:00:00+00:00	1
1988-01-01 00:00:00+00:00	1
1990-01-01 00:00:00+00:00	2
1993-01-01 00:00:00+00:00	1
1994-01-01 00:00:00+00:00	7
1995-01-01 00:00:00+00:00	3
1998-01-01 00:00:00+00:00	2
1999-01-01 00:00:00+00:00	2
2001-01-01 00:00:00+00:00	1
