1969-01-01 00:00:00+00:00	3
1989-01-01 00:00:00+00:00	1
1993-09-01 00:00:00+00:00	1
1994-01-01 00:00:00+00:00	52
1994-09-06 00:00:00+00:00	1
1994-09-09 00:00:00+00:00	2
1994-09-23 00:00:00+00:00	1
1994-09-25 00:00:00+00:00	2
1994-09-27 00:00:00+00:00	1
1994-10-01 00:00:00+00:00	1
1994-10-09 00:00:00+00:00	2
1994-10-23 00:00:00+00:00	2
1994-10-25 00:00:00+00:00	1
1994-11-06 00:00:00+00:00	2
1994-11-17 00:00:00+00:00	2
1994-11-20 00:00:00+00:00	2
1994-11-22 00:00:00+00:00	1
1994-11-29 00:00:00+00:00	1
1994-12-01 00:00:00+00:00	1
1994-12-04 00:00:00+00:00	2
1994-12-06 00:00:00+00:00	1
1994-12-13 00:00:00+00:00	1
1994-12-18 00:00:00+00:00	2
1994-12-20 00:00:00+00:00	1
1994-12-27 00:00:00+00:00	1
1995-01-01 00:00:00+00:00	187
1995-01-06 00:00:00+00:00	2
1995-01-12 00:00:00+00:00	2
1995-01-13 00:00:00+00:00	2
1995-01-17 00:00:00+00:00	1
1995-01-20 00:00:00+00:00	2
1995-01-24 00:00:00+00:00	1
1995-01-26 00:00:00+00:00	2
1995-01-27 00:00:00+00:00	2
1995-01-29 00:00:00+00:00	2
1995-01-31 00:00:00+00:00	1
1995-02-01 00:00:00+00:00	1
1995-02-03 00:00:00+00:00	2
1995-02-07 00:00:00+00:00	1
1995-02-09 00:00:00+00:00	2
1995-02-10 00:00:00+00:00	2
1995-02-12 00:00:00+00:00	2
1995-02-14 00:00:00+00:00	1
1995-02-17 00:00:00+00:00	1
1995-02-21 00:00:00+00:00	1
1995-02-24 00:00:00+00:00	1
1995-02-26 00:00:00+00:00	2
1995-03-03 00:00:00+00:00	2
1995-03-09 00:00:00+00:00	2
1995-03-10 00:00:00+00:00	2
1995-03-12 00:00:00+00:00	2
1995-03-17 00:00:00+00:00	2
1995-03-23 00:00:00+00:00	2
1995-03-24 00:00:00+00:00	2
1995-04-01 00:00:00+00:00	2
1995-04-06 00:00:00+00:00	2
1995-04-07 00:00:00+00:00	2
1995-04-09 00:00:00+00:00	2
1995-04-14 00:00:00+00:00	1
1995-04-20 00:00:00+00:00	2
1995-04-21 00:00:00+00:00	2
1995-05-01 00:00:00+00:00	1
1995-05-04 00:00:00+00:00	2
1995-05-05 00:00:00+00:00	1
1995-05-12 00:00:00+00:00	2
1995-05-16 00:00:00+00:00	1
1995-05-19 00:00:00+00:00	2
1995-05-21 00:00:00+00:00	1
1995-05-23 00:00:00+00:00	1
1995-05-24 00:00:00+00:00	1
1995-05-26 00:00:00+00:00	2
1995-05-31 00:00:00+00:00	1
1995-06-02 00:00:00+00:00	2
1995-06-09 00:00:00+00:00	2
1995-06-13 00:00:00+00:00	1
1995-06-16 00:00:00+00:00	2
1995-06-23 00:00:00+00:00	3
1995-06-27 00:00:00+00:00	1
1995-06-29 00:00:00+00:00	2
1995-06-30 00:00:00+00:00	2
1995-07-07 00:00:00+00:00	2
1995-07-13 00:00:00+00:00	2
1995-07-14 00:00:00+00:00	2
1995-07-16 00:00:00+00:00	1
1995-07-21 00:00:00+00:00	2
1995-07-27 00:00:00+00:00	1
1995-07-28 00:00:00+00:00	2
1995-08-01 00:00:00+00:00	1
1995-08-04 00:00:00+00:00	2
1995-08-18 00:00:00+00:00	1
1995-08-25 00:00:00+00:00	1
1995-08-29 00:00:00+00:00	1
1995-09-08 00:00:00+00:00	2
1995-09-15 00:00:00+00:00	2
1995-09-19 00:00:00+00:00	1
1995-09-21 00:00:00+00:00	2
1995-09-22 00:00:00+00:00	2
1995-09-26 00:00:00+00:00	1
1995-09-29 00:00:00+00:00	1
1995-10-03 00:00:00+00:00	2
1995-10-05 00:00:00+00:00	3
1995-10-10 00:00:00+00:00	1
1995-10-13 00:00:00+00:00	2
1995-10-17 00:00:00+00:00	1
1995-10-19 00:00:00+00:00	1
1995-10-20 00:00:00+00:00	2
1995-10-22 00:00:00+00:00	2
1995-10-24 00:00:00+00:00	1
1995-10-27 00:00:00+00:00	2
1995-10-31 00:00:00+00:00	2
1995-11-02 00:00:00+00:00	2
1995-11-05 00:00:00+00:00	2
1995-11-07 00:00:00+00:00	2
1995-11-10 00:00:00+00:00	2
1995-11-14 00:00:00+00:00	2
1995-11-16 00:00:00+00:00	1
1995-11-17 00:00:00+00:00	2
1995-11-19 00:00:00+00:00	1
1995-11-21 00:00:00+00:00	1
1995-11-24 00:00:00+00:00	2
1995-11-28 00:00:00+00:00	1
1995-11-30 00:00:00+00:00	1
1995-12-01 00:00:00+00:00	2
1995-12-03 00:00:00+00:00	2
1995-12-05 00:00:00+00:00	1
1995-12-08 00:00:00+00:00	2
1995-12-12 00:00:00+00:00	1
1995-12-15 00:00:00+00:00	2
1995-12-27 00:00:00+00:00	1
1995-12-28 00:00:00+00:00	2
1996-01-01 00:00:00+00:00	124
1996-01-02 00:00:00+00:00	1
1996-01-03 00:00:00+00:00	1
1996-01-05 00:00:00+00:00	2
1996-01-12 00:00:00+00:00	2
1996-01-17 00:00:00+00:00	1
1996-01-19 00:00:00+00:00	2
1996-01-26 00:00:00+00:00	2
1996-02-02 00:00:00+00:00	1
1996-02-07 00:00:00+00:00	1
1996-02-09 00:00:00+00:00	2
1996-02-14 00:00:00+00:00	1
1996-02-16 00:00:00+00:00	2
1996-02-21 00:00:00+00:00	1
1996-02-23 00:00:00+00:00	2
1996-02-28 00:00:00+00:00	2
1996-03-01 00:00:00+00:00	2
1996-03-08 00:00:00+00:00	2
1996-03-15 00:00:00+00:00	2
1996-03-20 00:00:00+00:00	1
1996-03-22 00:00:00+00:00	2
1996-03-27 00:00:00+00:00	1
1996-03-29 00:00:00+00:00	2
1996-04-05 00:00:00+00:00	1
1996-04-12 00:00:00+00:00	2
1996-04-17 00:00:00+00:00	1
1996-04-19 00:00:00+00:00	2
1996-04-24 00:00:00+00:00	1
1996-04-26 00:00:00+00:00	1
1996-05-03 00:00:00+00:00	2
1996-05-08 00:00:00+00:00	2
1996-05-10 00:00:00+00:00	2
1996-05-15 00:00:00+00:00	1
1996-05-17 00:00:00+00:00	2
1996-05-22 00:00:00+00:00	1
1996-05-24 00:00:00+00:00	2
1996-05-28 00:00:00+00:00	1
1996-05-29 00:00:00+00:00	2
1996-06-01 00:00:00+00:00	2
1996-06-07 00:00:00+00:00	2
1996-06-12 00:00:00+00:00	1
1996-06-14 00:00:00+00:00	2
1996-06-15 00:00:00+00:00	1
1996-06-19 00:00:00+00:00	1
1996-06-21 00:00:00+00:00	2
1996-09-04 00:00:00+00:00	1
1996-12-10 00:00:00+00:00	1
1997-01-01 00:00:00+00:00	94
1997-04-10 00:00:00+00:00	1
1997-04-23 00:00:00+00:00	1
1997-07-31 00:00:00+00:00	1
1997-09-29 00:00:00+00:00	1
1997-09-30 00:00:00+00:00	1
1997-10-01 00:00:00+00:00	1
1998-01-01 00:00:00+00:00	13
1998-02-18 00:00:00+00:00	2
1998-04-09 00:00:00+00:00	1
1998-05-20 00:00:00+00:00	1
1998-06-30 00:00:00+00:00	1
1998-08-01 00:00:00+00:00	1
1998-10-01 00:00:00+00:00	1
1998-10-05 00:00:00+00:00	1
1998-11-24 00:00:00+00:00	1
1999-01-01 00:00:00+00:00	17
1999-01-22 00:00:00+00:00	1
1999-02-01 00:00:00+00:00	1
1999-03-19 00:00:00+00:00	1
1999-10-01 00:00:00+00:00	1
1999-11-04 00:00:00+00:00	1
2000-01-01 00:00:00+00:00	50
2000-02-15 00:00:00+00:00	1
2000-02-17 00:00:00+00:00	1
2000-04-01 00:00:00+00:00	2
2000-07-31 00:00:00+00:00	1
2000-09-20 00:00:00+00:00	1
2001-01-01 00:00:00+00:00	70
2001-03-01 00:00:00+00:00	1
2001-03-29 00:00:00+00:00	1
2001-05-14 00:00:00+00:00	1
2001-05-16 00:00:00+00:00	1
2001-07-01 00:00:00+00:00	1
2001-09-01 00:00:00+00:00	3
2002-01-01 00:00:00+00:00	208
2002-03-01 00:00:00+00:00	2
2002-03-05 00:00:00+00:00	1
2002-04-01 00:00:00+00:00	1
2002-04-12 00:00:00+00:00	1
2002-04-18 00:00:00+00:00	3
2002-04-23 00:00:00+00:00	1
2002-05-01 00:00:00+00:00	2
2002-05-10 00:00:00+00:00	1
2002-05-13 00:00:00+00:00	1
2002-05-14 00:00:00+00:00	1
2002-06-07 00:00:00+00:00	3
2002-07-17 00:00:00+00:00	1
2002-07-27 00:00:00+00:00	1
2002-08-16 00:00:00+00:00	1
2002-09-01 00:00:00+00:00	1
2002-09-07 00:00:00+00:00	1
2002-12-11 00:00:00+00:00	1
2003-01-01 00:00:00+00:00	78
2003-01-31 00:00:00+00:00	1
2003-02-28 00:00:00+00:00	1
2003-03-01 00:00:00+00:00	1
2003-03-31 00:00:00+00:00	1
2003-04-05 00:00:00+00:00	1
2003-04-18 00:00:00+00:00	1
2003-05-16 00:00:00+00:00	1
2003-05-24 00:00:00+00:00	1
2003-06-04 00:00:00+00:00	1
2003-07-28 00:00:00+00:00	1
2003-08-23 00:00:00+00:00	2
