1967-08-25 00:00:00+00:00	1
1968-01-01 00:00:00+00:00	1
1969-06-25 00:00:00+00:00	2
1973-01-01 00:00:00+00:00	1
1974-01-01 00:00:00+00:00	1
1974-04-30 00:00:00+00:00	1
1974-06-29 00:00:00+00:00	1
1975-10-31 00:00:00+00:00	1
1975-12-31 00:00:00+00:00	1
1976-01-01 00:00:00+00:00	2
1976-06-15 00:00:00+00:00	1
1976-10-30 00:00:00+00:00	1
1977-01-01 00:00:00+00:00	1
1978-01-31 00:00:00+00:00	1
1979-01-12 00:00:00+00:00	1
1979-10-31 00:00:00+00:00	2
1980-01-01 00:00:00+00:00	3
1982-01-01 00:00:00+00:00	1
1983-01-01 00:00:00+00:00	1
1984-01-01 00:00:00+00:00	2
1984-01-31 00:00:00+00:00	3
1984-03-31 00:00:00+00:00	2
1987-01-01 00:00:00+00:00	1
1987-08-31 00:00:00+00:00	1
1989-10-31 00:00:00+00:00	1
1991-01-01 00:00:00+00:00	1
1991-08-30 00:00:00+00:00	1
1991-10-31 00:00:00+00:00	4
1992-01-01 00:00:00+00:00	4
1993-01-01 00:00:00+00:00	2
1994-03-31 00:00:00+00:00	1
1994-06-30 00:00:00+00:00	2
1994-08-31 00:00:00+00:00	1
1995-01-01 00:00:00+00:00	1
1996-01-01 00:00:00+00:00	5
1996-12-20 00:00:00+00:00	2
1997-01-01 00:00:00+00:00	8
1997-11-28 00:00:00+00:00	1
1998-01-01 00:00:00+00:00	1
1998-06-01 00:00:00+00:00	1
1998-08-03 00:00:00+00:00	1
1999-01-01 00:00:00+00:00	1
1999-02-16 00:00:00+00:00	1
1999-06-09 00:00:00+00:00	1
2000-03-31 00:00:00+00:00	5
2001-08-31 00:00:00+00:00	5
2002-01-01 00:00:00+00:00	2
2002-11-29 00:00:00+00:00	1
2003-01-01 00:00:00+00:00	2
2003-05-30 00:00:00+00:00	9
2003-10-31 00:00:00+00:00	1
