1887-01-01 00:00:00+00:00	1
1891-03-14 00:00:00+00:00	1
1893-04-28 00:00:00+00:00	1
1895-01-01 00:00:00+00:00	2
1896-01-01 00:00:00+00:00	2
1897-01-01 00:00:00+00:00	2
1898-01-01 00:00:00+00:00	1
1898-06-25 00:00:00+00:00	1
1899-01-01 00:00:00+00:00	2
1900-01-01 00:00:00+00:00	14
1901-01-01 00:00:00+00:00	5
1901-05-04 00:00:00+00:00	1
1901-07-27 00:00:00+00:00	3
1901-12-21 00:00:00+00:00	2
1902-01-01 00:00:00+00:00	2
1902-11-04 00:00:00+00:00	1
1903-01-01 00:00:00+00:00	1
1903-06-27 00:00:00+00:00	1
1903-07-04 00:00:00+00:00	1
1903-08-05 00:00:00+00:00	1
1903-12-15 00:00:00+00:00	1
1904-01-01 00:00:00+00:00	8
1904-11-19 00:00:00+00:00	1
1904-11-26 00:00:00+00:00	1
1905-02-26 00:00:00+00:00	1
1905-03-08 00:00:00+00:00	1
1905-03-27 00:00:00+00:00	1
1905-04-12 00:00:00+00:00	1
1905-07-04 00:00:00+00:00	1
1905-07-13 00:00:00+00:00	1
1905-08-02 00:00:00+00:00	1
1907-01-01 00:00:00+00:00	1
1908-01-01 00:00:00+00:00	4
1908-10-24 00:00:00+00:00	1
1908-12-29 00:00:00+00:00	1
1909-01-01 00:00:00+00:00	1
1909-07-17 00:00:00+00:00	1
1909-11-19 00:00:00+00:00	1
1910-01-01 00:00:00+00:00	1
1911-01-01 00:00:00+00:00	1
1911-05-19 00:00:00+00:00	1
1911-07-01 00:00:00+00:00	2
1912-12-28 00:00:00+00:00	1
1913-01-01 00:00:00+00:00	4
1913-11-08 00:00:00+00:00	1
1914-01-01 00:00:00+00:00	5
1914-02-14 00:00:00+00:00	1
1920-01-01 00:00:00+00:00	1
1921-01-01 00:00:00+00:00	1
1922-01-01 00:00:00+00:00	6
1922-10-01 00:00:00+00:00	1
1923-05-01 00:00:00+00:00	1
1923-05-04 00:00:00+00:00	1
1923-06-01 00:00:00+00:00	1
1923-07-01 00:00:00+00:00	1
1924-01-01 00:00:00+00:00	4
1924-03-22 00:00:00+00:00	1
1924-03-23 00:00:00+00:00	1
1924-03-28 00:00:00+00:00	1
1924-04-03 00:00:00+00:00	1
1924-05-17 00:00:00+00:00	2
1924-05-24 00:00:00+00:00	2
1924-06-17 00:00:00+00:00	1
1924-10-25 00:00:00+00:00	1
1924-10-26 00:00:00+00:00	1
1924-11-05 00:00:00+00:00	1
1924-11-09 00:00:00+00:00	1
1924-11-23 00:00:00+00:00	1
1925-01-01 00:00:00+00:00	8
1925-01-06 00:00:00+00:00	1
1925-03-01 00:00:00+00:00	1
1925-04-10 00:00:00+00:00	1
1925-05-15 00:00:00+00:00	2
1926-06-03 00:00:00+00:00	1
1927-01-01 00:00:00+00:00	7
1927-05-27 00:00:00+00:00	1
1927-07-15 00:00:00+00:00	1
1927-07-27 00:00:00+00:00	1
1928-01-01 00:00:00+00:00	2
1928-06-06 00:00:00+00:00	1
1928-06-15 00:00:00+00:00	1
1928-08-01 00:00:00+00:00	1
1928-10-24 00:00:00+00:00	1
1928-11-01 00:00:00+00:00	1
1929-01-01 00:00:00+00:00	1
1929-01-12 00:00:00+00:00	1
1930-01-01 00:00:00+00:00	5
1930-01-19 00:00:00+00:00	1
1930-02-18 00:00:00+00:00	1
1930-10-05 00:00:00+00:00	1
1931-04-11 00:00:00+00:00	1
1931-06-22 00:00:00+00:00	1
1931-07-05 00:00:00+00:00	1
1932-01-01 00:00:00+00:00	10
1932-05-15 00:00:00+00:00	1
1933-01-01 00:00:00+00:00	1
1933-10-29 00:00:00+00:00	2
1934-01-01 00:00:00+00:00	5
1934-04-22 00:00:00+00:00	1
1934-09-05 00:00:00+00:00	1
1934-09-06 00:00:00+00:00	1
1934-09-07 00:00:00+00:00	1
1934-09-19 00:00:00+00:00	1
1935-01-01 00:00:00+00:00	2
1935-09-22 00:00:00+00:00	1
1936-01-01 00:00:00+00:00	2
1936-06-14 00:00:00+00:00	1
1936-11-21 00:00:00+00:00	1
1937-01-01 00:00:00+00:00	2
1937-03-01 00:00:00+00:00	1
1937-03-15 00:00:00+00:00	2
1937-12-05 00:00:00+00:00	1
1938-01-01 00:00:00+00:00	2
1938-03-01 00:00:00+00:00	2
1938-03-06 00:00:00+00:00	1
1938-06-12 00:00:00+00:00	1
1938-12-18 00:00:00+00:00	2
1938-12-27 00:00:00+00:00	1
1939-01-01 00:00:00+00:00	1
1939-12-19 00:00:00+00:00	1
1945-10-20 00:00:00+00:00	1
1946-01-01 00:00:00+00:00	1
1947-01-01 00:00:00+00:00	3
1947-03-18 00:00:00+00:00	1
1955-11-15 00:00:00+00:00	1
1958-01-01 00:00:00+00:00	1
1961-08-27 00:00:00+00:00	1
1963-01-01 00:00:00+00:00	1
1965-01-01 00:00:00+00:00	1
1966-01-01 00:00:00+00:00	1
1967-01-01 00:00:00+00:00	1
1971-01-01 00:00:00+00:00	1
1972-06-25 00:00:00+00:00	1
1974-05-22 00:00:00+00:00	1
1976-01-01 00:00:00+00:00	1
1977-01-01 00:00:00+00:00	1
1980-01-01 00:00:00+00:00	1
1984-01-01 00:00:00+00:00	1
1991-01-01 00:00:00+00:00	2
1992-01-01 00:00:00+00:00	1
1993-01-01 00:00:00+00:00	1
1994-01-01 00:00:00+00:00	5
1996-01-01 00:00:00+00:00	8
1998-01-01 00:00:00+00:00	1
1999-01-01 00:00:00+00:00	6
2000-01-01 00:00:00+00:00	1
2001-01-01 00:00:00+00:00	7
2002-01-01 00:00:00+00:00	1
2002-07-02 00:00:00+00:00	1
2003-01-01 00:00:00+00:00	1
2003-02-28 00:00:00+00:00	1
2003-03-01 00:00:00+00:00	1
