1824-01-01 00:00:00+00:00	1
1824-03-03 00:00:00+00:00	1
1825-01-01 00:00:00+00:00	1
1827-01-01 00:00:00+00:00	1
1829-01-01 00:00:00+00:00	4
1829-12-04 00:00:00+00:00	1
1830-08-25 00:00:00+00:00	1
1831-01-01 00:00:00+00:00	3
1836-01-01 00:00:00+00:00	3
1837-01-01 00:00:00+00:00	4
1838-01-01 00:00:00+00:00	1
1839-01-01 00:00:00+00:00	2
1840-01-01 00:00:00+00:00	4
1841-01-01 00:00:00+00:00	2
1841-08-09 00:00:00+00:00	1
1843-01-01 00:00:00+00:00	2
1844-01-01 00:00:00+00:00	3
1845-01-01 00:00:00+00:00	33
1847-01-01 00:00:00+00:00	3
1848-01-01 00:00:00+00:00	3
1849-01-01 00:00:00+00:00	1
1849-01-20 00:00:00+00:00	1
1849-01-23 00:00:00+00:00	1
1849-11-09 00:00:00+00:00	1
1850-01-01 00:00:00+00:00	1
1851-01-01 00:00:00+00:00	4
1851-05-02 00:00:00+00:00	1
1852-01-01 00:00:00+00:00	2
1852-02-11 00:00:00+00:00	1
1852-10-19 00:00:00+00:00	1
1853-01-01 00:00:00+00:00	3
1853-07-01 00:00:00+00:00	1
1854-01-01 00:00:00+00:00	11
1857-01-01 00:00:00+00:00	2
1858-01-01 00:00:00+00:00	4
1859-01-01 00:00:00+00:00	3
1860-01-01 00:00:00+00:00	12
1860-12-19 00:00:00+00:00	1
1862-01-01 00:00:00+00:00	9
1864-01-01 00:00:00+00:00	8
1864-09-30 00:00:00+00:00	1
1865-01-01 00:00:00+00:00	1
1866-01-01 00:00:00+00:00	1
1866-03-31 00:00:00+00:00	1
1867-01-01 00:00:00+00:00	3
1867-05-25 00:00:00+00:00	1
1867-07-24 00:00:00+00:00	1
1868-01-01 00:00:00+00:00	1
1870-01-01 00:00:00+00:00	2
1870-04-24 00:00:00+00:00	1
1870-11-23 00:00:00+00:00	1
1871-09-20 00:00:00+00:00	1
1872-01-01 00:00:00+00:00	1
1872-03-05 00:00:00+00:00	1
1872-06-08 00:00:00+00:00	1
1872-06-11 00:00:00+00:00	1
1872-08-07 00:00:00+00:00	1
1873-01-01 00:00:00+00:00	1
1873-03-29 00:00:00+00:00	1
1873-08-30 00:00:00+00:00	1
1874-01-01 00:00:00+00:00	4
1874-03-03 00:00:00+00:00	1
1874-04-28 00:00:00+00:00	1
1874-11-03 00:00:00+00:00	1
1875-01-01 00:00:00+00:00	3
1876-04-09 00:00:00+00:00	1
1877-01-01 00:00:00+00:00	2
1877-06-25 00:00:00+00:00	1
1877-09-28 00:00:00+00:00	1
1878-01-01 00:00:00+00:00	3
1878-01-18 00:00:00+00:00	1
1878-04-20 00:00:00+00:00	1
1878-05-04 00:00:00+00:00	1
1878-05-13 00:00:00+00:00	1
1879-04-16 00:00:00+00:00	1
1879-05-10 00:00:00+00:00	1
1880-01-01 00:00:00+00:00	5
1880-04-24 00:00:00+00:00	1
1880-08-26 00:00:00+00:00	1
1881-01-01 00:00:00+00:00	3
1881-02-04 00:00:00+00:00	1
1881-06-08 00:00:00+00:00	1
1881-06-11 00:00:00+00:00	1
1882-01-01 00:00:00+00:00	4
1882-04-23 00:00:00+00:00	1
1882-06-03 00:00:00+00:00	1
1882-06-28 00:00:00+00:00	1
1882-07-13 00:00:00+00:00	1
1883-01-01 00:00:00+00:00	1
1883-03-09 00:00:00+00:00	1
1883-06-27 00:00:00+00:00	1
1883-11-11 00:00:00+00:00	1
1884-01-01 00:00:00+00:00	1
1884-11-28 00:00:00+00:00	1
1885-01-01 00:00:00+00:00	11
1885-03-22 00:00:00+00:00	1
1885-09-29 00:00:00+00:00	1
1886-01-01 00:00:00+00:00	1
1886-03-14 00:00:00+00:00	1
1886-12-02 00:00:00+00:00	1
1887-01-01 00:00:00+00:00	2
1887-08-09 00:00:00+00:00	1
1888-01-01 00:00:00+00:00	3
1888-10-09 00:00:00+00:00	1
1889-01-01 00:00:00+00:00	3
1889-06-09 00:00:00+00:00	1
1889-10-23 00:00:00+00:00	1
1889-12-21 00:00:00+00:00	1
1890-01-01 00:00:00+00:00	10
1890-05-01 00:00:00+00:00	1
1890-08-24 00:00:00+00:00	1
1891-01-01 00:00:00+00:00	1
1891-01-14 00:00:00+00:00	1
1891-04-23 00:00:00+00:00	1
1891-05-01 00:00:00+00:00	1
1891-05-22 00:00:00+00:00	1
1891-08-30 00:00:00+00:00	1
1891-11-05 00:00:00+00:00	1
1892-01-01 00:00:00+00:00	3
1892-01-17 00:00:00+00:00	1
1892-01-22 00:00:00+00:00	1
1892-02-12 00:00:00+00:00	1
1892-10-18 00:00:00+00:00	1
1892-11-03 00:00:00+00:00	1
1892-11-06 00:00:00+00:00	1
1893-01-01 00:00:00+00:00	2
1894-01-01 00:00:00+00:00	8
1895-01-01 00:00:00+00:00	3
1895-03-08 00:00:00+00:00	1
1895-03-24 00:00:00+00:00	1
1895-06-08 00:00:00+00:00	1
1895-10-29 00:00:00+00:00	1
1896-01-01 00:00:00+00:00	6
1896-03-12 00:00:00+00:00	1
1896-10-16 00:00:00+00:00	1
1896-12-09 00:00:00+00:00	1
1897-01-01 00:00:00+00:00	3
1897-09-15 00:00:00+00:00	1
1897-12-23 00:00:00+00:00	1
1898-01-01 00:00:00+00:00	5
1898-03-11 00:00:00+00:00	1
1898-03-18 00:00:00+00:00	1
1898-04-22 00:00:00+00:00	1
1898-06-17 00:00:00+00:00	1
1898-10-04 00:00:00+00:00	1
1898-11-15 00:00:00+00:00	1
1899-01-01 00:00:00+00:00	2
1899-06-12 00:00:00+00:00	1
1900-01-01 00:00:00+00:00	5
1900-03-21 00:00:00+00:00	1
1900-11-16 00:00:00+00:00	1
1900-12-21 00:00:00+00:00	1
1900-12-29 00:00:00+00:00	1
1901-01-01 00:00:00+00:00	8
1901-04-06 00:00:00+00:00	1
1901-07-10 00:00:00+00:00	1
1902-01-01 00:00:00+00:00	3
1902-03-16 00:00:00+00:00	1
1902-10-16 00:00:00+00:00	1
1902-11-15 00:00:00+00:00	1
1903-01-01 00:00:00+00:00	3
1903-01-23 00:00:00+00:00	1
1903-01-31 00:00:00+00:00	1
1903-04-01 00:00:00+00:00	1
1903-04-19 00:00:00+00:00	1
1903-06-10 00:00:00+00:00	1
1903-10-24 00:00:00+00:00	1
1904-01-01 00:00:00+00:00	5
1904-04-13 00:00:00+00:00	1
1904-09-02 00:00:00+00:00	1
1904-10-14 00:00:00+00:00	1
1904-11-23 00:00:00+00:00	1
1905-01-01 00:00:00+00:00	5
1905-01-27 00:00:00+00:00	1
1905-03-24 00:00:00+00:00	1
1905-04-18 00:00:00+00:00	1
1905-04-26 00:00:00+00:00	1
1905-06-22 00:00:00+00:00	1
1905-07-28 00:00:00+00:00	1
1905-09-02 00:00:00+00:00	1
1905-10-14 00:00:00+00:00	1
1905-12-04 00:00:00+00:00	1
1905-12-08 00:00:00+00:00	1
1906-01-01 00:00:00+00:00	7
1906-01-20 00:00:00+00:00	1
1906-02-08 00:00:00+00:00	1
1906-09-18 00:00:00+00:00	1
1906-10-01 00:00:00+00:00	1
1907-01-01 00:00:00+00:00	5
1907-06-29 00:00:00+00:00	1
1907-08-16 00:00:00+00:00	1
1908-01-01 00:00:00+00:00	22
1908-01-09 00:00:00+00:00	1
1908-08-29 00:00:00+00:00	1
1908-10-25 00:00:00+00:00	1
1908-10-31 00:00:00+00:00	1
1908-11-28 00:00:00+00:00	1
1909-01-01 00:00:00+00:00	2
1909-03-14 00:00:00+00:00	1
1909-05-15 00:00:00+00:00	1
1909-05-20 00:00:00+00:00	1
1910-01-01 00:00:00+00:00	5
1910-01-11 00:00:00+00:00	1
1910-04-01 00:00:00+00:00	2
1910-04-21 00:00:00+00:00	1
1910-07-16 00:00:00+00:00	1
1910-09-23 00:00:00+00:00	1
1911-01-01 00:00:00+00:00	2
1911-08-14 00:00:00+00:00	1
1912-01-01 00:00:00+00:00	11
1912-07-02 00:00:00+00:00	1
1912-07-18 00:00:00+00:00	1
1912-10-23 00:00:00+00:00	1
1912-10-27 00:00:00+00:00	1
1912-12-13 00:00:00+00:00	1
1913-01-01 00:00:00+00:00	6
1913-01-31 00:00:00+00:00	1
1913-09-28 00:00:00+00:00	1
1913-10-10 00:00:00+00:00	1
1913-11-13 00:00:00+00:00	1
1914-01-01 00:00:00+00:00	1
1914-04-11 00:00:00+00:00	1
1914-05-20 00:00:00+00:00	1
1914-05-24 00:00:00+00:00	1
1914-07-25 00:00:00+00:00	1
1914-07-30 00:00:00+00:00	1
1914-12-25 00:00:00+00:00	1
1915-01-01 00:00:00+00:00	4
1915-02-14 00:00:00+00:00	1
1915-02-28 00:00:00+00:00	1
1915-03-27 00:00:00+00:00	1
1915-03-30 00:00:00+00:00	1
1915-04-20 00:00:00+00:00	1
1915-06-17 00:00:00+00:00	1
1915-07-02 00:00:00+00:00	1
1915-09-21 00:00:00+00:00	1
1915-10-07 00:00:00+00:00	1
1915-11-12 00:00:00+00:00	1
1915-11-23 00:00:00+00:00	1
1916-01-01 00:00:00+00:00	1
1916-02-05 00:00:00+00:00	1
1916-06-22 00:00:00+00:00	1
1916-06-30 00:00:00+00:00	1
1916-09-13 00:00:00+00:00	1
1916-09-20 00:00:00+00:00	1
1916-11-08 00:00:00+00:00	1
1917-01-01 00:00:00+00:00	2
1917-02-13 00:00:00+00:00	1
1917-02-24 00:00:00+00:00	1
1917-04-04 00:00:00+00:00	2
1917-04-15 00:00:00+00:00	1
1917-05-15 00:00:00+00:00	1
1917-05-27 00:00:00+00:00	1
1917-06-05 00:00:00+00:00	1
1917-06-21 00:00:00+00:00	1
1917-06-29 00:00:00+00:00	1
1917-07-19 00:00:00+00:00	1
1917-09-18 00:00:00+00:00	1
1917-10-15 00:00:00+00:00	1
1917-10-18 00:00:00+00:00	1
1917-10-23 00:00:00+00:00	1
1917-10-25 00:00:00+00:00	1
1917-10-31 00:00:00+00:00	1
1917-11-03 00:00:00+00:00	1
1917-11-07 00:00:00+00:00	1
1917-11-14 00:00:00+00:00	1
1917-11-20 00:00:00+00:00	1
1917-12-17 00:00:00+00:00	1
1918-01-01 00:00:00+00:00	19
1918-01-25 00:00:00+00:00	1
1918-01-30 00:00:00+00:00	1
1918-02-03 00:00:00+00:00	1
1918-02-07 00:00:00+00:00	1
1918-02-14 00:00:00+00:00	1
1918-02-22 00:00:00+00:00	1
1918-03-10 00:00:00+00:00	1
1918-03-22 00:00:00+00:00	1
1918-03-24 00:00:00+00:00	1
1918-04-06 00:00:00+00:00	1
1918-04-10 00:00:00+00:00	1
1918-04-27 00:00:00+00:00	1
1918-05-13 00:00:00+00:00	1
1918-05-15 00:00:00+00:00	1
1918-05-25 00:00:00+00:00	1
1918-06-12 00:00:00+00:00	1
1918-07-09 00:00:00+00:00	1
1919-01-01 00:00:00+00:00	4
1919-01-26 00:00:00+00:00	1
1919-06-01 00:00:00+00:00	1
1919-08-01 00:00:00+00:00	2
1919-08-29 00:00:00+00:00	1
1919-11-14 00:00:00+00:00	1
1919-12-15 00:00:00+00:00	1
1920-01-01 00:00:00+00:00	2
1920-06-11 00:00:00+00:00	1
1920-08-20 00:00:00+00:00	1
1921-01-01 00:00:00+00:00	1
1921-06-04 00:00:00+00:00	1
1921-08-17 00:00:00+00:00	1
1921-08-23 00:00:00+00:00	1
1921-10-19 00:00:00+00:00	1
1921-11-27 00:00:00+00:00	1
1921-12-04 00:00:00+00:00	1
1922-01-01 00:00:00+00:00	5
1922-06-06 00:00:00+00:00	1
1922-06-15 00:00:00+00:00	1
1922-08-08 00:00:00+00:00	1
1922-08-17 00:00:00+00:00	1
1922-08-20 00:00:00+00:00	1
1922-08-27 00:00:00+00:00	1
1922-09-12 00:00:00+00:00	1
1922-10-05 00:00:00+00:00	1
1922-12-15 00:00:00+00:00	1
1922-12-24 00:00:00+00:00	1
1923-01-01 00:00:00+00:00	5
1923-02-11 00:00:00+00:00	1
1923-03-14 00:00:00+00:00	1
1923-05-24 00:00:00+00:00	1
1923-06-12 00:00:00+00:00	1
1923-06-23 00:00:00+00:00	1
1923-08-18 00:00:00+00:00	1
1924-01-01 00:00:00+00:00	4
1924-02-23 00:00:00+00:00	1
1924-05-26 00:00:00+00:00	1
1924-09-20 00:00:00+00:00	1
1924-09-28 00:00:00+00:00	1
1924-10-10 00:00:00+00:00	1
1924-10-16 00:00:00+00:00	1
1924-11-10 00:00:00+00:00	1
1924-11-12 00:00:00+00:00	1
1924-11-25 00:00:00+00:00	1
1924-11-27 00:00:00+00:00	2
1924-12-14 00:00:00+00:00	1
1924-12-31 23:00:00+00:00	1
1925-01-01 00:00:00+00:00	3
1925-01-11 00:00:00+00:00	1
1925-02-01 00:00:00+00:00	1
1925-10-25 00:00:00+00:00	1
1925-10-31 00:00:00+00:00	1
1925-11-10 00:00:00+00:00	1
1925-11-29 00:00:00+00:00	1
1925-12-06 00:00:00+00:00	1
1926-01-01 00:00:00+00:00	4
1926-03-28 00:00:00+00:00	1
1926-07-18 00:00:00+00:00	1
1926-09-16 00:00:00+00:00	1
1926-11-17 00:00:00+00:00	1
1926-12-09 00:00:00+00:00	1
1927-01-01 00:00:00+00:00	3
1927-01-27 00:00:00+00:00	1
1927-02-08 00:00:00+00:00	1
1927-03-04 00:00:00+00:00	1
1927-04-01 00:00:00+00:00	1
1927-04-06 00:00:00+00:00	1
1927-05-22 00:00:00+00:00	1
1927-05-31 00:00:00+00:00	1
1927-06-09 00:00:00+00:00	1
1927-07-02 00:00:00+00:00	1
1927-09-21 00:00:00+00:00	1
1927-10-21 00:00:00+00:00	1
1927-10-23 00:00:00+00:00	2
1927-11-25 00:00:00+00:00	1
1927-11-29 00:00:00+00:00	1
1927-12-11 00:00:00+00:00	1
1927-12-12 00:00:00+00:00	1
1928-01-01 00:00:00+00:00	6
1928-01-02 00:00:00+00:00	1
1928-01-08 00:00:00+00:00	1
1928-01-10 00:00:00+00:00	1
1928-01-14 00:00:00+00:00	1
1928-02-17 00:00:00+00:00	1
1928-03-04 00:00:00+00:00	1
1928-03-13 00:00:00+00:00	1
1928-04-21 00:00:00+00:00	1
1928-04-22 00:00:00+00:00	1
1928-05-11 00:00:00+00:00	1
1928-05-12 00:00:00+00:00	1
1928-06-14 00:00:00+00:00	1
1928-06-17 00:00:00+00:00	1
1928-07-05 00:00:00+00:00	1
1928-07-15 00:00:00+00:00	1
1928-07-19 00:00:00+00:00	1
1928-10-06 00:00:00+00:00	1
1928-10-17 00:00:00+00:00	1
1928-11-11 00:00:00+00:00	1
1928-11-24 00:00:00+00:00	1
1928-12-05 00:00:00+00:00	1
1928-12-13 00:00:00+00:00	1
1928-12-31 00:00:00+00:00	1
1929-01-01 00:00:00+00:00	5
1929-03-01 00:00:00+00:00	1
1929-04-01 00:00:00+00:00	1
1929-05-01 00:00:00+00:00	2
1929-06-02 00:00:00+00:00	1
1929-09-01 00:00:00+00:00	1
1929-09-07 00:00:00+00:00	1
1929-10-01 00:00:00+00:00	1
1929-10-18 00:00:00+00:00	1
1929-12-01 00:00:00+00:00	1
1929-12-04 00:00:00+00:00	1
1929-12-20 00:00:00+00:00	1
1930-01-01 00:00:00+00:00	12
1930-02-04 00:00:00+00:00	1
1930-02-16 00:00:00+00:00	1
1930-02-19 00:00:00+00:00	1
1930-02-27 00:00:00+00:00	1
1930-03-19 00:00:00+00:00	1
1930-03-22 00:00:00+00:00	1
1930-03-23 00:00:00+00:00	1
1930-05-10 00:00:00+00:00	1
1930-06-01 00:00:00+00:00	1
1930-07-08 00:00:00+00:00	1
1930-07-11 00:00:00+00:00	1
1930-07-27 00:00:00+00:00	1
1930-07-29 00:00:00+00:00	1
1930-07-31 00:00:00+00:00	1
1930-08-06 00:00:00+00:00	1
1930-08-12 00:00:00+00:00	1
1930-08-20 00:00:00+00:00	1
1930-08-24 00:00:00+00:00	1
1930-08-29 00:00:00+00:00	1
1930-10-01 00:00:00+00:00	1
1930-10-04 00:00:00+00:00	1
1930-10-08 00:00:00+00:00	1
1930-11-05 00:00:00+00:00	1
1930-11-23 00:00:00+00:00	1
1930-12-22 00:00:00+00:00	1
1930-12-24 00:00:00+00:00	1
1930-12-29 00:00:00+00:00	1
1930-12-31 00:00:00+00:00	1
1931-01-01 00:00:00+00:00	5
1931-01-07 00:00:00+00:00	1
1931-01-18 00:00:00+00:00	1
1931-01-23 00:00:00+00:00	1
1931-01-27 00:00:00+00:00	1
1931-01-28 00:00:00+00:00	1
1931-01-29 00:00:00+00:00	1
1931-02-09 00:00:00+00:00	1
1931-02-10 00:00:00+00:00	1
1931-02-19 00:00:00+00:00	1
1931-03-05 00:00:00+00:00	1
1931-03-06 00:00:00+00:00	1
1931-03-22 00:00:00+00:00	1
1931-03-29 00:00:00+00:00	1
1931-04-09 00:00:00+00:00	1
1931-04-16 00:00:00+00:00	1
1931-05-07 00:00:00+00:00	1
1931-05-23 00:00:00+00:00	1
1931-07-12 00:00:00+00:00	1
1931-08-09 00:00:00+00:00	1
1931-09-09 00:00:00+00:00	1
1931-09-12 00:00:00+00:00	1
1931-09-17 00:00:00+00:00	1
1931-09-22 00:00:00+00:00	1
1931-10-03 00:00:00+00:00	1
1931-10-06 00:00:00+00:00	1
1931-11-15 00:00:00+00:00	1
1931-12-05 00:00:00+00:00	1
1931-12-07 00:00:00+00:00	1
1932-01-01 00:00:00+00:00	8
1932-03-01 00:00:00+00:00	1
1932-04-13 00:00:00+00:00	1
1932-04-17 00:00:00+00:00	1
1932-04-29 00:00:00+00:00	1
1932-05-15 00:00:00+00:00	1
1932-06-03 00:00:00+00:00	1
1932-09-11 00:00:00+00:00	1
1932-09-17 00:00:00+00:00	1
1932-09-24 00:00:00+00:00	1
1932-10-25 00:00:00+00:00	1
1932-11-01 00:00:00+00:00	1
1932-11-20 00:00:00+00:00	1
1933-01-01 00:00:00+00:00	2
1933-01-31 00:00:00+00:00	1
1933-02-16 00:00:00+00:00	1
1933-04-30 00:00:00+00:00	1
1933-06-23 00:00:00+00:00	1
1933-06-27 00:00:00+00:00	1
1933-07-16 00:00:00+00:00	1
1933-07-25 00:00:00+00:00	1
1933-08-06 00:00:00+00:00	1
1933-09-12 00:00:00+00:00	1
1933-11-01 00:00:00+00:00	1
1933-12-03 00:00:00+00:00	1
1934-01-01 00:00:00+00:00	7
1934-01-06 00:00:00+00:00	1
1934-01-27 00:00:00+00:00	1
1934-01-30 00:00:00+00:00	1
1934-02-04 00:00:00+00:00	1
1934-02-10 00:00:00+00:00	1
1934-02-23 00:00:00+00:00	1
1934-02-28 00:00:00+00:00	1
1934-03-20 00:00:00+00:00	1
1934-03-31 00:00:00+00:00	1
1934-04-11 00:00:00+00:00	2
1934-05-18 00:00:00+00:00	1
1934-06-10 00:00:00+00:00	1
1934-06-28 00:00:00+00:00	1
1934-07-10 00:00:00+00:00	1
1934-07-26 00:00:00+00:00	1
1934-08-30 00:00:00+00:00	1
1934-10-24 00:00:00+00:00	1
1934-12-14 00:00:00+00:00	1
1934-12-20 00:00:00+00:00	1
1935-01-01 00:00:00+00:00	8
1935-02-26 00:00:00+00:00	1
1935-03-19 00:00:00+00:00	1
1935-03-30 00:00:00+00:00	1
1935-04-20 00:00:00+00:00	1
1935-04-28 00:00:00+00:00	1
1935-05-09 00:00:00+00:00	1
1935-05-19 00:00:00+00:00	1
1935-07-07 00:00:00+00:00	1
1935-07-27 00:00:00+00:00	1
1935-08-01 00:00:00+00:00	1
1935-08-17 00:00:00+00:00	1
1935-08-18 00:00:00+00:00	1
1935-09-05 00:00:00+00:00	1
1935-09-06 00:00:00+00:00	1
1935-09-08 00:00:00+00:00	1
1935-09-29 00:00:00+00:00	1
1935-10-09 00:00:00+00:00	1
1935-12-21 00:00:00+00:00	1
1936-01-01 00:00:00+00:00	8
1936-02-01 00:00:00+00:00	1
1936-03-03 00:00:00+00:00	1
1936-03-22 00:00:00+00:00	1
1936-03-29 00:00:00+00:00	1
1936-04-19 00:00:00+00:00	1
1936-05-03 00:00:00+00:00	1
1936-05-08 00:00:00+00:00	1
1936-05-24 00:00:00+00:00	1
1936-06-07 00:00:00+00:00	1
1936-06-20 00:00:00+00:00	1
1936-07-01 00:00:00+00:00	1
1936-08-21 00:00:00+00:00	1
1936-08-25 00:00:00+00:00	1
1936-09-13 00:00:00+00:00	1
1936-09-18 00:00:00+00:00	1
1937-01-01 00:00:00+00:00	10
1937-04-27 00:00:00+00:00	1
1937-06-06 00:00:00+00:00	1
1937-07-22 00:00:00+00:00	1
1937-08-15 00:00:00+00:00	1
1937-10-22 00:00:00+00:00	1
1937-10-23 00:00:00+00:00	1
1937-10-24 00:00:00+00:00	1
1937-10-27 00:00:00+00:00	1
1937-11-04 00:00:00+00:00	1
1937-11-08 00:00:00+00:00	1
1937-11-09 00:00:00+00:00	2
1937-12-07 00:00:00+00:00	1
1938-01-01 00:00:00+00:00	7
1938-01-18 00:00:00+00:00	1
1938-01-25 00:00:00+00:00	1
1938-02-22 00:00:00+00:00	1
1938-02-23 00:00:00+00:00	1
1938-03-17 00:00:00+00:00	1
1938-03-18 00:00:00+00:00	1
1938-03-21 00:00:00+00:00	1
1938-03-22 00:00:00+00:00	1
1938-03-30 00:00:00+00:00	1
1938-04-09 00:00:00+00:00	1
1938-04-30 00:00:00+00:00	1
1938-05-07 00:00:00+00:00	1
1938-05-11 00:00:00+00:00	1
1938-06-09 00:00:00+00:00	1
1938-07-13 00:00:00+00:00	1
1938-08-13 00:00:00+00:00	1
1938-08-28 00:00:00+00:00	1
1938-09-01 00:00:00+00:00	1
1938-09-11 00:00:00+00:00	1
1938-09-16 00:00:00+00:00	1
1938-09-24 00:00:00+00:00	1
1938-09-25 00:00:00+00:00	1
1938-10-19 00:00:00+00:00	1
1938-11-08 00:00:00+00:00	1
1938-11-27 00:00:00+00:00	2
1938-12-06 00:00:00+00:00	2
1938-12-22 00:00:00+00:00	1
1938-12-24 00:00:00+00:00	1
1938-12-25 00:00:00+00:00	1
1939-01-01 00:00:00+00:00	9
1939-01-08 00:00:00+00:00	1
1939-01-24 00:00:00+00:00	1
1939-01-29 00:00:00+00:00	1
1939-03-11 00:00:00+00:00	1
1939-03-12 00:00:00+00:00	1
1939-04-06 00:00:00+00:00	1
1939-05-16 00:00:00+00:00	1
1939-07-12 00:00:00+00:00	1
1939-08-02 00:00:00+00:00	1
1939-08-18 00:00:00+00:00	1
1939-11-30 23:36:00+00:00	2
1941-01-01 00:00:00+00:00	1
1941-12-14 00:00:00+00:00	1
1943-08-07 00:00:00+00:00	1
1946-01-01 00:00:00+00:00	1
1946-02-16 00:00:00+00:00	1
1946-04-04 00:00:00+00:00	1
1946-05-21 00:00:00+00:00	1
1946-09-15 00:00:00+00:00	1
1947-01-01 00:00:00+00:00	1
1948-01-01 00:00:00+00:00	3
1949-01-01 00:00:00+00:00	1
1949-11-06 00:00:00+00:00	1
1949-12-11 00:00:00+00:00	1
1950-01-01 00:00:00+00:00	1
1950-01-29 00:00:00+00:00	1
1950-02-05 00:00:00+00:00	2
1950-02-19 00:00:00+00:00	1
1950-06-05 00:00:00+00:00	1
1950-07-09 00:00:00+00:00	1
1950-10-19 00:00:00+00:00	1
1950-11-12 00:00:00+00:00	1
1951-01-01 00:00:00+00:00	1
1951-01-05 00:00:00+00:00	1
1951-01-20 00:00:00+00:00	1
1951-02-04 00:00:00+00:00	1
1951-06-04 00:00:00+00:00	1
1951-10-20 00:00:00+00:00	1
1951-11-10 00:00:00+00:00	1
1951-12-09 00:00:00+00:00	1
1951-12-30 00:00:00+00:00	1
1952-01-01 00:00:00+00:00	1
1952-01-13 00:00:00+00:00	1
1952-03-11 00:00:00+00:00	1
1952-12-17 00:00:00+00:00	1
1953-01-01 00:00:00+00:00	4
1953-03-29 00:00:00+00:00	1
1953-09-08 00:00:00+00:00	1
1954-01-01 00:00:00+00:00	4
1954-08-01 00:00:00+00:00	1
1955-01-01 00:00:00+00:00	2
1956-01-01 00:00:00+00:00	10
1956-07-14 00:00:00+00:00	1
1956-10-27 00:00:00+00:00	1
1956-12-01 00:00:00+00:00	1
1957-01-01 00:00:00+00:00	10
1957-02-02 00:00:00+00:00	1
1957-03-16 00:00:00+00:00	1
1957-10-17 00:00:00+00:00	1
1958-01-01 00:00:00+00:00	9
1958-02-18 00:00:00+00:00	1
1959-01-01 00:00:00+00:00	14
1959-12-29 00:00:00+00:00	1
1960-01-01 00:00:00+00:00	4
1960-06-18 00:00:00+00:00	1
1961-01-01 00:00:00+00:00	5
1961-03-11 00:00:00+00:00	1
1961-06-24 00:00:00+00:00	1
1962-01-01 00:00:00+00:00	3
1962-01-03 00:00:00+00:00	1
1963-01-01 00:00:00+00:00	2
1964-01-01 00:00:00+00:00	2
1964-08-23 00:00:00+00:00	1
1965-01-01 00:00:00+00:00	1
1966-01-01 00:00:00+00:00	1
1966-06-08 00:00:00+00:00	1
1966-06-09 00:00:00+00:00	1
1966-07-21 00:00:00+00:00	1
1966-07-23 00:00:00+00:00	1
1966-09-23 00:00:00+00:00	1
1967-01-01 00:00:00+00:00	1
1967-01-24 00:00:00+00:00	1
1967-03-01 00:00:00+00:00	1
1968-04-18 00:00:00+00:00	1
1969-08-16 00:00:00+00:00	1
1970-01-01 00:00:00+00:00	1
1970-08-18 00:00:00+00:00	1
1970-09-12 00:00:00+00:00	1
1972-01-01 00:00:00+00:00	5
1974-01-01 00:00:00+00:00	2
1975-01-01 00:00:00+00:00	10
1976-01-01 00:00:00+00:00	5
1977-01-01 00:00:00+00:00	15
1978-10-31 00:00:00+00:00	1
1979-01-01 00:00:00+00:00	4
1980-01-01 00:00:00+00:00	8
1980-04-30 00:00:00+00:00	1
1981-01-01 00:00:00+00:00	38
1981-04-15 00:00:00+00:00	1
1981-05-17 00:00:00+00:00	1
1981-05-31 00:00:00+00:00	1
1981-06-08 00:00:00+00:00	1
1981-07-01 00:00:00+00:00	1
1981-08-21 00:00:00+00:00	1
1981-10-09 00:00:00+00:00	1
1982-01-01 00:00:00+00:00	9
1983-01-01 00:00:00+00:00	7
1984-01-01 00:00:00+00:00	10
1985-01-01 00:00:00+00:00	16
1985-04-01 00:00:00+00:00	1
1986-01-01 00:00:00+00:00	12
1987-01-01 00:00:00+00:00	8
1988-01-01 00:00:00+00:00	12
1988-06-08 00:00:00+00:00	1
1989-01-01 00:00:00+00:00	3
1989-05-07 00:00:00+00:00	1
1989-12-31 23:00:00+00:00	1
1990-01-01 00:00:00+00:00	2
1990-05-21 00:00:00+00:00	1
1990-06-13 00:00:00+00:00	1
1990-10-26 00:00:00+00:00	1
1991-01-01 00:00:00+00:00	3
1992-04-09 00:00:00+00:00	1
1992-05-06 00:00:00+00:00	1
1992-12-31 23:00:00+00:00	1
1993-01-01 00:00:00+00:00	2
1994-01-01 00:00:00+00:00	2
1995-05-01 00:00:00+00:00	1
1996-01-01 00:00:00+00:00	4
1996-02-01 00:00:00+00:00	1
1997-01-01 00:00:00+00:00	15
1997-04-17 00:00:00+00:00	1
1997-06-19 00:00:00+00:00	1
1998-01-01 00:00:00+00:00	59
1998-02-17 00:00:00+00:00	1
1998-02-24 00:00:00+00:00	1
1998-03-03 00:00:00+00:00	1
1998-03-10 00:00:00+00:00	1
1998-03-17 00:00:00+00:00	1
1998-03-24 00:00:00+00:00	1
1998-03-31 00:00:00+00:00	1
1998-04-07 00:00:00+00:00	1
1998-04-21 00:00:00+00:00	1
1998-04-28 00:00:00+00:00	1
1998-05-01 00:00:00+00:00	1
1998-05-05 00:00:00+00:00	1
1998-05-12 00:00:00+00:00	1
1998-05-19 00:00:00+00:00	1
1998-05-26 00:00:00+00:00	1
1998-06-02 00:00:00+00:00	1
1998-06-09 00:00:00+00:00	1
1999-01-01 00:00:00+00:00	6
1999-02-05 00:00:00+00:00	1
1999-02-19 00:00:00+00:00	1
1999-04-01 00:00:00+00:00	1
2000-01-01 00:00:00+00:00	4
2000-01-24 00:00:00+00:00	1
2000-01-25 00:00:00+00:00	1
2000-01-26 00:00:00+00:00	1
2000-12-22 00:00:00+00:00	1
2001-01-01 00:00:00+00:00	5
2001-01-05 00:00:00+00:00	1
2001-01-12 00:00:00+00:00	1
2001-01-19 00:00:00+00:00	1
2001-02-09 00:00:00+00:00	1
2001-02-16 00:00:00+00:00	1
2001-02-23 00:00:00+00:00	1
2001-03-02 00:00:00+00:00	1
2001-03-09 00:00:00+00:00	1
2001-03-16 00:00:00+00:00	1
2001-03-23 00:00:00+00:00	1
2001-04-07 00:00:00+00:00	1
2001-04-13 00:00:00+00:00	1
2001-04-20 00:00:00+00:00	1
2001-04-27 00:00:00+00:00	1
2001-05-04 00:00:00+00:00	1
2001-05-11 00:00:00+00:00	1
2001-05-18 00:00:00+00:00	1
2001-05-25 00:00:00+00:00	1
2001-06-01 00:00:00+00:00	1
2001-06-15 00:00:00+00:00	1
2001-06-22 00:00:00+00:00	1
2001-06-29 00:00:00+00:00	1
2001-07-06 00:00:00+00:00	1
2001-07-13 00:00:00+00:00	1
2001-08-03 00:00:00+00:00	1
2001-08-10 00:00:00+00:00	1
2001-09-07 00:00:00+00:00	1
2001-09-21 00:00:00+00:00	1
2001-09-28 00:00:00+00:00	1
2001-10-05 00:00:00+00:00	1
2001-10-26 00:00:00+00:00	1
2001-11-02 00:00:00+00:00	1
2001-11-16 00:00:00+00:00	1
2001-11-23 00:00:00+00:00	1
2001-11-30 00:00:00+00:00	1
2001-12-07 00:00:00+00:00	1
2002-01-01 00:00:00+00:00	4
2002-01-04 00:00:00+00:00	1
2002-01-18 00:00:00+00:00	1
2002-02-01 00:00:00+00:00	1
2002-02-08 00:00:00+00:00	1
2002-02-15 00:00:00+00:00	1
2002-02-22 00:00:00+00:00	1
2002-03-01 00:00:00+00:00	1
2002-03-08 00:00:00+00:00	1
2002-03-15 00:00:00+00:00	1
2002-03-22 00:00:00+00:00	1
2002-04-05 00:00:00+00:00	1
2002-04-12 00:00:00+00:00	1
2002-04-19 00:00:00+00:00	1
2002-04-26 00:00:00+00:00	1
2002-05-02 00:00:00+00:00	1
2002-05-09 00:00:00+00:00	1
2002-05-16 00:00:00+00:00	1
2002-05-24 00:00:00+00:00	1
2002-05-31 00:00:00+00:00	1
2002-06-07 00:00:00+00:00	1
2002-06-14 00:00:00+00:00	1
2002-06-21 00:00:00+00:00	1
2002-06-28 00:00:00+00:00	1
2002-07-05 00:00:00+00:00	1
2002-07-12 00:00:00+00:00	1
2002-08-09 00:00:00+00:00	1
2002-08-23 00:00:00+00:00	1
2002-08-30 00:00:00+00:00	1
2002-09-06 00:00:00+00:00	1
2002-09-20 00:00:00+00:00	1
2002-09-27 00:00:00+00:00	1
2002-10-04 00:00:00+00:00	1
2002-10-11 00:00:00+00:00	1
2002-10-25 00:00:00+00:00	1
2002-10-31 00:00:00+00:00	1
2002-11-08 00:00:00+00:00	1
2002-11-29 00:00:00+00:00	1
2002-12-05 00:00:00+00:00	1
2002-12-13 00:00:00+00:00	1
2002-12-20 00:00:00+00:00	1
2002-12-27 00:00:00+00:00	1
2003-01-01 00:00:00+00:00	3
2003-12-23 00:00:00+00:00	1
