1921-10-05 00:00:00+00:00	1
1937-06-20 00:00:00+00:00	1
1991-12-18 00:00:00+00:00	1
1991-12-19 00:00:00+00:00	1
1996-01-01 00:00:00+00:00	1
1997-01-01 00:00:00+00:00	3
2000-01-01 00:00:00+00:00	1
2001-01-01 00:00:00+00:00	1
