1824-01-01 00:00:00+00:00	8
1825-01-01 00:00:00+00:00	1
1826-01-01 00:00:00+00:00	1
1827-01-01 00:00:00+00:00	3
1828-01-01 00:00:00+00:00	5
1829-01-01 00:00:00+00:00	1
1830-01-01 00:00:00+00:00	2
1831-04-30 00:00:00+00:00	1
1832-01-01 00:00:00+00:00	1
1833-01-01 00:00:00+00:00	1
1835-01-01 00:00:00+00:00	1
1836-01-01 00:00:00+00:00	1
1838-01-01 00:00:00+00:00	2
1839-01-01 00:00:00+00:00	4
1840-01-01 00:00:00+00:00	3
1841-01-01 00:00:00+00:00	1
1842-01-01 00:00:00+00:00	1
1844-01-01 00:00:00+00:00	1
1845-01-01 00:00:00+00:00	1
1846-01-01 00:00:00+00:00	1
1848-01-01 00:00:00+00:00	2
1849-01-01 00:00:00+00:00	1
1850-01-01 00:00:00+00:00	1
1851-01-01 00:00:00+00:00	1
1852-01-01 00:00:00+00:00	13
1853-01-01 00:00:00+00:00	1
1854-01-01 00:00:00+00:00	2
1855-01-01 00:00:00+00:00	4
1856-01-01 00:00:00+00:00	3
1857-01-01 00:00:00+00:00	3
1857-12-01 00:00:00+00:00	1
1858-01-01 00:00:00+00:00	2
1859-01-01 00:00:00+00:00	1
1860-01-01 00:00:00+00:00	2
1863-01-01 00:00:00+00:00	12
1864-01-01 00:00:00+00:00	1
1865-01-01 00:00:00+00:00	2
1867-01-01 00:00:00+00:00	3
1868-01-01 00:00:00+00:00	3
1869-01-01 00:00:00+00:00	9
1869-11-20 00:00:00+00:00	2
1870-01-01 00:00:00+00:00	1
1872-01-01 00:00:00+00:00	2
1873-01-01 00:00:00+00:00	3
1874-01-01 00:00:00+00:00	1
1875-01-01 00:00:00+00:00	1
1876-01-01 00:00:00+00:00	3
1877-01-01 00:00:00+00:00	1
1878-01-01 00:00:00+00:00	2
1879-01-01 00:00:00+00:00	15
1880-01-01 00:00:00+00:00	9
1881-01-01 00:00:00+00:00	7
1882-01-01 00:00:00+00:00	2
1883-01-01 00:00:00+00:00	2
1884-01-01 00:00:00+00:00	3
1885-01-01 00:00:00+00:00	3
1888-01-01 00:00:00+00:00	7
1889-01-01 00:00:00+00:00	4
1890-01-01 00:00:00+00:00	9
1891-01-01 00:00:00+00:00	3
1892-01-01 00:00:00+00:00	4
1893-01-01 00:00:00+00:00	16
1894-01-01 00:00:00+00:00	19
1895-01-01 00:00:00+00:00	17
1895-09-02 00:00:00+00:00	1
1896-01-01 00:00:00+00:00	37
1896-01-20 00:00:00+00:00	1
1897-01-01 00:00:00+00:00	11
1898-01-01 00:00:00+00:00	6
1899-01-01 00:00:00+00:00	31
1900-01-01 00:00:00+00:00	12
1901-01-01 00:00:00+00:00	26
1902-01-01 00:00:00+00:00	33
1902-01-18 00:00:00+00:00	2
1902-02-01 00:00:00+00:00	1
1903-01-01 00:00:00+00:00	30
1903-05-16 00:00:00+00:00	1
1904-01-01 00:00:00+00:00	19
1904-10-09 00:00:00+00:00	1
1905-01-01 00:00:00+00:00	8
1906-01-01 00:00:00+00:00	35
1907-01-01 00:00:00+00:00	12
1907-01-05 00:00:00+00:00	2
1908-01-01 00:00:00+00:00	27
1909-01-01 00:00:00+00:00	29
1910-01-01 00:00:00+00:00	27
1911-01-01 00:00:00+00:00	53
1911-01-07 00:00:00+00:00	1
1911-04-15 00:00:00+00:00	2
1911-11-04 00:00:00+00:00	1
1912-01-01 00:00:00+00:00	9
1912-04-21 00:00:00+00:00	1
1912-09-01 00:00:00+00:00	2
1912-12-01 00:00:00+00:00	1
1913-01-01 00:00:00+00:00	27
1913-03-13 00:00:00+00:00	1
1913-08-01 00:00:00+00:00	1
1914-01-01 00:00:00+00:00	19
1914-05-27 00:00:00+00:00	1
1915-01-01 00:00:00+00:00	5
1916-01-01 00:00:00+00:00	4
1917-01-01 00:00:00+00:00	10
1917-03-01 00:00:00+00:00	1
1917-10-14 00:00:00+00:00	1
1918-01-01 00:00:00+00:00	15
1918-09-01 00:00:00+00:00	1
1918-10-01 00:00:00+00:00	3
1919-01-01 00:00:00+00:00	34
1920-01-01 00:00:00+00:00	8
1920-04-25 00:00:00+00:00	1
1921-01-01 00:00:00+00:00	9
1921-08-23 00:00:00+00:00	1
1922-01-01 00:00:00+00:00	10
1922-03-01 00:00:00+00:00	1
1922-04-01 00:00:00+00:00	1
1922-04-02 00:00:00+00:00	1
1922-07-03 00:00:00+00:00	1
1922-12-16 00:00:00+00:00	1
1923-01-01 00:00:00+00:00	13
1923-10-01 00:00:00+00:00	1
1924-01-01 00:00:00+00:00	21
1925-01-01 00:00:00+00:00	22
1925-04-01 00:00:00+00:00	2
1925-08-01 00:00:00+00:00	1
1925-10-01 00:00:00+00:00	2
1926-01-01 00:00:00+00:00	9
1926-02-01 00:00:00+00:00	1
1926-09-18 00:00:00+00:00	3
1926-10-01 00:00:00+00:00	1
1927-01-01 00:00:00+00:00	14
1927-12-04 00:00:00+00:00	2
1928-01-01 00:00:00+00:00	36
1928-02-15 00:00:00+00:00	1
1928-04-16 00:00:00+00:00	1
1928-04-29 00:00:00+00:00	1
1929-01-01 00:00:00+00:00	23
1929-01-05 00:00:00+00:00	1
1929-01-27 00:00:00+00:00	1
1929-03-01 00:00:00+00:00	1
1930-01-01 00:00:00+00:00	29
1930-06-01 00:00:00+00:00	1
1930-10-01 00:00:00+00:00	1
1930-12-21 00:00:00+00:00	2
1931-01-01 00:00:00+00:00	14
1931-02-28 00:00:00+00:00	1
1931-03-01 00:00:00+00:00	1
1931-04-04 00:00:00+00:00	2
1931-06-22 00:00:00+00:00	1
1932-01-01 00:00:00+00:00	8
1932-02-14 00:00:00+00:00	1
1932-07-30 00:00:00+00:00	1
1933-01-01 00:00:00+00:00	25
1933-02-01 00:00:00+00:00	1
1933-04-08 00:00:00+00:00	1
1933-10-01 00:00:00+00:00	1
1934-01-01 00:00:00+00:00	22
1934-11-01 00:00:00+00:00	1
1935-01-01 00:00:00+00:00	18
1935-07-01 00:00:00+00:00	2
1935-09-01 00:00:00+00:00	1
1935-12-01 00:00:00+00:00	1
1935-12-22 00:00:00+00:00	1
1936-01-01 00:00:00+00:00	16
1936-05-01 00:00:00+00:00	1
1936-10-01 00:00:00+00:00	1
1937-01-01 00:00:00+00:00	19
1937-02-07 00:00:00+00:00	1
1937-08-01 00:00:00+00:00	1
1938-01-01 00:00:00+00:00	14
1938-02-01 00:00:00+00:00	1
1938-07-01 00:00:00+00:00	1
1938-08-01 00:00:00+00:00	1
1939-01-01 00:00:00+00:00	9
1939-02-28 00:00:00+00:00	1
1939-03-12 00:00:00+00:00	1
1940-01-01 00:00:00+00:00	1
1941-02-01 00:00:00+00:00	1
1941-11-16 00:00:00+00:00	1
1945-01-01 00:00:00+00:00	2
1946-01-01 00:00:00+00:00	1
1947-05-01 00:00:00+00:00	1
1948-01-01 00:00:00+00:00	2
1948-02-29 00:00:00+00:00	1
1949-03-01 00:00:00+00:00	1
1950-02-20 00:00:00+00:00	1
1950-04-23 00:00:00+00:00	1
1950-08-06 00:00:00+00:00	1
1952-01-01 00:00:00+00:00	1
1953-01-14 00:00:00+00:00	1
1954-01-01 00:00:00+00:00	21
1954-12-19 00:00:00+00:00	1
1955-01-01 00:00:00+00:00	2
1957-01-01 00:00:00+00:00	1
1958-01-01 00:00:00+00:00	165
1959-01-01 00:00:00+00:00	9
1959-04-12 00:00:00+00:00	1
1959-06-01 00:00:00+00:00	1
1960-01-01 00:00:00+00:00	9
1961-01-01 00:00:00+00:00	1
1962-01-01 00:00:00+00:00	5
1963-01-01 00:00:00+00:00	35
1964-01-01 00:00:00+00:00	5
1965-01-01 00:00:00+00:00	21
1966-01-01 00:00:00+00:00	16
1966-02-21 00:00:00+00:00	1
1967-01-01 00:00:00+00:00	5
1968-01-01 00:00:00+00:00	3
1968-12-01 00:00:00+00:00	1
1969-01-01 00:00:00+00:00	3
1970-01-01 00:00:00+00:00	1
1970-12-31 23:00:00+00:00	1
1971-01-01 00:00:00+00:00	3
1972-01-01 00:00:00+00:00	12
1973-01-01 00:00:00+00:00	2
1974-01-01 00:00:00+00:00	3
1975-01-01 00:00:00+00:00	4
1975-07-01 00:00:00+00:00	2
1976-01-01 00:00:00+00:00	8
1977-01-01 00:00:00+00:00	6
1978-01-01 00:00:00+00:00	1
1979-01-01 00:00:00+00:00	2
1980-01-01 00:00:00+00:00	2
1980-04-01 00:00:00+00:00	6
1981-01-01 00:00:00+00:00	3
1982-01-01 00:00:00+00:00	6
1983-01-01 00:00:00+00:00	3
1983-07-01 00:00:00+00:00	1
1984-01-01 00:00:00+00:00	13
1984-06-01 00:00:00+00:00	1
1985-01-01 00:00:00+00:00	5
1985-09-12 00:00:00+00:00	2
1986-01-01 00:00:00+00:00	5
1986-04-16 00:00:00+00:00	1
1987-01-01 00:00:00+00:00	12
1988-01-01 00:00:00+00:00	7
1989-01-01 00:00:00+00:00	4
1990-01-01 00:00:00+00:00	19
1991-01-01 00:00:00+00:00	5
1992-01-01 00:00:00+00:00	5
1993-01-01 00:00:00+00:00	19
1994-01-01 00:00:00+00:00	3
1995-01-01 00:00:00+00:00	27
1996-01-01 00:00:00+00:00	62
1996-01-07 00:00:00+00:00	1
1997-01-01 00:00:00+00:00	23
1997-02-17 00:00:00+00:00	2
1998-01-01 00:00:00+00:00	30
1999-01-01 00:00:00+00:00	17
1999-04-29 00:00:00+00:00	1
1999-10-02 00:00:00+00:00	1
1999-12-31 00:00:00+00:00	1
2000-01-01 00:00:00+00:00	19
2001-01-01 00:00:00+00:00	11
2002-01-01 00:00:00+00:00	34
2002-07-01 00:00:00+00:00	1
2002-12-31 00:00:00+00:00	1
2003-01-01 00:00:00+00:00	74
2003-10-01 00:00:00+00:00	1
