1957-07-27 00:00:00+00:00	1
1965-03-14 00:00:00+00:00	1
1986-01-01 00:00:00+00:00	1
1988-01-01 00:00:00+00:00	4
1989-09-10 00:00:00+00:00	1
1989-12-19 00:00:00+00:00	1
1991-01-01 00:00:00+00:00	1
1991-03-01 00:00:00+00:00	1
1991-05-19 00:00:00+00:00	1
1993-01-01 00:00:00+00:00	1
1995-01-01 00:00:00+00:00	1
2000-01-01 00:00:00+00:00	2
2001-01-01 00:00:00+00:00	3
2001-12-15 00:00:00+00:00	1
2002-01-01 00:00:00+00:00	1
