1974-01-01 00:00:00+00:00	2
1975-11-30 00:00:00+00:00	1
1976-01-01 00:00:00+00:00	2
1977-01-01 00:00:00+00:00	1
1978-01-01 00:00:00+00:00	4
1979-01-01 00:00:00+00:00	1
1981-01-01 00:00:00+00:00	1
1983-10-21 00:00:00+00:00	1
1984-07-29 00:00:00+00:00	1
1985-01-01 00:00:00+00:00	2
1988-01-01 00:00:00+00:00	1
1989-01-01 00:00:00+00:00	1
1990-01-01 00:00:00+00:00	1
1990-07-29 00:00:00+00:00	1
1991-07-28 00:00:00+00:00	1
1992-03-08 00:00:00+00:00	1
1992-07-12 00:00:00+00:00	1
1993-01-01 00:00:00+00:00	1
1994-12-18 00:00:00+00:00	2
1996-01-01 00:00:00+00:00	1
1996-10-17 00:00:00+00:00	1
1997-01-01 00:00:00+00:00	9
1997-08-08 00:00:00+00:00	1
1998-01-01 00:00:00+00:00	1
1998-04-15 00:00:00+00:00	1
1999-01-01 00:00:00+00:00	4
2000-01-01 00:00:00+00:00	1
2001-01-01 00:00:00+00:00	5
2002-01-01 00:00:00+00:00	1
2003-01-01 00:00:00+00:00	2
