1901-01-01 00:00:00+00:00	1
1902-01-01 00:00:00+00:00	2
1909-01-01 00:00:00+00:00	3
1910-01-01 00:00:00+00:00	1
1919-01-01 00:00:00+00:00	2
1929-07-21 00:00:00+00:00	1
1930-11-01 00:00:00+00:00	1
1931-01-01 00:00:00+00:00	1
1932-01-01 00:00:00+00:00	1
1933-01-01 00:00:00+00:00	1
1933-10-29 00:00:00+00:00	2
1935-11-15 00:00:00+00:00	1
1938-01-01 00:00:00+00:00	4
1952-10-31 00:00:00+00:00	1
1959-01-01 00:00:00+00:00	2
1961-01-18 00:00:00+00:00	1
1962-01-01 00:00:00+00:00	2
1964-01-01 00:00:00+00:00	2
1968-01-01 00:00:00+00:00	1
1969-01-01 00:00:00+00:00	1
1969-02-26 00:00:00+00:00	1
1969-03-09 00:00:00+00:00	1
1970-01-01 00:00:00+00:00	4
1970-04-19 00:00:00+00:00	1
1972-04-29 00:00:00+00:00	1
1972-05-27 00:00:00+00:00	1
1973-01-01 00:00:00+00:00	2
1974-06-21 00:00:00+00:00	1
1974-10-31 00:00:00+00:00	1
1976-01-01 00:00:00+00:00	1
1976-05-31 00:00:00+00:00	1
1977-01-01 00:00:00+00:00	1
1978-01-31 00:00:00+00:00	1
1978-02-28 00:00:00+00:00	1
1979-01-01 00:00:00+00:00	1
1981-01-01 00:00:00+00:00	1
1982-01-01 00:00:00+00:00	2
1983-01-01 00:00:00+00:00	8
1984-01-01 00:00:00+00:00	1
1986-01-01 00:00:00+00:00	9
1988-01-01 00:00:00+00:00	2
1988-02-01 00:00:00+00:00	1
1990-01-01 00:00:00+00:00	2
1991-07-21 00:00:00+00:00	1
1992-01-01 00:00:00+00:00	2
1992-02-09 00:00:00+00:00	1
1992-03-08 00:00:00+00:00	1
1994-01-01 00:00:00+00:00	3
1994-01-15 00:00:00+00:00	1
1994-01-29 00:00:00+00:00	1
1994-03-07 00:00:00+00:00	1
1995-01-01 00:00:00+00:00	3
1996-01-01 00:00:00+00:00	2
1996-12-01 00:00:00+00:00	1
1997-01-01 00:00:00+00:00	50
1998-01-01 00:00:00+00:00	6
1998-11-21 00:00:00+00:00	1
1999-01-01 00:00:00+00:00	33
1999-06-30 00:00:00+00:00	1
2000-01-01 00:00:00+00:00	5
2000-01-25 00:00:00+00:00	1
2000-10-01 00:00:00+00:00	1
2001-01-01 00:00:00+00:00	10
2001-07-31 00:00:00+00:00	1
2002-01-01 00:00:00+00:00	7
2002-01-31 00:00:00+00:00	1
2002-06-28 00:00:00+00:00	2
2003-01-01 00:00:00+00:00	15
2003-05-16 00:00:00+00:00	1
2003-06-13 00:00:00+00:00	1
2003-09-30 00:00:00+00:00	2
2003-10-31 00:00:00+00:00	1
2003-11-01 00:00:00+00:00	1
