1862-01-01 00:00:00+00:00	1
1862-08-08 00:00:00+00:00	1
1863-01-01 00:00:00+00:00	1
1865-01-01 00:00:00+00:00	1
1866-01-01 00:00:00+00:00	2
1870-01-01 00:00:00+00:00	2
1871-01-01 00:00:00+00:00	1
1873-01-01 00:00:00+00:00	1
1879-06-22 00:00:00+00:00	1
1881-01-01 00:00:00+00:00	1
1881-10-20 00:00:00+00:00	1
1888-08-18 00:00:00+00:00	1
1891-01-01 00:00:00+00:00	1
1893-01-01 00:00:00+00:00	6
1895-01-01 00:00:00+00:00	2
1896-01-01 00:00:00+00:00	1
1896-05-08 00:00:00+00:00	1
1897-01-01 00:00:00+00:00	2
1899-01-01 00:00:00+00:00	1
1900-01-01 00:00:00+00:00	1
1900-07-28 00:00:00+00:00	2
1908-01-01 00:00:00+00:00	1
1910-01-01 00:00:00+00:00	6
1911-01-01 00:00:00+00:00	2
1913-01-01 00:00:00+00:00	3
1914-01-01 00:00:00+00:00	1
1916-01-01 00:00:00+00:00	1
1916-04-08 00:00:00+00:00	1
1916-04-15 00:00:00+00:00	1
1916-12-02 00:00:00+00:00	1
1921-01-01 00:00:00+00:00	1
1922-01-01 00:00:00+00:00	1
1923-01-01 00:00:00+00:00	2
1925-06-09 00:00:00+00:00	1
1925-06-25 00:00:00+00:00	1
1926-10-01 00:00:00+00:00	1
1928-06-17 00:00:00+00:00	1
1929-01-01 00:00:00+00:00	2
1929-10-03 00:00:00+00:00	1
1930-01-01 00:00:00+00:00	1
1930-04-29 00:00:00+00:00	1
1930-09-21 00:00:00+00:00	1
1931-01-01 00:00:00+00:00	3
1931-01-28 00:00:00+00:00	1
1933-01-01 00:00:00+00:00	1
1933-04-23 00:00:00+00:00	1
1933-05-01 00:00:00+00:00	1
1934-01-01 00:00:00+00:00	1
1935-01-01 00:00:00+00:00	5
1935-07-11 00:00:00+00:00	1
1935-11-17 00:00:00+00:00	1
1936-01-01 00:00:00+00:00	2
1936-07-29 00:00:00+00:00	1
1936-07-30 00:00:00+00:00	1
1937-01-01 00:00:00+00:00	1
1937-04-01 00:00:00+00:00	1
1937-06-20 00:00:00+00:00	1
1937-11-20 00:00:00+00:00	1
1937-11-25 00:00:00+00:00	1
1938-01-05 00:00:00+00:00	1
1938-09-21 00:00:00+00:00	1
1939-01-01 00:00:00+00:00	1
1942-01-22 00:00:00+00:00	1
1945-01-01 00:00:00+00:00	1
1945-08-26 00:00:00+00:00	1
1954-02-06 00:00:00+00:00	1
1956-07-29 00:00:00+00:00	1
1958-01-01 00:00:00+00:00	1
1969-01-01 00:00:00+00:00	1
1973-11-01 00:00:00+00:00	1
1979-01-01 00:00:00+00:00	1
1983-01-01 00:00:00+00:00	1
1985-01-01 00:00:00+00:00	2
1986-01-01 00:00:00+00:00	1
1991-01-01 00:00:00+00:00	2
1991-07-19 00:00:00+00:00	1
1992-04-22 00:00:00+00:00	2
1993-01-01 00:00:00+00:00	1
1994-01-01 00:00:00+00:00	7
1995-01-01 00:00:00+00:00	1
1995-01-27 00:00:00+00:00	1
1995-05-12 00:00:00+00:00	1
1995-06-23 00:00:00+00:00	1
1995-10-20 00:00:00+00:00	1
1996-01-01 00:00:00+00:00	7
1996-05-20 00:00:00+00:00	1
1996-06-05 00:00:00+00:00	1
1996-06-10 00:00:00+00:00	1
1996-10-25 00:00:00+00:00	1
1997-01-01 00:00:00+00:00	7
1997-01-31 00:00:00+00:00	2
1997-02-28 00:00:00+00:00	1
1997-04-11 00:00:00+00:00	1
1997-04-19 00:00:00+00:00	1
1997-06-24 00:00:00+00:00	1
1997-07-17 00:00:00+00:00	1
1997-07-24 00:00:00+00:00	3
1997-07-25 00:00:00+00:00	1
1997-07-31 00:00:00+00:00	2
1997-08-14 00:00:00+00:00	1
1997-09-19 00:00:00+00:00	1
1997-10-14 00:00:00+00:00	1
1998-01-01 00:00:00+00:00	10
1998-04-01 00:00:00+00:00	1
1998-07-09 00:00:00+00:00	1
1998-07-23 00:00:00+00:00	1
1998-07-24 00:00:00+00:00	1
1998-07-30 00:00:00+00:00	1
1998-07-31 00:00:00+00:00	1
1998-11-04 00:00:00+00:00	1
1999-01-01 00:00:00+00:00	5
1999-07-21 00:00:00+00:00	1
1999-07-28 00:00:00+00:00	1
1999-10-27 00:00:00+00:00	1
2000-01-01 00:00:00+00:00	5
2000-01-05 00:00:00+00:00	1
2000-04-14 00:00:00+00:00	1
2000-07-18 00:00:00+00:00	1
2000-08-15 00:00:00+00:00	1
2000-08-22 00:00:00+00:00	1
2000-08-29 00:00:00+00:00	1
2000-09-05 00:00:00+00:00	1
2000-10-03 00:00:00+00:00	1
2000-10-10 00:00:00+00:00	1
2001-01-01 00:00:00+00:00	5
2001-07-05 00:00:00+00:00	2
2001-07-06 00:00:00+00:00	1
2001-07-07 00:00:00+00:00	2
2001-07-10 00:00:00+00:00	1
2001-07-20 00:00:00+00:00	2
2001-07-21 00:00:00+00:00	2
2001-07-25 00:00:00+00:00	1
2002-01-01 00:00:00+00:00	18
2002-08-01 00:00:00+00:00	1
2002-09-06 00:00:00+00:00	2
2003-01-01 00:00:00+00:00	5
2003-02-25 00:00:00+00:00	1
2003-04-15 00:00:00+00:00	1
2003-05-01 00:00:00+00:00	1
2003-06-24 00:00:00+00:00	1
2003-06-27 00:00:00+00:00	1
2003-09-09 00:00:00+00:00	1
2003-12-30 00:00:00+00:00	1
