1888-01-01 00:00:00+00:00	1
1892-12-28 00:00:00+00:00	1
1894-01-12 00:00:00+00:00	1
1897-08-18 00:00:00+00:00	1
1897-09-01 00:00:00+00:00	1
1909-01-01 00:00:00+00:00	1
1927-01-01 00:00:00+00:00	1
1927-03-26 00:00:00+00:00	1
1936-01-01 00:00:00+00:00	1
1936-02-23 00:00:00+00:00	1
1958-01-01 00:00:00+00:00	2
2001-01-01 00:00:00+00:00	1
