1830-01-01 00:00:00+00:00	1
1838-01-01 00:00:00+00:00	1
1842-01-01 00:00:00+00:00	1
1844-01-01 00:00:00+00:00	3
1846-01-01 00:00:00+00:00	6
1849-01-01 00:00:00+00:00	4
1850-01-01 00:00:00+00:00	2
1851-01-01 00:00:00+00:00	1
1852-01-01 00:00:00+00:00	5
1853-01-01 00:00:00+00:00	3
1854-01-01 00:00:00+00:00	1
1856-01-01 00:00:00+00:00	1
1857-01-01 00:00:00+00:00	2
1858-01-01 00:00:00+00:00	5
1859-01-01 00:00:00+00:00	3
1861-01-01 00:00:00+00:00	1
1862-01-01 00:00:00+00:00	5
1863-01-01 00:00:00+00:00	3
1865-01-01 00:00:00+00:00	3
1866-01-01 00:00:00+00:00	2
1867-01-01 00:00:00+00:00	1
1867-08-17 00:00:00+00:00	1
1868-01-01 00:00:00+00:00	3
1869-01-01 00:00:00+00:00	5
1869-03-06 00:00:00+00:00	1
1870-01-01 00:00:00+00:00	1
1871-11-23 00:00:00+00:00	1
1874-07-21 00:00:00+00:00	1
1875-12-22 00:00:00+00:00	1
1875-12-31 00:00:00+00:00	1
1877-05-06 00:00:00+00:00	1
1880-01-01 00:00:00+00:00	1
1880-10-31 00:00:00+00:00	1
1882-07-01 00:00:00+00:00	1
1883-01-01 00:00:00+00:00	2
1883-07-21 00:00:00+00:00	1
1883-07-28 00:00:00+00:00	1
1884-01-01 00:00:00+00:00	1
1885-03-21 00:00:00+00:00	1
1886-01-01 00:00:00+00:00	6
1886-02-13 00:00:00+00:00	1
1886-08-15 00:00:00+00:00	1
1888-01-01 00:00:00+00:00	3
1888-02-08 00:00:00+00:00	1
1888-07-21 00:00:00+00:00	1
1889-01-01 00:00:00+00:00	1
1891-07-03 00:00:00+00:00	1
1891-08-19 00:00:00+00:00	1
1891-09-23 00:00:00+00:00	1
1892-02-10 00:00:00+00:00	1
1892-07-10 00:00:00+00:00	1
1893-01-01 00:00:00+00:00	2
1893-02-12 00:00:00+00:00	1
1893-10-08 00:00:00+00:00	1
1893-12-03 00:00:00+00:00	1
1895-01-01 00:00:00+00:00	1
1896-01-01 00:00:00+00:00	1
1897-05-16 00:00:00+00:00	1
1898-05-19 00:00:00+00:00	1
1898-06-04 00:00:00+00:00	1
1899-01-01 00:00:00+00:00	1
1900-01-01 00:00:00+00:00	2
1900-05-04 00:00:00+00:00	1
1900-09-19 00:00:00+00:00	1
1900-10-04 00:00:00+00:00	1
1900-11-01 00:00:00+00:00	1
1900-11-17 00:00:00+00:00	1
1901-01-01 00:00:00+00:00	1
1901-05-20 00:00:00+00:00	1
1902-01-01 00:00:00+00:00	4
1902-03-29 00:00:00+00:00	2
1902-04-05 00:00:00+00:00	1
1903-01-23 00:00:00+00:00	1
1903-05-23 00:00:00+00:00	1
1904-01-01 00:00:00+00:00	2
1904-08-05 00:00:00+00:00	1
1904-08-27 00:00:00+00:00	1
1906-01-01 00:00:00+00:00	2
1907-02-07 00:00:00+00:00	1
1908-01-01 00:00:00+00:00	4
1908-05-05 00:00:00+00:00	1
1909-04-03 00:00:00+00:00	1
1910-05-08 00:00:00+00:00	1
1910-07-17 00:00:00+00:00	1
1910-09-07 00:00:00+00:00	1
1911-03-02 00:00:00+00:00	1
1911-03-18 00:00:00+00:00	1
1913-01-01 00:00:00+00:00	1
1913-10-10 00:00:00+00:00	1
1914-01-01 00:00:00+00:00	1
1914-06-27 00:00:00+00:00	1
1917-02-11 00:00:00+00:00	1
1917-02-15 00:00:00+00:00	1
1917-04-23 00:00:00+00:00	1
1917-08-09 00:00:00+00:00	1
1918-01-01 00:00:00+00:00	2
1918-09-04 00:00:00+00:00	1
1919-08-01 00:00:00+00:00	1
1919-12-07 00:00:00+00:00	1
1920-01-01 00:00:00+00:00	1
1921-03-19 00:00:00+00:00	1
1921-09-10 00:00:00+00:00	1
1921-09-30 00:00:00+00:00	1
1922-02-14 00:00:00+00:00	1
1922-05-26 00:00:00+00:00	1
1922-11-15 00:00:00+00:00	1
1923-01-01 00:00:00+00:00	4
1923-03-03 00:00:00+00:00	1
1923-03-30 00:00:00+00:00	1
1923-08-15 00:00:00+00:00	1
1923-10-25 00:00:00+00:00	2
1923-11-20 00:00:00+00:00	1
1923-12-29 00:00:00+00:00	1
1924-01-11 00:00:00+00:00	2
1924-01-14 00:00:00+00:00	1
1924-01-18 00:00:00+00:00	1
1924-01-21 00:00:00+00:00	1
1924-01-26 00:00:00+00:00	3
1924-01-27 00:00:00+00:00	1
1924-01-28 00:00:00+00:00	2
1924-01-29 00:00:00+00:00	1
1924-01-31 00:00:00+00:00	1
1924-02-06 00:00:00+00:00	1
1924-02-13 00:00:00+00:00	2
1924-02-19 00:00:00+00:00	1
1924-02-20 00:00:00+00:00	1
1924-03-05 00:00:00+00:00	4
1924-03-06 00:00:00+00:00	1
1924-03-13 00:00:00+00:00	5
1924-03-26 00:00:00+00:00	1
1924-03-28 00:00:00+00:00	1
1924-08-07 00:00:00+00:00	1
1924-08-08 00:00:00+00:00	1
1924-08-27 00:00:00+00:00	1
1924-09-17 00:00:00+00:00	1
1925-01-01 00:00:00+00:00	5
1925-01-05 00:00:00+00:00	1
1925-03-17 00:00:00+00:00	1
1925-04-22 00:00:00+00:00	1
1925-04-24 00:00:00+00:00	1
1925-10-24 00:00:00+00:00	1
1925-11-25 00:00:00+00:00	1
1925-12-16 00:00:00+00:00	1
1925-12-24 00:00:00+00:00	1
1925-12-25 00:00:00+00:00	1
1926-01-01 00:00:00+00:00	2
1926-01-10 00:00:00+00:00	1
1926-01-12 00:00:00+00:00	1
1926-01-15 00:00:00+00:00	1
1926-01-17 00:00:00+00:00	1
1926-02-07 00:00:00+00:00	3
1926-02-09 00:00:00+00:00	1
1926-02-17 00:00:00+00:00	1
1926-10-18 00:00:00+00:00	1
1926-12-03 00:00:00+00:00	1
1926-12-14 00:00:00+00:00	1
1926-12-25 00:00:00+00:00	1
1927-01-01 00:00:00+00:00	5
1927-01-21 00:00:00+00:00	1
1927-01-22 00:00:00+00:00	1
1927-02-11 00:00:00+00:00	1
1927-09-09 00:00:00+00:00	1
1927-09-15 00:00:00+00:00	1
1927-10-01 00:00:00+00:00	1
1927-10-23 00:00:00+00:00	1
1928-01-01 00:00:00+00:00	2
1928-01-13 00:00:00+00:00	1
1928-02-11 00:00:00+00:00	1
1928-02-20 00:00:00+00:00	1
1928-02-25 00:00:00+00:00	2
1928-03-24 00:00:00+00:00	1
1928-10-01 00:00:00+00:00	1
1928-10-19 00:00:00+00:00	1
1928-12-08 00:00:00+00:00	1
1928-12-28 00:00:00+00:00	2
1928-12-30 00:00:00+00:00	1
1929-01-01 00:00:00+00:00	6
1929-01-22 00:00:00+00:00	1
1929-03-01 00:00:00+00:00	2
1929-03-03 00:00:00+00:00	2
1929-03-08 00:00:00+00:00	1
1929-09-24 00:00:00+00:00	1
1929-12-31 00:00:00+00:00	1
1930-01-01 00:00:00+00:00	4
1930-01-02 00:00:00+00:00	1
1930-01-05 00:00:00+00:00	1
1930-01-12 00:00:00+00:00	1
1930-02-02 00:00:00+00:00	1
1930-02-08 00:00:00+00:00	2
1930-04-05 00:00:00+00:00	1
1930-10-12 00:00:00+00:00	1
1930-11-01 00:00:00+00:00	1
1930-11-28 00:00:00+00:00	1
1930-11-29 00:00:00+00:00	1
1930-12-23 00:00:00+00:00	2
1930-12-30 00:00:00+00:00	1
1931-01-01 00:00:00+00:00	6
1931-01-25 00:00:00+00:00	1
1931-01-28 00:00:00+00:00	1
1931-02-17 00:00:00+00:00	1
1931-04-05 00:00:00+00:00	1
1931-04-30 00:00:00+00:00	1
1931-09-01 00:00:00+00:00	1
1931-09-22 00:00:00+00:00	1
1931-10-15 00:00:00+00:00	1
1931-11-08 00:00:00+00:00	1
1931-12-01 00:00:00+00:00	2
1931-12-05 00:00:00+00:00	1
1932-01-01 00:00:00+00:00	6
1932-01-29 00:00:00+00:00	1
1932-02-02 00:00:00+00:00	1
1932-02-03 00:00:00+00:00	2
1932-02-04 00:00:00+00:00	1
1932-02-05 00:00:00+00:00	2
1932-02-06 00:00:00+00:00	1
1932-02-09 00:00:00+00:00	1
1932-02-10 00:00:00+00:00	1
1932-03-12 00:00:00+00:00	1
1932-07-21 00:00:00+00:00	1
1932-08-01 00:00:00+00:00	1
1933-01-01 00:00:00+00:00	2
1933-01-03 00:00:00+00:00	1
1933-11-28 00:00:00+00:00	1
1933-12-24 00:00:00+00:00	1
1934-01-01 00:00:00+00:00	1
1934-01-28 00:00:00+00:00	1
1934-03-24 00:00:00+00:00	1
1935-01-01 00:00:00+00:00	6
1935-01-06 00:00:00+00:00	1
1935-03-01 00:00:00+00:00	1
1935-06-14 00:00:00+00:00	1
1935-12-16 00:00:00+00:00	1
1935-12-21 00:00:00+00:00	1
1935-12-23 00:00:00+00:00	1
1936-01-01 00:00:00+00:00	4
1936-01-06 00:00:00+00:00	1
1936-01-19 00:00:00+00:00	1
1936-02-02 00:00:00+00:00	2
1936-02-11 00:00:00+00:00	1
1936-02-13 00:00:00+00:00	1
1936-02-16 00:00:00+00:00	1
1936-02-23 00:00:00+00:00	1
1936-02-25 00:00:00+00:00	1
1936-03-15 00:00:00+00:00	1
1936-07-03 00:00:00+00:00	1
1936-08-15 00:00:00+00:00	1
1937-01-01 00:00:00+00:00	2
1937-03-14 00:00:00+00:00	1
1937-04-02 00:00:00+00:00	1
1937-05-16 00:00:00+00:00	1
1937-10-13 00:00:00+00:00	1
1937-10-25 00:00:00+00:00	1
1937-11-05 00:00:00+00:00	1
1937-11-13 00:00:00+00:00	1
1937-11-20 00:00:00+00:00	1
1937-12-26 00:00:00+00:00	1
1937-12-28 00:00:00+00:00	1
1938-01-01 00:00:00+00:00	1
1938-01-02 00:00:00+00:00	1
1938-04-21 00:00:00+00:00	1
1938-05-13 00:00:00+00:00	1
1938-09-11 00:00:00+00:00	1
1938-09-14 00:00:00+00:00	1
1938-10-31 00:00:00+00:00	1
1941-01-01 00:00:00+00:00	3
1947-01-01 00:00:00+00:00	2
1950-01-01 00:00:00+00:00	3
1954-01-01 00:00:00+00:00	1
1954-11-28 00:00:00+00:00	1
1955-05-08 00:00:00+00:00	1
1956-01-01 00:00:00+00:00	1
1956-11-03 00:00:00+00:00	1
1957-01-01 00:00:00+00:00	2
1958-01-01 00:00:00+00:00	1
1958-05-07 00:00:00+00:00	1
1960-01-01 00:00:00+00:00	1
1962-12-29 00:00:00+00:00	1
1963-01-01 00:00:00+00:00	2
1963-10-05 00:00:00+00:00	1
1964-01-01 00:00:00+00:00	2
1966-06-11 00:00:00+00:00	1
1968-03-27 00:00:00+00:00	1
1971-03-02 00:00:00+00:00	1
1971-09-03 00:00:00+00:00	1
1975-01-01 00:00:00+00:00	1
1979-01-01 00:00:00+00:00	1
1980-01-01 00:00:00+00:00	1
1981-01-01 00:00:00+00:00	3
1983-01-01 00:00:00+00:00	2
1984-01-01 00:00:00+00:00	1
1984-12-01 00:00:00+00:00	1
1986-01-01 00:00:00+00:00	2
1986-08-31 00:00:00+00:00	1
1987-01-01 00:00:00+00:00	4
1988-01-01 00:00:00+00:00	6
1988-02-26 00:00:00+00:00	1
1990-01-01 00:00:00+00:00	4
1990-01-13 00:00:00+00:00	1
1990-03-21 00:00:00+00:00	1
1990-04-07 00:00:00+00:00	1
1990-04-11 00:00:00+00:00	1
1990-04-21 00:00:00+00:00	1
1990-11-01 00:00:00+00:00	1
1991-01-01 00:00:00+00:00	4
1991-12-12 00:00:00+00:00	1
1991-12-18 00:00:00+00:00	1
1992-01-01 00:00:00+00:00	8
1992-02-01 00:00:00+00:00	1
1992-02-09 00:00:00+00:00	1
1992-04-07 00:00:00+00:00	1
1992-07-23 00:00:00+00:00	1
1993-01-01 00:00:00+00:00	2
1994-01-01 00:00:00+00:00	5
1994-10-31 00:00:00+00:00	1
1996-01-01 00:00:00+00:00	3
1996-02-23 00:00:00+00:00	1
1996-11-23 00:00:00+00:00	1
1997-01-01 00:00:00+00:00	2
1997-04-05 00:00:00+00:00	1
1997-05-22 00:00:00+00:00	1
1997-09-06 00:00:00+00:00	1
1997-09-20 00:00:00+00:00	1
1997-12-01 00:00:00+00:00	1
1998-01-01 00:00:00+00:00	31
1998-01-25 00:00:00+00:00	1
1998-01-26 00:00:00+00:00	1
1998-01-27 00:00:00+00:00	1
1998-02-03 00:00:00+00:00	1
1998-02-07 00:00:00+00:00	1
1998-02-09 00:00:00+00:00	1
1998-02-10 00:00:00+00:00	1
1998-02-11 00:00:00+00:00	1
1998-02-12 00:00:00+00:00	1
1998-02-13 00:00:00+00:00	1
1998-02-16 00:00:00+00:00	1
1998-02-17 00:00:00+00:00	1
1998-04-14 00:00:00+00:00	1
1998-04-18 00:00:00+00:00	1
1998-05-04 00:00:00+00:00	1
1998-10-25 00:00:00+00:00	1
1998-11-15 00:00:00+00:00	1
1999-01-01 00:00:00+00:00	9
1999-04-13 00:00:00+00:00	1
1999-04-25 00:00:00+00:00	1
1999-06-24 00:00:00+00:00	1
1999-08-24 00:00:00+00:00	1
1999-11-21 00:00:00+00:00	1
1999-11-24 00:00:00+00:00	1
1999-12-05 00:00:00+00:00	1
2000-12-29 00:00:00+00:00	1
2001-01-01 00:00:00+00:00	1
2001-01-31 00:00:00+00:00	1
2002-01-01 00:00:00+00:00	36
2002-02-04 00:00:00+00:00	1
2002-02-08 00:00:00+00:00	3
2002-02-09 00:00:00+00:00	1
2002-02-11 00:00:00+00:00	2
2002-02-12 00:00:00+00:00	1
2002-02-13 00:00:00+00:00	1
2002-02-14 00:00:00+00:00	1
2002-02-15 00:00:00+00:00	2
2002-02-16 00:00:00+00:00	1
2002-02-18 00:00:00+00:00	2
2002-02-19 00:00:00+00:00	1
2002-02-20 00:00:00+00:00	2
2002-02-21 00:00:00+00:00	2
2002-02-22 00:00:00+00:00	2
2002-02-23 00:00:00+00:00	3
2002-02-25 00:00:00+00:00	2
2002-03-16 00:00:00+00:00	1
2002-05-22 00:00:00+00:00	1
2002-12-03 00:00:00+00:00	1
2003-01-01 00:00:00+00:00	4
2003-04-09 00:00:00+00:00	1
2003-07-31 00:00:00+00:00	2
2003-10-28 00:00:00+00:00	1
2003-10-29 00:00:00+00:00	1
2003-11-12 00:00:00+00:00	1
