1825-01-01 00:00:00+00:00	2
1830-01-01 00:00:00+00:00	2
1835-01-01 00:00:00+00:00	6
1836-01-01 00:00:00+00:00	3
1837-01-01 00:00:00+00:00	1
1839-01-01 00:00:00+00:00	2
1841-01-01 00:00:00+00:00	2
1842-01-01 00:00:00+00:00	2
1844-01-01 00:00:00+00:00	3
1845-01-01 00:00:00+00:00	18
1845-10-18 00:00:00+00:00	1
1846-01-01 00:00:00+00:00	1
1847-01-01 00:00:00+00:00	1
1848-01-01 00:00:00+00:00	1
1849-01-01 00:00:00+00:00	3
1850-01-01 00:00:00+00:00	3
1850-03-03 00:00:00+00:00	1
1852-01-01 00:00:00+00:00	2
1853-01-01 00:00:00+00:00	1
1853-03-30 00:00:00+00:00	1
1854-01-01 00:00:00+00:00	1
1855-01-01 00:00:00+00:00	10
1855-03-15 00:00:00+00:00	1
1856-01-01 00:00:00+00:00	2
1857-01-01 00:00:00+00:00	5
1858-01-01 00:00:00+00:00	8
1859-01-01 00:00:00+00:00	1
1860-01-01 00:00:00+00:00	2
1860-04-06 00:00:00+00:00	1
1860-04-07 00:00:00+00:00	1
1860-04-10 00:00:00+00:00	1
1860-06-01 00:00:00+00:00	1
1861-01-01 00:00:00+00:00	9
1861-02-21 00:00:00+00:00	1
1861-03-23 00:00:00+00:00	2
1862-01-01 00:00:00+00:00	4
1863-01-01 00:00:00+00:00	2
1864-01-01 00:00:00+00:00	1
1865-01-01 00:00:00+00:00	1
1866-01-01 00:00:00+00:00	7
1866-09-29 00:00:00+00:00	1
1867-01-01 00:00:00+00:00	5
1867-10-06 00:00:00+00:00	1
1867-12-07 00:00:00+00:00	1
1868-01-01 00:00:00+00:00	10
1869-01-01 00:00:00+00:00	3
1870-01-01 00:00:00+00:00	3
1871-01-01 00:00:00+00:00	1
1872-01-01 00:00:00+00:00	12
1872-06-15 00:00:00+00:00	1
1873-01-01 00:00:00+00:00	2
1874-01-01 00:00:00+00:00	6
1874-03-28 00:00:00+00:00	2
1874-04-27 00:00:00+00:00	1
1875-01-01 00:00:00+00:00	5
1876-01-01 00:00:00+00:00	9
1876-08-10 00:00:00+00:00	1
1876-12-30 00:00:00+00:00	1
1877-01-01 00:00:00+00:00	9
1878-01-01 00:00:00+00:00	4
1879-01-01 00:00:00+00:00	4
1880-01-01 00:00:00+00:00	4
1881-01-01 00:00:00+00:00	6
1882-01-01 00:00:00+00:00	6
1882-02-05 00:00:00+00:00	1
1882-02-25 00:00:00+00:00	1
1882-03-02 00:00:00+00:00	1
1882-11-13 00:00:00+00:00	1
1882-11-16 00:00:00+00:00	1
1883-01-01 00:00:00+00:00	2
1883-11-25 00:00:00+00:00	1
1884-01-01 00:00:00+00:00	3
1884-03-05 00:00:00+00:00	1
1885-01-01 00:00:00+00:00	10
1885-01-23 00:00:00+00:00	1
1885-09-18 00:00:00+00:00	1
1885-09-26 00:00:00+00:00	1
1885-11-22 00:00:00+00:00	1
1886-01-01 00:00:00+00:00	5
1887-01-01 00:00:00+00:00	28
1888-01-01 00:00:00+00:00	11
1888-08-25 00:00:00+00:00	1
1888-11-29 00:00:00+00:00	1
1889-01-01 00:00:00+00:00	9
1889-02-02 00:00:00+00:00	1
1889-05-25 00:00:00+00:00	1
1889-09-03 00:00:00+00:00	1
1889-09-04 00:00:00+00:00	1
1889-09-05 00:00:00+00:00	1
1889-12-01 00:00:00+00:00	1
1889-12-19 00:00:00+00:00	1
1889-12-30 00:00:00+00:00	1
1890-01-01 00:00:00+00:00	8
1890-08-03 00:00:00+00:00	1
1891-01-01 00:00:00+00:00	14
1891-04-27 00:00:00+00:00	1
1892-01-01 00:00:00+00:00	16
1892-01-13 00:00:00+00:00	1
1893-01-01 00:00:00+00:00	52
1893-02-12 00:00:00+00:00	1
1894-01-01 00:00:00+00:00	9
1895-01-01 00:00:00+00:00	19
1896-01-01 00:00:00+00:00	3
1896-06-20 00:00:00+00:00	1
1897-01-01 00:00:00+00:00	21
1897-01-15 00:00:00+00:00	1
1897-01-28 00:00:00+00:00	2
1897-07-27 00:00:00+00:00	1
1898-01-01 00:00:00+00:00	6
1898-05-06 00:00:00+00:00	1
1899-01-01 00:00:00+00:00	19
1899-01-08 00:00:00+00:00	1
1899-02-12 00:00:00+00:00	1
1899-04-09 00:00:00+00:00	1
1899-04-16 00:00:00+00:00	1
1899-07-30 00:00:00+00:00	1
1900-01-01 00:00:00+00:00	5
1900-08-18 00:00:00+00:00	3
1900-11-01 00:00:00+00:00	1
1900-12-02 00:00:00+00:00	1
1901-01-01 00:00:00+00:00	28
1901-08-30 00:00:00+00:00	1
1902-01-01 00:00:00+00:00	14
1902-04-29 00:00:00+00:00	1
1902-11-25 00:00:00+00:00	1
1902-12-24 00:00:00+00:00	1
1903-01-01 00:00:00+00:00	19
1903-07-25 00:00:00+00:00	1
1903-12-16 00:00:00+00:00	1
1904-01-01 00:00:00+00:00	21
1904-01-10 00:00:00+00:00	2
1904-06-16 00:00:00+00:00	1
1904-07-01 00:00:00+00:00	1
1904-09-08 00:00:00+00:00	1
1904-09-30 00:00:00+00:00	1
1905-01-01 00:00:00+00:00	12
1905-03-23 00:00:00+00:00	1
1905-05-01 00:00:00+00:00	1
1905-11-22 00:00:00+00:00	1
1905-12-03 00:00:00+00:00	1
1905-12-04 00:00:00+00:00	1
1906-01-01 00:00:00+00:00	26
1906-01-15 00:00:00+00:00	1
1906-07-05 00:00:00+00:00	1
1906-07-11 00:00:00+00:00	1
1906-08-07 00:00:00+00:00	1
1906-09-23 00:00:00+00:00	1
1906-10-23 00:00:00+00:00	1
1906-10-28 00:00:00+00:00	1
1907-01-01 00:00:00+00:00	20
1907-02-03 00:00:00+00:00	1
1907-02-17 00:00:00+00:00	1
1907-03-01 00:00:00+00:00	1
1907-03-23 00:00:00+00:00	1
1907-03-31 00:00:00+00:00	1
1907-07-01 00:00:00+00:00	1
1907-12-10 00:00:00+00:00	1
1908-01-01 00:00:00+00:00	20
1908-02-09 00:00:00+00:00	1
1908-06-21 00:00:00+00:00	1
1908-07-18 00:00:00+00:00	1
1908-08-18 00:00:00+00:00	1
1908-09-13 00:00:00+00:00	1
1909-01-01 00:00:00+00:00	15
1910-01-01 00:00:00+00:00	8
1910-03-16 00:00:00+00:00	1
1910-06-25 00:00:00+00:00	4
1910-10-15 00:00:00+00:00	1
1910-12-04 00:00:00+00:00	1
1911-01-01 00:00:00+00:00	12
1911-02-05 00:00:00+00:00	1
1911-03-05 00:00:00+00:00	1
1911-04-09 00:00:00+00:00	1
1911-04-23 00:00:00+00:00	1
1911-06-13 00:00:00+00:00	1
1911-07-21 00:00:00+00:00	1
1911-09-24 00:00:00+00:00	1
1911-11-03 00:00:00+00:00	1
1912-01-01 00:00:00+00:00	18
1912-03-17 00:00:00+00:00	1
1912-04-07 00:00:00+00:00	1
1912-06-01 00:00:00+00:00	1
1912-06-22 00:00:00+00:00	1
1912-07-14 00:00:00+00:00	1
1912-07-27 00:00:00+00:00	1
1912-11-09 00:00:00+00:00	1
1912-11-16 00:00:00+00:00	2
1912-12-20 00:00:00+00:00	1
1913-01-01 00:00:00+00:00	13
1913-04-05 00:00:00+00:00	1
1913-10-01 00:00:00+00:00	2
1913-10-19 00:00:00+00:00	1
1913-11-12 00:00:00+00:00	1
1914-01-01 00:00:00+00:00	5
1914-01-11 00:00:00+00:00	1
1914-11-01 00:00:00+00:00	1
1914-11-24 00:00:00+00:00	1
1914-12-31 00:00:00+00:00	1
1915-01-01 00:00:00+00:00	16
1915-02-11 00:00:00+00:00	1
1915-03-04 00:00:00+00:00	1
1915-06-17 00:00:00+00:00	1
1915-07-02 00:00:00+00:00	1
1915-08-01 00:00:00+00:00	1
1916-01-01 00:00:00+00:00	5
1916-03-12 00:00:00+00:00	1
1916-07-29 00:00:00+00:00	1
1917-01-01 00:00:00+00:00	10
1917-07-22 00:00:00+00:00	1
1917-07-25 00:00:00+00:00	1
1918-01-01 00:00:00+00:00	5
1918-02-20 00:00:00+00:00	1
1918-07-28 00:00:00+00:00	1
1918-08-29 00:00:00+00:00	1
1919-01-01 00:00:00+00:00	22
1919-02-28 00:00:00+00:00	1
1919-03-11 00:00:00+00:00	1
1919-05-11 00:00:00+00:00	1
1919-08-27 00:00:00+00:00	1
1919-10-11 00:00:00+00:00	1
1920-01-01 00:00:00+00:00	3
1920-05-01 00:00:00+00:00	1
1920-05-03 00:00:00+00:00	1
1921-01-01 00:00:00+00:00	28
1921-05-07 00:00:00+00:00	1
1921-09-18 00:00:00+00:00	1
1921-10-08 00:00:00+00:00	1
1921-10-20 00:00:00+00:00	1
1921-12-23 00:00:00+00:00	1
1922-01-01 00:00:00+00:00	7
1922-01-29 00:00:00+00:00	1
1922-02-10 00:00:00+00:00	1
1922-03-01 00:00:00+00:00	1
1922-03-10 00:00:00+00:00	1
1922-03-24 00:00:00+00:00	1
1922-05-01 00:00:00+00:00	1
1922-07-08 00:00:00+00:00	1
1922-08-03 00:00:00+00:00	1
1922-10-02 00:00:00+00:00	1
1922-12-14 00:00:00+00:00	1
1922-12-18 00:00:00+00:00	1
1922-12-20 00:00:00+00:00	1
1922-12-22 00:00:00+00:00	1
1922-12-28 00:00:00+00:00	1
1922-12-29 00:00:00+00:00	1
1922-12-31 00:00:00+00:00	1
1923-01-01 00:00:00+00:00	18
1923-01-03 00:00:00+00:00	1
1923-01-06 00:00:00+00:00	1
1923-01-07 00:00:00+00:00	1
1923-01-10 00:00:00+00:00	2
1923-01-11 00:00:00+00:00	1
1923-01-12 00:00:00+00:00	1
1923-01-13 00:00:00+00:00	1
1923-01-14 00:00:00+00:00	1
1923-01-15 00:00:00+00:00	1
1923-01-16 00:00:00+00:00	1
1923-01-18 00:00:00+00:00	1
1923-01-19 00:00:00+00:00	1
1923-01-21 00:00:00+00:00	1
1923-01-22 00:00:00+00:00	1
1923-01-25 00:00:00+00:00	1
1923-01-26 00:00:00+00:00	1
1923-01-29 00:00:00+00:00	2
1923-01-31 00:00:00+00:00	1
1923-02-01 00:00:00+00:00	1
1923-02-02 00:00:00+00:00	2
1923-02-03 00:00:00+00:00	2
1923-02-04 00:00:00+00:00	1
1923-02-05 00:00:00+00:00	1
1923-02-07 00:00:00+00:00	1
1923-02-08 00:00:00+00:00	1
1923-02-09 00:00:00+00:00	1
1923-02-10 00:00:00+00:00	1
1923-02-11 00:00:00+00:00	3
1923-02-12 00:00:00+00:00	2
1923-02-14 00:00:00+00:00	1
1923-02-15 00:00:00+00:00	1
1923-02-16 00:00:00+00:00	1
1923-02-17 00:00:00+00:00	1
1923-02-18 00:00:00+00:00	1
1923-02-19 00:00:00+00:00	1
1923-02-22 00:00:00+00:00	1
1923-02-23 00:00:00+00:00	1
1923-02-24 00:00:00+00:00	1
1923-02-25 00:00:00+00:00	1
1923-02-26 00:00:00+00:00	1
1923-03-01 00:00:00+00:00	1
1923-03-02 00:00:00+00:00	1
1923-03-03 00:00:00+00:00	1
1923-03-04 00:00:00+00:00	1
1923-03-05 00:00:00+00:00	1
1923-03-07 00:00:00+00:00	1
1923-03-11 00:00:00+00:00	1
1923-03-12 00:00:00+00:00	1
1923-03-14 00:00:00+00:00	1
1923-03-15 00:00:00+00:00	1
1923-03-16 00:00:00+00:00	1
1923-03-17 00:00:00+00:00	1
1923-03-18 00:00:00+00:00	1
1923-03-19 00:00:00+00:00	1
1923-03-22 00:00:00+00:00	1
1923-03-23 00:00:00+00:00	1
1923-03-24 00:00:00+00:00	1
1923-03-25 00:00:00+00:00	1
1923-03-26 00:00:00+00:00	1
1923-03-28 00:00:00+00:00	1
1923-03-29 00:00:00+00:00	1
1923-03-30 00:00:00+00:00	1
1923-04-01 00:00:00+00:00	1
1923-04-05 00:00:00+00:00	1
1923-04-06 00:00:00+00:00	1
1923-04-07 00:00:00+00:00	1
1923-04-09 00:00:00+00:00	1
1923-04-12 00:00:00+00:00	1
1923-04-13 00:00:00+00:00	1
1923-04-14 00:00:00+00:00	1
1923-04-18 00:00:00+00:00	1
1923-04-19 00:00:00+00:00	1
1923-04-20 00:00:00+00:00	1
1923-04-21 00:00:00+00:00	1
1923-04-23 00:00:00+00:00	1
1923-04-25 00:00:00+00:00	4
1923-04-26 00:00:00+00:00	2
1923-04-27 00:00:00+00:00	2
1923-04-28 00:00:00+00:00	2
1923-04-29 00:00:00+00:00	1
1923-04-30 00:00:00+00:00	3
1923-05-01 00:00:00+00:00	1
1923-05-04 00:00:00+00:00	1
1923-05-06 00:00:00+00:00	1
1923-05-07 00:00:00+00:00	1
1923-05-09 00:00:00+00:00	1
1923-05-11 00:00:00+00:00	1
1923-05-13 00:00:00+00:00	1
1923-05-14 00:00:00+00:00	3
1923-05-15 00:00:00+00:00	1
1923-05-16 00:00:00+00:00	1
1923-05-18 00:00:00+00:00	1
1923-05-20 00:00:00+00:00	1
1923-05-21 00:00:00+00:00	1
1923-05-24 00:00:00+00:00	1
1923-05-26 00:00:00+00:00	2
1923-05-27 00:00:00+00:00	1
1923-05-28 00:00:00+00:00	2
1923-05-30 00:00:00+00:00	1
1923-05-31 00:00:00+00:00	1
1923-06-01 00:00:00+00:00	1
1923-06-04 00:00:00+00:00	1
1923-06-06 00:00:00+00:00	1
1923-06-07 00:00:00+00:00	1
1923-06-08 00:00:00+00:00	1
1923-06-09 00:00:00+00:00	1
1923-06-10 00:00:00+00:00	1
1923-06-11 00:00:00+00:00	1
1923-06-14 00:00:00+00:00	1
1923-06-15 00:00:00+00:00	1
1923-06-16 00:00:00+00:00	1
1923-06-18 00:00:00+00:00	1
1923-06-20 00:00:00+00:00	1
1923-06-21 00:00:00+00:00	1
1923-06-22 00:00:00+00:00	1
1923-06-23 00:00:00+00:00	1
1923-06-24 00:00:00+00:00	1
1923-06-25 00:00:00+00:00	1
1923-06-28 00:00:00+00:00	1
1923-06-29 00:00:00+00:00	1
1923-07-02 00:00:00+00:00	1
1923-07-05 00:00:00+00:00	1
1923-07-07 00:00:00+00:00	1
1923-07-08 00:00:00+00:00	1
1923-07-09 00:00:00+00:00	1
1923-07-11 00:00:00+00:00	1
1923-07-14 00:00:00+00:00	1
1923-07-16 00:00:00+00:00	1
1923-07-17 00:00:00+00:00	1
1923-07-18 00:00:00+00:00	1
1923-07-20 00:00:00+00:00	1
1923-07-22 00:00:00+00:00	1
1923-07-23 00:00:00+00:00	1
1923-07-26 00:00:00+00:00	1
1923-08-01 00:00:00+00:00	1
1923-08-06 00:00:00+00:00	1
1923-08-09 00:00:00+00:00	1
1923-08-11 00:00:00+00:00	1
1923-08-13 00:00:00+00:00	2
1923-08-17 00:00:00+00:00	1
1923-08-18 00:00:00+00:00	1
1923-08-22 00:00:00+00:00	1
1923-08-23 00:00:00+00:00	1
1923-08-30 00:00:00+00:00	1
1923-09-09 00:00:00+00:00	3
1923-09-12 00:00:00+00:00	2
1923-09-14 00:00:00+00:00	1
1923-09-22 00:00:00+00:00	2
1923-09-28 00:00:00+00:00	1
1923-09-29 00:00:00+00:00	1
1923-10-11 00:00:00+00:00	1
1923-10-19 00:00:00+00:00	1
1923-10-26 00:00:00+00:00	1
1923-10-31 00:00:00+00:00	1
1923-11-01 00:00:00+00:00	1
1923-11-02 00:00:00+00:00	1
1923-11-04 00:00:00+00:00	1
1923-11-05 00:00:00+00:00	1
1923-11-10 00:00:00+00:00	2
1923-11-14 00:00:00+00:00	1
1923-11-16 00:00:00+00:00	1
1923-11-17 00:00:00+00:00	1
1923-11-22 00:00:00+00:00	1
1923-11-25 00:00:00+00:00	1
1923-11-27 00:00:00+00:00	1
1923-11-28 00:00:00+00:00	1
1923-12-01 00:00:00+00:00	1
1923-12-02 00:00:00+00:00	2
1923-12-05 00:00:00+00:00	1
1923-12-07 00:00:00+00:00	1
1923-12-08 00:00:00+00:00	1
1923-12-09 00:00:00+00:00	1
1923-12-12 00:00:00+00:00	1
1923-12-20 00:00:00+00:00	1
1924-01-01 00:00:00+00:00	5
1924-03-13 00:00:00+00:00	1
1924-03-20 00:00:00+00:00	1
1924-03-27 00:00:00+00:00	1
1924-04-04 00:00:00+00:00	1
1924-05-03 00:00:00+00:00	1
1924-07-12 00:00:00+00:00	1
1924-08-05 00:00:00+00:00	2
1924-08-17 00:00:00+00:00	1
1924-08-28 00:00:00+00:00	1
1924-09-13 00:00:00+00:00	1
1924-09-20 00:00:00+00:00	1
1924-09-30 00:00:00+00:00	1
1924-10-01 00:00:00+00:00	1
1924-10-06 00:00:00+00:00	1
1924-10-17 00:00:00+00:00	2
1924-10-21 00:00:00+00:00	2
1924-11-06 00:00:00+00:00	1
1924-11-25 00:00:00+00:00	1
1925-01-01 00:00:00+00:00	16
1925-01-15 00:00:00+00:00	1
1925-02-03 00:00:00+00:00	1
1925-02-12 00:00:00+00:00	1
1925-03-09 00:00:00+00:00	1
1925-03-17 00:00:00+00:00	1
1925-07-15 00:00:00+00:00	1
1925-08-02 00:00:00+00:00	1
1925-09-27 00:00:00+00:00	1
1925-11-20 00:00:00+00:00	3
1925-12-05 00:00:00+00:00	1
1925-12-18 00:00:00+00:00	1
1925-12-23 00:00:00+00:00	1
1926-01-01 00:00:00+00:00	9
1926-02-07 00:00:00+00:00	1
1926-02-13 00:00:00+00:00	1
1926-02-24 00:00:00+00:00	1
1926-03-01 00:00:00+00:00	1
1926-03-04 00:00:00+00:00	1
1926-03-05 00:00:00+00:00	1
1926-03-08 00:00:00+00:00	1
1926-03-09 00:00:00+00:00	1
1926-04-14 00:00:00+00:00	1
1926-04-28 00:00:00+00:00	1
1926-05-01 00:00:00+00:00	1
1926-07-15 00:00:00+00:00	2
1926-07-17 00:00:00+00:00	1
1926-08-13 00:00:00+00:00	1
1926-08-29 00:00:00+00:00	1
1926-09-18 00:00:00+00:00	1
1926-10-24 00:00:00+00:00	1
1926-11-08 00:00:00+00:00	1
1926-11-28 00:00:00+00:00	1
1927-01-01 00:00:00+00:00	7
1927-01-20 00:00:00+00:00	1
1927-06-06 00:00:00+00:00	1
1927-07-16 00:00:00+00:00	1
1927-07-23 00:00:00+00:00	1
1927-07-24 00:00:00+00:00	1
1927-08-18 00:00:00+00:00	1
1927-08-26 00:00:00+00:00	1
1927-09-04 00:00:00+00:00	2
1927-09-05 00:00:00+00:00	1
1927-10-16 00:00:00+00:00	1
1927-10-18 00:00:00+00:00	1
1927-10-19 00:00:00+00:00	1
1927-11-03 00:00:00+00:00	1
1927-11-08 00:00:00+00:00	1
1927-11-19 00:00:00+00:00	1
1927-11-29 00:00:00+00:00	1
1927-12-28 00:00:00+00:00	1
1927-12-31 00:00:00+00:00	1
1928-01-01 00:00:00+00:00	6
1928-01-27 00:00:00+00:00	1
1928-02-15 00:00:00+00:00	1
1928-03-05 00:00:00+00:00	1
1928-05-10 00:00:00+00:00	1
1928-05-27 00:00:00+00:00	1
1928-06-14 00:00:00+00:00	1
1928-06-17 00:00:00+00:00	1
1928-08-24 00:00:00+00:00	1
1928-10-25 00:00:00+00:00	1
1929-01-01 00:00:00+00:00	8
1929-01-09 00:00:00+00:00	1
1929-01-10 00:00:00+00:00	1
1929-01-12 00:00:00+00:00	1
1929-01-13 00:00:00+00:00	1
1929-01-17 00:00:00+00:00	1
1929-01-18 00:00:00+00:00	1
1929-01-19 00:00:00+00:00	1
1929-01-20 00:00:00+00:00	1
1929-01-23 00:00:00+00:00	1
1929-01-24 00:00:00+00:00	1
1929-01-25 00:00:00+00:00	1
1929-01-27 00:00:00+00:00	1
1929-01-30 00:00:00+00:00	1
1929-01-31 00:00:00+00:00	1
1929-02-01 00:00:00+00:00	3
1929-02-02 00:00:00+00:00	2
1929-02-07 00:00:00+00:00	1
1929-02-08 00:00:00+00:00	1
1929-02-11 00:00:00+00:00	1
1929-02-20 00:00:00+00:00	1
1929-02-23 00:00:00+00:00	1
1929-02-27 00:00:00+00:00	1
1929-03-02 00:00:00+00:00	1
1929-03-08 00:00:00+00:00	1
1929-03-09 00:00:00+00:00	1
1929-03-14 00:00:00+00:00	1
1929-03-15 00:00:00+00:00	1
1929-03-16 00:00:00+00:00	1
1929-03-20 00:00:00+00:00	1
1929-03-21 00:00:00+00:00	1
1929-03-22 00:00:00+00:00	1
1929-03-23 00:00:00+00:00	1
1929-03-28 00:00:00+00:00	1
1929-04-04 00:00:00+00:00	1
1929-04-05 00:00:00+00:00	1
1929-04-06 00:00:00+00:00	1
1929-04-07 00:00:00+00:00	1
1929-04-09 00:00:00+00:00	1
1929-04-10 00:00:00+00:00	1
1929-04-11 00:00:00+00:00	1
1929-04-12 00:00:00+00:00	1
1929-04-13 00:00:00+00:00	1
1929-04-14 00:00:00+00:00	1
1929-04-17 00:00:00+00:00	1
1929-04-18 00:00:00+00:00	1
1929-04-20 00:00:00+00:00	1
1929-04-25 00:00:00+00:00	1
1929-05-01 00:00:00+00:00	2
1929-05-02 00:00:00+00:00	1
1929-05-08 00:00:00+00:00	1
1929-05-10 00:00:00+00:00	1
1929-05-11 00:00:00+00:00	2
1929-05-15 00:00:00+00:00	1
1929-05-16 00:00:00+00:00	1
1929-05-17 00:00:00+00:00	1
1929-05-18 00:00:00+00:00	2
1929-05-19 00:00:00+00:00	1
1929-05-22 00:00:00+00:00	1
1929-05-24 00:00:00+00:00	1
1929-05-25 00:00:00+00:00	1
1929-05-26 00:00:00+00:00	1
1929-05-29 00:00:00+00:00	1
1929-05-30 00:00:00+00:00	1
1929-05-31 00:00:00+00:00	1
1929-06-01 00:00:00+00:00	1
1929-06-02 00:00:00+00:00	1
1929-06-05 00:00:00+00:00	1
1929-06-06 00:00:00+00:00	1
1929-06-07 00:00:00+00:00	1
1929-06-08 00:00:00+00:00	1
1929-06-09 00:00:00+00:00	1
1929-06-12 00:00:00+00:00	1
1929-06-13 00:00:00+00:00	1
1929-06-14 00:00:00+00:00	1
1929-06-15 00:00:00+00:00	1
1929-06-16 00:00:00+00:00	1
1929-06-17 00:00:00+00:00	1
1929-06-19 00:00:00+00:00	1
1929-06-20 00:00:00+00:00	1
1929-06-21 00:00:00+00:00	1
1929-06-22 00:00:00+00:00	1
1929-06-23 00:00:00+00:00	1
1929-06-25 00:00:00+00:00	1
1929-06-26 00:00:00+00:00	2
1929-06-27 00:00:00+00:00	1
1929-06-28 00:00:00+00:00	1
1929-07-03 00:00:00+00:00	1
1929-07-04 00:00:00+00:00	1
1929-07-06 00:00:00+00:00	1
1929-07-08 00:00:00+00:00	1
1929-07-09 00:00:00+00:00	1
1929-07-10 00:00:00+00:00	1
1929-07-11 00:00:00+00:00	1
1929-07-12 00:00:00+00:00	1
1929-07-13 00:00:00+00:00	1
1929-07-14 00:00:00+00:00	1
1929-07-15 00:00:00+00:00	1
1929-07-17 00:00:00+00:00	1
1929-07-18 00:00:00+00:00	1
1929-07-19 00:00:00+00:00	1
1929-07-20 00:00:00+00:00	1
1929-07-21 00:00:00+00:00	1
1929-07-22 00:00:00+00:00	1
1929-07-23 00:00:00+00:00	1
1929-07-24 00:00:00+00:00	1
1929-07-25 00:00:00+00:00	1
1929-07-26 00:00:00+00:00	1
1929-07-28 00:00:00+00:00	1
1929-07-31 00:00:00+00:00	1
1929-08-01 00:00:00+00:00	1
1929-08-02 00:00:00+00:00	1
1929-08-03 00:00:00+00:00	1
1929-08-04 00:00:00+00:00	1
1929-08-05 00:00:00+00:00	1
1929-08-06 00:00:00+00:00	1
1929-08-07 00:00:00+00:00	1
1929-08-08 00:00:00+00:00	1
1929-08-09 00:00:00+00:00	1
1929-08-11 00:00:00+00:00	1
1929-08-12 00:00:00+00:00	1
1929-08-14 00:00:00+00:00	1
1929-08-15 00:00:00+00:00	1
1929-08-16 00:00:00+00:00	1
1929-08-17 00:00:00+00:00	1
1929-08-18 00:00:00+00:00	1
1929-08-19 00:00:00+00:00	1
1929-08-21 00:00:00+00:00	1
1929-08-22 00:00:00+00:00	1
1929-08-23 00:00:00+00:00	1
1929-08-24 00:00:00+00:00	1
1929-08-25 00:00:00+00:00	1
1929-08-28 00:00:00+00:00	1
1929-08-29 00:00:00+00:00	1
1929-08-30 00:00:00+00:00	1
1929-08-31 00:00:00+00:00	1
1929-09-01 00:00:00+00:00	1
1929-09-04 00:00:00+00:00	1
1929-09-05 00:00:00+00:00	1
1929-09-06 00:00:00+00:00	1
1929-09-07 00:00:00+00:00	1
1929-09-09 00:00:00+00:00	1
1929-09-11 00:00:00+00:00	1
1929-09-12 00:00:00+00:00	1
1929-09-13 00:00:00+00:00	1
1929-09-14 00:00:00+00:00	1
1929-09-15 00:00:00+00:00	1
1929-09-16 00:00:00+00:00	1
1929-09-18 00:00:00+00:00	1
1929-09-19 00:00:00+00:00	1
1929-09-20 00:00:00+00:00	1
1929-09-21 00:00:00+00:00	2
1929-09-22 00:00:00+00:00	1
1929-09-23 00:00:00+00:00	1
1929-09-25 00:00:00+00:00	2
1929-09-27 00:00:00+00:00	1
1929-09-29 00:00:00+00:00	1
1929-09-30 00:00:00+00:00	1
1929-10-02 00:00:00+00:00	1
1929-10-04 00:00:00+00:00	1
1929-10-05 00:00:00+00:00	1
1929-10-06 00:00:00+00:00	1
1929-10-09 00:00:00+00:00	1
1929-10-10 00:00:00+00:00	1
1929-10-11 00:00:00+00:00	1
1929-10-12 00:00:00+00:00	1
1929-10-13 00:00:00+00:00	1
1929-10-17 00:00:00+00:00	1
1929-10-23 00:00:00+00:00	1
1929-10-25 00:00:00+00:00	1
1929-10-26 00:00:00+00:00	1
1929-10-27 00:00:00+00:00	1
1929-10-29 00:00:00+00:00	1
1929-11-03 00:00:00+00:00	1
1929-11-06 00:00:00+00:00	1
1929-11-07 00:00:00+00:00	1
1929-11-10 00:00:00+00:00	1
1929-11-15 00:00:00+00:00	1
1929-11-16 00:00:00+00:00	2
1929-11-20 00:00:00+00:00	1
1929-11-30 00:00:00+00:00	1
1929-12-07 00:00:00+00:00	1
1929-12-12 00:00:00+00:00	1
1929-12-14 00:00:00+00:00	1
1929-12-25 00:00:00+00:00	1
1929-12-28 00:00:00+00:00	1
1929-12-29 00:00:00+00:00	1
1930-01-01 00:00:00+00:00	11
1930-01-30 00:00:00+00:00	1
1930-02-01 00:00:00+00:00	1
1930-02-04 00:00:00+00:00	1
1930-02-08 00:00:00+00:00	2
1930-02-15 00:00:00+00:00	1
1930-03-23 00:00:00+00:00	1
1930-04-02 00:00:00+00:00	1
1930-04-04 00:00:00+00:00	1
1930-04-06 00:00:00+00:00	1
1930-04-18 00:00:00+00:00	1
1930-04-19 00:00:00+00:00	1
1930-04-24 00:00:00+00:00	1
1930-04-26 00:00:00+00:00	1
1930-05-02 00:00:00+00:00	1
1930-05-07 00:00:00+00:00	1
1930-05-08 00:00:00+00:00	1
1930-05-09 00:00:00+00:00	1
1930-05-10 00:00:00+00:00	1
1930-05-12 00:00:00+00:00	1
1930-05-16 00:00:00+00:00	1
1930-05-21 00:00:00+00:00	1
1930-05-24 00:00:00+00:00	1
1930-05-28 00:00:00+00:00	1
1930-05-29 00:00:00+00:00	1
1930-05-30 00:00:00+00:00	1
1930-05-31 00:00:00+00:00	1
1930-06-01 00:00:00+00:00	1
1930-06-05 00:00:00+00:00	2
1930-06-06 00:00:00+00:00	1
1930-06-07 00:00:00+00:00	1
1930-06-08 00:00:00+00:00	1
1930-06-13 00:00:00+00:00	1
1930-06-19 00:00:00+00:00	1
1930-06-22 00:00:00+00:00	1
1930-06-26 00:00:00+00:00	1
1930-06-28 00:00:00+00:00	1
1930-06-30 00:00:00+00:00	1
1930-07-02 00:00:00+00:00	1
1930-07-03 00:00:00+00:00	1
1930-07-04 00:00:00+00:00	1
1930-07-18 00:00:00+00:00	1
1930-07-19 00:00:00+00:00	1
1930-07-20 00:00:00+00:00	1
1930-07-26 00:00:00+00:00	1
1930-08-08 00:00:00+00:00	1
1930-08-10 00:00:00+00:00	1
1930-08-13 00:00:00+00:00	1
1930-08-14 00:00:00+00:00	1
1930-08-16 00:00:00+00:00	1
1930-08-21 00:00:00+00:00	1
1930-08-22 00:00:00+00:00	1
1930-08-24 00:00:00+00:00	1
1930-08-26 00:00:00+00:00	1
1930-08-27 00:00:00+00:00	1
1930-08-28 00:00:00+00:00	1
1930-08-29 00:00:00+00:00	1
1930-08-30 00:00:00+00:00	1
1930-08-31 00:00:00+00:00	2
1930-09-01 00:00:00+00:00	1
1930-09-03 00:00:00+00:00	1
1930-09-05 00:00:00+00:00	1
1930-09-09 00:00:00+00:00	1
1930-09-10 00:00:00+00:00	1
1930-09-30 00:00:00+00:00	1
1930-11-18 00:00:00+00:00	1
1930-12-15 00:00:00+00:00	1
1930-12-17 00:00:00+00:00	1
1931-01-01 00:00:00+00:00	14
1931-02-21 00:00:00+00:00	1
1931-03-25 00:00:00+00:00	1
1931-03-29 00:00:00+00:00	1
1931-06-10 00:00:00+00:00	1
1931-07-19 00:00:00+00:00	1
1931-08-02 00:00:00+00:00	1
1931-10-04 00:00:00+00:00	1
1931-11-01 00:00:00+00:00	1
1931-11-21 00:00:00+00:00	1
1932-01-01 00:00:00+00:00	2
1932-01-08 00:00:00+00:00	1
1932-02-21 00:00:00+00:00	2
1932-03-06 00:00:00+00:00	1
1932-04-08 00:00:00+00:00	1
1932-04-13 00:00:00+00:00	1
1932-04-14 00:00:00+00:00	1
1932-04-26 00:00:00+00:00	1
1932-05-07 00:00:00+00:00	1
1932-05-08 00:00:00+00:00	1
1932-05-10 00:00:00+00:00	1
1932-05-12 00:00:00+00:00	1
1932-05-14 00:00:00+00:00	1
1932-05-15 00:00:00+00:00	1
1932-06-01 00:00:00+00:00	1
1932-06-02 00:00:00+00:00	1
1932-11-06 00:00:00+00:00	1
1932-11-24 00:00:00+00:00	1
1932-12-04 00:00:00+00:00	1
1932-12-31 00:00:00+00:00	1
1933-01-01 00:00:00+00:00	12
1933-01-04 00:00:00+00:00	1
1933-01-21 00:00:00+00:00	2
1933-02-15 00:00:00+00:00	1
1933-02-26 00:00:00+00:00	1
1933-03-07 00:00:00+00:00	1
1933-04-09 00:00:00+00:00	1
1933-04-22 00:00:00+00:00	1
1933-05-19 00:00:00+00:00	1
1933-06-11 00:00:00+00:00	1
1933-09-11 00:00:00+00:00	1
1933-09-16 00:00:00+00:00	1
1933-11-30 00:00:00+00:00	1
1933-12-01 00:00:00+00:00	1
1933-12-03 00:00:00+00:00	1
1933-12-12 00:00:00+00:00	2
1933-12-13 00:00:00+00:00	1
1933-12-14 00:00:00+00:00	2
1933-12-23 00:00:00+00:00	2
1934-01-01 00:00:00+00:00	9
1934-01-14 00:00:00+00:00	1
1934-01-24 00:00:00+00:00	3
1934-02-01 00:00:00+00:00	1
1934-02-26 00:00:00+00:00	1
1934-03-02 00:00:00+00:00	1
1934-03-03 00:00:00+00:00	2
1934-03-06 00:00:00+00:00	1
1934-03-16 00:00:00+00:00	1
1934-03-31 00:00:00+00:00	6
1934-04-01 00:00:00+00:00	1
1934-05-27 00:00:00+00:00	1
1934-05-28 00:00:00+00:00	1
1934-06-17 00:00:00+00:00	1
1934-07-22 00:00:00+00:00	1
1934-07-31 00:00:00+00:00	1
1934-08-01 00:00:00+00:00	1
1934-09-17 00:00:00+00:00	1
1934-09-30 00:00:00+00:00	2
1934-11-04 00:00:00+00:00	1
1935-01-01 00:00:00+00:00	9
1935-03-10 00:00:00+00:00	1
1935-03-31 00:00:00+00:00	2
1935-05-01 00:00:00+00:00	1
1935-05-12 00:00:00+00:00	1
1935-08-27 00:00:00+00:00	1
1935-09-15 00:00:00+00:00	1
1935-10-01 00:00:00+00:00	1
1935-10-07 00:00:00+00:00	1
1935-11-02 00:00:00+00:00	2
1935-12-16 00:00:00+00:00	1
1935-12-21 00:00:00+00:00	1
1935-12-31 00:00:00+00:00	2
1936-01-01 00:00:00+00:00	17
1936-01-27 00:00:00+00:00	1
1936-01-31 00:00:00+00:00	1
1936-02-09 00:00:00+00:00	1
1936-02-23 00:00:00+00:00	1
1936-03-03 00:00:00+00:00	1
1936-03-08 00:00:00+00:00	1
1936-04-12 00:00:00+00:00	1
1936-04-26 00:00:00+00:00	1
1936-05-01 00:00:00+00:00	2
1936-05-05 00:00:00+00:00	1
1936-05-11 00:00:00+00:00	2
1936-06-14 00:00:00+00:00	1
1936-07-12 00:00:00+00:00	1
1936-08-02 00:00:00+00:00	1
1936-08-23 00:00:00+00:00	2
1936-08-30 00:00:00+00:00	1
1936-09-15 00:00:00+00:00	1
1936-10-01 00:00:00+00:00	2
1936-10-11 00:00:00+00:00	1
1936-10-25 00:00:00+00:00	1
1936-11-01 00:00:00+00:00	1
1936-11-08 00:00:00+00:00	1
1936-12-06 00:00:00+00:00	1
1936-12-25 00:00:00+00:00	1
1936-12-31 00:00:00+00:00	2
1937-01-01 00:00:00+00:00	9
1937-01-28 00:00:00+00:00	1
1937-02-09 00:00:00+00:00	1
1937-03-20 00:00:00+00:00	1
1937-03-31 00:00:00+00:00	2
1937-05-16 00:00:00+00:00	1
1937-06-10 00:00:00+00:00	1
1937-06-26 00:00:00+00:00	1
1937-09-22 00:00:00+00:00	1
1937-09-23 00:00:00+00:00	1
1937-10-31 00:00:00+00:00	1
1937-11-15 00:00:00+00:00	1
1938-01-01 00:00:00+00:00	17
1938-01-12 00:00:00+00:00	1
1938-01-30 00:00:00+00:00	1
1938-02-28 00:00:00+00:00	1
1938-03-01 00:00:00+00:00	1
1938-03-22 00:00:00+00:00	1
1938-04-13 00:00:00+00:00	1
1938-05-23 00:00:00+00:00	1
1938-05-24 00:00:00+00:00	2
1938-05-27 00:00:00+00:00	1
1938-05-29 00:00:00+00:00	1
1938-06-02 00:00:00+00:00	1
1938-06-03 00:00:00+00:00	1
1938-06-04 00:00:00+00:00	1
1938-06-11 00:00:00+00:00	2
1938-06-12 00:00:00+00:00	1
1938-06-14 00:00:00+00:00	1
1938-06-30 00:00:00+00:00	2
1938-09-10 00:00:00+00:00	1
1938-09-30 00:00:00+00:00	1
1938-10-13 00:00:00+00:00	1
1938-11-21 00:00:00+00:00	1
1938-12-03 00:00:00+00:00	1
1938-12-20 00:00:00+00:00	1
1938-12-21 00:00:00+00:00	2
1938-12-25 00:00:00+00:00	1
1939-01-01 00:00:00+00:00	9
1939-01-18 00:00:00+00:00	1
1939-01-29 00:00:00+00:00	1
1939-01-31 00:00:00+00:00	1
1939-02-20 00:00:00+00:00	1
1939-03-17 00:00:00+00:00	2
1939-03-25 00:00:00+00:00	1
1939-03-27 00:00:00+00:00	1
1939-05-03 00:00:00+00:00	1
1939-05-07 00:00:00+00:00	1
1939-05-13 00:00:00+00:00	1
1939-05-14 00:00:00+00:00	1
1939-05-19 00:00:00+00:00	1
1939-05-21 00:00:00+00:00	1
1939-05-23 00:00:00+00:00	1
1939-05-24 00:00:00+00:00	2
1939-06-01 00:00:00+00:00	1
1939-06-30 00:00:00+00:00	1
1941-07-15 00:00:00+00:00	1
1941-11-22 00:00:00+00:00	1
1944-04-15 00:00:00+00:00	1
1944-05-23 00:00:00+00:00	1
1944-09-24 00:00:00+00:00	1
1946-05-03 00:00:00+00:00	1
1947-01-01 00:00:00+00:00	1
1947-04-13 00:00:00+00:00	1
1947-07-01 00:00:00+00:00	1
1948-01-01 00:00:00+00:00	4
1949-01-01 00:00:00+00:00	3
1949-11-16 00:00:00+00:00	1
1950-01-01 00:00:00+00:00	7
1950-03-02 00:00:00+00:00	1
1950-06-01 00:00:00+00:00	1
1950-11-03 00:00:00+00:00	1
1951-01-01 00:00:00+00:00	1
1951-02-01 00:00:00+00:00	1
1952-01-01 00:00:00+00:00	3
1952-10-01 00:00:00+00:00	1
1953-01-01 00:00:00+00:00	1
1954-01-01 00:00:00+00:00	1
1954-01-27 00:00:00+00:00	1
1954-12-04 00:00:00+00:00	1
1955-01-01 00:00:00+00:00	4
1955-01-03 00:00:00+00:00	4
1956-11-04 00:00:00+00:00	1
1957-01-01 00:00:00+00:00	2
1958-01-01 00:00:00+00:00	1
1958-05-15 00:00:00+00:00	2
1959-01-01 00:00:00+00:00	4
1960-01-01 00:00:00+00:00	4
1962-01-01 00:00:00+00:00	1
1962-09-12 00:00:00+00:00	1
1963-01-01 00:00:00+00:00	1
1964-01-01 00:00:00+00:00	2
1965-07-31 00:00:00+00:00	3
1967-05-19 00:00:00+00:00	1
1968-01-01 00:00:00+00:00	4
1969-01-01 00:00:00+00:00	1
1970-01-17 00:00:00+00:00	1
1971-01-01 00:00:00+00:00	9
1972-01-01 00:00:00+00:00	1
1972-02-06 00:00:00+00:00	1
1972-02-10 00:00:00+00:00	1
1972-07-09 00:00:00+00:00	1
1972-10-18 00:00:00+00:00	1
1973-01-01 00:00:00+00:00	2
1973-07-26 00:00:00+00:00	1
1973-11-09 00:00:00+00:00	1
1973-11-13 00:00:00+00:00	1
1974-01-01 00:00:00+00:00	4
1974-04-30 00:00:00+00:00	1
1975-01-01 00:00:00+00:00	1
1977-01-01 00:00:00+00:00	1
1978-01-01 00:00:00+00:00	2
1978-05-27 00:00:00+00:00	1
1979-01-01 00:00:00+00:00	4
1979-07-07 00:00:00+00:00	1
1980-01-01 00:00:00+00:00	9
1980-09-10 00:00:00+00:00	1
1981-01-01 00:00:00+00:00	5
1981-09-16 00:00:00+00:00	1
1981-10-13 00:00:00+00:00	1
1982-01-01 00:00:00+00:00	2
1982-09-08 00:00:00+00:00	1
1983-01-01 00:00:00+00:00	5
1983-09-07 00:00:00+00:00	1
1984-01-01 00:00:00+00:00	2
1984-04-18 00:00:00+00:00	1
1985-01-01 00:00:00+00:00	4
1986-01-01 00:00:00+00:00	10
1987-01-01 00:00:00+00:00	5
1987-09-16 00:00:00+00:00	1
1988-01-01 00:00:00+00:00	9
1989-01-01 00:00:00+00:00	8
1989-03-04 00:00:00+00:00	1
1990-01-01 00:00:00+00:00	13
1990-08-15 00:00:00+00:00	1
1991-01-01 00:00:00+00:00	1
1991-04-24 00:00:00+00:00	1
1992-01-01 00:00:00+00:00	2
1992-10-06 00:00:00+00:00	1
1992-10-08 00:00:00+00:00	1
1993-01-01 00:00:00+00:00	9
1993-06-04 00:00:00+00:00	1
1993-07-17 00:00:00+00:00	1
1994-01-01 00:00:00+00:00	8
1994-09-06 00:00:00+00:00	1
1994-09-10 00:00:00+00:00	1
1994-12-03 00:00:00+00:00	1
1995-01-01 00:00:00+00:00	4
1995-06-28 00:00:00+00:00	1
1995-07-19 00:00:00+00:00	1
1996-01-01 00:00:00+00:00	13
1997-01-01 00:00:00+00:00	8
1997-08-27 00:00:00+00:00	1
1998-01-01 00:00:00+00:00	7
1998-11-17 00:00:00+00:00	1
1999-01-01 00:00:00+00:00	4
1999-10-04 00:00:00+00:00	1
1999-11-30 00:00:00+00:00	1
2000-01-01 00:00:00+00:00	4
2000-03-31 00:00:00+00:00	1
2000-04-23 00:00:00+00:00	1
2000-07-18 00:00:00+00:00	1
2001-01-01 00:00:00+00:00	7
2001-03-23 00:00:00+00:00	1
2001-05-31 00:00:00+00:00	1
2001-09-04 00:00:00+00:00	1
2002-01-04 00:00:00+00:00	1
2002-01-19 00:00:00+00:00	1
2002-06-07 00:00:00+00:00	4
2002-09-17 00:00:00+00:00	1
2003-01-01 00:00:00+00:00	4
2003-01-31 00:00:00+00:00	1
