1934-12-13 00:00:00+00:00	1
1976-01-01 00:00:00+00:00	1
1977-01-01 00:00:00+00:00	1
1994-01-01 00:00:00+00:00	2
1999-01-01 00:00:00+00:00	3
2000-01-01 00:00:00+00:00	2
2000-02-24 00:00:00+00:00	1
2000-12-12 00:00:00+00:00	1
2003-01-01 00:00:00+00:00	6
2003-06-27 00:00:00+00:00	1
2003-08-27 00:00:00+00:00	1
2003-12-12 00:00:00+00:00	1
