1824-01-01 00:00:00+00:00	1
1826-01-01 00:00:00+00:00	1
1827-01-01 00:00:00+00:00	2
1830-11-13 00:00:00+00:00	1
1833-01-01 00:00:00+00:00	1
1834-01-01 00:00:00+00:00	1
1836-01-01 00:00:00+00:00	1
1838-01-01 00:00:00+00:00	1
1838-03-10 00:00:00+00:00	1
1842-01-01 00:00:00+00:00	1
1842-02-01 00:00:00+00:00	1
1843-01-01 00:00:00+00:00	6
1843-03-27 00:00:00+00:00	1
1844-01-01 00:00:00+00:00	1
1848-01-01 00:00:00+00:00	1
1851-01-01 00:00:00+00:00	1
1853-01-01 00:00:00+00:00	1
1854-01-01 00:00:00+00:00	1
1855-01-01 00:00:00+00:00	3
1857-01-01 00:00:00+00:00	6
1858-01-01 00:00:00+00:00	1
1859-01-01 00:00:00+00:00	3
1860-01-01 00:00:00+00:00	4
1861-01-01 00:00:00+00:00	2
1863-01-01 00:00:00+00:00	1
1866-01-01 00:00:00+00:00	1
1867-01-01 00:00:00+00:00	6
1868-01-01 00:00:00+00:00	1
1870-01-01 00:00:00+00:00	1
1871-01-01 00:00:00+00:00	1
1872-01-01 00:00:00+00:00	1
1874-01-01 00:00:00+00:00	7
1874-09-03 00:00:00+00:00	1
1874-09-09 00:00:00+00:00	1
1875-01-01 00:00:00+00:00	9
1876-01-01 00:00:00+00:00	1
1877-01-01 00:00:00+00:00	6
1878-01-01 00:00:00+00:00	2
1883-01-01 00:00:00+00:00	7
1883-03-29 00:00:00+00:00	1
1883-04-07 00:00:00+00:00	1
1884-01-01 00:00:00+00:00	13
1884-01-28 00:00:00+00:00	1
1884-03-08 00:00:00+00:00	1
1884-03-13 00:00:00+00:00	2
1884-03-14 00:00:00+00:00	2
1884-03-15 00:00:00+00:00	4
1884-03-16 00:00:00+00:00	3
1884-03-18 00:00:00+00:00	1
1884-03-19 00:00:00+00:00	2
1884-03-21 00:00:00+00:00	1
1884-09-03 00:00:00+00:00	1
1884-09-06 00:00:00+00:00	3
1884-09-13 00:00:00+00:00	1
1884-11-25 00:00:00+00:00	1
1884-12-31 00:00:00+00:00	1
1885-01-01 00:00:00+00:00	3
1885-02-13 00:00:00+00:00	1
1885-04-12 00:00:00+00:00	1
1885-07-01 00:00:00+00:00	1
1885-07-18 00:00:00+00:00	1
1886-01-01 00:00:00+00:00	2
1886-04-25 00:00:00+00:00	1
1886-05-23 00:00:00+00:00	1
1886-07-03 00:00:00+00:00	1
1886-07-24 00:00:00+00:00	1
1886-07-31 00:00:00+00:00	1
1886-08-07 00:00:00+00:00	1
1886-08-14 00:00:00+00:00	1
1886-08-21 00:00:00+00:00	1
1887-01-01 00:00:00+00:00	34
1887-08-18 00:00:00+00:00	1
1887-08-20 00:00:00+00:00	1
1887-08-22 00:00:00+00:00	2
1887-08-23 00:00:00+00:00	2
1887-08-26 00:00:00+00:00	1
1887-08-27 00:00:00+00:00	1
1887-08-29 00:00:00+00:00	1
1887-08-30 00:00:00+00:00	1
1887-08-31 00:00:00+00:00	1
1887-09-01 00:00:00+00:00	1
1887-09-05 00:00:00+00:00	1
1887-09-13 00:00:00+00:00	2
1887-09-14 00:00:00+00:00	2
1887-09-15 00:00:00+00:00	1
1887-10-05 00:00:00+00:00	2
1887-10-06 00:00:00+00:00	2
1887-10-18 00:00:00+00:00	1
1887-10-21 00:00:00+00:00	2
1887-10-27 00:00:00+00:00	1
1887-10-28 00:00:00+00:00	2
1887-11-08 00:00:00+00:00	1
1887-11-09 00:00:00+00:00	2
1887-11-22 00:00:00+00:00	1
1887-11-25 00:00:00+00:00	1
1887-11-26 00:00:00+00:00	1
1887-11-28 00:00:00+00:00	1
1887-11-29 00:00:00+00:00	1
1887-12-05 00:00:00+00:00	1
1887-12-06 00:00:00+00:00	1
1887-12-07 00:00:00+00:00	2
1887-12-09 00:00:00+00:00	2
1887-12-10 00:00:00+00:00	2
1887-12-15 00:00:00+00:00	1
1887-12-19 00:00:00+00:00	1
1887-12-20 00:00:00+00:00	1
1888-01-01 00:00:00+00:00	34
1888-01-08 00:00:00+00:00	2
1889-01-01 00:00:00+00:00	5
1889-04-18 00:00:00+00:00	1
1889-04-25 00:00:00+00:00	1
1889-08-18 00:00:00+00:00	2
1890-01-01 00:00:00+00:00	2
1890-08-18 00:00:00+00:00	1
1891-01-01 00:00:00+00:00	3
1892-01-01 00:00:00+00:00	9
1892-06-25 00:00:00+00:00	2
1892-11-13 00:00:00+00:00	1
1893-01-01 00:00:00+00:00	9
1894-01-01 00:00:00+00:00	8
1894-10-31 00:00:00+00:00	1
1894-11-28 00:00:00+00:00	1
1895-01-01 00:00:00+00:00	16
1895-02-22 00:00:00+00:00	1
1895-03-01 00:00:00+00:00	1
1895-03-10 00:00:00+00:00	1
1895-03-16 00:00:00+00:00	1
1895-04-06 00:00:00+00:00	2
1895-04-19 00:00:00+00:00	1
1895-04-23 00:00:00+00:00	2
1895-04-24 00:00:00+00:00	2
1895-04-26 00:00:00+00:00	1
1895-05-05 00:00:00+00:00	1
1895-05-20 00:00:00+00:00	1
1895-05-28 00:00:00+00:00	1
1895-05-29 00:00:00+00:00	1
1895-05-30 00:00:00+00:00	1
1895-05-31 00:00:00+00:00	2
1895-06-01 00:00:00+00:00	1
1895-06-07 00:00:00+00:00	2
1895-06-08 00:00:00+00:00	1
1895-06-21 00:00:00+00:00	1
1895-07-27 00:00:00+00:00	1
1895-08-24 00:00:00+00:00	1
1895-10-01 00:00:00+00:00	1
1895-12-05 00:00:00+00:00	1
1896-01-01 00:00:00+00:00	17
1896-01-11 00:00:00+00:00	1
1896-02-02 00:00:00+00:00	1
1896-03-06 00:00:00+00:00	1
1896-08-30 00:00:00+00:00	1
1896-11-01 00:00:00+00:00	1
1897-01-01 00:00:00+00:00	3
1897-01-31 00:00:00+00:00	1
1897-12-09 00:00:00+00:00	1
1897-12-24 00:00:00+00:00	1
1898-01-01 00:00:00+00:00	17
1898-08-12 00:00:00+00:00	1
1899-01-01 00:00:00+00:00	6
1899-04-13 00:00:00+00:00	1
1900-01-01 00:00:00+00:00	8
1900-08-11 00:00:00+00:00	1
1900-08-19 00:00:00+00:00	1
1900-09-01 00:00:00+00:00	1
1901-01-01 00:00:00+00:00	18
1901-05-09 00:00:00+00:00	1
1902-01-01 00:00:00+00:00	5
1903-01-01 00:00:00+00:00	11
1903-11-01 00:00:00+00:00	1
1903-12-31 00:00:00+00:00	1
1904-01-01 00:00:00+00:00	12
1904-01-19 00:00:00+00:00	1
1904-02-13 00:00:00+00:00	1
1904-02-18 00:00:00+00:00	1
1904-02-24 00:00:00+00:00	1
1904-03-02 00:00:00+00:00	1
1904-04-12 00:00:00+00:00	1
1904-05-11 00:00:00+00:00	2
1904-05-12 00:00:00+00:00	1
1904-05-14 00:00:00+00:00	1
1904-06-01 00:00:00+00:00	1
1904-06-10 00:00:00+00:00	1
1904-07-27 00:00:00+00:00	2
1904-07-28 00:00:00+00:00	4
1904-07-29 00:00:00+00:00	3
1904-07-30 00:00:00+00:00	1
1904-10-19 00:00:00+00:00	1
1904-11-26 00:00:00+00:00	1
1905-01-01 00:00:00+00:00	8
1905-01-08 00:00:00+00:00	1
1905-04-15 00:00:00+00:00	1
1905-04-16 00:00:00+00:00	1
1905-04-18 00:00:00+00:00	2
1905-04-19 00:00:00+00:00	1
1905-04-20 00:00:00+00:00	2
1905-04-21 00:00:00+00:00	1
1905-04-29 00:00:00+00:00	1
1905-05-03 00:00:00+00:00	1
1905-05-04 00:00:00+00:00	1
1905-05-07 00:00:00+00:00	1
1905-05-12 00:00:00+00:00	1
1905-05-14 00:00:00+00:00	1
1905-05-18 00:00:00+00:00	1
1905-05-21 00:00:00+00:00	1
1905-05-30 00:00:00+00:00	2
1905-06-09 00:00:00+00:00	1
1905-07-10 00:00:00+00:00	1
1906-01-01 00:00:00+00:00	8
1906-03-23 00:00:00+00:00	1
1906-03-25 00:00:00+00:00	1
1906-04-18 00:00:00+00:00	1
1906-06-02 00:00:00+00:00	1
1906-08-21 00:00:00+00:00	1
1906-10-31 00:00:00+00:00	1
1906-12-16 00:00:00+00:00	1
1907-01-01 00:00:00+00:00	10
1907-05-11 00:00:00+00:00	1
1908-01-01 00:00:00+00:00	7
1908-07-08 00:00:00+00:00	1
1908-09-28 00:00:00+00:00	1
1909-01-01 00:00:00+00:00	8
1910-01-01 00:00:00+00:00	5
1910-08-14 00:00:00+00:00	1
1911-01-01 00:00:00+00:00	7
1911-05-20 00:00:00+00:00	1
1911-05-29 00:00:00+00:00	1
1911-06-03 00:00:00+00:00	1
1911-06-09 00:00:00+00:00	1
1911-06-26 00:00:00+00:00	1
1911-08-24 00:00:00+00:00	1
1912-01-01 00:00:00+00:00	4
1913-01-01 00:00:00+00:00	5
1914-01-01 00:00:00+00:00	6
1914-07-25 00:00:00+00:00	1
1914-12-10 00:00:00+00:00	1
1915-01-01 00:00:00+00:00	2
1915-04-22 00:00:00+00:00	1
1915-10-16 00:00:00+00:00	1
1916-08-14 00:00:00+00:00	1
1917-01-01 00:00:00+00:00	2
1917-01-16 00:00:00+00:00	1
1917-05-03 00:00:00+00:00	1
1917-05-16 00:00:00+00:00	1
1917-08-04 00:00:00+00:00	1
1918-01-01 00:00:00+00:00	1
1920-01-01 00:00:00+00:00	4
1921-01-01 00:00:00+00:00	5
1922-01-01 00:00:00+00:00	2
1922-03-18 00:00:00+00:00	1
1922-06-09 00:00:00+00:00	1
1922-06-22 00:00:00+00:00	1
1923-01-01 00:00:00+00:00	3
1923-09-06 00:00:00+00:00	1
1924-01-01 00:00:00+00:00	9
1924-05-01 00:00:00+00:00	1
1924-09-20 00:00:00+00:00	1
1924-11-15 00:00:00+00:00	1
1925-01-01 00:00:00+00:00	10
1925-03-01 00:00:00+00:00	1
1925-06-26 00:00:00+00:00	1
1926-01-01 00:00:00+00:00	9
1927-01-01 00:00:00+00:00	14
1927-04-20 00:00:00+00:00	1
1927-04-26 00:00:00+00:00	1
1927-05-11 00:00:00+00:00	1
1927-05-15 00:00:00+00:00	1
1927-07-22 00:00:00+00:00	1
1927-07-23 00:00:00+00:00	3
1927-08-03 00:00:00+00:00	1
1927-10-27 00:00:00+00:00	3
1927-10-28 00:00:00+00:00	3
1927-10-29 00:00:00+00:00	1
1927-10-30 00:00:00+00:00	3
1927-11-06 00:00:00+00:00	3
1927-12-07 00:00:00+00:00	1
1927-12-18 00:00:00+00:00	1
1928-01-01 00:00:00+00:00	18
1928-02-19 00:00:00+00:00	1
1928-04-26 00:00:00+00:00	2
1928-04-28 00:00:00+00:00	1
1928-04-29 00:00:00+00:00	2
1928-05-01 00:00:00+00:00	1
1928-05-02 00:00:00+00:00	1
1928-05-05 00:00:00+00:00	1
1928-05-08 00:00:00+00:00	2
1928-08-05 00:00:00+00:00	1
1928-08-15 00:00:00+00:00	1
1928-08-19 00:00:00+00:00	1
1928-11-01 00:00:00+00:00	1
1928-12-06 00:00:00+00:00	1
1929-01-01 00:00:00+00:00	15
1929-04-28 00:00:00+00:00	1
1929-04-29 00:00:00+00:00	1
1929-07-15 00:00:00+00:00	1
1929-07-28 00:00:00+00:00	1
1930-01-01 00:00:00+00:00	16
1930-01-15 00:00:00+00:00	1
1930-05-24 00:00:00+00:00	1
1930-05-25 00:00:00+00:00	2
1930-05-26 00:00:00+00:00	1
1930-08-29 00:00:00+00:00	1
1930-10-30 00:00:00+00:00	1
1930-10-31 00:00:00+00:00	1
1930-11-01 00:00:00+00:00	2
1930-12-07 00:00:00+00:00	1
1930-12-23 00:00:00+00:00	1
1930-12-24 00:00:00+00:00	1
1931-01-01 00:00:00+00:00	11
1931-01-08 00:00:00+00:00	1
1931-01-09 00:00:00+00:00	1
1931-01-11 00:00:00+00:00	1
1931-02-01 00:00:00+00:00	1
1931-05-25 00:00:00+00:00	1
1931-09-30 00:00:00+00:00	1
1931-10-16 00:00:00+00:00	1
1931-12-27 00:00:00+00:00	1
1932-01-01 00:00:00+00:00	22
1932-02-25 00:00:00+00:00	1
1932-08-27 00:00:00+00:00	1
1932-08-28 00:00:00+00:00	1
1932-12-11 00:00:00+00:00	1
1932-12-29 00:00:00+00:00	1
1933-01-01 00:00:00+00:00	13
1933-03-25 00:00:00+00:00	1
1933-04-01 00:00:00+00:00	1
1933-08-24 00:00:00+00:00	1
1933-10-12 00:00:00+00:00	1
1933-11-03 00:00:00+00:00	1
1933-11-18 00:00:00+00:00	1
1934-01-01 00:00:00+00:00	11
1934-01-24 00:00:00+00:00	1
1934-02-22 00:00:00+00:00	1
1934-03-31 00:00:00+00:00	1
1934-05-20 00:00:00+00:00	1
1934-07-14 00:00:00+00:00	1
1934-07-15 00:00:00+00:00	1
1934-08-01 00:00:00+00:00	1
1934-08-27 00:00:00+00:00	1
1934-10-27 00:00:00+00:00	1
1934-10-28 00:00:00+00:00	2
1934-11-04 00:00:00+00:00	1
1935-01-01 00:00:00+00:00	41
1935-02-02 00:00:00+00:00	1
1935-02-11 00:00:00+00:00	1
1935-04-23 00:00:00+00:00	4
1935-04-24 00:00:00+00:00	10
1935-04-25 00:00:00+00:00	3
1935-04-26 00:00:00+00:00	7
1935-04-27 00:00:00+00:00	2
1935-04-28 00:00:00+00:00	2
1935-04-29 00:00:00+00:00	1
1935-05-03 00:00:00+00:00	1
1935-05-04 00:00:00+00:00	2
1935-05-05 00:00:00+00:00	5
1935-05-07 00:00:00+00:00	1
1935-05-09 00:00:00+00:00	1
1935-05-10 00:00:00+00:00	1
1935-05-12 00:00:00+00:00	2
1935-05-18 00:00:00+00:00	1
1935-05-19 00:00:00+00:00	1
1935-06-11 00:00:00+00:00	2
1935-06-12 00:00:00+00:00	3
1935-06-13 00:00:00+00:00	2
1935-06-19 00:00:00+00:00	1
1935-06-20 00:00:00+00:00	1
1935-07-01 00:00:00+00:00	1
1935-07-12 00:00:00+00:00	1
1935-07-14 00:00:00+00:00	1
1935-07-21 00:00:00+00:00	1
1935-07-30 00:00:00+00:00	4
1935-08-14 00:00:00+00:00	3
1935-09-01 00:00:00+00:00	1
1935-09-25 00:00:00+00:00	1
1935-10-06 00:00:00+00:00	1
1935-10-20 00:00:00+00:00	2
1935-12-01 00:00:00+00:00	1
1935-12-28 00:00:00+00:00	1
1936-01-01 00:00:00+00:00	16
1936-01-12 00:00:00+00:00	2
1936-01-19 00:00:00+00:00	1
1936-01-26 00:00:00+00:00	1
1936-02-28 00:00:00+00:00	1
1936-03-15 00:00:00+00:00	1
1936-04-01 00:00:00+00:00	1
1936-05-01 00:00:00+00:00	1
1936-06-01 00:00:00+00:00	1
1936-06-07 00:00:00+00:00	1
1936-06-10 00:00:00+00:00	1
1936-07-27 00:00:00+00:00	1
1936-08-18 00:00:00+00:00	2
1936-09-01 00:00:00+00:00	1
1936-09-10 00:00:00+00:00	1
1936-10-29 00:00:00+00:00	1
1936-11-29 00:00:00+00:00	1
1937-01-01 00:00:00+00:00	29
1937-02-01 00:00:00+00:00	1
1937-04-01 00:00:00+00:00	1
1937-05-22 00:00:00+00:00	1
1937-05-27 00:00:00+00:00	1
1937-06-01 00:00:00+00:00	1
1937-06-02 00:00:00+00:00	1
1937-06-07 00:00:00+00:00	1
1937-07-24 00:00:00+00:00	1
1937-07-30 00:00:00+00:00	1
1937-08-04 00:00:00+00:00	2
1937-08-07 00:00:00+00:00	1
1937-09-01 00:00:00+00:00	1
1937-09-02 00:00:00+00:00	1
1937-09-09 00:00:00+00:00	1
1937-09-17 00:00:00+00:00	1
1937-09-18 00:00:00+00:00	2
1937-09-25 00:00:00+00:00	1
1937-10-03 00:00:00+00:00	1
1937-10-31 00:00:00+00:00	1
1937-11-07 00:00:00+00:00	2
1938-01-01 00:00:00+00:00	11
1938-01-20 00:00:00+00:00	2
1938-01-21 00:00:00+00:00	1
1938-01-27 00:00:00+00:00	2
1938-02-03 00:00:00+00:00	1
1938-02-07 00:00:00+00:00	1
1938-02-13 00:00:00+00:00	1
1938-03-01 00:00:00+00:00	2
1938-04-10 00:00:00+00:00	1
1938-04-11 00:00:00+00:00	1
1938-04-16 00:00:00+00:00	1
1938-05-01 00:00:00+00:00	1
1938-06-01 00:00:00+00:00	1
1938-06-12 00:00:00+00:00	1
1938-06-28 00:00:00+00:00	1
1938-07-02 00:00:00+00:00	1
1938-10-01 00:00:00+00:00	1
1938-11-22 00:00:00+00:00	2
1938-11-23 00:00:00+00:00	2
1938-12-01 00:00:00+00:00	1
1938-12-16 00:00:00+00:00	1
1938-12-20 00:00:00+00:00	1
1938-12-29 00:00:00+00:00	1
1939-01-01 00:00:00+00:00	16
1939-01-28 00:00:00+00:00	1
1939-02-01 00:00:00+00:00	3
1939-02-03 00:00:00+00:00	1
1939-02-13 00:00:00+00:00	1
1939-02-19 00:00:00+00:00	2
1939-02-22 00:00:00+00:00	1
1939-03-12 00:00:00+00:00	1
1939-04-08 00:00:00+00:00	1
1939-04-09 00:00:00+00:00	1
1939-04-30 00:00:00+00:00	1
1939-05-14 00:00:00+00:00	1
1939-07-23 00:00:00+00:00	2
1939-08-07 00:00:00+00:00	1
1939-08-13 00:00:00+00:00	2
1940-01-01 00:00:00+00:00	1
1940-04-16 00:00:00+00:00	1
1940-07-18 00:00:00+00:00	1
1941-11-04 00:00:00+00:00	1
1941-11-05 00:00:00+00:00	1
1941-12-17 00:00:00+00:00	1
1942-01-01 00:00:00+00:00	2
1942-01-06 00:00:00+00:00	1
1942-01-15 00:00:00+00:00	1
1943-01-01 00:00:00+00:00	1
1943-02-21 00:00:00+00:00	1
1943-05-22 00:00:00+00:00	2
1943-11-07 00:00:00+00:00	2
1943-11-26 00:00:00+00:00	1
1944-01-01 00:00:00+00:00	1
1944-05-01 00:00:00+00:00	1
1944-05-31 00:00:00+00:00	1
1944-08-23 00:00:00+00:00	1
1944-09-17 00:00:00+00:00	2
1944-10-17 00:00:00+00:00	1
1944-10-20 00:00:00+00:00	1
1944-10-22 00:00:00+00:00	1
1945-01-01 00:00:00+00:00	7
1945-12-19 00:00:00+00:00	1
1947-01-01 00:00:00+00:00	2
1947-03-12 00:00:00+00:00	1
1948-01-01 00:00:00+00:00	2
1948-07-11 00:00:00+00:00	1
1948-10-14 00:00:00+00:00	1
1948-11-03 00:00:00+00:00	1
1949-01-01 00:00:00+00:00	9
1949-01-12 00:00:00+00:00	1
1949-02-27 00:00:00+00:00	1
1949-05-05 00:00:00+00:00	1
1949-05-06 00:00:00+00:00	1
1949-05-07 00:00:00+00:00	2
1949-05-10 00:00:00+00:00	1
1949-06-21 00:00:00+00:00	1
1949-08-01 00:00:00+00:00	1
1949-08-19 00:00:00+00:00	1
1949-09-08 00:00:00+00:00	1
1949-10-16 00:00:00+00:00	1
1949-10-18 00:00:00+00:00	1
1949-10-23 00:00:00+00:00	1
1949-11-10 00:00:00+00:00	1
1950-01-01 00:00:00+00:00	11
1950-01-05 00:00:00+00:00	1
1950-01-06 00:00:00+00:00	2
1950-01-08 00:00:00+00:00	1
1950-02-04 00:00:00+00:00	1
1950-02-12 00:00:00+00:00	1
1950-06-04 00:00:00+00:00	1
1950-06-18 00:00:00+00:00	1
1950-06-30 00:00:00+00:00	1
1950-07-01 00:00:00+00:00	3
1950-07-02 00:00:00+00:00	1
1950-07-03 00:00:00+00:00	1
1950-07-05 00:00:00+00:00	1
1950-07-08 00:00:00+00:00	1
1950-07-09 00:00:00+00:00	1
1950-07-12 00:00:00+00:00	1
1950-07-15 00:00:00+00:00	1
1950-07-26 00:00:00+00:00	1
1950-07-30 00:00:00+00:00	1
1950-08-20 00:00:00+00:00	1
1950-08-26 00:00:00+00:00	1
1950-08-27 00:00:00+00:00	1
1950-08-31 00:00:00+00:00	3
1950-09-01 00:00:00+00:00	2
1950-09-02 00:00:00+00:00	2
1950-09-05 00:00:00+00:00	1
1950-09-06 00:00:00+00:00	1
1950-09-09 00:00:00+00:00	1
1950-09-10 00:00:00+00:00	1
1950-09-14 00:00:00+00:00	1
1950-09-20 00:00:00+00:00	2
1950-09-21 00:00:00+00:00	2
1950-09-23 00:00:00+00:00	1
1950-09-25 00:00:00+00:00	1
1950-09-27 00:00:00+00:00	2
1950-09-28 00:00:00+00:00	1
1950-09-30 00:00:00+00:00	1
1950-10-02 00:00:00+00:00	3
1950-10-10 00:00:00+00:00	1
1950-10-13 00:00:00+00:00	1
1950-10-15 00:00:00+00:00	1
1950-10-16 00:00:00+00:00	1
1950-10-28 00:00:00+00:00	1
1950-11-07 00:00:00+00:00	1
1950-11-15 00:00:00+00:00	2
1950-11-16 00:00:00+00:00	1
1950-11-23 00:00:00+00:00	1
1950-11-24 00:00:00+00:00	2
1950-11-25 00:00:00+00:00	2
1950-11-26 00:00:00+00:00	2
1950-11-28 00:00:00+00:00	1
1950-11-29 00:00:00+00:00	1
1950-12-03 00:00:00+00:00	1
1950-12-09 00:00:00+00:00	1
1950-12-12 00:00:00+00:00	1
1950-12-24 00:00:00+00:00	1
1950-12-27 00:00:00+00:00	2
1951-01-01 00:00:00+00:00	8
1951-01-20 00:00:00+00:00	1
1951-01-28 00:00:00+00:00	1
1951-02-03 00:00:00+00:00	1
1951-02-04 00:00:00+00:00	1
1951-02-07 00:00:00+00:00	1
1951-05-20 00:00:00+00:00	1
1951-06-24 00:00:00+00:00	1
1951-09-01 00:00:00+00:00	1
1951-09-09 00:00:00+00:00	1
1951-09-10 00:00:00+00:00	1
1951-09-16 00:00:00+00:00	1
1952-05-24 00:00:00+00:00	1
1952-09-03 00:00:00+00:00	1
1953-01-01 00:00:00+00:00	2
1953-03-08 00:00:00+00:00	1
1953-04-12 00:00:00+00:00	1
1953-09-25 00:00:00+00:00	1
1953-10-01 00:00:00+00:00	1
1953-11-01 00:00:00+00:00	1
1953-11-03 00:00:00+00:00	1
1954-01-01 00:00:00+00:00	1
1954-01-26 00:00:00+00:00	1
1954-02-28 00:00:00+00:00	1
1954-05-07 00:00:00+00:00	1
1954-05-08 00:00:00+00:00	1
1954-05-17 00:00:00+00:00	1
1954-06-07 00:00:00+00:00	1
1954-06-12 00:00:00+00:00	1
1954-07-10 00:00:00+00:00	1
1954-07-24 00:00:00+00:00	1
1954-07-25 00:00:00+00:00	1
1954-08-01 00:00:00+00:00	1
1954-08-20 00:00:00+00:00	1
1954-08-31 00:00:00+00:00	1
1954-11-28 00:00:00+00:00	1
1955-01-01 00:00:00+00:00	3
1955-01-30 00:00:00+00:00	1
1955-01-31 00:00:00+00:00	1
1955-02-11 00:00:00+00:00	1
1955-02-12 00:00:00+00:00	2
1955-02-15 00:00:00+00:00	1
1955-02-28 00:00:00+00:00	1
1955-03-03 00:00:00+00:00	1
1955-03-24 00:00:00+00:00	1
1955-04-17 00:00:00+00:00	1
1955-06-30 00:00:00+00:00	1
1955-07-01 00:00:00+00:00	2
1956-01-01 00:00:00+00:00	11
1956-11-22 00:00:00+00:00	1
1956-11-23 00:00:00+00:00	1
1956-11-24 00:00:00+00:00	1
1956-11-25 00:00:00+00:00	1
1956-11-29 00:00:00+00:00	1
1956-11-30 00:00:00+00:00	1
1957-01-01 00:00:00+00:00	2
1957-05-29 00:00:00+00:00	1
1957-07-25 00:00:00+00:00	1
1958-01-01 00:00:00+00:00	6
1958-07-09 00:00:00+00:00	1
1958-08-30 00:00:00+00:00	1
1958-09-10 00:00:00+00:00	1
1958-09-12 00:00:00+00:00	1
1958-10-01 00:00:00+00:00	1
1958-10-15 00:00:00+00:00	1
1959-01-01 00:00:00+00:00	6
1960-01-01 00:00:00+00:00	7
1960-06-04 00:00:00+00:00	1
1960-10-31 00:00:00+00:00	1
1961-01-01 00:00:00+00:00	5
1961-08-12 00:00:00+00:00	1
1962-01-01 00:00:00+00:00	3
1963-01-01 00:00:00+00:00	2
1964-01-01 00:00:00+00:00	2
1965-01-01 00:00:00+00:00	2
1966-01-01 00:00:00+00:00	1
1967-01-01 00:00:00+00:00	3
1968-01-01 00:00:00+00:00	1
1968-07-20 00:00:00+00:00	1
1969-01-01 00:00:00+00:00	2
1969-02-07 00:00:00+00:00	1
1970-01-01 00:00:00+00:00	4
1970-11-20 00:00:00+00:00	1
1971-01-01 00:00:00+00:00	4
1971-07-27 00:00:00+00:00	1
1971-08-06 00:00:00+00:00	1
1972-01-01 00:00:00+00:00	7
1972-01-23 00:00:00+00:00	1
1972-05-26 00:00:00+00:00	1
1973-01-01 00:00:00+00:00	2
1974-01-01 00:00:00+00:00	2
1975-01-01 00:00:00+00:00	2
1976-01-01 00:00:00+00:00	2
1976-02-06 00:00:00+00:00	1
1976-02-20 00:00:00+00:00	1
1976-07-14 00:00:00+00:00	1
1976-08-18 00:00:00+00:00	1
1976-09-15 00:00:00+00:00	1
1976-09-29 00:00:00+00:00	1
1977-01-01 00:00:00+00:00	1
1978-01-01 00:00:00+00:00	2
1981-01-01 00:00:00+00:00	1
1985-01-01 00:00:00+00:00	1
1986-08-27 00:00:00+00:00	1
1987-01-01 00:00:00+00:00	2
1987-03-08 00:00:00+00:00	1
1988-01-01 00:00:00+00:00	4
1989-01-01 00:00:00+00:00	1
1992-08-26 00:00:00+00:00	1
1993-01-01 00:00:00+00:00	2
1994-01-01 00:00:00+00:00	2
1995-01-01 00:00:00+00:00	2
1995-12-02 00:00:00+00:00	1
1996-01-01 00:00:00+00:00	2
1997-01-01 00:00:00+00:00	1
1997-08-11 00:00:00+00:00	1
2000-05-25 00:00:00+00:00	1
2001-01-01 00:00:00+00:00	1
2001-02-10 00:00:00+00:00	1
2002-01-01 00:00:00+00:00	1
2002-12-11 00:00:00+00:00	1
2003-01-01 00:00:00+00:00	3
2003-09-05 00:00:00+00:00	1
