1829-01-01 00:00:00+00:00	1
1863-07-02 00:00:00+00:00	1
1867-03-31 00:00:00+00:00	1
1877-07-31 00:00:00+00:00	1
1877-12-07 00:00:00+00:00	1
1879-06-08 00:00:00+00:00	1
1880-08-08 00:00:00+00:00	1
1881-01-01 00:00:00+00:00	1
1885-05-03 00:00:00+00:00	1
1885-09-18 00:00:00+00:00	1
1885-10-07 00:00:00+00:00	1
1888-12-13 00:00:00+00:00	1
1890-08-10 00:00:00+00:00	1
1893-08-23 00:00:00+00:00	1
1893-10-07 00:00:00+00:00	1
1897-06-13 00:00:00+00:00	1
1897-06-26 00:00:00+00:00	1
1897-08-03 00:00:00+00:00	1
1897-09-25 00:00:00+00:00	1
1898-02-01 00:00:00+00:00	1
1898-02-05 00:00:00+00:00	1
1898-02-17 00:00:00+00:00	1
1898-04-02 00:00:00+00:00	1
1898-07-03 00:00:00+00:00	1
1898-08-11 00:00:00+00:00	1
1898-08-21 00:00:00+00:00	1
1898-09-04 00:00:00+00:00	1
1899-04-26 00:00:00+00:00	1
1899-05-20 00:00:00+00:00	1
1899-05-31 00:00:00+00:00	1
1899-06-17 00:00:00+00:00	1
1899-06-25 00:00:00+00:00	1
1899-07-16 00:00:00+00:00	1
1899-09-15 00:00:00+00:00	1
1899-12-21 00:00:00+00:00	1
1899-12-29 00:00:00+00:00	1
1900-01-02 00:00:00+00:00	1
1900-04-03 00:00:00+00:00	1
1901-05-04 00:00:00+00:00	1
1902-01-01 00:00:00+00:00	1
1903-04-04 00:00:00+00:00	1
1903-07-10 00:00:00+00:00	1
1903-08-06 00:00:00+00:00	1
1904-07-17 00:00:00+00:00	1
1904-10-14 00:00:00+00:00	1
1904-10-21 00:00:00+00:00	1
1905-09-02 00:00:00+00:00	1
1905-10-24 00:00:00+00:00	1
1905-11-02 00:00:00+00:00	1
1908-01-01 00:00:00+00:00	2
1908-05-06 00:00:00+00:00	1
1909-12-31 00:00:00+00:00	1
1915-02-13 00:00:00+00:00	1
1915-03-12 00:00:00+00:00	1
1915-08-21 00:00:00+00:00	1
1915-11-10 00:00:00+00:00	1
1915-11-25 00:00:00+00:00	1
1916-02-26 00:00:00+00:00	1
1917-02-27 00:00:00+00:00	1
1917-04-06 00:00:00+00:00	1
1917-11-08 00:00:00+00:00	1
1918-01-01 00:00:00+00:00	1
1919-07-23 00:00:00+00:00	1
1919-09-12 00:00:00+00:00	1
1920-01-01 00:00:00+00:00	1
1921-09-28 00:00:00+00:00	1
1922-02-15 00:00:00+00:00	1
1924-06-08 00:00:00+00:00	1
1925-01-01 00:00:00+00:00	1
1926-01-06 00:00:00+00:00	1
1926-11-20 00:00:00+00:00	1
1927-01-01 00:00:00+00:00	1
1927-11-30 00:00:00+00:00	1
1928-01-01 00:00:00+00:00	1
1930-05-03 00:00:00+00:00	1
1932-01-01 00:00:00+00:00	2
1932-01-16 00:00:00+00:00	1
1932-07-02 00:00:00+00:00	1
1932-07-15 00:00:00+00:00	1
1933-03-26 00:00:00+00:00	1
1933-10-29 00:00:00+00:00	1
1934-01-01 00:00:00+00:00	1
1935-01-01 00:00:00+00:00	3
1936-02-02 00:00:00+00:00	1
1937-01-01 00:00:00+00:00	1
1937-03-28 00:00:00+00:00	1
1937-06-29 00:00:00+00:00	1
1939-03-01 00:00:00+00:00	2
1953-01-01 00:00:00+00:00	1
1954-01-01 00:00:00+00:00	2
1957-01-01 00:00:00+00:00	1
1963-01-01 00:00:00+00:00	1
1966-01-01 00:00:00+00:00	1
1980-01-01 00:00:00+00:00	1
1981-01-01 00:00:00+00:00	5
1985-01-01 00:00:00+00:00	2
1986-01-01 00:00:00+00:00	3
1988-01-01 00:00:00+00:00	3
1989-01-01 00:00:00+00:00	1
1993-01-01 00:00:00+00:00	1
