1824-01-01 00:00:00+00:00	1
1825-01-01 00:00:00+00:00	1
1826-01-01 00:00:00+00:00	3
1827-01-01 00:00:00+00:00	1
1828-01-01 00:00:00+00:00	5
1829-01-01 00:00:00+00:00	2
1830-01-01 00:00:00+00:00	3
1832-01-01 00:00:00+00:00	1
1833-01-01 00:00:00+00:00	3
1836-01-01 00:00:00+00:00	7
1837-01-01 00:00:00+00:00	2
1840-01-01 00:00:00+00:00	1
1844-01-01 00:00:00+00:00	3
1845-01-01 00:00:00+00:00	4
1847-01-01 00:00:00+00:00	2
1849-01-01 00:00:00+00:00	1
1850-01-01 00:00:00+00:00	1
1851-01-01 00:00:00+00:00	2
1852-01-01 00:00:00+00:00	1
1855-01-01 00:00:00+00:00	1
1856-01-01 00:00:00+00:00	2
1857-01-01 00:00:00+00:00	1
1858-01-01 00:00:00+00:00	1
1860-01-01 00:00:00+00:00	5
1861-01-01 00:00:00+00:00	1
1862-01-01 00:00:00+00:00	5
1863-01-01 00:00:00+00:00	7
1865-01-01 00:00:00+00:00	3
1866-01-01 00:00:00+00:00	2
1867-01-01 00:00:00+00:00	3
1868-01-01 00:00:00+00:00	2
1869-01-01 00:00:00+00:00	2
1870-01-01 00:00:00+00:00	5
1871-01-01 00:00:00+00:00	2
1872-01-01 00:00:00+00:00	4
1873-01-01 00:00:00+00:00	6
1874-01-01 00:00:00+00:00	2
1875-01-01 00:00:00+00:00	2
1876-01-01 00:00:00+00:00	3
1877-01-01 00:00:00+00:00	9
1878-01-01 00:00:00+00:00	3
1879-01-01 00:00:00+00:00	5
1880-01-01 00:00:00+00:00	2
1881-01-01 00:00:00+00:00	1
1882-01-01 00:00:00+00:00	2
1883-01-01 00:00:00+00:00	1
1884-01-01 00:00:00+00:00	1
1885-01-01 00:00:00+00:00	2
1886-01-01 00:00:00+00:00	3
1887-01-01 00:00:00+00:00	3
1888-01-01 00:00:00+00:00	1
1890-01-01 00:00:00+00:00	4
1891-01-01 00:00:00+00:00	6
1892-01-01 00:00:00+00:00	5
1893-01-01 00:00:00+00:00	2
1894-01-01 00:00:00+00:00	7
1895-01-01 00:00:00+00:00	3
1896-01-01 00:00:00+00:00	2
1897-01-01 00:00:00+00:00	8
1898-01-01 00:00:00+00:00	5
1899-01-01 00:00:00+00:00	11
1899-03-01 00:00:00+00:00	1
1900-01-01 00:00:00+00:00	15
1901-01-01 00:00:00+00:00	11
1902-01-01 00:00:00+00:00	7
1903-01-01 00:00:00+00:00	9
1904-01-01 00:00:00+00:00	20
1905-01-01 00:00:00+00:00	12
1906-01-01 00:00:00+00:00	6
1907-01-01 00:00:00+00:00	7
1907-03-01 00:00:00+00:00	1
1908-01-01 00:00:00+00:00	3
1909-01-01 00:00:00+00:00	10
1910-01-01 00:00:00+00:00	13
1910-04-28 00:00:00+00:00	1
1911-01-01 00:00:00+00:00	13
1912-01-01 00:00:00+00:00	5
1913-01-01 00:00:00+00:00	13
1914-01-01 00:00:00+00:00	5
1915-01-01 00:00:00+00:00	6
1916-01-01 00:00:00+00:00	6
1917-01-01 00:00:00+00:00	6
1918-01-01 00:00:00+00:00	1
1919-01-01 00:00:00+00:00	10
1920-01-01 00:00:00+00:00	36
1921-01-01 00:00:00+00:00	11
1921-11-21 00:00:00+00:00	1
1922-01-01 00:00:00+00:00	15
1922-09-17 00:00:00+00:00	1
1923-01-01 00:00:00+00:00	11
1924-01-01 00:00:00+00:00	8
1925-01-01 00:00:00+00:00	20
1926-01-01 00:00:00+00:00	16
1927-01-01 00:00:00+00:00	28
1928-01-01 00:00:00+00:00	32
1928-06-01 00:00:00+00:00	1
1928-10-01 00:00:00+00:00	1
1928-12-23 00:00:00+00:00	1
1929-01-01 00:00:00+00:00	63
1930-01-01 00:00:00+00:00	23
1930-07-01 00:00:00+00:00	1
1930-12-04 00:00:00+00:00	3
1931-01-01 00:00:00+00:00	34
1932-01-01 00:00:00+00:00	14
1933-01-01 00:00:00+00:00	18
1934-01-01 00:00:00+00:00	26
1934-12-22 00:00:00+00:00	1
1935-01-01 00:00:00+00:00	10
1936-01-01 00:00:00+00:00	20
1937-01-01 00:00:00+00:00	8
1937-01-30 00:00:00+00:00	1
1937-09-01 00:00:00+00:00	1
1938-01-01 00:00:00+00:00	28
1938-02-01 00:00:00+00:00	1
1938-02-13 00:00:00+00:00	1
1938-02-15 00:00:00+00:00	1
1939-01-01 00:00:00+00:00	21
1939-06-30 00:00:00+00:00	1
1939-07-01 00:00:00+00:00	1
1945-01-01 00:00:00+00:00	1
1945-10-16 00:00:00+00:00	1
1946-01-01 00:00:00+00:00	5
1947-01-01 00:00:00+00:00	4
1948-01-01 00:00:00+00:00	4
1949-06-04 00:00:00+00:00	1
1952-05-15 00:00:00+00:00	1
1953-01-01 00:00:00+00:00	6
1953-05-28 00:00:00+00:00	2
1953-12-31 23:00:00+00:00	1
1954-01-01 00:00:00+00:00	6
1954-05-25 00:00:00+00:00	1
1955-01-01 00:00:00+00:00	8
1956-01-01 00:00:00+00:00	15
1957-01-01 00:00:00+00:00	8
1958-01-01 00:00:00+00:00	6
1958-12-31 23:00:00+00:00	1
1959-01-01 00:00:00+00:00	2
1960-01-01 00:00:00+00:00	8
1960-04-06 00:00:00+00:00	1
1961-01-01 00:00:00+00:00	9
1961-12-31 23:00:00+00:00	1
1962-01-01 00:00:00+00:00	3
1963-01-01 00:00:00+00:00	9
1963-10-01 00:00:00+00:00	1
1964-01-01 00:00:00+00:00	5
1965-01-01 00:00:00+00:00	13
1966-01-01 00:00:00+00:00	5
1967-01-01 00:00:00+00:00	11
1967-05-18 00:00:00+00:00	1
1968-01-01 00:00:00+00:00	17
1969-01-01 00:00:00+00:00	11
1969-04-01 00:00:00+00:00	1
1970-01-01 00:00:00+00:00	5
1971-01-01 00:00:00+00:00	6
1972-01-01 00:00:00+00:00	9
1973-01-01 00:00:00+00:00	17
1974-01-01 00:00:00+00:00	1
1975-01-01 00:00:00+00:00	5
1976-01-01 00:00:00+00:00	2
1977-01-01 00:00:00+00:00	8
1978-01-01 00:00:00+00:00	8
1979-01-01 00:00:00+00:00	8
1980-01-01 00:00:00+00:00	10
1981-01-01 00:00:00+00:00	10
1981-09-01 00:00:00+00:00	1
1982-01-01 00:00:00+00:00	6
1983-01-01 00:00:00+00:00	8
1984-01-01 00:00:00+00:00	10
1985-01-01 00:00:00+00:00	11
1986-01-01 00:00:00+00:00	27
1987-01-01 00:00:00+00:00	8
1988-01-01 00:00:00+00:00	9
1989-01-01 00:00:00+00:00	14
1989-11-26 00:00:00+00:00	1
1990-01-01 00:00:00+00:00	15
1991-01-01 00:00:00+00:00	6
1992-01-01 00:00:00+00:00	14
1992-07-04 00:00:00+00:00	1
1992-11-11 00:00:00+00:00	1
1992-12-18 00:00:00+00:00	2
1993-01-01 00:00:00+00:00	21
1993-07-07 00:00:00+00:00	1
1994-01-01 00:00:00+00:00	31
1994-03-17 00:00:00+00:00	1
1994-03-20 00:00:00+00:00	1
1994-06-10 00:00:00+00:00	1
1995-01-01 00:00:00+00:00	22
1995-04-21 00:00:00+00:00	1
1996-01-01 00:00:00+00:00	25
1997-01-01 00:00:00+00:00	22
1997-02-28 00:00:00+00:00	1
1998-01-01 00:00:00+00:00	32
1998-02-18 00:00:00+00:00	1
1999-01-01 00:00:00+00:00	19
1999-08-18 00:00:00+00:00	1
2000-01-01 00:00:00+00:00	24
2001-01-01 00:00:00+00:00	14
2001-02-15 00:00:00+00:00	1
2002-01-01 00:00:00+00:00	32
2003-01-01 00:00:00+00:00	65
2003-07-11 00:00:00+00:00	2
