1906-09-15 00:00:00+00:00	1
1916-01-01 00:00:00+00:00	1
1922-10-13 00:00:00+00:00	1
1934-12-19 00:00:00+00:00	1
1962-03-06 00:00:00+00:00	1
1988-01-01 00:00:00+00:00	1
1990-01-01 00:00:00+00:00	1
1992-01-01 00:00:00+00:00	1
1993-01-01 00:00:00+00:00	1
1995-01-01 00:00:00+00:00	1
1997-05-10 00:00:00+00:00	1
1997-06-10 00:00:00+00:00	1
1998-01-01 00:00:00+00:00	2
1998-02-07 00:00:00+00:00	1
1998-11-30 00:00:00+00:00	1
2000-01-01 00:00:00+00:00	2
2000-11-13 00:00:00+00:00	1
2001-01-01 00:00:00+00:00	3
2001-07-05 00:00:00+00:00	1
2001-07-27 00:00:00+00:00	1
2001-08-30 00:00:00+00:00	1
2002-04-06 00:00:00+00:00	1
2002-11-01 00:00:00+00:00	1
2003-01-01 00:00:00+00:00	3
2003-04-11 00:00:00+00:00	1
2003-07-28 00:00:00+00:00	1
2003-11-14 00:00:00+00:00	1
