1824-01-01 00:00:00+00:00	1
1825-01-01 00:00:00+00:00	4
1826-01-01 00:00:00+00:00	3
1827-01-01 00:00:00+00:00	2
1827-09-01 00:00:00+00:00	1
1828-01-01 00:00:00+00:00	3
1829-01-01 00:00:00+00:00	3
1829-02-26 00:00:00+00:00	1
1830-01-01 00:00:00+00:00	7
1831-01-01 00:00:00+00:00	1
1832-01-01 00:00:00+00:00	1
1833-01-01 00:00:00+00:00	2
1834-01-01 00:00:00+00:00	6
1835-01-01 00:00:00+00:00	2
1836-01-01 00:00:00+00:00	8
1837-01-01 00:00:00+00:00	4
1838-01-01 00:00:00+00:00	4
1839-01-01 00:00:00+00:00	12
1840-01-01 00:00:00+00:00	22
1840-02-19 00:00:00+00:00	1
1840-10-10 00:00:00+00:00	1
1841-01-01 00:00:00+00:00	14
1841-02-03 00:00:00+00:00	1
1841-08-02 00:00:00+00:00	1
1842-01-01 00:00:00+00:00	15
1842-07-02 00:00:00+00:00	1
1843-01-01 00:00:00+00:00	24
1843-04-24 00:00:00+00:00	1
1844-01-01 00:00:00+00:00	9
1845-01-01 00:00:00+00:00	17
1845-09-27 00:00:00+00:00	1
1846-01-01 00:00:00+00:00	8
1847-01-01 00:00:00+00:00	16
1847-10-16 00:00:00+00:00	1
1848-01-01 00:00:00+00:00	6
1849-01-01 00:00:00+00:00	3
1850-01-01 00:00:00+00:00	5
1851-01-01 00:00:00+00:00	1
1852-01-01 00:00:00+00:00	6
1853-01-01 00:00:00+00:00	14
1853-04-07 00:00:00+00:00	1
1853-04-16 00:00:00+00:00	1
1854-01-01 00:00:00+00:00	17
1854-01-16 00:00:00+00:00	1
1854-01-27 00:00:00+00:00	1
1855-01-01 00:00:00+00:00	17
1855-05-09 00:00:00+00:00	1
1855-09-05 00:00:00+00:00	1
1856-01-01 00:00:00+00:00	6
1857-01-01 00:00:00+00:00	5
1858-01-01 00:00:00+00:00	48
1859-01-01 00:00:00+00:00	14
1859-08-11 00:00:00+00:00	1
1859-10-15 00:00:00+00:00	1
1859-10-29 00:00:00+00:00	1
1859-12-03 00:00:00+00:00	1
1859-12-10 00:00:00+00:00	1
1860-01-01 00:00:00+00:00	12
1860-03-11 00:00:00+00:00	1
1860-03-21 00:00:00+00:00	1
1860-03-24 00:00:00+00:00	1
1860-04-07 00:00:00+00:00	1
1860-04-14 00:00:00+00:00	1
1860-04-21 00:00:00+00:00	1
1861-01-01 00:00:00+00:00	9
1861-04-01 00:00:00+00:00	1
1861-11-11 00:00:00+00:00	1
1862-01-01 00:00:00+00:00	16
1863-01-01 00:00:00+00:00	9
1864-01-01 00:00:00+00:00	9
1864-10-21 00:00:00+00:00	2
1864-11-01 00:00:00+00:00	1
1865-01-01 00:00:00+00:00	26
1865-11-21 00:00:00+00:00	1
1866-01-01 00:00:00+00:00	21
1866-10-21 00:00:00+00:00	1
1866-12-21 00:00:00+00:00	1
1867-01-01 00:00:00+00:00	21
1867-07-01 00:00:00+00:00	1
1867-11-23 00:00:00+00:00	1
1867-12-15 00:00:00+00:00	2
1868-01-01 00:00:00+00:00	16
1868-02-18 00:00:00+00:00	1
1868-02-29 00:00:00+00:00	1
1868-07-18 00:00:00+00:00	1
1868-12-11 00:00:00+00:00	1
1869-01-01 00:00:00+00:00	24
1869-02-11 00:00:00+00:00	1
1870-01-01 00:00:00+00:00	36
1870-02-21 00:00:00+00:00	1
1870-03-11 00:00:00+00:00	1
1871-01-01 00:00:00+00:00	27
1871-04-27 00:00:00+00:00	1
1871-09-21 00:00:00+00:00	1
1872-01-01 00:00:00+00:00	21
1872-02-28 00:00:00+00:00	1
1872-04-06 00:00:00+00:00	1
1872-05-01 00:00:00+00:00	1
1872-06-10 00:00:00+00:00	1
1873-01-01 00:00:00+00:00	23
1874-01-01 00:00:00+00:00	13
1874-04-12 00:00:00+00:00	1
1875-01-01 00:00:00+00:00	54
1875-06-10 00:00:00+00:00	1
1875-12-18 00:00:00+00:00	1
1876-01-01 00:00:00+00:00	20
1877-01-01 00:00:00+00:00	24
1878-01-01 00:00:00+00:00	38
1878-01-25 00:00:00+00:00	1
1879-01-01 00:00:00+00:00	28
1879-07-05 00:00:00+00:00	1
1880-01-01 00:00:00+00:00	17
1881-01-01 00:00:00+00:00	18
1882-01-01 00:00:00+00:00	22
1883-01-01 00:00:00+00:00	30
1884-01-01 00:00:00+00:00	29
1885-01-01 00:00:00+00:00	30
1886-01-01 00:00:00+00:00	14
1886-01-02 00:00:00+00:00	1
1886-10-30 00:00:00+00:00	1
1887-01-01 00:00:00+00:00	31
1887-03-25 00:00:00+00:00	1
1887-06-10 00:00:00+00:00	1
1888-01-01 00:00:00+00:00	35
1889-01-01 00:00:00+00:00	19
1890-01-01 00:00:00+00:00	29
1891-01-01 00:00:00+00:00	18
1891-02-21 00:00:00+00:00	1
1892-01-01 00:00:00+00:00	35
1893-01-01 00:00:00+00:00	17
1893-09-10 00:00:00+00:00	1
1894-01-01 00:00:00+00:00	36
1894-01-27 00:00:00+00:00	2
1894-03-17 00:00:00+00:00	1
1895-01-01 00:00:00+00:00	25
1895-04-01 00:00:00+00:00	1
1896-01-01 00:00:00+00:00	23
1896-02-02 00:00:00+00:00	1
1896-06-01 00:00:00+00:00	1
1896-07-01 00:00:00+00:00	1
1896-12-01 00:00:00+00:00	1
1897-01-01 00:00:00+00:00	42
1897-07-31 00:00:00+00:00	1
1897-12-01 00:00:00+00:00	1
1898-01-01 00:00:00+00:00	32
1898-02-15 00:00:00+00:00	1
1898-03-26 00:00:00+00:00	1
1898-04-09 00:00:00+00:00	1
1899-01-01 00:00:00+00:00	29
1900-01-01 00:00:00+00:00	28
1900-11-04 00:00:00+00:00	1
1901-01-01 00:00:00+00:00	25
1901-11-01 00:00:00+00:00	1
1901-11-10 00:00:00+00:00	1
1902-01-01 00:00:00+00:00	25
1902-03-08 00:00:00+00:00	2
1902-05-01 00:00:00+00:00	1
1902-11-02 00:00:00+00:00	1
1903-01-01 00:00:00+00:00	37
1903-02-01 00:00:00+00:00	1
1903-06-01 00:00:00+00:00	1
1903-08-29 00:00:00+00:00	1
1904-01-01 00:00:00+00:00	30
1904-03-15 00:00:00+00:00	1
1904-06-03 00:00:00+00:00	1
1904-06-05 00:00:00+00:00	1
1904-08-14 00:00:00+00:00	1
1904-09-15 00:00:00+00:00	1
1905-01-01 00:00:00+00:00	28
1905-05-01 00:00:00+00:00	1
1905-08-13 00:00:00+00:00	1
1906-01-01 00:00:00+00:00	25
1906-07-01 00:00:00+00:00	1
1907-01-01 00:00:00+00:00	22
1907-02-14 00:00:00+00:00	1
1907-10-26 00:00:00+00:00	1
1908-01-01 00:00:00+00:00	26
1908-03-15 00:00:00+00:00	1
1909-01-01 00:00:00+00:00	26
1909-01-16 00:00:00+00:00	1
1909-09-04 00:00:00+00:00	1
1909-12-11 00:00:00+00:00	1
1910-01-01 00:00:00+00:00	31
1910-08-07 00:00:00+00:00	1
1911-01-01 00:00:00+00:00	25
1911-01-14 00:00:00+00:00	1
1911-01-22 00:00:00+00:00	1
1911-02-12 00:00:00+00:00	1
1911-02-19 00:00:00+00:00	1
1911-03-09 00:00:00+00:00	1
1911-04-01 00:00:00+00:00	1
1911-06-04 00:00:00+00:00	1
1912-01-01 00:00:00+00:00	26
1912-04-14 00:00:00+00:00	1
1913-01-01 00:00:00+00:00	40
1913-02-21 00:00:00+00:00	1
1913-02-23 00:00:00+00:00	1
1913-07-31 00:00:00+00:00	1
1913-09-07 00:00:00+00:00	1
1913-11-02 00:00:00+00:00	1
1914-01-01 00:00:00+00:00	26
1914-03-01 00:00:00+00:00	3
1914-03-29 00:00:00+00:00	1
1914-07-11 00:00:00+00:00	1
1914-09-06 00:00:00+00:00	1
1915-01-01 00:00:00+00:00	18
1916-01-01 00:00:00+00:00	4
1917-01-01 00:00:00+00:00	7
1917-01-27 00:00:00+00:00	1
1917-08-01 00:00:00+00:00	1
1918-01-01 00:00:00+00:00	22
1918-05-17 00:00:00+00:00	1
1918-10-01 00:00:00+00:00	1
1919-01-01 00:00:00+00:00	13
1919-07-01 00:00:00+00:00	1
1919-08-20 00:00:00+00:00	1
1920-01-01 00:00:00+00:00	10
1920-02-15 00:00:00+00:00	1
1920-09-11 00:00:00+00:00	1
1921-01-01 00:00:00+00:00	20
1921-07-27 00:00:00+00:00	1
1922-01-01 00:00:00+00:00	16
1922-01-18 00:00:00+00:00	1
1922-01-19 00:00:00+00:00	1
1922-01-20 00:00:00+00:00	1
1922-02-17 00:00:00+00:00	1
1922-02-26 00:00:00+00:00	1
1922-03-04 00:00:00+00:00	1
1922-03-05 00:00:00+00:00	1
1922-07-09 00:00:00+00:00	1
1922-10-31 00:00:00+00:00	1
1923-01-01 00:00:00+00:00	14
1923-07-29 00:00:00+00:00	1
1924-01-01 00:00:00+00:00	21
1924-01-07 00:00:00+00:00	1
1924-06-28 00:00:00+00:00	1
1924-08-26 00:00:00+00:00	1
1924-11-01 00:00:00+00:00	1
1925-01-01 00:00:00+00:00	43
1925-01-11 00:00:00+00:00	1
1925-01-12 00:00:00+00:00	1
1925-01-13 00:00:00+00:00	1
1925-01-15 00:00:00+00:00	1
1925-01-16 00:00:00+00:00	1
1925-04-12 00:00:00+00:00	1
1926-01-01 00:00:00+00:00	15
1926-05-06 00:00:00+00:00	1
1926-05-15 00:00:00+00:00	1
1926-08-14 00:00:00+00:00	1
1927-01-01 00:00:00+00:00	17
1927-01-15 00:00:00+00:00	1
1927-01-23 00:00:00+00:00	1
1927-01-25 00:00:00+00:00	1
1927-01-27 00:00:00+00:00	1
1927-02-27 00:00:00+00:00	1
1927-03-01 00:00:00+00:00	1
1927-04-17 00:00:00+00:00	1
1927-05-01 00:00:00+00:00	1
1927-06-11 00:00:00+00:00	1
1927-06-15 00:00:00+00:00	1
1927-08-27 00:00:00+00:00	1
1927-10-15 00:00:00+00:00	1
1927-12-01 00:00:00+00:00	1
1927-12-30 00:00:00+00:00	1
1928-01-01 00:00:00+00:00	61
1928-02-01 00:00:00+00:00	1
1928-02-12 00:00:00+00:00	1
1928-06-16 00:00:00+00:00	2
1928-08-26 00:00:00+00:00	1
1928-09-02 00:00:00+00:00	1
1928-10-01 00:00:00+00:00	2
1928-10-15 00:00:00+00:00	1
1928-12-31 00:00:00+00:00	1
1929-01-01 00:00:00+00:00	33
1929-03-01 00:00:00+00:00	2
1929-04-01 00:00:00+00:00	1
1929-04-28 00:00:00+00:00	1
1929-07-19 00:00:00+00:00	1
1929-09-01 00:00:00+00:00	1
1929-10-27 00:00:00+00:00	1
1929-12-01 00:00:00+00:00	1
1930-01-01 00:00:00+00:00	30
1930-01-09 00:00:00+00:00	1
1930-05-25 00:00:00+00:00	1
1930-07-12 00:00:00+00:00	1
1930-07-13 00:00:00+00:00	1
1930-08-18 00:00:00+00:00	1
1930-08-24 00:00:00+00:00	1
1930-11-29 00:00:00+00:00	1
1930-11-30 00:00:00+00:00	1
1930-12-07 00:00:00+00:00	1
1931-01-01 00:00:00+00:00	16
1931-01-03 00:00:00+00:00	1
1931-05-31 00:00:00+00:00	2
1931-07-25 00:00:00+00:00	1
1931-09-20 00:00:00+00:00	1
1931-10-18 00:00:00+00:00	1
1932-01-01 00:00:00+00:00	29
1932-02-27 00:00:00+00:00	1
1932-04-01 00:00:00+00:00	1
1932-04-06 00:00:00+00:00	1
1932-05-31 00:00:00+00:00	1
1932-06-07 00:00:00+00:00	1
1932-06-30 00:00:00+00:00	1
1932-08-07 00:00:00+00:00	1
1933-01-01 00:00:00+00:00	18
1933-05-01 00:00:00+00:00	1
1933-05-21 00:00:00+00:00	1
1933-07-01 00:00:00+00:00	1
1933-08-01 00:00:00+00:00	1
1933-10-01 00:00:00+00:00	3
1933-12-01 00:00:00+00:00	1
1933-12-17 00:00:00+00:00	1
1934-01-01 00:00:00+00:00	26
1934-04-22 00:00:00+00:00	1
1934-04-29 00:00:00+00:00	1
1934-09-16 00:00:00+00:00	1
1934-10-14 00:00:00+00:00	1
1934-11-01 00:00:00+00:00	2
1935-01-01 00:00:00+00:00	25
1935-02-01 00:00:00+00:00	2
1935-03-01 00:00:00+00:00	1
1935-04-01 00:00:00+00:00	1
1935-05-01 00:00:00+00:00	1
1935-05-19 00:00:00+00:00	1
1935-05-20 00:00:00+00:00	1
1935-06-23 00:00:00+00:00	1
1935-08-25 00:00:00+00:00	1
1935-11-01 00:00:00+00:00	1
1936-01-01 00:00:00+00:00	31
1936-01-19 00:00:00+00:00	2
1936-02-01 00:00:00+00:00	1
1936-02-09 00:00:00+00:00	1
1936-03-04 00:00:00+00:00	1
1936-05-01 00:00:00+00:00	1
1936-07-26 00:00:00+00:00	1
1936-08-16 00:00:00+00:00	1
1936-10-01 00:00:00+00:00	1
1936-11-22 00:00:00+00:00	2
1937-01-01 00:00:00+00:00	19
1937-02-15 00:00:00+00:00	1
1937-03-21 00:00:00+00:00	4
1937-04-03 00:00:00+00:00	1
1937-04-17 00:00:00+00:00	1
1937-04-24 00:00:00+00:00	1
1937-04-25 00:00:00+00:00	2
1937-05-01 00:00:00+00:00	1
1937-05-02 00:00:00+00:00	1
1937-07-01 00:00:00+00:00	1
1937-10-10 00:00:00+00:00	2
1937-10-31 00:00:00+00:00	1
1937-12-12 00:00:00+00:00	1
1938-01-01 00:00:00+00:00	30
1938-01-31 00:00:00+00:00	1
1938-02-26 00:00:00+00:00	1
1938-03-19 00:00:00+00:00	1
1938-04-17 00:00:00+00:00	1
1938-04-24 00:00:00+00:00	1
1938-05-08 00:00:00+00:00	1
1938-06-01 00:00:00+00:00	2
1938-08-28 00:00:00+00:00	1
1938-10-01 00:00:00+00:00	1
1938-10-02 00:00:00+00:00	1
1938-11-01 00:00:00+00:00	1
1938-11-12 00:00:00+00:00	1
1939-01-01 00:00:00+00:00	10
1939-01-31 00:00:00+00:00	1
1939-04-23 00:00:00+00:00	2
1939-04-30 00:00:00+00:00	2
1939-07-15 00:00:00+00:00	2
1939-07-16 00:00:00+00:00	1
1939-07-30 00:00:00+00:00	1
1939-08-01 00:00:00+00:00	1
1939-09-16 00:00:00+00:00	1
1940-01-01 00:00:00+00:00	1
1941-01-01 00:00:00+00:00	1
1941-02-01 00:00:00+00:00	1
1945-01-01 00:00:00+00:00	1
1946-04-10 00:00:00+00:00	1
1948-01-01 00:00:00+00:00	1
1948-07-04 00:00:00+00:00	1
1948-07-18 00:00:00+00:00	1
1948-08-25 00:00:00+00:00	1
1948-11-25 00:00:00+00:00	1
1949-01-01 00:00:00+00:00	1
1949-06-26 00:00:00+00:00	1
1949-08-07 00:00:00+00:00	1
1950-01-01 00:00:00+00:00	1
1950-01-22 00:00:00+00:00	1
1950-04-09 00:00:00+00:00	1
1950-08-06 00:00:00+00:00	1
1950-10-08 00:00:00+00:00	1
1950-11-19 00:00:00+00:00	1
1950-12-01 00:00:00+00:00	2
1951-07-15 00:00:00+00:00	1
1951-10-21 00:00:00+00:00	1
1951-11-26 00:00:00+00:00	1
1952-01-13 00:00:00+00:00	1
1952-02-24 00:00:00+00:00	1
1952-05-31 00:00:00+00:00	1
1952-07-20 00:00:00+00:00	1
1952-11-21 00:00:00+00:00	1
1953-05-03 00:00:00+00:00	1
1953-08-23 00:00:00+00:00	1
1953-09-13 00:00:00+00:00	1
1953-11-04 00:00:00+00:00	1
1953-12-13 00:00:00+00:00	1
1954-01-01 00:00:00+00:00	2
1954-01-24 00:00:00+00:00	1
1954-07-25 00:00:00+00:00	1
1954-08-08 00:00:00+00:00	1
1956-01-01 00:00:00+00:00	3
1957-03-17 00:00:00+00:00	1
1957-03-31 00:00:00+00:00	1
1957-06-09 00:00:00+00:00	1
1957-07-21 00:00:00+00:00	1
1958-01-01 00:00:00+00:00	2
1959-01-01 00:00:00+00:00	1
1960-01-01 00:00:00+00:00	3
1963-01-31 00:00:00+00:00	1
1963-02-28 00:00:00+00:00	1
1964-01-01 00:00:00+00:00	1
1965-01-01 00:00:00+00:00	3
1965-08-27 00:00:00+00:00	1
1966-01-01 00:00:00+00:00	1
1966-01-23 00:00:00+00:00	1
1967-01-01 00:00:00+00:00	7
1968-01-01 00:00:00+00:00	4
1969-01-01 00:00:00+00:00	4
1970-01-01 00:00:00+00:00	3
1971-01-01 00:00:00+00:00	2
1971-12-21 00:00:00+00:00	1
1973-01-01 00:00:00+00:00	2
1974-01-01 00:00:00+00:00	6
1975-01-01 00:00:00+00:00	8
1976-01-01 00:00:00+00:00	3
1977-01-01 00:00:00+00:00	5
1978-01-01 00:00:00+00:00	2
1980-01-01 00:00:00+00:00	4
1981-01-01 00:00:00+00:00	1
1981-04-22 00:00:00+00:00	1
1982-01-01 00:00:00+00:00	1
1983-01-01 00:00:00+00:00	2
1983-08-17 00:00:00+00:00	1
1985-01-01 00:00:00+00:00	3
1985-05-22 00:00:00+00:00	1
1986-01-22 00:00:00+00:00	1
1987-01-01 00:00:00+00:00	9
1988-01-01 00:00:00+00:00	2
1989-01-01 00:00:00+00:00	7
1989-12-30 00:00:00+00:00	1
1990-01-01 00:00:00+00:00	2
1991-01-01 00:00:00+00:00	2
1992-01-01 00:00:00+00:00	7
1992-11-08 00:00:00+00:00	1
1993-01-01 00:00:00+00:00	3
1994-01-01 00:00:00+00:00	13
1994-09-25 00:00:00+00:00	1
1995-01-01 00:00:00+00:00	2
1995-03-26 00:00:00+00:00	1
1996-01-01 00:00:00+00:00	2
1997-01-01 00:00:00+00:00	8
1997-02-02 00:00:00+00:00	1
1998-01-01 00:00:00+00:00	3
1998-12-24 00:00:00+00:00	1
1999-01-01 00:00:00+00:00	4
1999-04-04 00:00:00+00:00	1
2000-01-01 00:00:00+00:00	3
2000-04-23 00:00:00+00:00	1
2001-01-01 00:00:00+00:00	8
2002-01-01 00:00:00+00:00	6
2003-01-01 00:00:00+00:00	4
