1824-01-01 00:00:00+00:00	1
1825-01-01 00:00:00+00:00	1
1826-01-01 00:00:00+00:00	3
1827-01-01 00:00:00+00:00	2
1828-01-01 00:00:00+00:00	2
1829-01-01 00:00:00+00:00	4
1830-01-01 00:00:00+00:00	3
1831-01-01 00:00:00+00:00	5
1831-03-17 00:00:00+00:00	1
1832-01-01 00:00:00+00:00	7
1833-01-01 00:00:00+00:00	2
1833-06-01 00:00:00+00:00	1
1834-01-01 00:00:00+00:00	3
1835-01-01 00:00:00+00:00	5
1836-01-01 00:00:00+00:00	2
1837-01-01 00:00:00+00:00	5
1838-01-01 00:00:00+00:00	2
1838-05-07 00:00:00+00:00	1
1838-10-27 00:00:00+00:00	1
1839-01-01 00:00:00+00:00	1
1839-04-10 00:00:00+00:00	1
1840-01-01 00:00:00+00:00	2
1841-01-01 00:00:00+00:00	5
1842-01-01 00:00:00+00:00	3
1843-01-01 00:00:00+00:00	6
1844-01-01 00:00:00+00:00	9
1845-01-01 00:00:00+00:00	8
1845-10-14 00:00:00+00:00	1
1846-01-01 00:00:00+00:00	7
1847-01-01 00:00:00+00:00	6
1848-01-01 00:00:00+00:00	3
1849-01-01 00:00:00+00:00	1
1849-11-16 00:00:00+00:00	1
1849-12-09 00:00:00+00:00	1
1850-01-01 00:00:00+00:00	7
1850-04-01 00:00:00+00:00	1
1851-01-01 00:00:00+00:00	7
1851-07-17 00:00:00+00:00	1
1851-08-20 00:00:00+00:00	1
1852-01-01 00:00:00+00:00	12
1853-01-01 00:00:00+00:00	8
1853-04-15 00:00:00+00:00	1
1853-07-12 00:00:00+00:00	1
1854-01-01 00:00:00+00:00	7
1855-01-01 00:00:00+00:00	5
1856-01-01 00:00:00+00:00	9
1856-05-10 00:00:00+00:00	1
1857-01-01 00:00:00+00:00	9
1857-11-28 00:00:00+00:00	1
1858-01-01 00:00:00+00:00	12
1859-01-01 00:00:00+00:00	5
1859-10-20 00:00:00+00:00	1
1860-01-01 00:00:00+00:00	7
1860-06-16 00:00:00+00:00	1
1861-01-01 00:00:00+00:00	12
1861-07-06 00:00:00+00:00	1
1861-11-12 00:00:00+00:00	1
1861-12-21 00:00:00+00:00	1
1862-01-01 00:00:00+00:00	19
1862-08-03 00:00:00+00:00	1
1862-08-07 00:00:00+00:00	1
1862-10-11 00:00:00+00:00	1
1863-01-01 00:00:00+00:00	9
1864-01-01 00:00:00+00:00	6
1864-04-01 00:00:00+00:00	1
1864-12-10 00:00:00+00:00	1
1865-01-01 00:00:00+00:00	5
1865-01-03 00:00:00+00:00	1
1865-01-10 00:00:00+00:00	1
1865-01-31 00:00:00+00:00	1
1866-01-01 00:00:00+00:00	21
1866-01-17 00:00:00+00:00	1
1866-07-08 00:00:00+00:00	1
1867-01-01 00:00:00+00:00	25
1867-08-10 00:00:00+00:00	2
1867-10-19 00:00:00+00:00	2
1868-01-01 00:00:00+00:00	19
1868-09-03 00:00:00+00:00	1
1869-01-01 00:00:00+00:00	18
1869-08-21 00:00:00+00:00	1
1869-10-02 00:00:00+00:00	1
1869-11-13 00:00:00+00:00	1
1870-01-01 00:00:00+00:00	26
1870-03-10 00:00:00+00:00	1
1870-08-26 00:00:00+00:00	1
1870-11-05 00:00:00+00:00	1
1871-01-01 00:00:00+00:00	9
1871-01-21 00:00:00+00:00	1
1871-04-01 00:00:00+00:00	1
1871-06-01 00:00:00+00:00	1
1871-12-09 00:00:00+00:00	1
1872-01-01 00:00:00+00:00	17
1872-07-04 00:00:00+00:00	1
1872-07-27 00:00:00+00:00	1
1873-01-01 00:00:00+00:00	21
1873-08-07 00:00:00+00:00	1
1873-12-04 00:00:00+00:00	1
1874-01-01 00:00:00+00:00	18
1874-03-14 00:00:00+00:00	1
1874-03-29 00:00:00+00:00	1
1874-06-07 00:00:00+00:00	1
1874-08-08 00:00:00+00:00	1
1874-08-20 00:00:00+00:00	1
1874-10-31 00:00:00+00:00	1
1875-01-01 00:00:00+00:00	19
1875-07-10 00:00:00+00:00	2
1875-08-15 00:00:00+00:00	1
1875-10-16 00:00:00+00:00	1
1875-11-24 00:00:00+00:00	1
1876-01-01 00:00:00+00:00	13
1876-08-24 00:00:00+00:00	1
1876-10-19 00:00:00+00:00	1
1876-11-30 00:00:00+00:00	1
1877-01-01 00:00:00+00:00	35
1877-01-27 00:00:00+00:00	1
1877-02-10 00:00:00+00:00	1
1877-04-14 00:00:00+00:00	1
1877-06-14 00:00:00+00:00	1
1877-06-21 00:00:00+00:00	1
1877-06-23 00:00:00+00:00	1
1877-07-07 00:00:00+00:00	2
1877-07-19 00:00:00+00:00	1
1877-08-30 00:00:00+00:00	1
1877-10-11 00:00:00+00:00	1
1877-11-01 00:00:00+00:00	1
1877-11-15 00:00:00+00:00	1
1878-01-01 00:00:00+00:00	32
1878-02-23 00:00:00+00:00	1
1878-03-23 00:00:00+00:00	1
1878-03-30 00:00:00+00:00	1
1878-05-11 00:00:00+00:00	1
1878-08-24 00:00:00+00:00	1
1878-11-01 00:00:00+00:00	1
1878-11-24 00:00:00+00:00	1
1879-01-01 00:00:00+00:00	21
1879-03-15 00:00:00+00:00	1
1879-05-11 00:00:00+00:00	1
1879-05-24 00:00:00+00:00	1
1879-05-25 00:00:00+00:00	1
1879-09-01 00:00:00+00:00	1
1879-12-13 00:00:00+00:00	1
1880-01-01 00:00:00+00:00	20
1880-01-17 00:00:00+00:00	1
1880-03-06 00:00:00+00:00	1
1880-05-01 00:00:00+00:00	1
1880-07-03 00:00:00+00:00	1
1880-11-07 00:00:00+00:00	1
1880-12-25 00:00:00+00:00	1
1881-01-01 00:00:00+00:00	31
1881-01-15 00:00:00+00:00	2
1881-01-22 00:00:00+00:00	1
1881-04-16 00:00:00+00:00	1
1881-07-23 00:00:00+00:00	1
1881-07-31 00:00:00+00:00	1
1881-08-27 00:00:00+00:00	1
1881-09-03 00:00:00+00:00	1
1881-09-17 00:00:00+00:00	1
1881-10-01 00:00:00+00:00	1
1882-01-01 00:00:00+00:00	28
1882-01-14 00:00:00+00:00	1
1882-02-11 00:00:00+00:00	1
1882-02-25 00:00:00+00:00	1
1882-03-11 00:00:00+00:00	1
1882-06-03 00:00:00+00:00	1
1882-07-08 00:00:00+00:00	2
1882-09-16 00:00:00+00:00	1
1882-10-14 00:00:00+00:00	1
1883-01-01 00:00:00+00:00	45
1883-02-15 00:00:00+00:00	1
1883-02-24 00:00:00+00:00	1
1883-06-02 00:00:00+00:00	1
1883-06-09 00:00:00+00:00	1
1883-08-25 00:00:00+00:00	1
1883-08-26 00:00:00+00:00	1
1884-01-01 00:00:00+00:00	49
1884-03-22 00:00:00+00:00	1
1884-04-08 00:00:00+00:00	1
1884-05-31 00:00:00+00:00	1
1884-06-21 00:00:00+00:00	1
1884-06-23 00:00:00+00:00	1
1884-08-20 00:00:00+00:00	1
1884-08-23 00:00:00+00:00	3
1884-09-08 00:00:00+00:00	1
1884-09-15 00:00:00+00:00	1
1884-10-18 00:00:00+00:00	2
1884-10-25 00:00:00+00:00	1
1884-11-01 00:00:00+00:00	2
1885-01-01 00:00:00+00:00	30
1885-03-15 00:00:00+00:00	1
1885-05-31 00:00:00+00:00	1
1885-07-12 00:00:00+00:00	1
1885-07-19 00:00:00+00:00	1
1885-08-15 00:00:00+00:00	1
1885-09-19 00:00:00+00:00	1
1885-10-24 00:00:00+00:00	1
1886-01-01 00:00:00+00:00	31
1886-02-07 00:00:00+00:00	1
1886-04-04 00:00:00+00:00	1
1886-06-19 00:00:00+00:00	1
1886-07-31 00:00:00+00:00	1
1886-08-04 00:00:00+00:00	1
1886-10-01 00:00:00+00:00	1
1886-11-20 00:00:00+00:00	1
1887-01-01 00:00:00+00:00	20
1887-02-18 00:00:00+00:00	1
1887-06-08 00:00:00+00:00	1
1887-06-17 00:00:00+00:00	1
1887-08-20 00:00:00+00:00	1
1887-08-28 00:00:00+00:00	1
1887-09-04 00:00:00+00:00	1
1887-09-24 00:00:00+00:00	1
1887-09-30 00:00:00+00:00	1
1888-01-01 00:00:00+00:00	24
1888-01-21 00:00:00+00:00	1
1888-05-19 00:00:00+00:00	1
1888-06-24 00:00:00+00:00	1
1888-07-11 00:00:00+00:00	1
1888-09-15 00:00:00+00:00	1
1888-09-22 00:00:00+00:00	1
1888-11-17 00:00:00+00:00	1
1889-01-01 00:00:00+00:00	27
1889-05-04 00:00:00+00:00	1
1889-07-16 00:00:00+00:00	1
1890-01-01 00:00:00+00:00	35
1890-02-02 00:00:00+00:00	1
1890-05-01 00:00:00+00:00	1
1890-05-31 00:00:00+00:00	1
1890-06-14 00:00:00+00:00	1
1890-06-15 00:00:00+00:00	1
1890-08-19 00:00:00+00:00	1
1890-09-07 00:00:00+00:00	1
1890-11-21 00:00:00+00:00	2
1891-01-01 00:00:00+00:00	28
1891-02-15 00:00:00+00:00	1
1891-04-04 00:00:00+00:00	1
1891-04-15 00:00:00+00:00	1
1891-06-27 00:00:00+00:00	1
1891-07-11 00:00:00+00:00	1
1891-07-19 00:00:00+00:00	2
1891-07-25 00:00:00+00:00	1
1891-08-01 00:00:00+00:00	1
1891-08-08 00:00:00+00:00	1
1891-08-20 00:00:00+00:00	1
1891-08-27 00:00:00+00:00	1
1891-11-28 00:00:00+00:00	1
1891-12-19 00:00:00+00:00	1
1892-01-01 00:00:00+00:00	35
1892-01-16 00:00:00+00:00	1
1892-06-19 00:00:00+00:00	1
1892-09-03 00:00:00+00:00	1
1892-10-31 00:00:00+00:00	1
1892-11-06 00:00:00+00:00	1
1893-01-01 00:00:00+00:00	30
1893-02-04 00:00:00+00:00	1
1893-02-16 00:00:00+00:00	1
1893-02-25 00:00:00+00:00	1
1893-03-22 00:00:00+00:00	1
1893-04-15 00:00:00+00:00	1
1893-05-19 00:00:00+00:00	1
1893-05-27 00:00:00+00:00	1
1893-10-15 00:00:00+00:00	1
1893-10-21 00:00:00+00:00	1
1893-12-09 00:00:00+00:00	1
1894-01-01 00:00:00+00:00	24
1894-02-10 00:00:00+00:00	1
1894-02-13 00:00:00+00:00	1
1894-03-17 00:00:00+00:00	1
1894-04-12 00:00:00+00:00	1
1894-07-07 00:00:00+00:00	1
1894-07-29 00:00:00+00:00	1
1894-08-03 00:00:00+00:00	1
1894-08-19 00:00:00+00:00	1
1894-08-29 00:00:00+00:00	1
1894-09-21 00:00:00+00:00	1
1894-09-23 00:00:00+00:00	1
1894-11-24 00:00:00+00:00	1
1894-12-02 00:00:00+00:00	1
1895-01-01 00:00:00+00:00	25
1895-01-10 00:00:00+00:00	1
1895-08-29 00:00:00+00:00	1
1895-11-25 00:00:00+00:00	1
1895-12-10 00:00:00+00:00	1
1896-01-01 00:00:00+00:00	28
1896-01-10 00:00:00+00:00	1
1896-04-11 00:00:00+00:00	1
1896-05-21 00:00:00+00:00	1
1896-06-05 00:00:00+00:00	1
1896-07-01 00:00:00+00:00	1
1896-07-05 00:00:00+00:00	1
1897-01-01 00:00:00+00:00	26
1897-01-16 00:00:00+00:00	1
1897-04-22 00:00:00+00:00	1
1898-01-01 00:00:00+00:00	27
1898-01-22 00:00:00+00:00	1
1898-02-01 00:00:00+00:00	1
1898-02-25 00:00:00+00:00	1
1898-05-15 00:00:00+00:00	1
1898-07-02 00:00:00+00:00	1
1898-08-12 00:00:00+00:00	1
1898-08-20 00:00:00+00:00	1
1898-09-03 00:00:00+00:00	1
1898-09-09 00:00:00+00:00	1
1898-09-20 00:00:00+00:00	1
1898-10-01 00:00:00+00:00	1
1898-11-04 00:00:00+00:00	1
1898-11-15 00:00:00+00:00	1
1898-11-17 00:00:00+00:00	1
1899-01-01 00:00:00+00:00	25
1899-02-21 00:00:00+00:00	1
1899-03-01 00:00:00+00:00	1
1899-03-02 00:00:00+00:00	1
1899-04-08 00:00:00+00:00	1
1899-08-01 00:00:00+00:00	1
1899-09-02 00:00:00+00:00	1
1899-09-13 00:00:00+00:00	1
1900-01-01 00:00:00+00:00	23
1900-01-24 00:00:00+00:00	1
1900-01-26 00:00:00+00:00	1
1900-02-28 00:00:00+00:00	1
1900-03-22 00:00:00+00:00	1
1900-04-29 00:00:00+00:00	1
1900-05-12 00:00:00+00:00	1
1900-05-14 00:00:00+00:00	1
1900-05-23 00:00:00+00:00	1
1900-06-21 00:00:00+00:00	1
1900-07-02 00:00:00+00:00	1
1900-07-07 00:00:00+00:00	1
1900-07-13 00:00:00+00:00	1
1900-07-29 00:00:00+00:00	1
1900-08-19 00:00:00+00:00	1
1900-08-25 00:00:00+00:00	1
1901-01-01 00:00:00+00:00	26
1901-01-13 00:00:00+00:00	1
1901-01-29 00:00:00+00:00	1
1901-03-21 00:00:00+00:00	1
1901-04-13 00:00:00+00:00	1
1901-04-27 00:00:00+00:00	1
1901-05-11 00:00:00+00:00	1
1901-06-29 00:00:00+00:00	1
1901-07-18 00:00:00+00:00	1
1901-07-27 00:00:00+00:00	1
1901-08-03 00:00:00+00:00	1
1901-08-10 00:00:00+00:00	1
1901-09-13 00:00:00+00:00	1
1901-09-20 00:00:00+00:00	1
1901-10-18 00:00:00+00:00	1
1901-12-07 00:00:00+00:00	1
1901-12-13 00:00:00+00:00	1
1902-01-01 00:00:00+00:00	18
1902-01-04 00:00:00+00:00	2
1902-01-26 00:00:00+00:00	1
1902-02-22 00:00:00+00:00	1
1902-05-03 00:00:00+00:00	1
1902-11-16 00:00:00+00:00	1
1902-11-29 00:00:00+00:00	1
1902-12-04 00:00:00+00:00	1
1902-12-14 00:00:00+00:00	1
1903-01-01 00:00:00+00:00	32
1903-07-01 00:00:00+00:00	1
1903-07-15 00:00:00+00:00	1
1903-08-04 00:00:00+00:00	1
1903-08-09 00:00:00+00:00	1
1903-08-15 00:00:00+00:00	1
1903-08-29 00:00:00+00:00	1
1903-09-22 00:00:00+00:00	1
1903-10-06 00:00:00+00:00	1
1903-10-24 00:00:00+00:00	1
1903-11-19 00:00:00+00:00	1
1904-01-01 00:00:00+00:00	17
1904-01-16 00:00:00+00:00	1
1904-04-10 00:00:00+00:00	1
1904-05-08 00:00:00+00:00	1
1904-06-25 00:00:00+00:00	1
1904-07-09 00:00:00+00:00	1
1904-08-06 00:00:00+00:00	1
1904-09-04 00:00:00+00:00	1
1904-09-08 00:00:00+00:00	1
1904-10-15 00:00:00+00:00	1
1904-11-26 00:00:00+00:00	1
1904-12-29 00:00:00+00:00	1
1905-01-01 00:00:00+00:00	46
1905-03-26 00:00:00+00:00	1
1905-04-02 00:00:00+00:00	1
1905-06-03 00:00:00+00:00	1
1905-06-15 00:00:00+00:00	1
1905-07-01 00:00:00+00:00	2
1905-07-03 00:00:00+00:00	1
1905-07-24 00:00:00+00:00	1
1905-08-02 00:00:00+00:00	1
1905-08-06 00:00:00+00:00	1
1905-08-08 00:00:00+00:00	1
1905-09-03 00:00:00+00:00	1
1905-09-09 00:00:00+00:00	1
1905-09-16 00:00:00+00:00	1
1905-10-18 00:00:00+00:00	1
1905-10-21 00:00:00+00:00	1
1905-11-01 00:00:00+00:00	1
1905-11-18 00:00:00+00:00	1
1905-12-10 00:00:00+00:00	1
1905-12-24 00:00:00+00:00	1
1906-01-01 00:00:00+00:00	23
1906-01-14 00:00:00+00:00	1
1906-01-18 00:00:00+00:00	1
1906-01-29 00:00:00+00:00	1
1906-02-24 00:00:00+00:00	1
1906-03-15 00:00:00+00:00	1
1906-04-22 00:00:00+00:00	1
1906-05-01 00:00:00+00:00	1
1906-05-26 00:00:00+00:00	1
1906-06-10 00:00:00+00:00	1
1906-07-13 00:00:00+00:00	1
1906-08-04 00:00:00+00:00	1
1906-08-17 00:00:00+00:00	1
1906-12-01 00:00:00+00:00	1
1907-01-01 00:00:00+00:00	33
1907-01-04 00:00:00+00:00	1
1907-01-14 00:00:00+00:00	1
1907-02-16 00:00:00+00:00	1
1907-06-08 00:00:00+00:00	1
1907-06-15 00:00:00+00:00	1
1907-06-25 00:00:00+00:00	1
1907-07-27 00:00:00+00:00	1
1907-08-26 00:00:00+00:00	1
1907-10-19 00:00:00+00:00	1
1907-10-26 00:00:00+00:00	1
1907-11-23 00:00:00+00:00	1
1908-01-01 00:00:00+00:00	42
1908-01-15 00:00:00+00:00	1
1908-01-25 00:00:00+00:00	1
1908-02-15 00:00:00+00:00	1
1908-05-01 00:00:00+00:00	1
1908-05-20 00:00:00+00:00	1
1908-06-01 00:00:00+00:00	1
1908-06-06 00:00:00+00:00	1
1908-07-01 00:00:00+00:00	1
1908-07-11 00:00:00+00:00	1
1908-07-22 00:00:00+00:00	1
1908-07-31 00:00:00+00:00	1
1908-08-23 00:00:00+00:00	1
1908-08-30 00:00:00+00:00	1
1908-09-19 00:00:00+00:00	1
1908-10-24 00:00:00+00:00	1
1908-11-06 00:00:00+00:00	1
1908-12-27 00:00:00+00:00	1
1909-01-01 00:00:00+00:00	33
1909-01-06 00:00:00+00:00	1
1909-01-16 00:00:00+00:00	1
1909-02-04 00:00:00+00:00	1
1909-02-21 00:00:00+00:00	1
1909-04-01 00:00:00+00:00	1
1909-04-03 00:00:00+00:00	1
1909-04-17 00:00:00+00:00	1
1909-05-01 00:00:00+00:00	1
1909-06-11 00:00:00+00:00	1
1909-06-15 00:00:00+00:00	1
1909-08-28 00:00:00+00:00	1
1909-09-18 00:00:00+00:00	1
1909-10-01 00:00:00+00:00	1
1909-10-09 00:00:00+00:00	1
1909-11-15 00:00:00+00:00	1
1910-01-01 00:00:00+00:00	46
1910-02-06 00:00:00+00:00	1
1910-02-19 00:00:00+00:00	1
1910-03-01 00:00:00+00:00	1
1910-05-01 00:00:00+00:00	1
1910-06-13 00:00:00+00:00	1
1910-06-18 00:00:00+00:00	1
1910-07-02 00:00:00+00:00	1
1910-07-15 00:00:00+00:00	1
1910-07-16 00:00:00+00:00	1
1910-10-01 00:00:00+00:00	1
1910-11-27 00:00:00+00:00	1
1911-01-01 00:00:00+00:00	32
1911-02-11 00:00:00+00:00	1
1911-02-21 00:00:00+00:00	1
1911-02-23 00:00:00+00:00	1
1911-03-12 00:00:00+00:00	1
1911-05-31 00:00:00+00:00	1
1911-06-07 00:00:00+00:00	1
1911-07-08 00:00:00+00:00	1
1911-08-04 00:00:00+00:00	1
1911-08-18 00:00:00+00:00	1
1911-09-01 00:00:00+00:00	1
1911-09-02 00:00:00+00:00	1
1911-09-07 00:00:00+00:00	1
1911-09-14 00:00:00+00:00	1
1911-09-16 00:00:00+00:00	1
1911-10-03 00:00:00+00:00	1
1911-10-21 00:00:00+00:00	1
1911-12-01 00:00:00+00:00	1
1912-01-01 00:00:00+00:00	30
1912-01-20 00:00:00+00:00	1
1912-02-17 00:00:00+00:00	1
1912-02-18 00:00:00+00:00	1
1912-04-01 00:00:00+00:00	1
1912-04-11 00:00:00+00:00	1
1912-04-21 00:00:00+00:00	1
1912-05-11 00:00:00+00:00	1
1912-05-26 00:00:00+00:00	1
1912-06-08 00:00:00+00:00	1
1912-07-26 00:00:00+00:00	1
1912-08-01 00:00:00+00:00	1
1912-08-15 00:00:00+00:00	1
1912-08-17 00:00:00+00:00	1
1912-09-07 00:00:00+00:00	2
1912-09-27 00:00:00+00:00	1
1912-10-05 00:00:00+00:00	1
1912-10-12 00:00:00+00:00	1
1912-10-27 00:00:00+00:00	1
1912-12-22 00:00:00+00:00	1
1913-01-01 00:00:00+00:00	38
1913-01-15 00:00:00+00:00	1
1913-02-09 00:00:00+00:00	1
1913-03-22 00:00:00+00:00	1
1913-04-20 00:00:00+00:00	1
1913-05-03 00:00:00+00:00	1
1913-05-12 00:00:00+00:00	1
1913-06-28 00:00:00+00:00	1
1913-07-20 00:00:00+00:00	1
1913-08-14 00:00:00+00:00	1
1913-08-16 00:00:00+00:00	1
1913-08-23 00:00:00+00:00	1
1913-11-14 00:00:00+00:00	2
1913-12-06 00:00:00+00:00	1
1914-01-01 00:00:00+00:00	12
1914-01-14 00:00:00+00:00	1
1914-01-15 00:00:00+00:00	1
1914-01-16 00:00:00+00:00	1
1914-01-28 00:00:00+00:00	1
1914-03-06 00:00:00+00:00	1
1914-05-05 00:00:00+00:00	1
1914-06-19 00:00:00+00:00	1
1914-09-15 00:00:00+00:00	1
1914-11-09 00:00:00+00:00	1
1914-12-31 00:00:00+00:00	1
1915-01-01 00:00:00+00:00	15
1915-04-18 00:00:00+00:00	1
1915-04-22 00:00:00+00:00	1
1915-05-18 00:00:00+00:00	2
1915-05-26 00:00:00+00:00	1
1915-05-30 00:00:00+00:00	1
1915-05-31 00:00:00+00:00	1
1915-06-06 00:00:00+00:00	1
1915-07-17 00:00:00+00:00	1
1915-08-04 00:00:00+00:00	1
1915-09-18 00:00:00+00:00	1
1915-09-25 00:00:00+00:00	1
1915-10-30 00:00:00+00:00	1
1915-11-01 00:00:00+00:00	2
1916-01-01 00:00:00+00:00	16
1916-01-15 00:00:00+00:00	1
1916-01-27 00:00:00+00:00	1
1916-02-27 00:00:00+00:00	1
1916-03-31 00:00:00+00:00	1
1916-06-12 00:00:00+00:00	1
1916-06-21 00:00:00+00:00	1
1916-09-01 00:00:00+00:00	1
1916-10-28 00:00:00+00:00	1
1917-01-01 00:00:00+00:00	10
1917-01-04 00:00:00+00:00	1
1917-01-13 00:00:00+00:00	1
1917-01-14 00:00:00+00:00	1
1917-05-10 00:00:00+00:00	1
1917-06-14 00:00:00+00:00	1
1917-06-21 00:00:00+00:00	1
1917-09-02 00:00:00+00:00	1
1918-01-01 00:00:00+00:00	17
1918-02-17 00:00:00+00:00	1
1918-04-27 00:00:00+00:00	1
1918-08-04 00:00:00+00:00	1
1918-08-24 00:00:00+00:00	1
1918-09-14 00:00:00+00:00	1
1918-12-15 00:00:00+00:00	1
1919-01-01 00:00:00+00:00	11
1919-02-15 00:00:00+00:00	1
1919-04-01 00:00:00+00:00	1
1919-05-24 00:00:00+00:00	1
1919-09-14 00:00:00+00:00	1
1919-11-01 00:00:00+00:00	1
1920-01-01 00:00:00+00:00	11
1920-01-05 00:00:00+00:00	1
1920-04-15 00:00:00+00:00	1
1920-06-20 00:00:00+00:00	1
1921-01-01 00:00:00+00:00	14
1921-01-23 00:00:00+00:00	1
1921-04-24 00:00:00+00:00	1
1921-06-17 00:00:00+00:00	1
1921-12-01 00:00:00+00:00	1
1921-12-14 00:00:00+00:00	1
1922-01-01 00:00:00+00:00	17
1922-01-08 00:00:00+00:00	1
1922-01-15 00:00:00+00:00	1
1922-04-01 00:00:00+00:00	1
1922-04-08 00:00:00+00:00	1
1922-04-23 00:00:00+00:00	1
1922-06-25 00:00:00+00:00	1
1922-07-23 00:00:00+00:00	1
1922-08-20 00:00:00+00:00	1
1922-09-10 00:00:00+00:00	1
1922-10-09 00:00:00+00:00	1
1922-11-10 00:00:00+00:00	1
1922-12-07 00:00:00+00:00	1
1923-01-01 00:00:00+00:00	20
1923-01-25 00:00:00+00:00	1
1923-02-20 00:00:00+00:00	1
1923-04-06 00:00:00+00:00	1
1923-04-10 00:00:00+00:00	1
1923-04-29 00:00:00+00:00	1
1923-06-02 00:00:00+00:00	1
1923-06-06 00:00:00+00:00	1
1923-08-03 00:00:00+00:00	1
1923-08-10 00:00:00+00:00	1
1923-08-11 00:00:00+00:00	1
1923-08-15 00:00:00+00:00	1
1923-08-18 00:00:00+00:00	1
1923-11-25 00:00:00+00:00	1
1924-01-01 00:00:00+00:00	18
1924-01-18 00:00:00+00:00	1
1924-04-18 00:00:00+00:00	1
1924-05-03 00:00:00+00:00	1
1924-05-04 00:00:00+00:00	1
1924-05-15 00:00:00+00:00	1
1924-05-25 00:00:00+00:00	1
1924-05-31 00:00:00+00:00	1
1924-06-01 00:00:00+00:00	1
1924-06-26 00:00:00+00:00	1
1924-07-05 00:00:00+00:00	1
1924-07-20 00:00:00+00:00	2
1924-08-10 00:00:00+00:00	1
1924-08-24 00:00:00+00:00	1
1924-09-06 00:00:00+00:00	1
1924-10-11 00:00:00+00:00	1
1924-11-16 00:00:00+00:00	1
1924-11-21 00:00:00+00:00	1
1925-01-01 00:00:00+00:00	21
1925-01-25 00:00:00+00:00	1
1925-02-01 00:00:00+00:00	1
1925-02-12 00:00:00+00:00	1
1925-02-22 00:00:00+00:00	1
1925-04-01 00:00:00+00:00	1
1925-04-09 00:00:00+00:00	1
1925-04-19 00:00:00+00:00	1
1925-05-01 00:00:00+00:00	1
1925-05-15 00:00:00+00:00	1
1925-05-28 00:00:00+00:00	1
1925-06-07 00:00:00+00:00	1
1925-06-21 00:00:00+00:00	1
1925-07-18 00:00:00+00:00	1
1925-08-01 00:00:00+00:00	1
1925-08-11 00:00:00+00:00	1
1925-08-19 00:00:00+00:00	1
1925-08-31 00:00:00+00:00	1
1925-09-02 00:00:00+00:00	1
1925-09-20 00:00:00+00:00	1
1925-09-24 00:00:00+00:00	1
1925-09-25 00:00:00+00:00	1
1925-10-26 00:00:00+00:00	1
1925-12-06 00:00:00+00:00	1
1926-01-01 00:00:00+00:00	18
1926-01-06 00:00:00+00:00	1
1926-01-09 00:00:00+00:00	1
1926-01-20 00:00:00+00:00	1
1926-04-01 00:00:00+00:00	1
1926-04-15 00:00:00+00:00	1
1926-05-08 00:00:00+00:00	1
1926-05-22 00:00:00+00:00	2
1926-06-06 00:00:00+00:00	1
1926-06-20 00:00:00+00:00	1
1926-07-10 00:00:00+00:00	1
1926-08-12 00:00:00+00:00	2
1926-09-11 00:00:00+00:00	1
1926-09-17 00:00:00+00:00	1
1926-10-09 00:00:00+00:00	1
1926-11-18 00:00:00+00:00	1
1926-12-16 00:00:00+00:00	1
1927-01-01 00:00:00+00:00	21
1927-02-16 00:00:00+00:00	1
1927-02-17 00:00:00+00:00	1
1927-02-20 00:00:00+00:00	1
1927-03-20 00:00:00+00:00	2
1927-04-10 00:00:00+00:00	2
1927-04-30 00:00:00+00:00	1
1927-05-09 00:00:00+00:00	1
1927-05-28 00:00:00+00:00	2
1927-06-26 00:00:00+00:00	1
1927-06-28 00:00:00+00:00	1
1927-07-01 00:00:00+00:00	1
1927-08-02 00:00:00+00:00	1
1927-08-07 00:00:00+00:00	1
1927-08-23 00:00:00+00:00	1
1927-08-29 00:00:00+00:00	1
1927-10-12 00:00:00+00:00	1
1927-10-16 00:00:00+00:00	1
1927-11-01 00:00:00+00:00	1
1927-11-05 00:00:00+00:00	1
1927-12-22 00:00:00+00:00	1
1927-12-31 00:00:00+00:00	1
1928-01-01 00:00:00+00:00	31
1928-04-26 00:00:00+00:00	1
1928-05-06 00:00:00+00:00	1
1928-05-08 00:00:00+00:00	1
1928-06-30 00:00:00+00:00	1
1928-07-01 00:00:00+00:00	1
1928-07-07 00:00:00+00:00	1
1928-07-19 00:00:00+00:00	1
1928-08-05 00:00:00+00:00	1
1928-09-12 00:00:00+00:00	1
1928-10-13 00:00:00+00:00	1
1928-11-08 00:00:00+00:00	1
1928-11-28 00:00:00+00:00	1
1928-12-02 00:00:00+00:00	1
1928-12-12 00:00:00+00:00	1
1928-12-15 00:00:00+00:00	2
1928-12-25 00:00:00+00:00	1
1929-01-01 00:00:00+00:00	29
1929-01-03 00:00:00+00:00	1
1929-01-17 00:00:00+00:00	1
1929-02-01 00:00:00+00:00	2
1929-02-16 00:00:00+00:00	2
1929-02-23 00:00:00+00:00	1
1929-03-01 00:00:00+00:00	1
1929-03-10 00:00:00+00:00	1
1929-04-01 00:00:00+00:00	1
1929-04-13 00:00:00+00:00	2
1929-04-23 00:00:00+00:00	1
1929-05-01 00:00:00+00:00	1
1929-05-07 00:00:00+00:00	1
1929-05-15 00:00:00+00:00	1
1929-06-01 00:00:00+00:00	1
1929-06-06 00:00:00+00:00	1
1929-06-13 00:00:00+00:00	1
1929-07-28 00:00:00+00:00	1
1929-08-17 00:00:00+00:00	1
1929-08-18 00:00:00+00:00	1
1929-08-23 00:00:00+00:00	1
1929-08-24 00:00:00+00:00	1
1929-09-01 00:00:00+00:00	2
1929-09-02 00:00:00+00:00	1
1929-10-15 00:00:00+00:00	1
1929-10-25 00:00:00+00:00	1
1929-11-30 00:00:00+00:00	1
1930-01-01 00:00:00+00:00	26
1930-01-10 00:00:00+00:00	2
1930-01-25 00:00:00+00:00	1
1930-03-08 00:00:00+00:00	1
1930-05-04 00:00:00+00:00	1
1930-05-07 00:00:00+00:00	1
1930-05-10 00:00:00+00:00	1
1930-06-15 00:00:00+00:00	1
1930-08-03 00:00:00+00:00	1
1930-08-23 00:00:00+00:00	1
1930-08-28 00:00:00+00:00	1
1930-09-07 00:00:00+00:00	1
1930-09-30 00:00:00+00:00	1
1930-11-01 00:00:00+00:00	1
1930-11-14 00:00:00+00:00	1
1930-12-21 00:00:00+00:00	1
1931-01-01 00:00:00+00:00	24
1931-01-04 00:00:00+00:00	1
1931-02-01 00:00:00+00:00	1
1931-02-22 00:00:00+00:00	1
1931-03-01 00:00:00+00:00	1
1931-03-06 00:00:00+00:00	1
1931-03-14 00:00:00+00:00	1
1931-03-21 00:00:00+00:00	1
1931-05-24 00:00:00+00:00	2
1931-06-01 00:00:00+00:00	1
1931-06-05 00:00:00+00:00	1
1931-06-14 00:00:00+00:00	1
1931-07-12 00:00:00+00:00	1
1931-07-15 00:00:00+00:00	1
1931-07-17 00:00:00+00:00	1
1931-08-13 00:00:00+00:00	1
1931-08-27 00:00:00+00:00	1
1931-09-09 00:00:00+00:00	1
1931-10-01 00:00:00+00:00	1
1931-10-15 00:00:00+00:00	1
1931-11-01 00:00:00+00:00	1
1931-11-21 00:00:00+00:00	1
1931-11-22 00:00:00+00:00	1
1932-01-01 00:00:00+00:00	15
1932-01-30 00:00:00+00:00	1
1932-02-23 00:00:00+00:00	1
1932-04-01 00:00:00+00:00	1
1932-06-01 00:00:00+00:00	1
1932-06-10 00:00:00+00:00	1
1932-06-24 00:00:00+00:00	1
1932-06-25 00:00:00+00:00	1
1932-06-26 00:00:00+00:00	1
1932-06-27 00:00:00+00:00	1
1932-06-29 00:00:00+00:00	1
1932-07-01 00:00:00+00:00	1
1932-07-03 00:00:00+00:00	1
1932-07-11 00:00:00+00:00	1
1932-07-15 00:00:00+00:00	1
1932-08-23 00:00:00+00:00	1
1932-09-21 00:00:00+00:00	1
1932-12-01 00:00:00+00:00	1
1932-12-11 00:00:00+00:00	1
1932-12-18 00:00:00+00:00	1
1933-01-01 00:00:00+00:00	19
1933-01-08 00:00:00+00:00	1
1933-02-01 00:00:00+00:00	1
1933-02-05 00:00:00+00:00	2
1933-02-26 00:00:00+00:00	1
1933-04-25 00:00:00+00:00	1
1933-04-27 00:00:00+00:00	1
1933-05-05 00:00:00+00:00	1
1933-05-11 00:00:00+00:00	2
1933-05-20 00:00:00+00:00	1
1933-05-22 00:00:00+00:00	1
1933-06-01 00:00:00+00:00	1
1933-06-14 00:00:00+00:00	1
1933-06-15 00:00:00+00:00	1
1933-06-21 00:00:00+00:00	1
1933-07-03 00:00:00+00:00	1
1933-07-30 00:00:00+00:00	1
1933-07-31 00:00:00+00:00	1
1933-08-25 00:00:00+00:00	1
1933-08-27 00:00:00+00:00	1
1933-11-01 00:00:00+00:00	2
1933-12-17 00:00:00+00:00	1
1934-01-01 00:00:00+00:00	16
1934-01-07 00:00:00+00:00	1
1934-01-28 00:00:00+00:00	1
1934-02-01 00:00:00+00:00	3
1934-02-23 00:00:00+00:00	1
1934-04-07 00:00:00+00:00	1
1934-04-18 00:00:00+00:00	1
1934-04-19 00:00:00+00:00	1
1934-06-09 00:00:00+00:00	1
1934-06-10 00:00:00+00:00	1
1934-07-08 00:00:00+00:00	1
1934-07-10 00:00:00+00:00	1
1934-08-12 00:00:00+00:00	1
1934-11-01 00:00:00+00:00	1
1934-11-14 00:00:00+00:00	1
1934-11-16 00:00:00+00:00	1
1934-12-16 00:00:00+00:00	1
1934-12-20 00:00:00+00:00	1
1935-01-01 00:00:00+00:00	19
1935-01-08 00:00:00+00:00	1
1935-03-01 00:00:00+00:00	2
1935-03-10 00:00:00+00:00	2
1935-03-11 00:00:00+00:00	1
1935-04-01 00:00:00+00:00	1
1935-05-03 00:00:00+00:00	1
1935-05-12 00:00:00+00:00	1
1935-06-23 00:00:00+00:00	1
1935-09-15 00:00:00+00:00	1
1935-09-16 00:00:00+00:00	1
1935-09-22 00:00:00+00:00	1
1935-10-01 00:00:00+00:00	1
1935-12-01 00:00:00+00:00	1
1935-12-13 00:00:00+00:00	1
1935-12-28 00:00:00+00:00	1
1935-12-29 00:00:00+00:00	1
1936-01-01 00:00:00+00:00	29
1936-01-19 00:00:00+00:00	2
1936-04-01 00:00:00+00:00	1
1936-05-01 00:00:00+00:00	1
1936-05-08 00:00:00+00:00	1
1936-05-15 00:00:00+00:00	1
1936-06-20 00:00:00+00:00	1
1936-06-26 00:00:00+00:00	1
1936-07-01 00:00:00+00:00	1
1936-07-03 00:00:00+00:00	1
1936-07-12 00:00:00+00:00	1
1936-08-01 00:00:00+00:00	1
1936-08-15 00:00:00+00:00	1
1936-08-28 00:00:00+00:00	1
1936-09-10 00:00:00+00:00	1
1936-09-20 00:00:00+00:00	1
1936-10-08 00:00:00+00:00	1
1936-10-19 00:00:00+00:00	1
1936-10-28 00:00:00+00:00	1
1936-11-01 00:00:00+00:00	1
1936-12-27 00:00:00+00:00	1
1937-01-01 00:00:00+00:00	16
1937-03-07 00:00:00+00:00	2
1937-03-15 00:00:00+00:00	1
1937-03-16 00:00:00+00:00	1
1937-03-28 00:00:00+00:00	1
1937-04-02 00:00:00+00:00	1
1937-04-13 00:00:00+00:00	1
1937-04-15 00:00:00+00:00	1
1937-04-29 00:00:00+00:00	1
1937-05-02 00:00:00+00:00	1
1937-06-06 00:00:00+00:00	1
1937-07-11 00:00:00+00:00	1
1937-07-12 00:00:00+00:00	1
1937-07-13 00:00:00+00:00	1
1937-08-18 00:00:00+00:00	1
1937-08-29 00:00:00+00:00	1
1937-10-14 00:00:00+00:00	1
1937-11-08 00:00:00+00:00	1
1938-01-01 00:00:00+00:00	16
1938-01-24 00:00:00+00:00	1
1938-02-01 00:00:00+00:00	1
1938-02-06 00:00:00+00:00	1
1938-03-01 00:00:00+00:00	1
1938-03-25 00:00:00+00:00	1
1938-04-03 00:00:00+00:00	1
1938-04-12 00:00:00+00:00	2
1938-04-15 00:00:00+00:00	2
1938-05-01 00:00:00+00:00	3
1938-05-06 00:00:00+00:00	1
1938-06-11 00:00:00+00:00	2
1938-06-12 00:00:00+00:00	1
1938-06-24 00:00:00+00:00	2
1938-06-25 00:00:00+00:00	1
1938-07-03 00:00:00+00:00	1
1938-07-30 00:00:00+00:00	1
1938-07-31 00:00:00+00:00	1
1938-08-02 00:00:00+00:00	1
1938-08-04 00:00:00+00:00	1
1938-08-05 00:00:00+00:00	1
1938-08-23 00:00:00+00:00	1
1938-08-27 00:00:00+00:00	1
1938-10-23 00:00:00+00:00	1
1938-11-20 00:00:00+00:00	1
1939-01-01 00:00:00+00:00	11
1939-01-29 00:00:00+00:00	1
1939-02-16 00:00:00+00:00	1
1939-03-01 00:00:00+00:00	1
1939-03-02 00:00:00+00:00	1
1939-06-01 00:00:00+00:00	1
1939-06-19 00:00:00+00:00	1
1939-07-02 00:00:00+00:00	1
1939-07-12 00:00:00+00:00	1
1939-07-13 00:00:00+00:00	1
1939-07-23 00:00:00+00:00	1
1939-07-30 00:00:00+00:00	1
1939-08-06 00:00:00+00:00	1
1939-08-15 00:00:00+00:00	1
1939-08-19 00:00:00+00:00	1
1941-02-21 00:00:00+00:00	1
1943-01-01 00:00:00+00:00	1
1944-03-24 00:00:00+00:00	1
1944-09-29 00:00:00+00:00	1
1946-01-01 00:00:00+00:00	1
1947-01-01 00:00:00+00:00	1
1947-01-26 00:00:00+00:00	1
1948-01-01 00:00:00+00:00	1
1948-03-28 00:00:00+00:00	1
1950-11-26 00:00:00+00:00	1
1953-01-01 00:00:00+00:00	1
1956-01-01 00:00:00+00:00	1
1957-01-01 00:00:00+00:00	1
1958-06-30 00:00:00+00:00	1
1961-01-01 00:00:00+00:00	2
1972-01-01 00:00:00+00:00	2
1976-01-01 00:00:00+00:00	1
1977-01-01 00:00:00+00:00	1
1977-01-31 00:00:00+00:00	1
1985-01-01 00:00:00+00:00	1
2001-03-01 00:00:00+00:00	1
