1826-01-01 00:00:00+00:00	4
1830-07-03 00:00:00+00:00	1
1834-01-01 00:00:00+00:00	2
1836-01-01 00:00:00+00:00	2
1838-01-01 00:00:00+00:00	2
1842-01-01 00:00:00+00:00	2
1843-01-01 00:00:00+00:00	2
1843-07-29 00:00:00+00:00	1
1844-01-01 00:00:00+00:00	9
1845-01-01 00:00:00+00:00	1
1846-01-01 00:00:00+00:00	1
1849-01-01 00:00:00+00:00	4
1850-01-01 00:00:00+00:00	1
1851-01-01 00:00:00+00:00	3
1853-01-01 00:00:00+00:00	1
1857-01-01 00:00:00+00:00	2
1858-01-01 00:00:00+00:00	1
1863-01-01 00:00:00+00:00	4
1863-07-01 00:00:00+00:00	1
1866-01-01 00:00:00+00:00	3
1868-01-01 00:00:00+00:00	3
1869-01-01 00:00:00+00:00	3
1869-09-18 00:00:00+00:00	1
1871-01-01 00:00:00+00:00	1
1873-01-01 00:00:00+00:00	1
1874-01-01 00:00:00+00:00	3
1875-01-01 00:00:00+00:00	3
1876-01-01 00:00:00+00:00	1
1876-05-04 00:00:00+00:00	1
1877-01-01 00:00:00+00:00	14
1877-07-26 00:00:00+00:00	1
1877-11-22 00:00:00+00:00	1
1878-01-01 00:00:00+00:00	5
1879-01-01 00:00:00+00:00	1
1879-05-28 00:00:00+00:00	1
1880-01-01 00:00:00+00:00	5
1881-01-01 00:00:00+00:00	1
1882-01-01 00:00:00+00:00	1
1883-01-01 00:00:00+00:00	7
1884-01-01 00:00:00+00:00	1
1884-11-22 00:00:00+00:00	1
1885-01-01 00:00:00+00:00	7
1886-01-01 00:00:00+00:00	2
1887-01-01 00:00:00+00:00	9
1887-03-23 00:00:00+00:00	1
1888-01-01 00:00:00+00:00	4
1889-01-01 00:00:00+00:00	3
1889-02-23 00:00:00+00:00	1
1890-01-01 00:00:00+00:00	6
1891-01-01 00:00:00+00:00	15
1893-01-01 00:00:00+00:00	4
1893-05-27 00:00:00+00:00	1
1893-06-03 00:00:00+00:00	1
1894-01-01 00:00:00+00:00	2
1895-01-01 00:00:00+00:00	12
1896-01-01 00:00:00+00:00	1
1897-01-01 00:00:00+00:00	37
1897-07-01 00:00:00+00:00	1
1898-01-01 00:00:00+00:00	4
1899-01-01 00:00:00+00:00	6
1899-12-21 00:00:00+00:00	1
1900-01-01 00:00:00+00:00	12
1901-01-01 00:00:00+00:00	5
1902-01-01 00:00:00+00:00	3
1902-05-01 00:00:00+00:00	1
1902-07-05 00:00:00+00:00	2
1903-01-01 00:00:00+00:00	20
1903-02-21 00:00:00+00:00	1
1903-05-15 00:00:00+00:00	1
1903-08-01 00:00:00+00:00	1
1903-09-15 00:00:00+00:00	1
1904-01-01 00:00:00+00:00	13
1905-01-01 00:00:00+00:00	25
1905-06-01 00:00:00+00:00	1
1906-01-01 00:00:00+00:00	27
1906-07-01 00:00:00+00:00	1
1907-01-01 00:00:00+00:00	17
1908-01-01 00:00:00+00:00	18
1908-11-08 00:00:00+00:00	1
1908-12-13 00:00:00+00:00	1
1909-01-01 00:00:00+00:00	69
1909-03-28 00:00:00+00:00	1
1909-05-23 00:00:00+00:00	1
1909-06-20 00:00:00+00:00	1
1909-11-07 00:00:00+00:00	1
1910-01-01 00:00:00+00:00	7
1910-03-13 00:00:00+00:00	1
1910-03-27 00:00:00+00:00	1
1910-05-22 00:00:00+00:00	1
1911-01-01 00:00:00+00:00	20
1911-07-29 00:00:00+00:00	1
1912-01-01 00:00:00+00:00	15
1912-10-15 00:00:00+00:00	1
1913-01-01 00:00:00+00:00	24
1913-05-12 00:00:00+00:00	9
1914-01-01 00:00:00+00:00	12
1915-01-01 00:00:00+00:00	1
1916-01-01 00:00:00+00:00	18
1917-01-01 00:00:00+00:00	4
1918-01-01 00:00:00+00:00	26
1918-01-19 00:00:00+00:00	1
1919-01-01 00:00:00+00:00	6
1919-12-15 00:00:00+00:00	1
1920-01-01 00:00:00+00:00	19
1921-01-01 00:00:00+00:00	4
1922-01-01 00:00:00+00:00	69
1922-04-23 00:00:00+00:00	1
1922-08-12 00:00:00+00:00	1
1922-11-15 00:00:00+00:00	1
1923-01-01 00:00:00+00:00	1
1923-03-04 00:00:00+00:00	1
1923-07-22 00:00:00+00:00	1
1923-12-09 00:00:00+00:00	1
1923-12-23 00:00:00+00:00	1
1924-01-01 00:00:00+00:00	6
1924-01-13 00:00:00+00:00	1
1924-03-13 00:00:00+00:00	1
1925-01-01 00:00:00+00:00	24
1925-02-14 00:00:00+00:00	1
1925-06-21 00:00:00+00:00	1
1925-08-30 00:00:00+00:00	1
1925-09-03 00:00:00+00:00	1
1925-10-23 00:00:00+00:00	1
1925-10-25 00:00:00+00:00	1
1925-11-08 00:00:00+00:00	2
1925-11-19 00:00:00+00:00	1
1925-12-06 00:00:00+00:00	1
1926-01-01 00:00:00+00:00	6
1926-01-17 00:00:00+00:00	1
1926-05-09 00:00:00+00:00	1
1926-07-18 00:00:00+00:00	1
1926-07-25 00:00:00+00:00	2
1926-10-17 00:00:00+00:00	1
1926-12-26 00:00:00+00:00	1
1927-01-01 00:00:00+00:00	16
1927-01-16 00:00:00+00:00	1
1927-05-29 00:00:00+00:00	1
1927-06-04 00:00:00+00:00	1
1927-08-01 00:00:00+00:00	1
1927-10-16 00:00:00+00:00	1
1927-11-20 00:00:00+00:00	2
1927-12-11 00:00:00+00:00	1
1927-12-31 00:00:00+00:00	1
1928-01-01 00:00:00+00:00	27
1928-03-01 00:00:00+00:00	1
1928-07-08 00:00:00+00:00	1
1928-08-01 00:00:00+00:00	1
1928-08-26 00:00:00+00:00	1
1929-01-01 00:00:00+00:00	39
1929-01-27 00:00:00+00:00	1
1929-02-01 00:00:00+00:00	1
1929-04-21 00:00:00+00:00	2
1929-06-02 00:00:00+00:00	1
1929-06-22 00:00:00+00:00	1
1929-09-22 00:00:00+00:00	1
1930-01-01 00:00:00+00:00	31
1930-05-01 00:00:00+00:00	2
1930-05-05 00:00:00+00:00	1
1930-08-31 00:00:00+00:00	1
1930-09-21 00:00:00+00:00	1
1930-10-27 00:00:00+00:00	1
1930-11-08 00:00:00+00:00	1
1930-11-30 00:00:00+00:00	1
1930-12-21 00:00:00+00:00	1
1931-01-01 00:00:00+00:00	30
1931-02-07 00:00:00+00:00	1
1931-04-11 00:00:00+00:00	1
1931-05-10 00:00:00+00:00	1
1931-11-01 00:00:00+00:00	1
1932-01-01 00:00:00+00:00	10
1932-10-30 00:00:00+00:00	1
1932-12-01 00:00:00+00:00	1
1933-01-01 00:00:00+00:00	16
1933-07-20 00:00:00+00:00	1
1933-12-03 00:00:00+00:00	1
1934-01-01 00:00:00+00:00	9
1934-05-20 00:00:00+00:00	2
1935-01-01 00:00:00+00:00	14
1935-06-01 00:00:00+00:00	1
1935-07-20 00:00:00+00:00	4
1935-09-01 00:00:00+00:00	1
1935-09-08 00:00:00+00:00	1
1935-10-20 00:00:00+00:00	1
1935-11-01 00:00:00+00:00	2
1935-12-07 00:00:00+00:00	1
1936-01-01 00:00:00+00:00	15
1936-02-02 00:00:00+00:00	1
1936-03-01 00:00:00+00:00	1
1936-03-21 00:00:00+00:00	1
1936-04-25 00:00:00+00:00	1
1936-05-02 00:00:00+00:00	1
1936-06-07 00:00:00+00:00	1
1936-06-14 00:00:00+00:00	1
1936-07-01 00:00:00+00:00	1
1936-10-18 00:00:00+00:00	1
1936-11-01 00:00:00+00:00	1
1936-12-01 00:00:00+00:00	1
1937-01-01 00:00:00+00:00	26
1937-02-01 00:00:00+00:00	1
1937-03-01 00:00:00+00:00	1
1937-04-01 00:00:00+00:00	1
1937-07-01 00:00:00+00:00	1
1937-07-04 00:00:00+00:00	1
1937-09-01 00:00:00+00:00	1
1937-10-01 00:00:00+00:00	1
1938-01-01 00:00:00+00:00	21
1938-04-01 00:00:00+00:00	1
1938-06-01 00:00:00+00:00	5
1938-08-01 00:00:00+00:00	1
1938-10-02 00:00:00+00:00	1
1938-12-01 00:00:00+00:00	1
1938-12-04 00:00:00+00:00	1
1938-12-31 00:00:00+00:00	1
1939-01-01 00:00:00+00:00	22
1939-01-15 00:00:00+00:00	1
1939-03-12 00:00:00+00:00	1
1939-04-01 00:00:00+00:00	1
1939-08-20 00:00:00+00:00	1
1940-01-01 00:00:00+00:00	1
1944-01-01 00:00:00+00:00	1
1944-07-01 00:00:00+00:00	1
1944-08-30 00:00:00+00:00	1
1945-02-18 00:00:00+00:00	1
1945-06-15 00:00:00+00:00	1
1945-07-22 00:00:00+00:00	1
1945-07-25 00:00:00+00:00	1
1945-08-15 00:00:00+00:00	1
1945-08-22 00:00:00+00:00	1
1945-10-14 00:00:00+00:00	1
1945-10-30 00:00:00+00:00	1
1945-12-01 00:00:00+00:00	1
1946-01-01 00:00:00+00:00	2
1946-01-19 00:00:00+00:00	1
1946-02-01 00:00:00+00:00	1
1946-02-17 00:00:00+00:00	1
1946-03-01 00:00:00+00:00	1
1946-03-08 00:00:00+00:00	1
1946-09-21 00:00:00+00:00	1
1947-01-01 00:00:00+00:00	1
1947-01-05 00:00:00+00:00	1
1947-01-10 00:00:00+00:00	1
1947-02-09 00:00:00+00:00	1
1947-04-05 00:00:00+00:00	1
1947-04-10 00:00:00+00:00	1
1947-05-13 00:00:00+00:00	1
1947-06-12 00:00:00+00:00	1
1947-07-05 00:00:00+00:00	2
1947-10-05 00:00:00+00:00	1
1947-10-20 00:00:00+00:00	1
1948-01-01 00:00:00+00:00	1
1948-02-20 00:00:00+00:00	1
1948-03-05 00:00:00+00:00	1
1948-03-08 00:00:00+00:00	1
1948-03-26 00:00:00+00:00	1
1948-04-11 00:00:00+00:00	1
1948-05-04 00:00:00+00:00	1
1948-08-12 00:00:00+00:00	1
1948-11-12 00:00:00+00:00	1
1948-11-28 00:00:00+00:00	2
1948-12-19 00:00:00+00:00	1
1949-01-04 00:00:00+00:00	1
1949-01-14 00:00:00+00:00	1
1949-03-06 00:00:00+00:00	3
1949-03-08 00:00:00+00:00	1
1949-05-08 00:00:00+00:00	1
1949-05-22 00:00:00+00:00	1
1949-06-05 00:00:00+00:00	1
1949-07-10 00:00:00+00:00	1
1949-09-25 00:00:00+00:00	1
1949-10-30 00:00:00+00:00	1
1949-11-13 00:00:00+00:00	1
1949-12-04 00:00:00+00:00	1
1949-12-11 00:00:00+00:00	2
1949-12-18 00:00:00+00:00	1
1949-12-25 00:00:00+00:00	1
1950-01-01 00:00:00+00:00	1
1950-01-15 00:00:00+00:00	1
1950-01-22 00:00:00+00:00	1
1950-02-12 00:00:00+00:00	1
1950-02-16 00:00:00+00:00	1
1950-02-26 00:00:00+00:00	1
1950-03-05 00:00:00+00:00	2
1950-03-06 00:00:00+00:00	1
1950-03-07 00:00:00+00:00	1
1950-03-08 00:00:00+00:00	2
1950-03-09 00:00:00+00:00	2
1950-03-19 00:00:00+00:00	1
1950-03-30 00:00:00+00:00	1
1950-05-07 00:00:00+00:00	1
1950-08-10 00:00:00+00:00	1
1950-08-20 00:00:00+00:00	1
1950-08-27 00:00:00+00:00	1
1950-09-10 00:00:00+00:00	1
1950-09-17 00:00:00+00:00	1
1950-10-08 00:00:00+00:00	1
1950-10-29 00:00:00+00:00	1
1950-11-12 00:00:00+00:00	1
1950-11-19 00:00:00+00:00	2
1951-01-21 00:00:00+00:00	1
1951-02-20 00:00:00+00:00	1
1951-02-28 00:00:00+00:00	2
1951-03-01 00:00:00+00:00	1
1951-03-03 00:00:00+00:00	1
1951-03-04 00:00:00+00:00	1
1951-03-05 00:00:00+00:00	1
1951-03-07 00:00:00+00:00	4
1951-03-08 00:00:00+00:00	3
1951-03-11 00:00:00+00:00	2
1951-03-18 00:00:00+00:00	1
1951-03-21 00:00:00+00:00	1
1951-04-15 00:00:00+00:00	1
1951-05-26 00:00:00+00:00	1
1951-07-22 00:00:00+00:00	1
1951-07-29 00:00:00+00:00	1
1951-12-30 00:00:00+00:00	1
1952-01-01 00:00:00+00:00	1
1952-02-14 00:00:00+00:00	1
1952-03-02 00:00:00+00:00	1
1952-03-04 00:00:00+00:00	1
1952-03-05 00:00:00+00:00	1
1952-03-07 00:00:00+00:00	1
1952-03-08 00:00:00+00:00	2
1952-03-09 00:00:00+00:00	1
1952-03-16 00:00:00+00:00	1
1952-07-27 00:00:00+00:00	1
1952-08-10 00:00:00+00:00	2
1952-08-21 00:00:00+00:00	1
1952-09-02 00:00:00+00:00	1
1952-09-28 00:00:00+00:00	2
1952-10-05 00:00:00+00:00	1
1952-11-09 00:00:00+00:00	1
1953-01-11 00:00:00+00:00	1
1953-02-15 00:00:00+00:00	1
1953-02-22 00:00:00+00:00	1
1953-03-01 00:00:00+00:00	1
1953-03-03 00:00:00+00:00	1
1953-03-04 00:00:00+00:00	1
1953-03-08 00:00:00+00:00	3
1953-04-02 00:00:00+00:00	1
1953-05-10 00:00:00+00:00	1
1953-06-01 00:00:00+00:00	1
1953-06-02 00:00:00+00:00	1
1953-06-04 00:00:00+00:00	1
1953-06-05 00:00:00+00:00	1
1953-06-06 00:00:00+00:00	1
1953-06-07 00:00:00+00:00	1
1953-06-14 00:00:00+00:00	1
1953-06-17 00:00:00+00:00	1
1953-06-18 00:00:00+00:00	1
1953-06-21 00:00:00+00:00	2
1953-07-05 00:00:00+00:00	1
1953-07-11 00:00:00+00:00	1
1953-07-26 00:00:00+00:00	1
1953-10-04 00:00:00+00:00	1
1953-11-22 00:00:00+00:00	1
1954-01-01 00:00:00+00:00	41
1954-02-21 00:00:00+00:00	1
1954-03-01 00:00:00+00:00	1
1954-03-02 00:00:00+00:00	2
1954-03-08 00:00:00+00:00	1
1954-03-31 00:00:00+00:00	1
1954-07-18 00:00:00+00:00	1
1954-10-24 00:00:00+00:00	1
1955-12-17 00:00:00+00:00	1
1957-01-01 00:00:00+00:00	1
1958-01-01 00:00:00+00:00	1
1958-01-15 00:00:00+00:00	1
1959-01-01 00:00:00+00:00	8
1963-01-01 00:00:00+00:00	4
1963-08-01 00:00:00+00:00	1
1964-01-01 00:00:00+00:00	2
1964-02-21 00:00:00+00:00	1
1964-02-29 00:00:00+00:00	1
1964-12-31 23:00:00+00:00	1
1965-01-01 00:00:00+00:00	1
1965-07-01 00:00:00+00:00	1
1966-01-01 00:00:00+00:00	1
1966-02-11 00:00:00+00:00	1
1967-01-01 00:00:00+00:00	1
1967-04-22 00:00:00+00:00	1
1967-07-25 00:00:00+00:00	1
1967-11-01 00:00:00+00:00	1
1969-01-01 00:00:00+00:00	7
1970-01-01 00:00:00+00:00	2
1972-01-01 00:00:00+00:00	10
1973-01-01 00:00:00+00:00	1
1974-01-01 00:00:00+00:00	2
1975-01-01 00:00:00+00:00	4
1976-01-01 00:00:00+00:00	3
1977-01-01 00:00:00+00:00	4
1977-07-01 00:00:00+00:00	1
1978-01-01 00:00:00+00:00	6
1978-12-31 23:00:00+00:00	2
1979-01-01 00:00:00+00:00	3
1980-01-01 00:00:00+00:00	2
1980-06-01 00:00:00+00:00	1
1981-01-01 00:00:00+00:00	2
1982-01-01 00:00:00+00:00	5
1983-01-01 00:00:00+00:00	5
1984-01-01 00:00:00+00:00	11
1985-01-01 00:00:00+00:00	7
1986-01-01 00:00:00+00:00	7
1987-01-01 00:00:00+00:00	4
1988-01-01 00:00:00+00:00	4
1990-01-01 00:00:00+00:00	8
1991-01-01 00:00:00+00:00	8
1992-01-01 00:00:00+00:00	5
1992-06-06 00:00:00+00:00	1
1992-06-20 00:00:00+00:00	1
1992-09-24 00:00:00+00:00	1
1992-12-30 00:00:00+00:00	1
1993-01-01 00:00:00+00:00	8
1994-01-01 00:00:00+00:00	12
1994-05-28 00:00:00+00:00	1
1994-06-24 00:00:00+00:00	2
1995-01-01 00:00:00+00:00	17
1995-03-16 00:00:00+00:00	1
1995-07-12 00:00:00+00:00	1
1996-01-01 00:00:00+00:00	13
1996-01-31 00:00:00+00:00	1
1996-02-16 00:00:00+00:00	1
1996-03-27 00:00:00+00:00	1
1996-10-23 00:00:00+00:00	1
1997-01-01 00:00:00+00:00	10
1997-01-31 00:00:00+00:00	2
1997-06-12 00:00:00+00:00	1
1997-06-13 00:00:00+00:00	3
1997-08-01 00:00:00+00:00	1
1997-11-18 00:00:00+00:00	1
1997-12-03 00:00:00+00:00	1
1998-01-01 00:00:00+00:00	24
1998-02-07 00:00:00+00:00	1
1998-04-07 00:00:00+00:00	1
1998-05-22 00:00:00+00:00	2
1999-01-01 00:00:00+00:00	23
1999-03-04 00:00:00+00:00	3
1999-06-25 00:00:00+00:00	1
1999-11-03 00:00:00+00:00	1
1999-11-04 00:00:00+00:00	1
1999-12-02 00:00:00+00:00	1
2000-01-01 00:00:00+00:00	24
2000-03-01 00:00:00+00:00	1
2000-04-14 00:00:00+00:00	2
2000-11-29 00:00:00+00:00	1
2001-01-01 00:00:00+00:00	6
2001-01-11 00:00:00+00:00	2
2001-02-16 00:00:00+00:00	1
2001-04-25 00:00:00+00:00	1
2001-11-21 00:00:00+00:00	1
2002-01-01 00:00:00+00:00	15
2002-02-08 00:00:00+00:00	1
2002-06-21 00:00:00+00:00	1
2002-06-28 00:00:00+00:00	1
2002-07-19 00:00:00+00:00	1
2002-07-26 00:00:00+00:00	1
2002-10-31 00:00:00+00:00	1
2002-11-23 00:00:00+00:00	1
2002-12-31 23:00:00+00:00	1
2003-01-01 00:00:00+00:00	10
2003-01-08 00:00:00+00:00	2
2003-03-20 00:00:00+00:00	1
