1831-01-01 00:00:00+00:00	1
1832-01-01 00:00:00+00:00	1
1834-02-19 00:00:00+00:00	1
1835-01-01 00:00:00+00:00	1
1838-01-01 00:00:00+00:00	2
1842-01-01 00:00:00+00:00	1
1844-01-01 00:00:00+00:00	1
1844-01-19 00:00:00+00:00	1
1850-01-01 00:00:00+00:00	2
1850-06-12 00:00:00+00:00	1
1851-01-01 00:00:00+00:00	1
1852-01-01 00:00:00+00:00	1
1853-01-01 00:00:00+00:00	2
1855-01-01 00:00:00+00:00	5
1855-03-21 00:00:00+00:00	1
1858-01-01 00:00:00+00:00	2
1858-05-15 00:00:00+00:00	1
1858-05-22 00:00:00+00:00	1
1859-01-01 00:00:00+00:00	1
1860-01-01 00:00:00+00:00	1
1861-01-01 00:00:00+00:00	1
1861-11-20 00:00:00+00:00	1
1862-01-01 00:00:00+00:00	2
1865-01-01 00:00:00+00:00	2
1867-09-14 00:00:00+00:00	1
1869-01-01 00:00:00+00:00	3
1872-01-01 00:00:00+00:00	1
1876-11-09 00:00:00+00:00	1
1877-01-01 00:00:00+00:00	1
1877-10-04 00:00:00+00:00	1
1877-10-07 00:00:00+00:00	1
1878-01-01 00:00:00+00:00	1
1879-01-01 00:00:00+00:00	2
1879-05-25 00:00:00+00:00	1
1879-10-30 00:00:00+00:00	1
1879-11-22 00:00:00+00:00	1
1880-01-01 00:00:00+00:00	1
1880-01-28 00:00:00+00:00	1
1881-01-01 00:00:00+00:00	1
1882-01-01 00:00:00+00:00	1
1882-08-19 00:00:00+00:00	1
1882-09-03 00:00:00+00:00	1
1884-01-01 00:00:00+00:00	1
1884-12-05 00:00:00+00:00	1
1885-01-01 00:00:00+00:00	1
1886-06-28 00:00:00+00:00	1
1886-10-08 00:00:00+00:00	1
1888-01-01 00:00:00+00:00	2
1888-02-28 00:00:00+00:00	1
1888-03-02 00:00:00+00:00	1
1888-03-16 00:00:00+00:00	1
1888-03-17 00:00:00+00:00	1
1888-03-18 00:00:00+00:00	2
1888-04-01 00:00:00+00:00	1
1888-04-07 00:00:00+00:00	1
1888-04-08 00:00:00+00:00	1
1888-04-15 00:00:00+00:00	1
1888-05-19 00:00:00+00:00	1
1888-06-08 00:00:00+00:00	1
1888-07-29 00:00:00+00:00	1
1889-03-19 00:00:00+00:00	1
1891-01-01 00:00:00+00:00	2
1891-06-19 00:00:00+00:00	1
1891-11-28 00:00:00+00:00	1
1892-03-03 00:00:00+00:00	1
1892-04-03 00:00:00+00:00	1
1892-11-16 00:00:00+00:00	1
1893-01-01 00:00:00+00:00	1
1894-01-01 00:00:00+00:00	2
1895-02-03 00:00:00+00:00	1
1895-04-02 00:00:00+00:00	1
1895-08-03 00:00:00+00:00	1
1896-01-01 00:00:00+00:00	1
1896-10-15 00:00:00+00:00	1
1897-09-04 00:00:00+00:00	1
1899-03-25 00:00:00+00:00	1
1900-01-01 00:00:00+00:00	1
1903-01-01 00:00:00+00:00	2
1904-01-01 00:00:00+00:00	1
1905-01-01 00:00:00+00:00	2
1905-05-10 00:00:00+00:00	1
1905-05-14 00:00:00+00:00	1
1906-01-01 00:00:00+00:00	1
1906-02-10 00:00:00+00:00	1
1906-06-24 00:00:00+00:00	1
1906-11-28 00:00:00+00:00	1
1907-01-01 00:00:00+00:00	2
1907-04-16 00:00:00+00:00	1
1907-05-11 00:00:00+00:00	1
1907-05-18 00:00:00+00:00	1
1907-05-31 00:00:00+00:00	1
1907-07-11 00:00:00+00:00	1
1907-09-24 00:00:00+00:00	1
1907-11-03 00:00:00+00:00	1
1908-01-01 00:00:00+00:00	11
1908-01-22 00:00:00+00:00	1
1908-01-25 00:00:00+00:00	1
1908-02-05 00:00:00+00:00	1
1908-09-16 00:00:00+00:00	1
1908-10-24 00:00:00+00:00	1
1908-11-12 00:00:00+00:00	1
1908-12-17 00:00:00+00:00	1
1909-01-01 00:00:00+00:00	4
1909-04-27 00:00:00+00:00	1
1909-05-29 00:00:00+00:00	2
1909-06-01 00:00:00+00:00	1
1909-06-29 00:00:00+00:00	1
1909-07-06 00:00:00+00:00	1
1909-07-08 00:00:00+00:00	1
1910-01-01 00:00:00+00:00	5
1911-01-01 00:00:00+00:00	6
1911-08-16 00:00:00+00:00	1
1911-10-19 00:00:00+00:00	1
1911-12-21 00:00:00+00:00	1
1911-12-29 00:00:00+00:00	1
1912-01-01 00:00:00+00:00	3
1912-01-11 00:00:00+00:00	1
1912-01-16 00:00:00+00:00	1
1912-12-29 00:00:00+00:00	1
1913-01-01 00:00:00+00:00	4
1913-02-12 00:00:00+00:00	1
1913-11-21 00:00:00+00:00	1
1914-01-01 00:00:00+00:00	1
1916-01-01 00:00:00+00:00	4
1916-04-26 00:00:00+00:00	2
1916-07-01 00:00:00+00:00	1
1916-08-15 00:00:00+00:00	1
1916-11-16 00:00:00+00:00	1
1916-12-07 00:00:00+00:00	2
1917-01-01 00:00:00+00:00	14
1917-07-24 00:00:00+00:00	1
1917-07-27 00:00:00+00:00	1
1917-09-05 00:00:00+00:00	1
1917-09-14 00:00:00+00:00	1
1918-01-01 00:00:00+00:00	66
1918-02-23 00:00:00+00:00	1
1918-03-21 00:00:00+00:00	1
1918-03-24 00:00:00+00:00	1
1918-03-26 00:00:00+00:00	1
1918-07-10 00:00:00+00:00	1
1918-07-14 00:00:00+00:00	1
1918-07-15 00:00:00+00:00	3
1918-07-24 00:00:00+00:00	2
1918-07-25 00:00:00+00:00	1
1918-08-04 00:00:00+00:00	1
1918-09-01 00:00:00+00:00	1
1918-09-07 00:00:00+00:00	1
1918-09-17 00:00:00+00:00	1
1918-09-19 00:00:00+00:00	1
1918-11-13 00:00:00+00:00	1
1918-12-07 00:00:00+00:00	1
1918-12-09 00:00:00+00:00	1
1918-12-31 00:00:00+00:00	1
1919-01-01 00:00:00+00:00	35
1919-01-23 00:00:00+00:00	1
1919-01-30 00:00:00+00:00	3
1919-02-05 00:00:00+00:00	1
1919-02-13 00:00:00+00:00	1
1919-02-14 00:00:00+00:00	1
1919-03-16 00:00:00+00:00	2
1919-03-20 00:00:00+00:00	1
1919-03-29 00:00:00+00:00	1
1919-04-01 00:00:00+00:00	1
1919-04-03 00:00:00+00:00	1
1919-04-23 00:00:00+00:00	1
1919-04-26 00:00:00+00:00	2
1919-05-06 00:00:00+00:00	1
1919-05-12 00:00:00+00:00	1
1919-05-23 00:00:00+00:00	1
1919-05-25 00:00:00+00:00	2
1919-06-01 00:00:00+00:00	1
1919-06-12 00:00:00+00:00	1
1919-07-02 00:00:00+00:00	1
1919-07-18 00:00:00+00:00	2
1919-07-28 00:00:00+00:00	1
1919-08-01 00:00:00+00:00	1
1919-08-05 00:00:00+00:00	2
1919-08-07 00:00:00+00:00	1
1919-08-09 00:00:00+00:00	1
1919-08-15 00:00:00+00:00	1
1919-08-16 00:00:00+00:00	1
1919-08-26 00:00:00+00:00	1
1919-08-29 00:00:00+00:00	1
1919-09-05 00:00:00+00:00	1
1919-09-07 00:00:00+00:00	1
1919-09-12 00:00:00+00:00	1
1919-09-17 00:00:00+00:00	2
1919-09-26 00:00:00+00:00	1
1919-09-30 00:00:00+00:00	1
1919-10-03 00:00:00+00:00	1
1919-10-15 00:00:00+00:00	1
1919-10-16 00:00:00+00:00	1
1919-10-26 00:00:00+00:00	2
1919-10-30 00:00:00+00:00	1
1919-10-31 00:00:00+00:00	1
1919-11-01 00:00:00+00:00	2
1919-11-15 00:00:00+00:00	1
1919-11-21 00:00:00+00:00	1
1919-11-25 00:00:00+00:00	1
1919-11-28 00:00:00+00:00	1
1919-12-13 00:00:00+00:00	1
1919-12-17 00:00:00+00:00	2
1919-12-19 00:00:00+00:00	1
1919-12-27 00:00:00+00:00	1
1920-01-01 00:00:00+00:00	29
1920-01-03 00:00:00+00:00	2
1920-01-09 00:00:00+00:00	1
1920-01-10 00:00:00+00:00	1
1920-01-11 00:00:00+00:00	1
1920-01-13 00:00:00+00:00	1
1920-01-17 00:00:00+00:00	1
1920-01-20 00:00:00+00:00	4
1920-01-23 00:00:00+00:00	1
1920-01-31 00:00:00+00:00	1
1920-02-14 00:00:00+00:00	1
1920-02-17 00:00:00+00:00	2
1920-02-20 00:00:00+00:00	2
1920-02-21 00:00:00+00:00	1
1920-02-26 00:00:00+00:00	1
1920-03-02 00:00:00+00:00	1
1920-03-06 00:00:00+00:00	1
1920-03-24 00:00:00+00:00	1
1920-03-28 00:00:00+00:00	1
1920-03-31 00:00:00+00:00	1
1920-04-03 00:00:00+00:00	2
1920-04-20 00:00:00+00:00	2
1920-04-22 00:00:00+00:00	2
1920-05-07 00:00:00+00:00	1
1920-05-11 00:00:00+00:00	3
1920-05-22 00:00:00+00:00	1
1920-05-23 00:00:00+00:00	1
1920-05-25 00:00:00+00:00	1
1920-05-26 00:00:00+00:00	1
1920-06-01 00:00:00+00:00	2
1920-06-15 00:00:00+00:00	1
1920-06-18 00:00:00+00:00	1
1920-06-22 00:00:00+00:00	1
1920-07-04 00:00:00+00:00	1
1920-07-07 00:00:00+00:00	1
1920-07-09 00:00:00+00:00	1
1920-07-13 00:00:00+00:00	2
1920-07-24 00:00:00+00:00	1
1920-07-27 00:00:00+00:00	1
1920-08-07 00:00:00+00:00	3
1920-08-08 00:00:00+00:00	1
1920-08-15 00:00:00+00:00	2
1920-08-24 00:00:00+00:00	1
1920-08-27 00:00:00+00:00	1
1920-08-31 00:00:00+00:00	1
1920-09-03 00:00:00+00:00	2
1920-09-11 00:00:00+00:00	1
1920-09-18 00:00:00+00:00	1
1920-10-06 00:00:00+00:00	1
1920-10-12 00:00:00+00:00	1
1920-10-25 00:00:00+00:00	1
1920-10-28 00:00:00+00:00	3
1920-10-31 00:00:00+00:00	1
1920-11-27 00:00:00+00:00	2
1920-12-09 00:00:00+00:00	1
1920-12-12 00:00:00+00:00	1
1920-12-18 00:00:00+00:00	1
1920-12-27 00:00:00+00:00	1
1920-12-29 00:00:00+00:00	1
1921-01-01 00:00:00+00:00	32
1921-01-13 00:00:00+00:00	2
1921-01-14 00:00:00+00:00	1
1921-01-17 00:00:00+00:00	1
1921-01-18 00:00:00+00:00	1
1921-01-20 00:00:00+00:00	1
1921-01-21 00:00:00+00:00	1
1921-01-25 00:00:00+00:00	1
1921-01-27 00:00:00+00:00	1
1921-01-31 00:00:00+00:00	1
1921-02-04 00:00:00+00:00	1
1921-02-06 00:00:00+00:00	1
1921-02-24 00:00:00+00:00	1
1921-03-05 00:00:00+00:00	1
1921-03-08 00:00:00+00:00	1
1921-03-14 00:00:00+00:00	1
1921-03-18 00:00:00+00:00	1
1921-03-22 00:00:00+00:00	2
1921-03-29 00:00:00+00:00	1
1921-04-01 00:00:00+00:00	1
1921-04-02 00:00:00+00:00	2
1921-04-12 00:00:00+00:00	2
1921-04-15 00:00:00+00:00	2
1921-04-21 00:00:00+00:00	2
1921-05-03 00:00:00+00:00	2
1921-05-10 00:00:00+00:00	2
1921-05-17 00:00:00+00:00	1
1921-05-21 00:00:00+00:00	1
1921-06-01 00:00:00+00:00	1
1921-06-08 00:00:00+00:00	1
1921-06-09 00:00:00+00:00	1
1921-06-14 00:00:00+00:00	2
1921-07-11 00:00:00+00:00	1
1921-08-19 00:00:00+00:00	1
1921-08-20 00:00:00+00:00	1
1921-08-25 00:00:00+00:00	1
1921-09-01 00:00:00+00:00	1
1921-10-10 00:00:00+00:00	1
1921-10-22 00:00:00+00:00	1
1921-10-24 00:00:00+00:00	1
1921-12-25 00:00:00+00:00	1
1922-01-01 00:00:00+00:00	11
1922-08-18 00:00:00+00:00	1
1922-09-01 00:00:00+00:00	1
1922-10-25 00:00:00+00:00	1
1923-01-01 00:00:00+00:00	7
1923-04-08 00:00:00+00:00	1
1923-05-14 00:00:00+00:00	1
1923-06-01 00:00:00+00:00	1
1923-06-08 00:00:00+00:00	1
1923-08-10 00:00:00+00:00	1
1924-01-01 00:00:00+00:00	6
1924-01-15 00:00:00+00:00	1
1924-02-28 00:00:00+00:00	1
1924-02-29 00:00:00+00:00	1
1924-06-16 00:00:00+00:00	1
1924-08-16 00:00:00+00:00	1
1924-09-19 00:00:00+00:00	1
1924-09-23 00:00:00+00:00	1
1924-12-15 00:00:00+00:00	1
1925-02-21 00:00:00+00:00	1
1925-10-18 00:00:00+00:00	2
1926-01-01 00:00:00+00:00	1
1926-04-07 00:00:00+00:00	1
1926-06-09 00:00:00+00:00	1
1926-09-23 00:00:00+00:00	2
1927-01-01 00:00:00+00:00	1
1927-07-19 00:00:00+00:00	1
1928-01-01 00:00:00+00:00	4
1928-06-19 00:00:00+00:00	1
1928-12-31 00:00:00+00:00	1
1929-01-01 00:00:00+00:00	8
1929-01-31 00:00:00+00:00	1
1929-03-25 00:00:00+00:00	1
1929-03-31 00:00:00+00:00	1
1929-08-08 00:00:00+00:00	1
1929-08-10 00:00:00+00:00	1
1929-08-11 00:00:00+00:00	1
1929-11-01 00:00:00+00:00	1
1929-11-13 00:00:00+00:00	3
1929-12-01 00:00:00+00:00	3
1930-01-01 00:00:00+00:00	4
1930-02-01 00:00:00+00:00	1
1930-10-10 00:00:00+00:00	1
1931-01-01 00:00:00+00:00	1
1931-01-31 00:00:00+00:00	1
1932-01-01 00:00:00+00:00	1
1933-01-01 00:00:00+00:00	1
1933-01-31 00:00:00+00:00	1
1933-02-28 00:00:00+00:00	1
1933-05-14 00:00:00+00:00	1
1933-09-28 00:00:00+00:00	1
1933-09-29 00:00:00+00:00	1
1934-01-01 00:00:00+00:00	1
1934-02-28 00:00:00+00:00	1
1934-06-12 00:00:00+00:00	1
1934-07-01 00:00:00+00:00	2
1937-01-10 00:00:00+00:00	1
1937-07-01 00:00:00+00:00	1
1958-01-01 00:00:00+00:00	1
1964-01-01 00:00:00+00:00	1
1972-05-17 00:00:00+00:00	1
2003-05-13 00:00:00+00:00	1
