1825-01-01 00:00:00+00:00	1
1826-01-01 00:00:00+00:00	2
1827-01-01 00:00:00+00:00	2
1828-01-01 00:00:00+00:00	1
1829-01-01 00:00:00+00:00	9
1830-01-01 00:00:00+00:00	4
1833-01-01 00:00:00+00:00	1
1834-01-01 00:00:00+00:00	1
1839-01-01 00:00:00+00:00	1
1840-01-01 00:00:00+00:00	4
1841-01-01 00:00:00+00:00	1
1843-01-01 00:00:00+00:00	2
1844-01-01 00:00:00+00:00	3
1844-10-04 00:00:00+00:00	1
1845-01-01 00:00:00+00:00	6
1846-01-01 00:00:00+00:00	1
1847-01-01 00:00:00+00:00	2
1848-01-01 00:00:00+00:00	2
1848-07-15 00:00:00+00:00	1
1850-01-01 00:00:00+00:00	1
1852-01-01 00:00:00+00:00	4
1853-01-01 00:00:00+00:00	1
1854-01-01 00:00:00+00:00	1
1854-10-01 00:00:00+00:00	1
1855-01-01 00:00:00+00:00	4
1856-01-01 00:00:00+00:00	1
1857-01-01 00:00:00+00:00	3
1858-01-01 00:00:00+00:00	5
1860-01-01 00:00:00+00:00	4
1861-01-01 00:00:00+00:00	3
1862-01-01 00:00:00+00:00	1
1862-04-01 00:00:00+00:00	1
1863-01-01 00:00:00+00:00	2
1864-01-01 00:00:00+00:00	1
1866-01-01 00:00:00+00:00	1
1867-01-01 00:00:00+00:00	1
1868-01-01 00:00:00+00:00	1
1869-01-01 00:00:00+00:00	2
1870-01-01 00:00:00+00:00	2
1870-03-19 00:00:00+00:00	1
1870-10-01 00:00:00+00:00	1
1871-01-01 00:00:00+00:00	4
1872-01-01 00:00:00+00:00	2
1873-01-01 00:00:00+00:00	3
1874-01-01 00:00:00+00:00	2
1875-01-01 00:00:00+00:00	5
1876-01-01 00:00:00+00:00	4
1877-01-01 00:00:00+00:00	5
1878-01-01 00:00:00+00:00	2
1878-06-15 00:00:00+00:00	1
1879-01-01 00:00:00+00:00	1
1879-07-02 00:00:00+00:00	1
1880-01-01 00:00:00+00:00	7
1881-01-01 00:00:00+00:00	3
1882-01-01 00:00:00+00:00	5
1882-02-15 00:00:00+00:00	1
1883-01-01 00:00:00+00:00	2
1884-01-01 00:00:00+00:00	2
1885-01-01 00:00:00+00:00	3
1885-04-01 00:00:00+00:00	1
1886-01-01 00:00:00+00:00	5
1887-01-01 00:00:00+00:00	6
1888-01-01 00:00:00+00:00	5
1889-01-01 00:00:00+00:00	1
1889-08-22 00:00:00+00:00	1
1890-01-01 00:00:00+00:00	11
1890-12-19 00:00:00+00:00	1
1891-01-01 00:00:00+00:00	4
1891-08-01 00:00:00+00:00	2
1891-09-01 00:00:00+00:00	2
1892-01-01 00:00:00+00:00	10
1893-01-01 00:00:00+00:00	14
1894-01-01 00:00:00+00:00	3
1894-04-01 00:00:00+00:00	1
1895-01-01 00:00:00+00:00	6
1895-08-15 00:00:00+00:00	1
1896-01-01 00:00:00+00:00	3
1897-01-01 00:00:00+00:00	5
1897-07-17 00:00:00+00:00	1
1898-01-01 00:00:00+00:00	13
1899-01-01 00:00:00+00:00	11
1900-01-01 00:00:00+00:00	17
1900-05-20 00:00:00+00:00	1
1900-06-02 00:00:00+00:00	1
1901-01-01 00:00:00+00:00	28
1901-11-15 00:00:00+00:00	1
1902-01-01 00:00:00+00:00	19
1903-01-01 00:00:00+00:00	9
1903-11-01 00:00:00+00:00	1
1904-01-01 00:00:00+00:00	17
1904-12-18 00:00:00+00:00	1
1905-01-01 00:00:00+00:00	9
1905-01-09 00:00:00+00:00	1
1906-01-01 00:00:00+00:00	24
1906-05-01 00:00:00+00:00	3
1906-10-20 00:00:00+00:00	1
1907-01-01 00:00:00+00:00	20
1908-01-01 00:00:00+00:00	20
1909-01-01 00:00:00+00:00	22
1910-01-01 00:00:00+00:00	21
1910-05-22 00:00:00+00:00	1
1911-01-01 00:00:00+00:00	22
1911-02-01 00:00:00+00:00	1
1911-03-01 00:00:00+00:00	1
1911-03-10 00:00:00+00:00	1
1911-03-27 00:00:00+00:00	1
1911-04-01 00:00:00+00:00	1
1911-04-12 00:00:00+00:00	1
1911-04-29 00:00:00+00:00	1
1911-05-01 00:00:00+00:00	2
1911-05-09 00:00:00+00:00	1
1911-05-22 00:00:00+00:00	1
1911-06-01 00:00:00+00:00	1
1911-06-09 00:00:00+00:00	1
1911-06-30 00:00:00+00:00	1
1911-07-10 00:00:00+00:00	1
1911-07-17 00:00:00+00:00	2
1911-07-24 00:00:00+00:00	2
1911-07-31 00:00:00+00:00	1
1911-08-07 00:00:00+00:00	1
1911-08-21 00:00:00+00:00	1
1911-10-15 00:00:00+00:00	1
1911-10-31 00:00:00+00:00	1
1911-11-01 00:00:00+00:00	1
1912-01-01 00:00:00+00:00	18
1912-06-02 00:00:00+00:00	1
1912-09-07 00:00:00+00:00	1
1913-01-01 00:00:00+00:00	15
1914-01-01 00:00:00+00:00	10
1915-01-01 00:00:00+00:00	3
1915-12-11 00:00:00+00:00	1
1916-01-01 00:00:00+00:00	1
1916-05-21 00:00:00+00:00	1
1917-01-01 00:00:00+00:00	3
1918-01-01 00:00:00+00:00	3
1919-01-01 00:00:00+00:00	11
1920-01-01 00:00:00+00:00	4
1920-07-15 00:00:00+00:00	1
1921-01-01 00:00:00+00:00	7
1922-01-01 00:00:00+00:00	10
1922-02-01 00:00:00+00:00	1
1923-01-01 00:00:00+00:00	18
1923-03-31 00:00:00+00:00	1
1924-01-01 00:00:00+00:00	17
1924-02-16 00:00:00+00:00	1
1925-01-01 00:00:00+00:00	35
1925-02-01 00:00:00+00:00	1
1925-03-08 00:00:00+00:00	2
1925-08-01 00:00:00+00:00	1
1925-08-15 00:00:00+00:00	1
1925-08-23 00:00:00+00:00	2
1926-01-01 00:00:00+00:00	21
1926-06-30 00:00:00+00:00	1
1926-08-13 00:00:00+00:00	1
1926-09-01 00:00:00+00:00	1
1926-12-05 00:00:00+00:00	1
1927-01-01 00:00:00+00:00	48
1927-03-31 00:00:00+00:00	1
1927-05-15 00:00:00+00:00	1
1927-11-25 00:00:00+00:00	1
1927-12-11 00:00:00+00:00	1
1928-01-01 00:00:00+00:00	30
1928-09-17 00:00:00+00:00	1
1929-01-01 00:00:00+00:00	44
1929-01-31 00:00:00+00:00	1
1929-03-01 00:00:00+00:00	1
1929-04-21 00:00:00+00:00	1
1929-06-01 00:00:00+00:00	2
1929-06-11 00:00:00+00:00	1
1929-07-01 00:00:00+00:00	1
1929-11-13 00:00:00+00:00	1
1930-01-01 00:00:00+00:00	41
1930-04-15 00:00:00+00:00	1
1930-06-01 00:00:00+00:00	4
1930-08-01 00:00:00+00:00	1
1930-08-03 00:00:00+00:00	1
1930-09-15 00:00:00+00:00	1
1930-10-04 00:00:00+00:00	1
1930-10-15 00:00:00+00:00	1
1930-11-23 00:00:00+00:00	1
1930-12-07 00:00:00+00:00	1
1930-12-28 00:00:00+00:00	1
1931-01-01 00:00:00+00:00	56
1931-04-01 00:00:00+00:00	3
1931-05-17 00:00:00+00:00	1
1931-08-23 00:00:00+00:00	1
1931-11-01 00:00:00+00:00	1
1932-01-01 00:00:00+00:00	36
1932-02-14 00:00:00+00:00	1
1932-04-01 00:00:00+00:00	1
1933-01-01 00:00:00+00:00	26
1933-04-01 00:00:00+00:00	1
1933-05-01 00:00:00+00:00	1
1933-06-01 00:00:00+00:00	2
1933-07-23 00:00:00+00:00	1
1933-11-30 00:00:00+00:00	2
1933-12-18 00:00:00+00:00	1
1934-01-01 00:00:00+00:00	35
1934-02-01 00:00:00+00:00	2
1934-06-01 00:00:00+00:00	1
1934-07-08 00:00:00+00:00	1
1934-11-30 00:00:00+00:00	1
1935-01-01 00:00:00+00:00	37
1935-01-27 00:00:00+00:00	1
1935-07-01 00:00:00+00:00	2
1935-09-01 00:00:00+00:00	1
1936-01-01 00:00:00+00:00	38
1936-03-01 00:00:00+00:00	1
1936-04-01 00:00:00+00:00	3
1936-06-01 00:00:00+00:00	1
1937-01-01 00:00:00+00:00	50
1937-03-01 00:00:00+00:00	1
1937-10-01 00:00:00+00:00	1
1937-12-15 00:00:00+00:00	1
1938-01-01 00:00:00+00:00	18
1938-03-01 00:00:00+00:00	1
1938-03-03 00:00:00+00:00	1
1938-08-01 00:00:00+00:00	2
1938-08-28 00:00:00+00:00	1
1938-09-01 00:00:00+00:00	1
1938-11-01 00:00:00+00:00	2
1938-12-01 00:00:00+00:00	2
1938-12-18 00:00:00+00:00	1
1939-01-01 00:00:00+00:00	14
1939-02-19 00:00:00+00:00	1
1939-03-06 00:00:00+00:00	1
1939-04-01 00:00:00+00:00	1
1939-05-07 00:00:00+00:00	1
1939-06-01 00:00:00+00:00	1
1939-08-15 00:00:00+00:00	1
1940-01-01 00:00:00+00:00	1
1941-01-01 00:00:00+00:00	2
1941-05-01 00:00:00+00:00	1
1945-02-08 00:00:00+00:00	1
1945-05-18 00:00:00+00:00	1
1946-01-01 00:00:00+00:00	1
1946-08-15 00:00:00+00:00	1
1947-01-01 00:00:00+00:00	6
1947-01-24 00:00:00+00:00	1
1947-09-02 00:00:00+00:00	1
1948-01-01 00:00:00+00:00	3
1949-01-01 00:00:00+00:00	4
1949-02-20 00:00:00+00:00	1
1950-01-01 00:00:00+00:00	3
1950-09-01 00:00:00+00:00	1
1950-10-01 00:00:00+00:00	1
1950-11-19 00:00:00+00:00	1
1951-01-01 00:00:00+00:00	1
1951-06-30 00:00:00+00:00	2
1951-08-28 00:00:00+00:00	1
1952-01-01 00:00:00+00:00	2
1952-02-15 00:00:00+00:00	1
1952-10-15 00:00:00+00:00	1
1952-11-16 00:00:00+00:00	1
1953-01-01 00:00:00+00:00	6
1953-01-26 00:00:00+00:00	1
1953-04-30 00:00:00+00:00	1
1954-01-01 00:00:00+00:00	3
1954-05-01 00:00:00+00:00	1
1954-06-20 00:00:00+00:00	1
1954-06-25 00:00:00+00:00	1
1955-01-01 00:00:00+00:00	1
1956-01-01 00:00:00+00:00	1
1956-01-29 00:00:00+00:00	1
1956-09-02 00:00:00+00:00	1
1957-01-01 00:00:00+00:00	1
1958-01-01 00:00:00+00:00	2
1958-08-15 00:00:00+00:00	1
1958-10-01 00:00:00+00:00	1
1958-12-15 00:00:00+00:00	1
1959-01-01 00:00:00+00:00	13
1959-02-15 00:00:00+00:00	1
1959-10-01 00:00:00+00:00	1
1959-11-20 00:00:00+00:00	1
1960-01-01 00:00:00+00:00	10
1960-01-03 00:00:00+00:00	1
1960-05-01 00:00:00+00:00	1
1961-01-01 00:00:00+00:00	1
1961-12-24 00:00:00+00:00	2
1962-01-01 00:00:00+00:00	18
1962-02-01 00:00:00+00:00	1
1962-02-15 00:00:00+00:00	1
1963-01-01 00:00:00+00:00	20
1964-01-01 00:00:00+00:00	4
1964-08-01 00:00:00+00:00	4
1965-01-01 00:00:00+00:00	7
1966-01-01 00:00:00+00:00	8
1967-01-01 00:00:00+00:00	8
1967-03-19 00:00:00+00:00	1
1968-01-01 00:00:00+00:00	4
1968-04-27 00:00:00+00:00	1
1969-01-01 00:00:00+00:00	3
1969-10-25 00:00:00+00:00	1
1970-01-01 00:00:00+00:00	4
1970-10-25 00:00:00+00:00	2
1970-12-12 00:00:00+00:00	1
1971-01-01 00:00:00+00:00	1
1972-01-01 00:00:00+00:00	2
1972-10-31 00:00:00+00:00	2
1973-01-01 00:00:00+00:00	3
1974-01-01 00:00:00+00:00	3
1975-01-01 00:00:00+00:00	5
1975-02-28 00:00:00+00:00	1
1975-06-30 00:00:00+00:00	1
1976-01-01 00:00:00+00:00	9
1976-07-31 00:00:00+00:00	3
1977-01-01 00:00:00+00:00	9
1977-01-31 00:00:00+00:00	2
1977-11-30 00:00:00+00:00	1
1978-01-01 00:00:00+00:00	20
1979-01-01 00:00:00+00:00	3
1980-01-01 00:00:00+00:00	14
1981-01-01 00:00:00+00:00	13
1981-03-14 00:00:00+00:00	1
1981-10-01 00:00:00+00:00	1
1981-11-29 00:00:00+00:00	1
1982-01-01 00:00:00+00:00	5
1983-01-01 00:00:00+00:00	8
1984-01-01 00:00:00+00:00	5
1984-02-01 00:00:00+00:00	2
1984-07-31 00:00:00+00:00	1
1984-08-01 00:00:00+00:00	1
1984-10-31 00:00:00+00:00	2
1985-01-01 00:00:00+00:00	3
1985-11-01 00:00:00+00:00	1
1986-01-01 00:00:00+00:00	2
1987-01-01 00:00:00+00:00	3
1988-01-01 00:00:00+00:00	8
1989-01-01 00:00:00+00:00	16
1989-06-01 00:00:00+00:00	1
1989-11-30 00:00:00+00:00	1
1989-12-01 00:00:00+00:00	1
1990-01-01 00:00:00+00:00	9
1990-11-01 00:00:00+00:00	1
1992-01-01 00:00:00+00:00	4
1992-06-30 00:00:00+00:00	1
1992-07-04 00:00:00+00:00	1
1992-07-31 00:00:00+00:00	2
1992-10-19 00:00:00+00:00	1
1992-10-26 00:00:00+00:00	3
1992-10-27 00:00:00+00:00	1
1992-12-31 23:00:00+00:00	1
1993-01-01 00:00:00+00:00	11
1993-01-09 00:00:00+00:00	1
1993-09-28 00:00:00+00:00	2
1993-10-01 00:00:00+00:00	1
1994-01-01 00:00:00+00:00	5
1995-01-01 00:00:00+00:00	7
1995-04-02 00:00:00+00:00	1
1995-04-16 00:00:00+00:00	1
1995-04-18 00:00:00+00:00	1
1995-06-30 00:00:00+00:00	1
1995-12-31 23:00:00+00:00	4
1996-01-01 00:00:00+00:00	29
1996-03-29 00:00:00+00:00	1
1996-06-27 00:00:00+00:00	1
1996-10-06 00:00:00+00:00	1
1996-10-24 00:00:00+00:00	1
1997-01-01 00:00:00+00:00	26
1997-09-12 00:00:00+00:00	1
1997-10-01 00:00:00+00:00	1
1997-12-31 23:00:00+00:00	1
1998-01-01 00:00:00+00:00	11
1998-01-08 00:00:00+00:00	1
1998-06-03 00:00:00+00:00	1
1998-07-16 00:00:00+00:00	1
1999-01-01 00:00:00+00:00	19
1999-04-22 00:00:00+00:00	1
1999-05-20 00:00:00+00:00	1
1999-10-29 00:00:00+00:00	4
1999-12-31 23:00:00+00:00	3
2000-01-01 00:00:00+00:00	69
2000-03-31 00:00:00+00:00	1
2000-07-19 00:00:00+00:00	1
2000-09-14 00:00:00+00:00	1
2000-10-11 00:00:00+00:00	1
2000-12-22 00:00:00+00:00	1
2001-01-01 00:00:00+00:00	29
2001-07-31 00:00:00+00:00	2
2001-12-31 23:00:00+00:00	1
2002-01-01 00:00:00+00:00	25
2002-01-09 00:00:00+00:00	1
2002-06-07 00:00:00+00:00	1
2002-06-28 00:00:00+00:00	3
2002-09-25 00:00:00+00:00	1
2003-01-01 00:00:00+00:00	27
2003-01-09 00:00:00+00:00	1
2003-01-31 00:00:00+00:00	1
2003-05-10 00:00:00+00:00	1
2003-10-29 00:00:00+00:00	3
