1825-01-01 00:00:00+00:00	2
1826-01-01 00:00:00+00:00	7
1827-01-01 00:00:00+00:00	8
1827-04-01 00:00:00+00:00	1
1828-01-01 00:00:00+00:00	15
1829-01-01 00:00:00+00:00	1
1830-01-01 00:00:00+00:00	3
1832-01-01 00:00:00+00:00	3
1833-01-01 00:00:00+00:00	3
1834-01-01 00:00:00+00:00	1
1834-02-08 00:00:00+00:00	1
1835-01-01 00:00:00+00:00	3
1836-01-01 00:00:00+00:00	4
1837-01-01 00:00:00+00:00	1
1838-01-01 00:00:00+00:00	1
1839-01-01 00:00:00+00:00	9
1840-01-01 00:00:00+00:00	5
1841-01-01 00:00:00+00:00	3
1842-01-01 00:00:00+00:00	5
1843-01-01 00:00:00+00:00	2
1844-01-01 00:00:00+00:00	14
1845-01-01 00:00:00+00:00	7
1846-01-01 00:00:00+00:00	2
1847-01-01 00:00:00+00:00	1
1848-01-01 00:00:00+00:00	1
1849-01-01 00:00:00+00:00	2
1850-01-01 00:00:00+00:00	1
1851-01-01 00:00:00+00:00	10
1852-01-01 00:00:00+00:00	4
1853-01-01 00:00:00+00:00	1
1854-01-01 00:00:00+00:00	12
1855-01-01 00:00:00+00:00	4
1856-01-01 00:00:00+00:00	6
1857-01-01 00:00:00+00:00	3
1858-01-01 00:00:00+00:00	1
1859-01-01 00:00:00+00:00	5
1861-01-01 00:00:00+00:00	3
1862-01-01 00:00:00+00:00	8
1863-01-01 00:00:00+00:00	2
1864-01-01 00:00:00+00:00	7
1865-01-01 00:00:00+00:00	8
1865-02-01 00:24:00+00:00	1
1866-01-01 00:00:00+00:00	2
1867-01-01 00:00:00+00:00	3
1868-01-01 00:00:00+00:00	3
1869-01-01 00:00:00+00:00	5
1869-06-11 00:00:00+00:00	1
1870-01-01 00:00:00+00:00	5
1870-10-21 00:00:00+00:00	1
1871-01-01 00:00:00+00:00	1
1872-01-01 00:00:00+00:00	11
1873-01-01 00:00:00+00:00	2
1874-01-01 00:00:00+00:00	1
1875-01-01 00:00:00+00:00	17
1876-01-01 00:00:00+00:00	21
1877-01-01 00:00:00+00:00	6
1878-01-01 00:00:00+00:00	1
1879-01-01 00:00:00+00:00	1
1880-01-01 00:00:00+00:00	2
1881-01-01 00:00:00+00:00	7
1882-01-01 00:00:00+00:00	2
1882-10-07 00:00:00+00:00	1
1883-01-01 00:00:00+00:00	3
1883-03-19 00:00:00+00:00	1
1884-01-01 00:00:00+00:00	36
1885-01-01 00:00:00+00:00	6
1886-01-01 00:00:00+00:00	1
1886-09-04 00:00:00+00:00	1
1887-01-01 00:00:00+00:00	4
1888-01-01 00:00:00+00:00	4
1889-01-01 00:00:00+00:00	9
1889-01-15 00:00:00+00:00	1
1890-01-01 00:00:00+00:00	1
1890-01-15 00:00:00+00:00	1
1890-11-15 00:00:00+00:00	1
1891-01-01 00:00:00+00:00	4
1892-01-01 00:00:00+00:00	5
1892-05-17 00:00:00+00:00	1
1893-01-01 00:00:00+00:00	14
1893-10-01 00:00:00+00:00	1
1894-01-01 00:00:00+00:00	9
1894-01-15 00:00:00+00:00	2
1895-01-01 00:00:00+00:00	7
1896-01-01 00:00:00+00:00	13
1896-12-20 00:00:00+00:00	1
1897-01-01 00:00:00+00:00	7
1897-07-06 00:00:00+00:00	1
1898-01-01 00:00:00+00:00	12
1898-09-24 00:00:00+00:00	1
1899-01-01 00:00:00+00:00	17
1900-01-01 00:00:00+00:00	19
1901-01-01 00:00:00+00:00	11
1901-01-15 00:00:00+00:00	1
1901-04-28 00:00:00+00:00	1
1901-06-02 00:00:00+00:00	1
1902-01-01 00:00:00+00:00	15
1903-01-01 00:00:00+00:00	6
1903-02-08 00:00:00+00:00	1
1903-02-22 00:00:00+00:00	1
1903-09-01 00:00:00+00:00	1
1904-01-01 00:00:00+00:00	14
1904-06-01 00:00:00+00:00	1
1904-07-17 00:00:00+00:00	3
1904-07-24 00:00:00+00:00	2
1905-01-01 00:00:00+00:00	13
1905-05-15 00:00:00+00:00	1
1905-07-01 00:00:00+00:00	1
1906-01-01 00:00:00+00:00	19
1906-03-10 00:00:00+00:00	1
1906-03-15 00:00:00+00:00	1
1906-06-01 00:00:00+00:00	1
1906-06-15 00:00:00+00:00	1
1906-06-23 00:00:00+00:00	2
1907-01-01 00:00:00+00:00	7
1907-02-01 00:00:00+00:00	1
1907-03-01 00:00:00+00:00	1
1907-06-01 00:00:00+00:00	3
1907-07-01 00:00:00+00:00	2
1907-08-20 00:00:00+00:00	1
1907-08-24 00:00:00+00:00	1
1907-09-01 00:00:00+00:00	2
1907-10-01 00:00:00+00:00	2
1907-11-03 00:00:00+00:00	1
1908-01-01 00:00:00+00:00	34
1908-03-01 00:00:00+00:00	1
1908-03-15 00:00:00+00:00	2
1908-05-15 00:00:00+00:00	3
1908-06-14 00:00:00+00:00	1
1908-07-06 00:00:00+00:00	1
1908-07-26 00:00:00+00:00	1
1908-08-01 00:00:00+00:00	1
1908-08-15 00:00:00+00:00	1
1909-01-01 00:00:00+00:00	42
1909-02-12 00:00:00+00:00	1
1909-04-11 00:00:00+00:00	1
1909-08-07 00:00:00+00:00	1
1909-08-08 00:00:00+00:00	1
1909-08-20 00:00:00+00:00	1
1909-09-23 00:00:00+00:00	1
1909-09-26 00:00:00+00:00	2
1909-10-30 00:00:00+00:00	1
1910-01-01 00:00:00+00:00	158
1910-01-16 00:00:00+00:00	1
1910-01-23 00:00:00+00:00	1
1910-01-30 00:00:00+00:00	1
1910-02-15 00:00:00+00:00	1
1910-03-20 00:00:00+00:00	1
1910-04-19 00:00:00+00:00	1
1910-04-30 00:00:00+00:00	1
1910-05-07 00:00:00+00:00	1
1910-06-05 00:00:00+00:00	1
1910-08-06 00:00:00+00:00	2
1910-08-28 00:00:00+00:00	1
1910-12-11 00:00:00+00:00	1
1911-01-01 00:00:00+00:00	29
1911-06-01 00:00:00+00:00	1
1911-07-21 00:00:00+00:00	1
1911-08-06 00:00:00+00:00	1
1911-10-17 00:00:00+00:00	1
1911-12-31 00:00:00+00:00	1
1912-01-01 00:00:00+00:00	54
1912-01-06 00:00:00+00:00	1
1912-02-17 00:00:00+00:00	1
1912-03-01 00:00:00+00:00	2
1912-08-18 00:00:00+00:00	1
1912-09-22 00:00:00+00:00	1
1912-10-12 00:00:00+00:00	1
1912-10-13 00:00:00+00:00	1
1912-11-01 00:00:00+00:00	2
1912-11-03 00:00:00+00:00	1
1912-12-12 00:00:00+00:00	1
1912-12-22 00:00:00+00:00	1
1913-01-01 00:00:00+00:00	22
1913-01-29 00:00:00+00:00	1
1913-05-22 00:00:00+00:00	1
1913-06-01 00:00:00+00:00	1
1913-07-19 00:00:00+00:00	2
1913-08-17 00:00:00+00:00	1
1913-08-21 00:00:00+00:00	1
1914-01-01 00:00:00+00:00	32
1914-01-10 00:00:00+00:00	1
1914-02-05 00:00:00+00:00	1
1914-02-26 00:00:00+00:00	1
1914-03-15 00:00:00+00:00	2
1914-05-21 00:00:00+00:00	1
1914-07-02 00:00:00+00:00	1
1914-07-23 00:00:00+00:00	1
1914-10-27 00:00:00+00:00	1
1914-11-10 00:00:00+00:00	1
1914-11-14 00:00:00+00:00	1
1915-01-01 00:00:00+00:00	19
1915-01-14 00:00:00+00:00	1
1915-02-28 00:00:00+00:00	1
1915-08-19 00:00:00+00:00	1
1915-09-15 00:00:00+00:00	1
1915-10-14 00:00:00+00:00	2
1915-11-18 00:00:00+00:00	1
1915-12-02 00:00:00+00:00	1
1916-01-01 00:00:00+00:00	19
1916-02-04 00:00:00+00:00	1
1916-02-06 00:00:00+00:00	1
1916-02-13 00:00:00+00:00	1
1916-02-25 00:00:00+00:00	1
1916-03-04 00:00:00+00:00	1
1916-03-11 00:00:00+00:00	1
1916-03-21 00:00:00+00:00	1
1916-03-22 00:00:00+00:00	1
1916-03-23 00:00:00+00:00	1
1916-03-24 00:00:00+00:00	1
1916-04-23 00:00:00+00:00	1
1916-05-06 00:00:00+00:00	2
1916-05-24 00:00:00+00:00	1
1916-06-08 00:00:00+00:00	1
1916-06-24 00:00:00+00:00	3
1916-07-08 00:00:00+00:00	1
1916-07-31 00:00:00+00:00	1
1916-08-03 00:00:00+00:00	1
1916-08-18 00:00:00+00:00	1
1916-08-29 00:00:00+00:00	2
1916-09-17 00:00:00+00:00	1
1916-10-03 00:00:00+00:00	1
1916-10-08 00:00:00+00:00	1
1916-10-29 00:00:00+00:00	1
1916-11-16 00:00:00+00:00	1
1917-01-01 00:00:00+00:00	12
1917-04-01 00:00:00+00:00	1
1917-04-19 00:00:00+00:00	1
1917-04-28 00:00:00+00:00	1
1917-05-02 00:00:00+00:00	1
1917-05-11 00:00:00+00:00	1
1917-05-18 00:00:00+00:00	1
1917-07-10 00:00:00+00:00	1
1917-07-11 00:00:00+00:00	3
1917-07-12 00:00:00+00:00	1
1917-08-07 00:00:00+00:00	1
1917-08-15 00:00:00+00:00	1
1917-09-18 00:00:00+00:00	1
1917-10-02 00:00:00+00:00	1
1918-01-01 00:00:00+00:00	4
1918-01-10 00:00:00+00:00	1
1918-04-04 00:00:00+00:00	1
1918-07-25 00:00:00+00:00	1
1918-08-11 00:00:00+00:00	1
1918-08-13 00:00:00+00:00	1
1918-09-12 00:00:00+00:00	1
1918-09-22 00:00:00+00:00	1
1919-01-01 00:00:00+00:00	10
1919-05-17 00:00:00+00:00	1
1920-01-01 00:00:00+00:00	25
1920-07-26 00:00:00+00:00	1
1921-01-01 00:00:00+00:00	21
1921-04-09 00:00:00+00:00	1
1921-04-22 00:00:00+00:00	1
1921-05-31 00:00:00+00:00	1
1922-01-01 00:00:00+00:00	31
1922-04-15 00:00:00+00:00	1
1922-05-08 00:00:00+00:00	1
1922-05-12 00:00:00+00:00	1
1922-06-18 00:00:00+00:00	2
1922-09-01 00:00:00+00:00	1
1923-01-01 00:00:00+00:00	30
1924-01-01 00:00:00+00:00	38
1924-03-12 00:00:00+00:00	1
1924-04-13 00:00:00+00:00	1
1924-07-12 00:00:00+00:00	1
1924-12-05 00:00:00+00:00	1
1924-12-20 00:00:00+00:00	1
1925-01-01 00:00:00+00:00	29
1925-01-09 00:00:00+00:00	1
1925-01-14 00:00:00+00:00	1
1925-01-31 00:00:00+00:00	3
1925-02-28 00:00:00+00:00	1
1925-05-30 00:00:00+00:00	1
1925-10-25 00:00:00+00:00	1
1925-12-01 00:00:00+00:00	3
1925-12-31 00:00:00+00:00	2
1926-01-01 00:00:00+00:00	16
1926-01-30 00:00:00+00:00	1
1926-02-01 00:00:00+00:00	7
1926-03-01 00:00:00+00:00	1
1926-03-28 00:00:00+00:00	1
1926-04-01 00:00:00+00:00	3
1926-05-01 00:00:00+00:00	1
1926-06-01 00:00:00+00:00	4
1926-08-01 00:00:00+00:00	1
1926-08-27 00:00:00+00:00	1
1926-10-24 00:00:00+00:00	1
1926-12-14 00:00:00+00:00	1
1926-12-15 00:00:00+00:00	2
1926-12-18 00:00:00+00:00	1
1927-01-01 00:00:00+00:00	26
1927-02-01 00:00:00+00:00	4
1927-03-01 00:00:00+00:00	1
1927-04-01 00:00:00+00:00	1
1927-05-12 00:00:00+00:00	1
1927-05-15 00:00:00+00:00	1
1927-05-31 00:00:00+00:00	2
1927-06-01 00:00:00+00:00	2
1927-08-03 00:00:00+00:00	1
1927-12-16 00:00:00+00:00	1
1928-01-01 00:00:00+00:00	18
1928-03-11 00:00:00+00:00	1
1928-03-17 00:00:00+00:00	2
1928-03-31 00:00:00+00:00	1
1928-04-01 00:00:00+00:00	1
1928-05-01 00:00:00+00:00	1
1928-05-13 00:00:00+00:00	1
1928-06-02 00:00:00+00:00	1
1928-06-10 00:00:00+00:00	1
1928-07-01 00:00:00+00:00	1
1928-08-04 00:00:00+00:00	1
1928-09-01 00:00:00+00:00	2
1928-09-15 00:00:00+00:00	2
1928-09-23 00:00:00+00:00	1
1928-10-15 00:00:00+00:00	1
1928-12-15 00:00:00+00:00	2
1928-12-31 00:00:00+00:00	2
1929-01-01 00:00:00+00:00	34
1929-01-05 00:00:00+00:00	1
1929-01-31 00:00:00+00:00	3
1929-02-01 00:00:00+00:00	1
1929-03-03 00:00:00+00:00	1
1929-03-18 00:00:00+00:00	1
1929-04-01 00:00:00+00:00	2
1929-04-08 00:00:00+00:00	1
1929-05-01 00:00:00+00:00	1
1929-05-15 00:00:00+00:00	1
1929-06-01 00:00:00+00:00	1
1929-07-23 00:00:00+00:00	1
1929-10-01 00:00:00+00:00	1
1929-12-21 00:00:00+00:00	1
1929-12-28 00:00:00+00:00	1
1930-01-01 00:00:00+00:00	16
1930-04-12 00:00:00+00:00	1
1930-08-24 00:00:00+00:00	1
1930-09-16 00:00:00+00:00	1
1930-09-27 00:00:00+00:00	1
1930-10-01 00:00:00+00:00	1
1930-10-11 00:00:00+00:00	1
1930-11-15 00:00:00+00:00	1
1931-01-01 00:00:00+00:00	23
1931-01-03 00:00:00+00:00	1
1931-03-08 00:00:00+00:00	1
1931-04-05 00:00:00+00:00	1
1931-05-03 00:00:00+00:00	1
1931-05-06 00:00:00+00:00	1
1931-05-27 00:00:00+00:00	1
1931-06-30 00:00:00+00:00	2
1931-07-03 00:00:00+00:00	1
1931-08-09 00:00:00+00:00	1
1931-10-09 00:00:00+00:00	1
1931-10-11 00:00:00+00:00	2
1931-10-31 00:00:00+00:00	3
1931-11-11 00:00:00+00:00	1
1931-12-13 00:00:00+00:00	1
1932-01-01 00:00:00+00:00	19
1932-03-01 00:00:00+00:00	1
1932-04-13 00:00:00+00:00	1
1932-06-01 00:00:00+00:00	1
1932-09-10 00:00:00+00:00	1
1932-09-25 00:00:00+00:00	1
1932-10-01 00:00:00+00:00	1
1932-10-31 00:00:00+00:00	1
1932-11-26 00:00:00+00:00	1
1932-12-16 00:00:00+00:00	1
1933-01-01 00:00:00+00:00	24
1933-04-01 00:00:00+00:00	1
1933-06-01 00:00:00+00:00	3
1933-09-01 00:00:00+00:00	5
1933-10-01 00:00:00+00:00	4
1933-11-01 00:00:00+00:00	2
1934-01-01 00:00:00+00:00	27
1934-02-11 00:00:00+00:00	1
1934-03-25 00:00:00+00:00	1
1934-05-15 00:00:00+00:00	1
1934-10-14 00:00:00+00:00	1
1935-01-01 00:00:00+00:00	18
1935-03-19 00:00:00+00:00	3
1935-04-01 00:00:00+00:00	1
1935-05-08 00:00:00+00:00	2
1935-06-10 00:00:00+00:00	1
1935-08-16 00:00:00+00:00	1
1935-08-17 00:00:00+00:00	1
1935-08-31 00:00:00+00:00	1
1935-10-01 00:00:00+00:00	1
1935-10-12 00:00:00+00:00	1
1935-11-01 00:00:00+00:00	4
1936-01-01 00:00:00+00:00	31
1936-02-02 00:00:00+00:00	1
1936-04-05 00:00:00+00:00	1
1936-06-14 00:00:00+00:00	1
1936-08-02 00:00:00+00:00	2
1936-08-28 00:00:00+00:00	1
1936-10-10 00:00:00+00:00	1
1936-10-31 00:00:00+00:00	1
1937-01-01 00:00:00+00:00	10
1937-01-20 00:00:00+00:00	1
1937-01-25 00:00:00+00:00	1
1937-02-21 00:00:00+00:00	1
1937-04-01 00:00:00+00:00	2
1937-05-29 00:00:00+00:00	1
1937-06-01 00:00:00+00:00	1
1937-07-01 00:00:00+00:00	3
1937-09-25 00:00:00+00:00	1
1938-01-01 00:00:00+00:00	9
1938-02-05 00:00:00+00:00	1
1938-07-01 00:00:00+00:00	2
1938-07-10 00:00:00+00:00	1
1938-08-01 00:00:00+00:00	1
1938-08-07 00:00:00+00:00	1
1938-09-01 00:00:00+00:00	1
1938-10-01 00:00:00+00:00	1
1938-11-03 00:00:00+00:00	1
1938-11-27 00:00:00+00:00	1
1938-11-30 00:00:00+00:00	1
1938-12-01 00:00:00+00:00	1
1938-12-04 00:00:00+00:00	2
1938-12-18 00:00:00+00:00	1
1938-12-24 00:00:00+00:00	1
1939-01-01 00:00:00+00:00	24
1939-01-15 00:00:00+00:00	1
1939-01-29 00:00:00+00:00	1
1939-03-01 00:00:00+00:00	1
1939-05-01 00:00:00+00:00	2
1939-06-01 00:00:00+00:00	5
1940-01-01 00:00:00+00:00	1
1940-12-29 00:00:00+00:00	1
1941-01-01 00:00:00+00:00	1
1943-10-30 00:00:00+00:00	2
1944-01-01 00:00:00+00:00	1
1945-01-01 00:00:00+00:00	2
1946-01-01 00:00:00+00:00	6
1946-09-22 00:00:00+00:00	1
1947-01-01 00:00:00+00:00	1
1947-06-30 00:00:00+00:00	1
1947-07-28 00:00:00+00:00	1
1948-01-01 00:00:00+00:00	1
1948-01-11 00:00:00+00:00	1
1949-01-01 00:00:00+00:00	2
1951-01-01 00:00:00+00:00	1
1951-03-04 00:00:00+00:00	1
1952-01-01 00:00:00+00:00	5
1952-01-20 00:00:00+00:00	1
1952-08-30 00:00:00+00:00	2
1953-01-01 00:00:00+00:00	2
1953-07-05 00:00:00+00:00	1
1953-08-16 00:00:00+00:00	1
1954-01-01 00:00:00+00:00	1
1954-02-15 00:00:00+00:00	2
1954-06-14 00:00:00+00:00	1
1954-08-15 00:00:00+00:00	1
1955-03-06 00:00:00+00:00	1
1955-11-13 00:00:00+00:00	1
1956-01-01 00:00:00+00:00	1
1956-06-01 00:00:00+00:00	1
1957-01-01 00:00:00+00:00	1
1957-03-31 00:00:00+00:00	1
1957-08-15 00:00:00+00:00	1
1957-09-22 00:00:00+00:00	1
1957-12-01 00:00:00+00:00	1
1958-01-01 00:00:00+00:00	1
1958-04-15 00:00:00+00:00	2
1958-05-18 00:00:00+00:00	1
1958-08-01 00:00:00+00:00	2
1959-01-01 00:00:00+00:00	1
1959-07-01 00:00:00+00:00	1
1959-08-01 00:00:00+00:00	1
1959-10-15 00:00:00+00:00	1
1960-01-01 00:00:00+00:00	4
1960-09-01 00:00:00+00:00	1
1961-03-01 00:00:00+00:00	2
1961-07-30 00:00:00+00:00	1
1961-12-31 00:00:00+00:00	1
1963-01-01 00:00:00+00:00	1
1965-01-01 00:00:00+00:00	5
1966-01-01 00:00:00+00:00	2
1966-11-30 00:00:00+00:00	2
1966-12-25 00:00:00+00:00	2
1967-01-01 00:00:00+00:00	6
1967-02-25 00:00:00+00:00	1
1969-01-01 00:00:00+00:00	4
1970-01-01 00:00:00+00:00	1
1970-02-26 00:00:00+00:00	1
1970-09-17 00:00:00+00:00	1
1971-01-01 00:00:00+00:00	1
1972-01-01 00:00:00+00:00	1
1972-02-29 00:00:00+00:00	2
1972-10-01 00:00:00+00:00	1
1972-10-31 00:00:00+00:00	1
1972-12-31 23:00:00+00:00	1
1973-01-01 00:00:00+00:00	1
1973-06-01 00:00:00+00:00	2
1973-11-04 00:00:00+00:00	1
1974-01-01 00:00:00+00:00	1
1975-01-01 00:00:00+00:00	1
1975-08-30 00:00:00+00:00	2
1976-01-01 00:00:00+00:00	1
1977-01-01 00:00:00+00:00	3
1978-01-01 00:00:00+00:00	5
1978-05-01 00:00:00+00:00	1
1978-06-01 00:00:00+00:00	1
1978-08-01 00:00:00+00:00	1
1978-09-01 00:00:00+00:00	1
1978-12-31 00:00:00+00:00	1
1979-01-01 00:00:00+00:00	4
1979-05-01 00:00:00+00:00	2
1979-09-01 00:00:00+00:00	1
1979-09-25 00:00:00+00:00	1
1979-10-01 00:00:00+00:00	1
1979-10-15 00:00:00+00:00	1
1980-01-01 00:00:00+00:00	7
1980-08-22 00:00:00+00:00	1
1980-11-17 00:00:00+00:00	1
1981-01-01 00:00:00+00:00	5
1981-05-12 00:00:00+00:00	1
1982-01-01 00:00:00+00:00	2
1982-09-01 00:00:00+00:00	2
1983-01-01 00:00:00+00:00	5
1983-11-30 00:00:00+00:00	1
1984-01-01 00:00:00+00:00	11
1985-01-01 00:00:00+00:00	5
1986-01-01 00:00:00+00:00	4
1986-07-01 00:00:00+00:00	1
1987-01-01 00:00:00+00:00	8
1987-09-01 00:00:00+00:00	1
1988-01-01 00:00:00+00:00	6
1988-09-25 00:00:00+00:00	1
1989-01-01 00:00:00+00:00	11
1989-09-01 00:00:00+00:00	1
1990-01-01 00:00:00+00:00	12
1990-03-01 00:00:00+00:00	2
1990-06-01 00:00:00+00:00	2
1990-09-01 00:00:00+00:00	2
1990-12-20 00:00:00+00:00	1
1991-01-01 00:00:00+00:00	2
1991-11-01 00:00:00+00:00	1
1991-11-30 00:00:00+00:00	1
1992-01-01 00:00:00+00:00	6
1993-01-01 00:00:00+00:00	5
1993-03-20 00:00:00+00:00	1
1994-01-01 00:00:00+00:00	4
1994-11-30 00:00:00+00:00	1
1994-12-24 00:00:00+00:00	1
1995-01-01 00:00:00+00:00	20
1995-02-08 00:00:00+00:00	1
1995-10-05 00:00:00+00:00	1
1995-10-22 00:00:00+00:00	1
1995-11-01 00:00:00+00:00	1
1995-12-14 00:00:00+00:00	1
1996-01-01 00:00:00+00:00	15
1996-02-29 00:00:00+00:00	1
1996-11-17 00:00:00+00:00	1
1996-12-03 00:00:00+00:00	1
1997-01-01 00:00:00+00:00	22
1997-02-21 00:00:00+00:00	1
1998-01-01 00:00:00+00:00	18
1998-01-13 00:00:00+00:00	1
1998-06-18 00:00:00+00:00	1
1998-07-03 00:00:00+00:00	1
1998-08-21 00:00:00+00:00	1
1998-12-22 00:00:00+00:00	1
1999-01-01 00:00:00+00:00	25
1999-01-06 00:00:00+00:00	1
1999-08-24 00:00:00+00:00	1
1999-10-08 00:00:00+00:00	1
1999-10-29 00:00:00+00:00	1
1999-12-21 00:00:00+00:00	1
2000-01-01 00:00:00+00:00	24
2000-10-24 00:00:00+00:00	1
2000-11-24 00:00:00+00:00	1
2001-01-01 00:00:00+00:00	21
2001-04-30 00:00:00+00:00	1
2001-07-31 00:00:00+00:00	1
2002-01-01 00:00:00+00:00	13
2002-08-03 00:00:00+00:00	1
2003-01-01 00:00:00+00:00	18
2003-03-14 00:00:00+00:00	1
2003-07-11 00:00:00+00:00	1
2003-08-09 00:00:00+00:00	1
2003-10-11 00:00:00+00:00	1
2003-11-01 00:00:00+00:00	2
2003-11-30 00:00:00+00:00	1
