1824-01-01 00:00:00+00:00	1
1825-01-01 00:00:00+00:00	3
1826-01-01 00:00:00+00:00	2
1827-01-01 00:00:00+00:00	11
1828-01-01 00:00:00+00:00	3
1829-01-01 00:00:00+00:00	1
1829-04-18 00:00:00+00:00	1
1829-05-16 00:00:00+00:00	2
1830-01-01 00:00:00+00:00	2
1831-01-01 00:00:00+00:00	9
1832-01-01 00:00:00+00:00	2
1833-01-01 00:00:00+00:00	6
1834-01-01 00:00:00+00:00	2
1835-01-01 00:00:00+00:00	1
1836-01-01 00:00:00+00:00	2
1837-01-01 00:00:00+00:00	4
1838-01-01 00:00:00+00:00	2
1839-01-01 00:00:00+00:00	8
1840-01-01 00:00:00+00:00	7
1841-01-01 00:00:00+00:00	1
1842-01-01 00:00:00+00:00	5
1843-01-01 00:00:00+00:00	17
1843-07-29 00:00:00+00:00	1
1844-01-01 00:00:00+00:00	7
1845-01-01 00:00:00+00:00	34
1846-01-01 00:00:00+00:00	10
1847-01-01 00:00:00+00:00	1
1849-01-01 00:00:00+00:00	10
1850-01-01 00:00:00+00:00	2
1851-01-01 00:00:00+00:00	1
1852-01-01 00:00:00+00:00	5
1853-01-01 00:00:00+00:00	5
1854-01-01 00:00:00+00:00	3
1855-01-01 00:00:00+00:00	2
1856-01-01 00:00:00+00:00	3
1857-01-01 00:00:00+00:00	2
1858-01-01 00:00:00+00:00	26
1859-01-01 00:00:00+00:00	17
1860-01-01 00:00:00+00:00	9
1861-01-01 00:00:00+00:00	3
1862-01-01 00:00:00+00:00	5
1862-08-16 00:00:00+00:00	1
1863-01-01 00:00:00+00:00	35
1864-01-01 00:00:00+00:00	1
1865-01-01 00:00:00+00:00	4
1866-01-01 00:00:00+00:00	5
1867-01-01 00:00:00+00:00	5
1868-01-01 00:00:00+00:00	9
1868-01-02 00:00:00+00:00	1
1869-01-01 00:00:00+00:00	4
1870-01-01 00:00:00+00:00	12
1871-01-01 00:00:00+00:00	4
1872-01-01 00:00:00+00:00	1
1872-03-11 00:00:00+00:00	1
1873-01-01 00:00:00+00:00	6
1874-01-01 00:00:00+00:00	3
1875-01-01 00:00:00+00:00	10
1876-01-01 00:00:00+00:00	7
1877-01-01 00:00:00+00:00	3
1878-01-01 00:00:00+00:00	14
1879-01-01 00:00:00+00:00	10
1880-01-01 00:00:00+00:00	7
1881-01-01 00:00:00+00:00	5
1882-01-01 00:00:00+00:00	1
1883-01-01 00:00:00+00:00	3
1884-01-01 00:00:00+00:00	3
1885-01-01 00:00:00+00:00	4
1886-01-01 00:00:00+00:00	4
1887-01-01 00:00:00+00:00	20
1888-01-01 00:00:00+00:00	7
1889-01-01 00:00:00+00:00	3
1890-01-01 00:00:00+00:00	5
1891-01-01 00:00:00+00:00	1
1892-01-01 00:00:00+00:00	5
1892-01-27 00:00:00+00:00	1
1893-01-01 00:00:00+00:00	6
1894-01-01 00:00:00+00:00	8
1895-01-01 00:00:00+00:00	4
1896-01-01 00:00:00+00:00	5
1897-01-01 00:00:00+00:00	12
1898-01-01 00:00:00+00:00	13
1899-01-01 00:00:00+00:00	3
1900-01-01 00:00:00+00:00	4
1901-01-01 00:00:00+00:00	8
1902-01-01 00:00:00+00:00	27
1903-01-01 00:00:00+00:00	25
1904-01-01 00:00:00+00:00	25
1904-09-01 00:00:00+00:00	1
1905-01-01 00:00:00+00:00	29
1905-01-31 00:00:00+00:00	1
1906-01-01 00:00:00+00:00	19
1906-04-01 00:00:00+00:00	3
1906-06-01 00:00:00+00:00	1
1907-01-01 00:00:00+00:00	10
1907-01-26 00:00:00+00:00	1
1908-01-01 00:00:00+00:00	53
1908-11-22 00:00:00+00:00	1
1909-01-01 00:00:00+00:00	23
1909-04-30 00:00:00+00:00	1
1909-11-30 00:00:00+00:00	1
1910-01-01 00:00:00+00:00	109
1910-07-03 00:00:00+00:00	3
1910-08-01 00:00:00+00:00	1
1910-09-01 00:00:00+00:00	1
1910-10-01 00:00:00+00:00	1
1911-01-01 00:00:00+00:00	23
1911-03-30 00:00:00+00:00	3
1912-01-01 00:00:00+00:00	75
1912-05-03 00:00:00+00:00	1
1912-09-14 00:00:00+00:00	1
1913-01-01 00:00:00+00:00	29
1913-05-03 00:00:00+00:00	7
1914-01-01 00:00:00+00:00	54
1915-01-01 00:00:00+00:00	4
1915-09-25 00:00:00+00:00	1
1915-11-14 00:00:00+00:00	1
1916-01-01 00:00:00+00:00	23
1916-12-01 00:00:00+00:00	1
1917-01-01 00:00:00+00:00	40
1917-12-25 00:00:00+00:00	1
1918-01-01 00:00:00+00:00	44
1918-02-01 00:00:00+00:00	1
1918-07-01 00:00:00+00:00	1
1918-09-01 00:00:00+00:00	1
1919-01-01 00:00:00+00:00	25
1919-07-20 00:00:00+00:00	1
1919-10-01 00:00:00+00:00	1
1919-11-28 00:00:00+00:00	1
1920-01-01 00:00:00+00:00	23
1921-01-01 00:00:00+00:00	41
1921-11-30 00:00:00+00:00	1
1922-01-01 00:00:00+00:00	14
1922-05-31 00:00:00+00:00	1
1922-09-01 00:00:00+00:00	1
1922-11-21 00:00:00+00:00	1
1922-12-23 00:00:00+00:00	1
1923-01-01 00:00:00+00:00	28
1924-01-01 00:00:00+00:00	21
1924-02-10 00:00:00+00:00	1
1924-04-08 00:00:00+00:00	1
1924-04-15 00:00:00+00:00	1
1925-01-01 00:00:00+00:00	11
1925-02-22 00:00:00+00:00	1
1925-03-01 00:00:00+00:00	1
1925-07-01 00:00:00+00:00	1
1926-01-01 00:00:00+00:00	5
1926-04-01 00:00:00+00:00	2
1926-05-01 00:00:00+00:00	1
1926-10-17 00:00:00+00:00	1
1927-01-01 00:00:00+00:00	15
1927-12-18 00:00:00+00:00	2
1927-12-25 00:00:00+00:00	2
1928-01-01 00:00:00+00:00	27
1928-05-19 00:00:00+00:00	1
1929-01-01 00:00:00+00:00	12
1929-11-14 00:00:00+00:00	1
1930-01-01 00:00:00+00:00	22
1930-03-23 00:00:00+00:00	2
1930-07-01 00:00:00+00:00	2
1930-12-04 00:00:00+00:00	4
1930-12-21 00:00:00+00:00	1
1931-01-01 00:00:00+00:00	26
1932-01-01 00:00:00+00:00	8
1932-02-02 00:00:00+00:00	1
1933-01-01 00:00:00+00:00	19
1933-03-14 00:00:00+00:00	1
1934-01-01 00:00:00+00:00	19
1935-01-01 00:00:00+00:00	7
1935-05-12 00:00:00+00:00	1
1935-06-23 00:00:00+00:00	1
1936-01-01 00:00:00+00:00	25
1936-12-01 00:00:00+00:00	1
1936-12-15 00:00:00+00:00	1
1937-01-01 00:00:00+00:00	15
1937-02-28 00:00:00+00:00	4
1937-03-19 00:00:00+00:00	1
1937-05-23 00:00:00+00:00	1
1938-01-01 00:00:00+00:00	63
1938-03-26 00:00:00+00:00	1
1938-03-27 00:00:00+00:00	1
1938-03-31 00:00:00+00:00	2
1938-04-01 00:00:00+00:00	2
1938-04-03 00:00:00+00:00	1
1938-05-01 00:00:00+00:00	1
1938-05-14 00:00:00+00:00	1
1938-05-28 00:00:00+00:00	1
1938-06-01 00:00:00+00:00	5
1938-06-30 00:00:00+00:00	2
1938-09-01 00:00:00+00:00	1
1938-12-18 00:00:00+00:00	1
1939-01-01 00:00:00+00:00	22
1939-02-12 00:00:00+00:00	1
1939-02-25 00:00:00+00:00	1
1939-02-28 00:00:00+00:00	1
1939-03-04 00:00:00+00:00	1
1939-04-01 00:00:00+00:00	1
1939-04-08 00:00:00+00:00	1
1939-04-15 00:00:00+00:00	1
1939-04-23 00:00:00+00:00	1
1939-04-30 00:00:00+00:00	1
1939-05-14 00:00:00+00:00	1
1939-05-21 00:00:00+00:00	1
1939-05-28 00:00:00+00:00	2
1939-06-01 00:00:00+00:00	2
1939-06-04 00:00:00+00:00	1
1939-06-18 00:00:00+00:00	1
1939-07-02 00:00:00+00:00	1
1939-07-09 00:00:00+00:00	1
1939-07-16 00:00:00+00:00	1
1939-07-23 00:00:00+00:00	1
1939-07-30 00:00:00+00:00	1
1939-08-01 00:00:00+00:00	2
1939-08-06 00:00:00+00:00	1
1939-08-20 00:00:00+00:00	1
1939-08-27 00:00:00+00:00	1
1939-09-03 00:00:00+00:00	1
1943-01-01 00:00:00+00:00	2
1947-01-01 00:00:00+00:00	3
1953-01-01 00:00:00+00:00	3
1954-01-01 00:00:00+00:00	32
1959-11-30 00:00:00+00:00	1
1963-01-01 00:00:00+00:00	1
1964-06-02 00:00:00+00:00	1
1964-07-09 00:00:00+00:00	1
1965-01-01 00:00:00+00:00	2
1965-01-25 00:00:00+00:00	1
1966-01-01 00:00:00+00:00	1
1966-12-01 00:00:00+00:00	1
1972-01-01 00:00:00+00:00	1
1977-01-01 00:00:00+00:00	2
1979-01-01 00:00:00+00:00	2
1980-01-01 00:00:00+00:00	1
1981-01-01 00:00:00+00:00	1
1982-01-01 00:00:00+00:00	1
1983-01-01 00:00:00+00:00	2
1984-01-01 00:00:00+00:00	1
1984-03-01 00:00:00+00:00	1
1985-01-01 00:00:00+00:00	5
1986-01-01 00:00:00+00:00	1
1987-01-01 00:00:00+00:00	1
1988-10-01 00:00:00+00:00	1
1989-01-01 00:00:00+00:00	4
1990-01-01 00:00:00+00:00	8
1990-03-21 00:00:00+00:00	1
1991-01-01 00:00:00+00:00	6
1992-01-01 00:00:00+00:00	4
1992-03-13 00:00:00+00:00	1
1992-10-17 00:00:00+00:00	1
1993-01-01 00:00:00+00:00	3
1993-01-09 00:00:00+00:00	1
1994-01-01 00:00:00+00:00	22
1994-03-18 00:00:00+00:00	1
1995-01-01 00:00:00+00:00	1
1995-03-03 00:00:00+00:00	4
1996-01-01 00:00:00+00:00	8
1996-05-30 00:00:00+00:00	3
1997-01-01 00:00:00+00:00	3
1997-01-08 00:00:00+00:00	1
1997-01-10 00:00:00+00:00	2
1997-03-20 00:00:00+00:00	2
1997-06-17 00:00:00+00:00	1
1997-11-10 00:00:00+00:00	1
1998-01-01 00:00:00+00:00	22
1998-08-04 00:00:00+00:00	1
1998-11-19 00:00:00+00:00	3
1998-12-15 00:00:00+00:00	1
1999-01-01 00:00:00+00:00	9
1999-12-03 00:00:00+00:00	2
1999-12-31 23:00:00+00:00	1
2000-01-01 00:00:00+00:00	6
2000-02-17 00:00:00+00:00	4
2000-05-12 00:00:00+00:00	1
2001-01-01 00:00:00+00:00	4
2001-08-22 00:00:00+00:00	1
2002-01-01 00:00:00+00:00	21
2002-03-20 00:00:00+00:00	1
2003-01-01 00:00:00+00:00	13
2003-02-13 00:00:00+00:00	1
