1831-01-01 00:00:00+00:00	10
1839-01-01 00:00:00+00:00	3
1843-01-01 00:00:00+00:00	2
1844-01-01 00:00:00+00:00	2
1844-06-12 00:00:00+00:00	1
1845-01-01 00:00:00+00:00	1
1847-01-01 00:00:00+00:00	2
1847-06-12 00:00:00+00:00	1
1848-01-01 00:00:00+00:00	4
1848-03-14 00:00:00+00:00	1
1849-01-01 00:00:00+00:00	1
1850-01-01 00:00:00+00:00	3
1851-01-01 00:00:00+00:00	2
1852-01-01 00:00:00+00:00	2
1853-01-01 00:00:00+00:00	2
1854-07-16 00:00:00+00:00	1
1855-01-01 00:00:00+00:00	2
1855-03-31 00:00:00+00:00	1
1855-07-06 00:00:00+00:00	1
1855-09-15 00:00:00+00:00	1
1857-01-01 00:00:00+00:00	2
1858-01-01 00:00:00+00:00	4
1859-01-01 00:00:00+00:00	6
1859-03-20 00:00:00+00:00	1
1861-01-01 00:00:00+00:00	4
1862-01-01 00:00:00+00:00	2
1864-01-01 00:00:00+00:00	3
1867-01-01 00:00:00+00:00	2
1869-01-01 00:00:00+00:00	6
1870-01-01 00:00:00+00:00	1
1871-01-01 00:00:00+00:00	1
1872-01-01 00:00:00+00:00	3
1873-01-01 00:00:00+00:00	2
1874-01-01 00:00:00+00:00	3
1874-02-28 00:00:00+00:00	1
1875-01-01 00:00:00+00:00	1
1876-01-01 00:00:00+00:00	1
1877-01-01 00:00:00+00:00	6
1878-01-01 00:00:00+00:00	6
1880-01-01 00:00:00+00:00	3
1881-01-01 00:00:00+00:00	7
1882-01-01 00:00:00+00:00	3
1883-01-01 00:00:00+00:00	2
1884-01-01 00:00:00+00:00	2
1886-01-01 00:00:00+00:00	25
1887-01-01 00:00:00+00:00	2
1888-01-01 00:00:00+00:00	1
1890-01-01 00:00:00+00:00	1
1891-01-01 00:00:00+00:00	6
1892-01-01 00:00:00+00:00	1
1893-01-01 00:00:00+00:00	2
1895-01-01 00:00:00+00:00	1
1896-01-01 00:00:00+00:00	3
1897-01-01 00:00:00+00:00	2
1897-06-01 00:00:00+00:00	1
1898-01-01 00:00:00+00:00	5
1899-01-01 00:00:00+00:00	3
1899-04-07 00:00:00+00:00	1
1899-06-15 00:00:00+00:00	1
1900-01-01 00:00:00+00:00	2
1900-07-26 00:00:00+00:00	1
1901-01-01 00:00:00+00:00	6
1901-05-01 00:00:00+00:00	1
1902-01-01 00:00:00+00:00	1
1903-01-01 00:00:00+00:00	2
1904-01-01 00:00:00+00:00	6
1905-01-01 00:00:00+00:00	4
1906-01-01 00:00:00+00:00	4
1906-05-01 00:00:00+00:00	1
1906-08-11 00:00:00+00:00	1
1907-01-01 00:00:00+00:00	4
1908-01-01 00:00:00+00:00	8
1908-07-04 00:00:00+00:00	2
1909-01-01 00:00:00+00:00	2
1909-06-26 00:00:00+00:00	1
1910-01-01 00:00:00+00:00	3
1910-06-11 00:00:00+00:00	1
1911-01-01 00:00:00+00:00	6
1911-07-01 00:00:00+00:00	1
1912-12-26 00:00:00+00:00	1
1913-01-01 00:00:00+00:00	1
1913-08-17 00:00:00+00:00	1
1914-01-01 00:00:00+00:00	3
1914-06-05 00:00:00+00:00	1
1914-06-13 00:00:00+00:00	1
1914-06-14 00:00:00+00:00	1
1914-06-18 00:00:00+00:00	1
1916-01-01 00:00:00+00:00	1
1917-01-01 00:00:00+00:00	5
1918-01-01 00:00:00+00:00	7
1919-01-01 00:00:00+00:00	2
1920-01-01 00:00:00+00:00	1
1920-01-01 01:00:00+00:00	5
1920-04-01 00:00:00+00:00	1
1921-01-01 00:00:00+00:00	2
1922-01-01 00:00:00+00:00	7
1922-01-06 00:00:00+00:00	1
1922-07-28 00:00:00+00:00	1
1922-09-01 00:00:00+00:00	1
1923-01-01 00:00:00+00:00	2
1923-08-14 00:00:00+00:00	1
1924-01-01 00:00:00+00:00	4
1924-01-12 00:00:00+00:00	1
1924-02-16 00:00:00+00:00	1
1924-08-16 00:00:00+00:00	1
1924-10-02 00:00:00+00:00	1
1924-10-11 00:00:00+00:00	1
1924-10-16 00:00:00+00:00	1
1925-01-01 00:00:00+00:00	7
1925-05-09 00:00:00+00:00	1
1925-07-15 00:00:00+00:00	1
1925-08-05 00:00:00+00:00	1
1925-10-21 00:00:00+00:00	2
1926-01-01 00:00:00+00:00	3
1926-01-17 00:00:00+00:00	1
1926-02-01 00:00:00+00:00	1
1926-02-17 00:00:00+00:00	1
1926-04-02 00:00:00+00:00	2
1926-08-07 00:00:00+00:00	1
1926-10-16 00:00:00+00:00	1
1927-01-01 00:00:00+00:00	5
1927-03-28 00:00:00+00:00	1
1927-06-24 00:00:00+00:00	1
1927-07-01 00:00:00+00:00	1
1927-07-14 00:00:00+00:00	1
1927-08-06 00:00:00+00:00	1
1927-08-20 00:00:00+00:00	1
1927-09-01 00:00:00+00:00	1
1927-10-10 00:00:00+00:00	2
1927-11-19 00:00:00+00:00	1
1928-01-01 00:00:00+00:00	5
1928-06-30 00:00:00+00:00	1
1928-12-10 00:00:00+00:00	1
1929-01-01 00:00:00+00:00	10
1929-03-01 00:00:00+00:00	1
1929-04-22 00:00:00+00:00	1
1930-01-01 00:00:00+00:00	20
1930-04-06 00:00:00+00:00	2
1930-07-01 00:00:00+00:00	1
1930-10-05 00:00:00+00:00	1
1930-10-26 00:00:00+00:00	1
1931-01-01 00:00:00+00:00	10
1931-04-01 00:00:00+00:00	1
1931-05-01 00:00:00+00:00	2
1931-05-03 00:00:00+00:00	1
1931-06-06 00:00:00+00:00	1
1931-07-01 00:00:00+00:00	1
1931-09-01 00:00:00+00:00	1
1931-12-01 00:00:00+00:00	1
1932-01-01 00:00:00+00:00	8
1932-05-01 00:00:00+00:00	1
1932-06-01 00:00:00+00:00	3
1932-06-20 00:00:00+00:00	1
1932-07-01 00:00:00+00:00	6
1932-08-01 00:00:00+00:00	2
1932-08-15 00:00:00+00:00	1
1932-09-01 00:00:00+00:00	1
1932-10-01 00:00:00+00:00	6
1932-10-03 00:00:00+00:00	1
1932-12-01 00:00:00+00:00	1
1933-01-01 00:00:00+00:00	11
1933-03-01 00:00:00+00:00	3
1933-04-01 00:00:00+00:00	1
1933-04-06 00:00:00+00:00	1
1933-05-01 00:00:00+00:00	2
1933-05-04 00:00:00+00:00	1
1933-05-18 00:00:00+00:00	1
1933-05-26 00:00:00+00:00	1
1933-05-27 00:00:00+00:00	2
1933-06-01 00:00:00+00:00	6
1933-06-03 00:00:00+00:00	1
1933-06-04 00:00:00+00:00	1
1933-07-01 00:00:00+00:00	2
1933-09-01 00:00:00+00:00	1
1933-11-01 00:00:00+00:00	2
1934-01-01 00:00:00+00:00	19
1934-04-01 00:00:00+00:00	2
1934-05-09 00:00:00+00:00	1
1935-01-01 00:00:00+00:00	8
1935-04-01 00:00:00+00:00	1
1935-04-24 00:00:00+00:00	1
1935-07-01 00:00:00+00:00	1
1935-07-27 00:00:00+00:00	1
1935-08-30 00:00:00+00:00	1
1935-10-01 00:00:00+00:00	3
1936-01-01 00:00:00+00:00	2
1936-03-01 00:00:00+00:00	1
1936-04-01 00:00:00+00:00	1
1936-09-01 00:00:00+00:00	1
1937-01-01 00:00:00+00:00	3
1937-03-01 00:00:00+00:00	3
1937-07-01 00:00:00+00:00	1
1937-08-01 00:00:00+00:00	2
1937-08-16 00:00:00+00:00	1
1937-10-01 00:00:00+00:00	1
1937-12-01 00:00:00+00:00	2
1938-01-01 00:00:00+00:00	16
1938-05-01 00:00:00+00:00	1
1938-12-06 00:00:00+00:00	1
1939-01-01 00:00:00+00:00	2
1939-05-01 00:00:00+00:00	1
1939-07-16 00:00:00+00:00	1
1939-08-06 00:00:00+00:00	1
1941-01-01 00:00:00+00:00	2
1944-01-01 00:00:00+00:00	1
1945-01-01 00:00:00+00:00	1
1945-08-04 00:00:00+00:00	1
1945-11-14 00:00:00+00:00	1
1946-01-01 00:00:00+00:00	1
1946-06-01 00:00:00+00:00	2
1947-01-01 00:00:00+00:00	4
1947-10-21 00:00:00+00:00	1
1947-11-01 00:00:00+00:00	3
1948-01-01 00:00:00+00:00	7
1948-01-18 00:00:00+00:00	1
1948-02-01 00:00:00+00:00	2
1949-01-01 00:00:00+00:00	1
1952-01-01 00:00:00+00:00	1
1954-01-01 00:00:00+00:00	2
1956-01-01 00:00:00+00:00	3
1957-01-01 00:00:00+00:00	4
1958-01-01 00:00:00+00:00	3
1959-01-01 00:00:00+00:00	4
1960-01-01 00:00:00+00:00	2
1961-01-01 00:00:00+00:00	3
1963-01-01 00:00:00+00:00	6
1964-01-01 00:00:00+00:00	2
1964-06-01 00:00:00+00:00	3
1965-01-01 00:00:00+00:00	7
1966-01-01 00:00:00+00:00	4
1967-01-01 00:00:00+00:00	7
1968-01-01 00:00:00+00:00	9
1969-01-01 00:00:00+00:00	10
1969-11-18 00:00:00+00:00	1
1970-01-01 00:00:00+00:00	8
1971-01-01 00:00:00+00:00	6
1972-01-01 00:00:00+00:00	23
1972-12-31 00:00:00+00:00	1
1972-12-31 23:00:00+00:00	2
1973-01-01 00:00:00+00:00	15
1973-04-01 00:00:00+00:00	2
1973-09-01 00:00:00+00:00	1
1974-01-01 00:00:00+00:00	19
1974-02-01 00:00:00+00:00	1
1974-03-01 00:00:00+00:00	2
1974-04-01 00:00:00+00:00	2
1974-04-05 00:00:00+00:00	1
1974-05-11 00:00:00+00:00	3
1975-01-01 00:00:00+00:00	12
1975-02-01 00:00:00+00:00	1
1976-01-01 00:00:00+00:00	11
1976-02-01 00:00:00+00:00	1
1977-01-01 00:00:00+00:00	12
1978-01-01 00:00:00+00:00	13
1978-01-31 00:00:00+00:00	1
1979-01-01 00:00:00+00:00	6
1980-01-01 00:00:00+00:00	28
1981-01-01 00:00:00+00:00	18
1982-01-01 00:00:00+00:00	10
1982-03-01 00:00:00+00:00	1
1983-01-01 00:00:00+00:00	4
1984-01-01 00:00:00+00:00	17
1985-01-01 00:00:00+00:00	13
1986-01-01 00:00:00+00:00	17
1986-12-31 23:00:00+00:00	2
1987-01-01 00:00:00+00:00	15
1988-01-01 00:00:00+00:00	40
1988-09-30 23:00:00+00:00	1
1989-01-01 00:00:00+00:00	19
1990-01-01 00:00:00+00:00	35
1991-01-01 00:00:00+00:00	35
1991-10-01 00:00:00+00:00	1
1992-01-01 00:00:00+00:00	23
1993-01-01 00:00:00+00:00	50
1993-06-01 00:00:00+00:00	1
1993-07-01 00:00:00+00:00	1
1994-01-01 00:00:00+00:00	37
1995-01-01 00:00:00+00:00	23
1996-01-01 00:00:00+00:00	27
1996-05-15 00:00:00+00:00	1
1996-10-01 00:00:00+00:00	1
1997-01-01 00:00:00+00:00	35
1997-08-12 00:00:00+00:00	1
1997-09-02 00:00:00+00:00	1
1997-09-30 00:00:00+00:00	1
1997-12-16 00:00:00+00:00	4
1998-01-01 00:00:00+00:00	25
1998-01-30 00:00:00+00:00	1
1998-02-23 00:00:00+00:00	3
1998-02-27 00:00:00+00:00	1
1998-04-30 00:00:00+00:00	1
1999-01-01 00:00:00+00:00	40
1999-08-31 00:00:00+00:00	1
1999-12-31 23:00:00+00:00	1
2000-01-01 00:00:00+00:00	33
2000-11-01 00:00:00+00:00	2
2000-12-29 00:00:00+00:00	1
2000-12-31 23:00:00+00:00	5
2001-01-01 00:00:00+00:00	38
2001-04-30 00:00:00+00:00	1
2001-12-31 23:00:00+00:00	2
2002-01-01 00:00:00+00:00	40
2002-07-31 00:00:00+00:00	1
2002-08-30 00:00:00+00:00	1
2002-09-01 00:00:00+00:00	1
2002-09-30 00:00:00+00:00	1
2002-10-31 00:00:00+00:00	2
2002-11-01 00:00:00+00:00	1
2002-12-31 23:00:00+00:00	5
2003-01-01 00:00:00+00:00	42
2003-10-31 00:00:00+00:00	2
2003-11-11 00:00:00+00:00	1
2003-12-01 00:00:00+00:00	5
