1897-01-01 00:00:00+00:00	1
1899-01-01 00:00:00+00:00	1
1900-06-19 00:00:00+00:00	1
1903-01-01 00:00:00+00:00	2
1904-01-01 00:00:00+00:00	3
1905-01-01 00:00:00+00:00	1
1905-10-15 00:00:00+00:00	1
1905-10-28 00:00:00+00:00	1
1906-01-01 00:00:00+00:00	7
1906-06-13 00:00:00+00:00	1
1906-08-18 00:00:00+00:00	1
1906-09-08 00:00:00+00:00	1
1906-10-13 00:00:00+00:00	1
1906-11-20 00:00:00+00:00	1
1906-11-24 00:00:00+00:00	1
1907-01-01 00:00:00+00:00	37
1907-03-02 00:00:00+00:00	1
1907-03-09 00:00:00+00:00	1
1907-03-16 00:00:00+00:00	1
1907-03-18 00:00:00+00:00	1
1907-03-19 00:00:00+00:00	1
1907-03-23 00:00:00+00:00	1
1907-04-20 00:00:00+00:00	2
1907-04-23 00:00:00+00:00	1
1907-04-25 00:00:00+00:00	1
1907-04-27 00:00:00+00:00	1
1907-05-04 00:00:00+00:00	2
1907-05-11 00:00:00+00:00	2
1907-05-18 00:00:00+00:00	1
1907-05-25 00:00:00+00:00	2
1907-06-01 00:00:00+00:00	1
1907-07-13 00:00:00+00:00	1
1907-10-12 00:00:00+00:00	2
1908-01-01 00:00:00+00:00	6
1908-06-14 00:00:00+00:00	1
1908-09-20 00:00:00+00:00	1
1908-09-25 00:00:00+00:00	1
1908-11-13 00:00:00+00:00	1
1909-01-01 00:00:00+00:00	15
1909-01-02 00:00:00+00:00	1
1909-02-05 00:00:00+00:00	1
1909-02-27 00:00:00+00:00	1
1909-04-01 00:00:00+00:00	1
1909-06-01 00:00:00+00:00	1
1909-10-29 00:00:00+00:00	1
1909-12-04 00:00:00+00:00	1
1910-01-01 00:00:00+00:00	3
1910-03-13 00:00:00+00:00	1
1910-10-29 00:00:00+00:00	1
1910-11-14 00:00:00+00:00	1
1911-01-01 00:00:00+00:00	5
1911-01-22 00:00:00+00:00	1
1911-03-26 00:00:00+00:00	1
1911-03-31 00:00:00+00:00	1
1911-04-30 00:00:00+00:00	1
1911-05-03 00:00:00+00:00	1
1911-05-04 00:00:00+00:00	1
1911-07-01 00:00:00+00:00	1
1912-01-01 00:00:00+00:00	5
1912-01-07 00:00:00+00:00	1
1912-04-20 00:00:00+00:00	1
1912-04-28 00:00:00+00:00	1
1912-09-21 00:00:00+00:00	1
1912-11-17 00:00:00+00:00	1
1912-12-01 00:00:00+00:00	1
1913-01-01 00:00:00+00:00	9
1913-03-31 00:00:00+00:00	1
1913-04-18 00:00:00+00:00	1
1913-05-08 00:00:00+00:00	1
1914-01-01 00:00:00+00:00	7
1914-06-01 00:00:00+00:00	1
1915-01-01 00:00:00+00:00	5
1915-09-05 00:00:00+00:00	1
1915-11-10 00:00:00+00:00	1
1915-12-07 00:00:00+00:00	1
1916-01-01 00:00:00+00:00	64
1916-01-20 00:00:00+00:00	2
1916-04-10 00:00:00+00:00	1
1916-05-17 00:00:00+00:00	1
1916-06-03 00:00:00+00:00	1
1916-07-07 00:00:00+00:00	1
1916-07-08 00:00:00+00:00	1
1916-07-11 00:00:00+00:00	1
1916-07-12 00:00:00+00:00	1
1916-07-17 00:00:00+00:00	1
1916-07-26 00:00:00+00:00	1
1916-08-05 00:00:00+00:00	1
1916-08-28 00:00:00+00:00	1
1916-09-10 00:00:00+00:00	1
1916-09-17 00:00:00+00:00	1
1916-09-22 00:00:00+00:00	1
1916-10-15 00:00:00+00:00	1
1916-11-26 00:00:00+00:00	1
1916-12-01 00:00:00+00:00	1
1916-12-09 00:00:00+00:00	1
1916-12-10 00:00:00+00:00	1
1916-12-13 00:00:00+00:00	1
1916-12-14 00:00:00+00:00	1
1916-12-16 00:00:00+00:00	1
1916-12-18 00:00:00+00:00	3
1916-12-20 00:00:00+00:00	1
1916-12-21 00:00:00+00:00	2
1916-12-23 00:00:00+00:00	1
1916-12-28 00:00:00+00:00	1
1917-01-01 00:00:00+00:00	167
1917-01-05 00:00:00+00:00	1
1917-01-09 00:00:00+00:00	1
1917-01-17 00:00:00+00:00	1
1917-01-21 00:00:00+00:00	1
1917-01-24 00:00:00+00:00	1
1917-01-28 00:00:00+00:00	1
1917-01-30 00:00:00+00:00	1
1917-02-01 00:00:00+00:00	4
1917-02-03 00:00:00+00:00	1
1917-02-20 00:00:00+00:00	1
1917-02-25 00:00:00+00:00	1
1917-04-05 00:00:00+00:00	1
1917-04-07 00:00:00+00:00	1
1917-04-24 00:00:00+00:00	1
1917-05-10 00:00:00+00:00	1
1917-05-14 00:00:00+00:00	1
1917-05-16 00:00:00+00:00	1
1917-05-17 00:00:00+00:00	1
1917-05-30 00:00:00+00:00	1
1917-05-31 00:00:00+00:00	1
1917-06-02 00:00:00+00:00	1
1917-06-16 00:00:00+00:00	1
1917-06-17 00:00:00+00:00	1
1917-06-18 00:00:00+00:00	2
1917-06-30 00:00:00+00:00	1
1917-07-12 00:00:00+00:00	1
1917-07-14 00:00:00+00:00	1
1917-07-15 00:00:00+00:00	4
1917-07-17 00:00:00+00:00	1
1917-07-18 00:00:00+00:00	1
1917-07-19 00:00:00+00:00	1
1917-07-21 00:00:00+00:00	1
1917-07-22 00:00:00+00:00	2
1917-07-28 00:00:00+00:00	2
1917-08-02 00:00:00+00:00	2
1917-08-04 00:00:00+00:00	1
1917-08-05 00:00:00+00:00	1
1917-08-08 00:00:00+00:00	1
1917-08-09 00:00:00+00:00	2
1917-08-20 00:00:00+00:00	1
1917-08-22 00:00:00+00:00	1
1917-08-25 00:00:00+00:00	1
1917-08-29 00:00:00+00:00	1
1917-09-01 00:00:00+00:00	1
1917-09-04 00:00:00+00:00	2
1917-09-05 00:00:00+00:00	1
1917-09-06 00:00:00+00:00	1
1917-09-07 00:00:00+00:00	1
1917-09-08 00:00:00+00:00	1
1917-09-11 00:00:00+00:00	1
1917-09-12 00:00:00+00:00	3
1917-09-13 00:00:00+00:00	2
1917-09-15 00:00:00+00:00	4
1917-09-16 00:00:00+00:00	2
1917-09-19 00:00:00+00:00	1
1917-09-20 00:00:00+00:00	1
1917-09-24 00:00:00+00:00	1
1917-10-01 00:00:00+00:00	2
1917-10-03 00:00:00+00:00	1
1917-10-05 00:00:00+00:00	1
1917-10-14 00:00:00+00:00	1
1917-10-19 00:00:00+00:00	1
1917-10-21 00:00:00+00:00	1
1917-10-24 00:00:00+00:00	1
1917-11-01 00:00:00+00:00	1
1917-11-11 00:00:00+00:00	1
1917-11-16 00:00:00+00:00	1
1917-11-24 00:00:00+00:00	1
1917-11-28 00:00:00+00:00	1
1917-11-30 00:00:00+00:00	1
1917-12-03 00:00:00+00:00	1
1917-12-04 00:00:00+00:00	1
1917-12-08 00:00:00+00:00	1
1917-12-12 00:00:00+00:00	2
1917-12-23 00:00:00+00:00	1
1918-01-01 00:00:00+00:00	242
1918-01-05 00:00:00+00:00	1
1918-01-09 00:00:00+00:00	1
1918-01-10 00:00:00+00:00	1
1918-01-12 00:00:00+00:00	1
1918-01-15 00:00:00+00:00	1
1918-01-20 00:00:00+00:00	2
1918-01-27 00:00:00+00:00	2
1918-02-10 00:00:00+00:00	1
1918-02-15 00:00:00+00:00	1
1918-02-16 00:00:00+00:00	1
1918-02-18 00:00:00+00:00	1
1918-02-20 00:00:00+00:00	1
1918-02-21 00:00:00+00:00	1
1918-02-27 00:00:00+00:00	1
1918-03-10 00:00:00+00:00	1
1918-03-11 00:00:00+00:00	1
1918-03-14 00:00:00+00:00	3
1918-03-15 00:00:00+00:00	1
1918-03-19 00:00:00+00:00	1
1918-03-22 00:00:00+00:00	1
1918-03-24 00:00:00+00:00	2
1918-03-27 00:00:00+00:00	1
1918-04-01 00:00:00+00:00	1
1918-04-03 00:00:00+00:00	1
1918-04-09 00:00:00+00:00	1
1918-04-13 00:00:00+00:00	2
1918-04-15 00:00:00+00:00	1
1918-04-18 00:00:00+00:00	1
1918-04-21 00:00:00+00:00	1
1918-04-28 00:00:00+00:00	1
1918-04-29 00:00:00+00:00	1
1918-05-01 00:00:00+00:00	1
1918-05-03 00:00:00+00:00	1
1918-05-05 00:00:00+00:00	1
1918-05-06 00:00:00+00:00	1
1918-05-07 00:00:00+00:00	2
1918-05-16 00:00:00+00:00	2
1918-05-18 00:00:00+00:00	2
1918-06-04 00:00:00+00:00	1
1918-06-23 00:00:00+00:00	1
1918-06-25 00:00:00+00:00	1
1918-06-29 00:00:00+00:00	2
1918-06-30 00:00:00+00:00	4
1918-07-01 00:00:00+00:00	1
1918-07-02 00:00:00+00:00	4
1918-07-03 00:00:00+00:00	1
1918-07-07 00:00:00+00:00	2
1918-07-10 00:00:00+00:00	2
1918-07-11 00:00:00+00:00	3
1918-07-23 00:00:00+00:00	2
1918-07-24 00:00:00+00:00	1
1918-07-25 00:00:00+00:00	1
1918-07-27 00:00:00+00:00	2
1918-07-28 00:00:00+00:00	1
1918-08-01 00:00:00+00:00	2
1918-08-06 00:00:00+00:00	1
1918-08-08 00:00:00+00:00	1
1918-08-11 00:00:00+00:00	2
1918-08-13 00:00:00+00:00	1
1918-08-15 00:00:00+00:00	1
1918-08-22 00:00:00+00:00	1
1918-08-25 00:00:00+00:00	1
1918-08-28 00:00:00+00:00	1
1918-09-05 00:00:00+00:00	3
1918-09-06 00:00:00+00:00	3
1918-09-07 00:00:00+00:00	1
1918-09-08 00:00:00+00:00	2
1918-09-09 00:00:00+00:00	2
1918-09-10 00:00:00+00:00	3
1918-09-11 00:00:00+00:00	1
1918-09-12 00:00:00+00:00	3
1918-09-13 00:00:00+00:00	2
1918-09-14 00:00:00+00:00	2
1918-09-17 00:00:00+00:00	2
1918-09-18 00:00:00+00:00	1
1918-09-20 00:00:00+00:00	1
1918-09-21 00:00:00+00:00	2
1918-09-22 00:00:00+00:00	1
1918-10-09 00:00:00+00:00	1
1918-10-10 00:00:00+00:00	2
1918-10-11 00:00:00+00:00	1
1918-10-12 00:00:00+00:00	7
1918-10-13 00:00:00+00:00	2
1918-10-14 00:00:00+00:00	2
1918-10-15 00:00:00+00:00	2
1918-10-16 00:00:00+00:00	1
1918-10-17 00:00:00+00:00	1
1918-10-18 00:00:00+00:00	3
1918-10-19 00:00:00+00:00	3
1918-10-20 00:00:00+00:00	2
1918-10-21 00:00:00+00:00	2
1918-10-22 00:00:00+00:00	2
1918-10-25 00:00:00+00:00	4
1918-10-29 00:00:00+00:00	1
1918-10-30 00:00:00+00:00	1
1918-10-31 00:00:00+00:00	1
1918-11-03 00:00:00+00:00	1
1918-11-07 00:00:00+00:00	1
1918-11-09 00:00:00+00:00	2
1918-11-11 00:00:00+00:00	1
1918-11-12 00:00:00+00:00	2
1918-12-10 00:00:00+00:00	1
1918-12-15 00:00:00+00:00	1
1918-12-21 00:00:00+00:00	1
1918-12-22 00:00:00+00:00	1
1918-12-24 00:00:00+00:00	1
1919-01-01 00:00:00+00:00	39
1919-03-05 00:00:00+00:00	1
1919-08-14 00:00:00+00:00	1
1919-09-10 00:00:00+00:00	1
1919-11-20 00:00:00+00:00	1
1919-12-06 00:00:00+00:00	1
1919-12-17 00:00:00+00:00	1
1920-01-01 00:00:00+00:00	27
1920-02-12 00:00:00+00:00	1
1920-02-21 00:00:00+00:00	2
1920-02-24 00:00:00+00:00	1
1920-02-25 00:00:00+00:00	1
1920-03-21 00:00:00+00:00	1
1920-03-25 00:00:00+00:00	1
1920-05-23 00:00:00+00:00	2
1920-06-13 00:00:00+00:00	1
1920-07-19 00:00:00+00:00	1
1920-07-29 00:00:00+00:00	1
1920-07-31 00:00:00+00:00	1
1920-10-01 00:00:00+00:00	1
1920-10-16 00:00:00+00:00	1
1920-10-30 00:00:00+00:00	1
1920-11-14 00:00:00+00:00	1
1921-01-01 00:00:00+00:00	36
1921-01-11 00:00:00+00:00	1
1921-04-17 00:00:00+00:00	1
1921-05-21 00:00:00+00:00	1
1921-08-07 00:00:00+00:00	1
1921-11-12 00:00:00+00:00	1
1922-01-01 00:00:00+00:00	50
1922-01-27 00:00:00+00:00	3
1922-02-08 00:00:00+00:00	1
1922-02-25 00:00:00+00:00	1
1922-03-04 00:00:00+00:00	1
1922-03-09 00:00:00+00:00	1
1922-03-11 00:00:00+00:00	1
1922-05-09 00:00:00+00:00	1
1922-05-20 00:00:00+00:00	1
1922-06-10 00:00:00+00:00	1
1922-07-01 00:00:00+00:00	1
1922-07-16 00:00:00+00:00	1
1922-07-25 00:00:00+00:00	1
1922-10-20 00:00:00+00:00	2
1922-11-04 00:00:00+00:00	1
1922-11-11 00:00:00+00:00	1
1922-11-29 00:00:00+00:00	1
1922-12-21 00:00:00+00:00	1
1922-12-22 00:00:00+00:00	2
1922-12-23 00:00:00+00:00	1
1922-12-27 00:00:00+00:00	2
1922-12-29 00:00:00+00:00	1
1922-12-31 00:00:00+00:00	1
1923-01-01 00:00:00+00:00	10
1923-02-05 00:00:00+00:00	1
1923-02-07 00:00:00+00:00	1
1923-03-14 00:00:00+00:00	1
1923-04-05 00:00:00+00:00	1
1923-04-07 00:00:00+00:00	1
1923-05-04 00:00:00+00:00	1
1923-07-31 00:00:00+00:00	1
1923-08-18 00:00:00+00:00	1
1923-10-01 00:00:00+00:00	1
1923-11-09 00:00:00+00:00	1
1923-11-20 00:00:00+00:00	1
1923-12-02 00:00:00+00:00	1
1924-01-01 00:00:00+00:00	16
1924-01-05 00:00:00+00:00	1
1924-01-13 00:00:00+00:00	1
1924-02-09 00:00:00+00:00	1
1924-03-11 00:00:00+00:00	1
1924-04-25 00:00:00+00:00	1
1924-05-02 00:00:00+00:00	1
1924-05-05 00:00:00+00:00	1
1924-05-07 00:00:00+00:00	2
1924-05-08 00:00:00+00:00	1
1924-05-10 00:00:00+00:00	1
1924-05-16 00:00:00+00:00	1
1924-05-19 00:00:00+00:00	1
1924-05-29 00:00:00+00:00	1
1924-06-21 00:00:00+00:00	1
1924-08-10 00:00:00+00:00	1
1924-11-15 00:00:00+00:00	1
1925-01-01 00:00:00+00:00	11
1925-01-03 00:00:00+00:00	1
1925-02-08 00:00:00+00:00	1
1925-02-15 00:00:00+00:00	2
1925-02-20 00:00:00+00:00	1
1925-03-30 00:00:00+00:00	1
1925-05-24 00:00:00+00:00	1
1925-07-03 00:00:00+00:00	1
1925-09-30 00:00:00+00:00	2
1925-11-01 00:00:00+00:00	1
1925-11-21 00:00:00+00:00	1
1925-11-29 00:00:00+00:00	1
1925-11-30 00:00:00+00:00	1
1925-12-01 00:00:00+00:00	1
1925-12-06 00:00:00+00:00	1
1926-01-01 00:00:00+00:00	15
1926-02-14 00:00:00+00:00	1
1926-03-07 00:00:00+00:00	1
1926-03-26 00:00:00+00:00	1
1926-04-02 00:00:00+00:00	1
1926-05-16 00:00:00+00:00	1
1926-06-04 00:00:00+00:00	1
1926-07-02 00:00:00+00:00	1
1926-07-03 00:00:00+00:00	1
1926-07-21 00:00:00+00:00	1
1926-07-25 00:00:00+00:00	1
1926-08-18 00:00:00+00:00	1
1926-08-22 00:00:00+00:00	1
1926-08-25 00:00:00+00:00	1
1926-09-19 00:00:00+00:00	1
1926-10-19 00:00:00+00:00	1
1926-10-29 00:00:00+00:00	1
1926-11-13 00:00:00+00:00	1
1926-11-24 00:00:00+00:00	1
1926-11-27 00:00:00+00:00	1
1927-01-01 00:00:00+00:00	18
1927-01-20 00:00:00+00:00	1
1927-01-30 00:00:00+00:00	1
1927-02-01 00:00:00+00:00	1
1927-02-04 00:00:00+00:00	1
1927-02-05 00:00:00+00:00	2
1927-02-11 00:00:00+00:00	2
1927-03-11 00:00:00+00:00	1
1927-04-03 00:00:00+00:00	1
1927-04-22 00:00:00+00:00	1
1927-04-24 00:00:00+00:00	2
1927-05-01 00:00:00+00:00	2
1927-05-28 00:00:00+00:00	1
1927-06-05 00:00:00+00:00	1
1927-06-28 00:00:00+00:00	1
1927-07-06 00:00:00+00:00	1
1927-07-29 00:00:00+00:00	1
1927-08-04 00:00:00+00:00	1
1927-08-14 00:00:00+00:00	1
1927-09-18 00:00:00+00:00	1
1927-10-13 00:00:00+00:00	1
1927-10-22 00:00:00+00:00	1
1927-10-23 00:00:00+00:00	1
1927-11-01 00:00:00+00:00	1
1927-11-06 00:00:00+00:00	1
1927-11-08 00:00:00+00:00	1
1927-11-09 00:00:00+00:00	1
1927-11-12 00:00:00+00:00	1
1927-12-19 00:00:00+00:00	1
1928-01-01 00:00:00+00:00	48
1928-01-29 00:00:00+00:00	1
1928-02-19 00:00:00+00:00	1
1928-03-01 00:00:00+00:00	1
1928-03-04 00:00:00+00:00	1
1928-03-17 00:00:00+00:00	1
1928-05-24 00:00:00+00:00	1
1928-06-17 00:00:00+00:00	1
1928-06-22 00:00:00+00:00	2
1928-06-23 00:00:00+00:00	2
1928-08-05 00:00:00+00:00	1
1928-09-29 00:00:00+00:00	1
1928-10-15 00:00:00+00:00	1
1928-10-25 00:00:00+00:00	1
1928-11-01 00:00:00+00:00	2
1928-11-02 00:00:00+00:00	1
1928-11-09 00:00:00+00:00	1
1928-11-13 00:00:00+00:00	1
1928-11-18 00:00:00+00:00	1
1928-11-25 00:00:00+00:00	1
1929-01-01 00:00:00+00:00	27
1929-01-26 00:00:00+00:00	1
1929-04-24 00:00:00+00:00	1
1929-04-27 00:00:00+00:00	1
1929-05-31 00:00:00+00:00	1
1929-06-09 00:00:00+00:00	1
1929-06-16 00:00:00+00:00	1
1929-09-21 00:00:00+00:00	1
1929-10-01 00:00:00+00:00	1
1929-11-01 00:00:00+00:00	1
1929-11-12 00:00:00+00:00	1
1929-11-22 00:00:00+00:00	1
1929-11-28 00:00:00+00:00	1
1929-11-29 00:00:00+00:00	1
1929-12-04 00:00:00+00:00	1
1929-12-05 00:00:00+00:00	1
1929-12-08 00:00:00+00:00	1
1930-01-01 00:00:00+00:00	23
1930-01-24 00:00:00+00:00	1
1930-02-28 00:00:00+00:00	1
1930-03-08 00:00:00+00:00	1
1930-04-09 00:00:00+00:00	1
1930-05-17 00:00:00+00:00	1
1930-06-13 00:00:00+00:00	1
1930-08-17 00:00:00+00:00	1
1930-09-01 00:00:00+00:00	1
1930-09-20 00:00:00+00:00	1
1930-10-01 00:00:00+00:00	1
1930-10-04 00:00:00+00:00	1
1930-10-07 00:00:00+00:00	1
1930-10-10 00:00:00+00:00	1
1930-10-17 00:00:00+00:00	1
1930-11-16 00:00:00+00:00	1
1930-11-23 00:00:00+00:00	1
1930-12-07 00:00:00+00:00	1
1930-12-21 00:00:00+00:00	1
1931-01-01 00:00:00+00:00	39
1931-02-01 00:00:00+00:00	2
1931-02-15 00:00:00+00:00	1
1931-03-27 00:00:00+00:00	1
1931-04-12 00:00:00+00:00	1
1931-05-09 00:00:00+00:00	1
1931-05-10 00:00:00+00:00	1
1931-05-13 00:00:00+00:00	1
1931-05-22 00:00:00+00:00	1
1931-05-23 00:00:00+00:00	1
1931-06-05 00:00:00+00:00	1
1931-06-07 00:00:00+00:00	2
1931-06-28 00:00:00+00:00	1
1931-07-31 00:00:00+00:00	1
1931-08-25 00:00:00+00:00	1
1931-09-13 00:00:00+00:00	1
1931-10-31 00:00:00+00:00	1
1931-11-28 00:00:00+00:00	1
1932-01-01 00:00:00+00:00	24
1932-01-06 00:00:00+00:00	1
1932-02-01 00:00:00+00:00	1
1932-02-12 00:00:00+00:00	1
1932-03-18 00:00:00+00:00	1
1932-03-26 00:00:00+00:00	1
1932-04-17 00:00:00+00:00	1
1932-07-26 00:00:00+00:00	2
1932-10-01 00:00:00+00:00	2
1932-11-01 00:00:00+00:00	2
1932-12-18 00:00:00+00:00	1
1933-01-01 00:00:00+00:00	61
1933-01-14 00:00:00+00:00	1
1933-02-01 00:00:00+00:00	1
1933-02-07 00:00:00+00:00	1
1933-02-23 00:00:00+00:00	1
1933-03-29 00:00:00+00:00	1
1933-04-01 00:00:00+00:00	1
1933-05-01 00:00:00+00:00	2
1933-05-08 00:00:00+00:00	1
1933-05-18 00:00:00+00:00	1
1933-05-21 00:00:00+00:00	1
1933-05-28 00:00:00+00:00	1
1933-06-09 00:00:00+00:00	1
1933-06-15 00:00:00+00:00	1
1933-07-18 00:00:00+00:00	1
1933-08-12 00:00:00+00:00	1
1933-08-13 00:00:00+00:00	1
1933-10-01 00:00:00+00:00	1
1933-10-27 00:00:00+00:00	1
1933-11-15 00:00:00+00:00	1
1933-12-04 00:00:00+00:00	1
1933-12-28 00:00:00+00:00	1
1934-01-01 00:00:00+00:00	47
1934-01-07 00:00:00+00:00	1
1934-01-18 00:00:00+00:00	1
1934-01-21 00:00:00+00:00	1
1934-01-24 00:00:00+00:00	1
1934-02-01 00:00:00+00:00	1
1934-04-08 00:00:00+00:00	1
1934-04-13 00:00:00+00:00	1
1934-06-01 00:00:00+00:00	3
1934-06-15 00:00:00+00:00	2
1934-06-16 00:00:00+00:00	1
1934-06-24 00:00:00+00:00	1
1934-08-07 00:00:00+00:00	1
1934-08-08 00:00:00+00:00	1
1934-09-21 00:00:00+00:00	1
1934-10-05 00:00:00+00:00	1
1934-12-21 00:00:00+00:00	1
1934-12-22 00:00:00+00:00	1
1935-01-01 00:00:00+00:00	27
1935-01-17 00:00:00+00:00	1
1935-03-10 00:00:00+00:00	1
1935-03-15 00:00:00+00:00	1
1935-03-24 00:00:00+00:00	1
1935-04-10 00:00:00+00:00	1
1935-05-26 00:00:00+00:00	1
1935-06-06 00:00:00+00:00	2
1935-06-25 00:00:00+00:00	1
1935-07-12 00:00:00+00:00	1
1935-07-14 00:00:00+00:00	1
1935-08-10 00:00:00+00:00	1
1935-08-15 00:00:00+00:00	1
1935-08-16 00:00:00+00:00	1
1935-08-18 00:00:00+00:00	1
1935-08-25 00:00:00+00:00	1
1935-08-27 00:00:00+00:00	1
1935-09-07 00:00:00+00:00	1
1935-09-19 00:00:00+00:00	1
1935-11-15 00:00:00+00:00	1
1936-01-01 00:00:00+00:00	35
1936-01-12 00:00:00+00:00	1
1936-01-20 00:00:00+00:00	1
1936-04-15 00:00:00+00:00	1
1936-05-01 00:00:00+00:00	1
1936-05-21 00:00:00+00:00	1
1936-05-28 00:00:00+00:00	1
1936-05-31 00:00:00+00:00	1
1936-06-13 00:00:00+00:00	1
1936-06-30 00:00:00+00:00	1
1936-07-12 00:00:00+00:00	1
1936-08-09 00:00:00+00:00	1
1936-11-01 00:00:00+00:00	1
1936-11-18 00:00:00+00:00	1
1936-12-27 00:00:00+00:00	1
1937-01-01 00:00:00+00:00	27
1937-01-31 00:00:00+00:00	1
1937-07-11 00:00:00+00:00	1
1937-10-09 00:00:00+00:00	1
1937-10-10 00:00:00+00:00	1
1938-01-01 00:00:00+00:00	39
1938-01-28 00:00:00+00:00	1
1938-03-13 00:00:00+00:00	2
1938-03-24 00:00:00+00:00	1
1938-04-07 00:00:00+00:00	1
1938-04-15 00:00:00+00:00	1
1938-05-05 00:00:00+00:00	1
1938-05-18 00:00:00+00:00	1
1938-05-31 00:00:00+00:00	1
1938-06-30 00:00:00+00:00	3
1938-07-01 00:00:00+00:00	2
1938-07-02 00:00:00+00:00	1
1938-07-03 00:00:00+00:00	2
1938-07-09 00:00:00+00:00	1
1938-08-25 00:00:00+00:00	1
1938-09-17 00:00:00+00:00	2
1938-10-06 00:00:00+00:00	1
1938-10-07 00:00:00+00:00	2
1938-10-08 00:00:00+00:00	1
1938-10-15 00:00:00+00:00	1
1938-11-12 00:00:00+00:00	1
1938-11-20 00:00:00+00:00	2
1938-12-06 00:00:00+00:00	1
1938-12-15 00:00:00+00:00	1
1938-12-24 00:00:00+00:00	1
1939-01-01 00:00:00+00:00	24
1939-01-29 00:00:00+00:00	1
1939-02-28 00:00:00+00:00	1
1939-03-01 00:00:00+00:00	1
1939-03-27 00:00:00+00:00	1
1939-04-02 00:00:00+00:00	1
1939-04-23 00:00:00+00:00	1
1939-04-30 00:00:00+00:00	1
1942-12-10 00:00:00+00:00	1
1943-01-01 00:00:00+00:00	2
1944-01-10 00:00:00+00:00	1
1944-07-01 00:00:00+00:00	1
1945-01-01 00:00:00+00:00	6
1945-03-11 00:00:00+00:00	1
1945-03-30 00:00:00+00:00	1
1945-05-20 00:00:00+00:00	2
1945-06-09 00:00:00+00:00	1
1945-06-10 00:00:00+00:00	1
1945-07-01 00:00:00+00:00	2
1945-07-08 00:00:00+00:00	1
1945-07-14 00:00:00+00:00	1
1945-07-15 00:00:00+00:00	1
1945-08-15 00:00:00+00:00	1
1945-09-10 00:00:00+00:00	1
1945-09-28 00:00:00+00:00	1
1945-11-01 00:00:00+00:00	1
1945-11-03 00:00:00+00:00	1
1945-11-09 00:00:00+00:00	1
1945-12-11 00:00:00+00:00	1
1945-12-13 00:00:00+00:00	1
1945-12-15 00:00:00+00:00	1
1945-12-16 00:00:00+00:00	1
1946-01-01 00:00:00+00:00	6
1946-01-20 00:00:00+00:00	1
1946-01-27 00:00:00+00:00	1
1946-02-03 00:00:00+00:00	1
1946-02-24 00:00:00+00:00	2
1946-02-26 00:00:00+00:00	1
1946-03-01 00:00:00+00:00	1
1946-03-22 00:00:00+00:00	1
1946-04-01 00:00:00+00:00	1
1946-04-02 00:00:00+00:00	1
1946-05-01 00:00:00+00:00	1
1946-06-25 00:00:00+00:00	1
1946-07-12 00:00:00+00:00	1
1946-07-28 00:00:00+00:00	1
1946-07-29 00:00:00+00:00	1
1946-10-06 00:00:00+00:00	1
1946-11-12 00:00:00+00:00	1
1946-11-24 00:00:00+00:00	1
1946-12-01 00:00:00+00:00	1
1946-12-20 00:00:00+00:00	1
1946-12-24 00:00:00+00:00	1
1947-01-01 00:00:00+00:00	8
1947-02-07 00:00:00+00:00	1
1947-02-23 00:00:00+00:00	1
1947-02-26 00:00:00+00:00	1
1947-03-02 00:00:00+00:00	1
1947-03-09 00:00:00+00:00	1
1947-03-15 00:00:00+00:00	1
1947-04-12 00:00:00+00:00	1
1947-06-20 00:00:00+00:00	1
1947-07-20 00:00:00+00:00	1
1947-08-05 00:00:00+00:00	1
1947-08-30 00:00:00+00:00	1
1947-10-01 00:00:00+00:00	1
1947-11-15 00:00:00+00:00	1
1947-11-18 00:00:00+00:00	1
1948-01-01 00:00:00+00:00	2
1948-03-15 00:00:00+00:00	1
1948-03-30 00:00:00+00:00	1
1948-04-03 00:00:00+00:00	1
1948-04-06 00:00:00+00:00	1
1948-04-08 00:00:00+00:00	1
1948-04-23 00:00:00+00:00	1
1948-06-18 00:00:00+00:00	1
1948-06-20 00:00:00+00:00	1
1948-07-25 00:00:00+00:00	1
1948-08-01 00:00:00+00:00	1
1948-10-01 00:00:00+00:00	1
1948-11-01 00:00:00+00:00	1
1949-01-01 00:00:00+00:00	1
1949-08-21 00:00:00+00:00	1
1949-10-19 00:00:00+00:00	1
1949-12-18 00:00:00+00:00	1
1950-01-01 00:00:00+00:00	1
1950-01-31 00:00:00+00:00	1
1950-07-30 00:00:00+00:00	1
1951-07-08 00:00:00+00:00	1
1954-01-01 00:00:00+00:00	1
1954-05-01 00:00:00+00:00	1
1956-07-07 00:00:00+00:00	1
1956-12-31 00:00:00+00:00	1
1957-01-01 00:00:00+00:00	4
1957-02-10 00:00:00+00:00	1
1957-03-07 00:00:00+00:00	1
1957-03-31 00:00:00+00:00	1
1957-04-30 00:00:00+00:00	1
1957-06-30 00:00:00+00:00	1
1957-09-17 00:00:00+00:00	2
1957-10-30 00:00:00+00:00	1
1957-12-01 00:00:00+00:00	1
1958-01-01 00:00:00+00:00	6
1958-08-31 00:00:00+00:00	1
1958-12-16 00:00:00+00:00	1
1959-01-01 00:00:00+00:00	3
1960-01-01 00:00:00+00:00	1
1961-01-01 00:00:00+00:00	1
1962-01-01 00:00:00+00:00	2
1963-01-01 00:00:00+00:00	2
1964-01-01 00:00:00+00:00	4
1965-01-01 00:00:00+00:00	15
1965-02-17 00:00:00+00:00	1
1965-04-30 00:00:00+00:00	1
1965-10-19 00:00:00+00:00	1
1965-11-30 00:00:00+00:00	1
1965-12-16 00:00:00+00:00	1
1966-01-01 00:00:00+00:00	3
1966-02-28 00:00:00+00:00	1
1966-10-31 00:00:00+00:00	1
1967-01-01 00:00:00+00:00	19
1968-01-01 00:00:00+00:00	10
1969-01-01 00:00:00+00:00	5
1969-02-02 00:00:00+00:00	1
1969-08-17 00:00:00+00:00	1
1970-01-01 00:00:00+00:00	3
1971-01-01 00:00:00+00:00	19
1971-11-20 00:00:00+00:00	1
1972-01-01 00:00:00+00:00	4
1973-01-01 00:00:00+00:00	4
1974-01-01 00:00:00+00:00	11
1975-01-01 00:00:00+00:00	9
1975-06-12 00:00:00+00:00	1
1976-01-01 00:00:00+00:00	16
1977-01-01 00:00:00+00:00	4
1978-01-01 00:00:00+00:00	15
1979-01-01 00:00:00+00:00	8
1980-01-01 00:00:00+00:00	8
1981-01-01 00:00:00+00:00	26
1981-04-01 00:00:00+00:00	1
1981-05-13 00:00:00+00:00	1
1981-08-11 00:00:00+00:00	1
1981-09-12 00:00:00+00:00	7
1982-01-01 00:00:00+00:00	19
1983-01-01 00:00:00+00:00	3
1983-12-15 00:00:00+00:00	1
1984-01-01 00:00:00+00:00	12
1985-01-01 00:00:00+00:00	19
1985-02-14 00:00:00+00:00	1
1985-06-25 00:00:00+00:00	1
1985-08-04 00:00:00+00:00	1
1986-01-01 00:00:00+00:00	4
1986-01-02 00:00:00+00:00	1
1986-03-05 00:00:00+00:00	1
1987-01-01 00:00:00+00:00	12
1988-01-01 00:00:00+00:00	18
1988-02-24 00:00:00+00:00	1
1988-04-20 00:00:00+00:00	1
1989-01-01 00:00:00+00:00	7
1989-11-12 00:00:00+00:00	1
1990-01-01 00:00:00+00:00	11
1990-01-14 00:00:00+00:00	1
1990-03-25 00:00:00+00:00	1
1991-01-01 00:00:00+00:00	6
1991-07-10 00:00:00+00:00	1
1992-01-01 00:00:00+00:00	7
1992-01-24 00:00:00+00:00	2
1992-02-05 00:00:00+00:00	1
1992-02-13 00:00:00+00:00	2
1992-03-08 00:00:00+00:00	1
1992-04-08 00:00:00+00:00	2
1992-04-14 00:00:00+00:00	1
1992-04-21 00:00:00+00:00	1
1992-05-01 00:00:00+00:00	1
1992-05-21 00:00:00+00:00	1
1992-05-22 00:00:00+00:00	2
1992-05-23 00:00:00+00:00	4
1992-06-23 00:00:00+00:00	1
1992-07-23 00:00:00+00:00	1
1992-10-16 00:00:00+00:00	1
1993-01-01 00:00:00+00:00	3
1993-01-21 00:00:00+00:00	1
1993-02-03 00:00:00+00:00	1
1993-02-05 00:00:00+00:00	1
1993-03-31 00:00:00+00:00	1
1994-01-01 00:00:00+00:00	11
1994-03-25 00:00:00+00:00	1
1994-11-13 00:00:00+00:00	1
1995-01-01 00:00:00+00:00	13
1995-03-31 00:00:00+00:00	1
1995-04-09 00:00:00+00:00	1
1995-12-14 00:00:00+00:00	1
1996-01-01 00:00:00+00:00	8
1996-01-07 00:00:00+00:00	1
1996-06-01 00:00:00+00:00	1
1996-12-18 00:00:00+00:00	1
1997-01-01 00:00:00+00:00	36
1998-01-01 00:00:00+00:00	92
1998-11-09 00:00:00+00:00	1
1998-12-03 00:00:00+00:00	1
1999-01-01 00:00:00+00:00	18
1999-09-08 00:00:00+00:00	1
1999-10-08 00:00:00+00:00	1
2000-01-01 00:00:00+00:00	17
2000-04-01 00:00:00+00:00	1
2000-11-30 00:00:00+00:00	1
2001-01-01 00:00:00+00:00	7
2001-06-01 00:00:00+00:00	1
2001-06-22 00:00:00+00:00	1
2001-09-05 00:00:00+00:00	1
2001-12-13 00:00:00+00:00	1
2002-01-01 00:00:00+00:00	13
2002-10-01 00:00:00+00:00	1
2002-12-31 23:00:00+00:00	4
2003-01-01 00:00:00+00:00	7
