1933-01-01 00:00:00+00:00	2
1986-01-01 00:00:00+00:00	3
1988-01-01 00:00:00+00:00	3
1990-01-01 00:00:00+00:00	1
1990-03-11 00:00:00+00:00	1
1990-11-11 00:00:00+00:00	1
1991-07-10 00:00:00+00:00	1
1991-12-17 00:00:00+00:00	1
1992-01-01 00:00:00+00:00	1
1992-01-04 00:00:00+00:00	1
1992-01-23 00:00:00+00:00	1
1992-01-24 00:00:00+00:00	1
1992-02-09 00:00:00+00:00	1
1992-02-27 00:00:00+00:00	2
1992-04-06 00:00:00+00:00	1
1992-11-27 00:00:00+00:00	3
1993-01-01 00:00:00+00:00	3
1993-05-25 00:00:00+00:00	1
1993-05-27 00:00:00+00:00	1
1993-11-09 00:00:00+00:00	1
1994-01-01 00:00:00+00:00	7
1994-01-06 00:00:00+00:00	1
1994-08-21 00:00:00+00:00	1
1994-08-31 00:00:00+00:00	1
1994-11-13 00:00:00+00:00	1
1995-02-17 00:00:00+00:00	1
1995-04-09 00:00:00+00:00	1
1996-07-05 00:00:00+00:00	1
1996-11-14 00:00:00+00:00	1
1997-07-16 00:00:00+00:00	1
1998-11-09 00:00:00+00:00	2
1999-01-01 00:00:00+00:00	1
1999-07-02 00:00:00+00:00	1
2000-01-01 00:00:00+00:00	2
2000-11-29 00:00:00+00:00	1
2001-01-01 00:00:00+00:00	1
2001-09-05 00:00:00+00:00	1
2002-01-01 00:00:00+00:00	3
2002-03-01 00:00:00+00:00	2
2002-03-02 00:00:00+00:00	1
2003-01-01 00:00:00+00:00	3
2003-03-13 00:00:00+00:00	1
2003-12-16 00:00:00+00:00	1
