1829-01-01 00:00:00+00:00	10
1831-01-01 00:00:00+00:00	1
1831-12-08 00:00:00+00:00	1
1832-01-01 00:00:00+00:00	2
1833-01-01 00:00:00+00:00	1
1834-01-01 00:00:00+00:00	2
1836-01-01 00:00:00+00:00	6
1839-01-01 00:00:00+00:00	1
1840-01-01 00:00:00+00:00	6
1841-01-01 00:00:00+00:00	3
1842-01-01 00:00:00+00:00	7
1843-01-01 00:00:00+00:00	9
1843-02-01 00:00:00+00:00	1
1843-03-20 00:00:00+00:00	2
1843-05-15 00:00:00+00:00	1
1844-01-01 00:00:00+00:00	23
1844-01-03 00:00:00+00:00	1
1844-03-15 00:00:00+00:00	1
1844-06-19 00:00:00+00:00	1
1845-01-01 00:00:00+00:00	6
1845-01-18 00:00:00+00:00	1
1845-01-29 00:00:00+00:00	2
1846-01-01 00:00:00+00:00	2
1847-01-01 00:00:00+00:00	22
1848-01-01 00:00:00+00:00	2
1848-04-28 00:00:00+00:00	1
1849-01-01 00:00:00+00:00	4
1850-01-01 00:00:00+00:00	5
1851-01-01 00:00:00+00:00	4
1852-01-01 00:00:00+00:00	7
1853-01-01 00:00:00+00:00	4
1853-05-20 00:00:00+00:00	1
1854-01-01 00:00:00+00:00	13
1854-01-05 00:00:00+00:00	1
1854-03-14 00:00:00+00:00	1
1854-05-05 00:00:00+00:00	1
1854-07-08 00:00:00+00:00	1
1854-07-13 00:00:00+00:00	1
1854-07-30 00:00:00+00:00	1
1854-08-30 00:00:00+00:00	2
1854-09-22 00:00:00+00:00	1
1854-10-19 00:00:00+00:00	1
1854-11-07 00:00:00+00:00	1
1854-12-17 00:00:00+00:00	1
1855-01-01 00:00:00+00:00	27
1856-01-01 00:00:00+00:00	4
1856-03-15 00:00:00+00:00	1
1856-05-29 00:00:00+00:00	1
1856-10-17 00:00:00+00:00	1
1856-11-01 00:00:00+00:00	1
1856-12-03 00:00:00+00:00	1
1857-01-01 00:00:00+00:00	5
1857-02-20 00:00:00+00:00	1
1857-11-07 00:00:00+00:00	1
1857-11-14 00:00:00+00:00	1
1857-11-19 00:00:00+00:00	1
1857-11-28 00:00:00+00:00	1
1858-01-01 00:00:00+00:00	14
1858-01-03 00:00:00+00:00	2
1858-03-31 00:00:00+00:00	1
1858-05-18 00:00:00+00:00	1
1858-11-13 00:00:00+00:00	1
1858-12-02 00:00:00+00:00	1
1859-01-01 00:00:00+00:00	13
1859-01-20 00:00:00+00:00	2
1859-01-28 00:00:00+00:00	1
1859-03-01 00:00:00+00:00	1
1859-04-15 00:00:00+00:00	2
1859-07-04 00:00:00+00:00	1
1859-07-14 00:00:00+00:00	1
1859-12-14 00:00:00+00:00	2
1860-01-01 00:00:00+00:00	36
1860-11-25 00:00:00+00:00	1
1861-01-01 00:00:00+00:00	21
1861-10-01 00:00:00+00:00	2
1862-01-01 00:00:00+00:00	11
1862-07-15 00:00:00+00:00	1
1862-10-15 00:00:00+00:00	2
1863-01-01 00:00:00+00:00	20
1864-01-01 00:00:00+00:00	14
1865-01-01 00:00:00+00:00	14
1865-04-01 00:00:00+00:00	2
1866-01-01 00:00:00+00:00	5
1866-03-06 00:00:00+00:00	1
1867-01-01 00:00:00+00:00	13
1868-01-01 00:00:00+00:00	16
1868-12-04 00:00:00+00:00	3
1869-01-01 00:00:00+00:00	5
1869-02-13 00:00:00+00:00	1
1870-01-01 00:00:00+00:00	15
1871-01-01 00:00:00+00:00	3
1871-01-07 00:00:00+00:00	1
1871-05-02 00:00:00+00:00	1
1872-01-01 00:00:00+00:00	6
1872-02-01 00:00:00+00:00	1
1872-12-27 00:00:00+00:00	1
1873-01-01 00:00:00+00:00	41
1873-05-15 00:00:00+00:00	1
1873-08-07 00:00:00+00:00	1
1873-09-07 00:00:00+00:00	2
1874-01-01 00:00:00+00:00	8
1874-04-07 00:00:00+00:00	2
1874-07-07 00:00:00+00:00	1
1874-10-01 00:00:00+00:00	1
1874-11-22 00:00:00+00:00	1
1874-12-07 00:00:00+00:00	2
1875-01-01 00:00:00+00:00	4
1875-01-07 00:00:00+00:00	1
1875-01-22 00:00:00+00:00	1
1875-02-15 00:00:00+00:00	1
1875-02-28 00:00:00+00:00	1
1875-10-01 00:00:00+00:00	1
1875-12-15 00:00:00+00:00	1
1876-01-01 00:00:00+00:00	18
1876-01-15 00:00:00+00:00	1
1876-02-01 00:00:00+00:00	1
1876-07-15 00:00:00+00:00	1
1876-09-01 00:00:00+00:00	1
1876-09-15 00:00:00+00:00	1
1877-01-01 00:00:00+00:00	24
1877-04-28 00:00:00+00:00	1
1877-05-02 00:00:00+00:00	1
1877-05-24 00:00:00+00:00	2
1877-08-18 00:00:00+00:00	1
1878-01-01 00:00:00+00:00	33
1878-07-15 00:00:00+00:00	1
1879-01-01 00:00:00+00:00	7
1879-05-27 00:00:00+00:00	1
1879-06-17 00:00:00+00:00	1
1880-01-01 00:00:00+00:00	9
1880-05-29 00:00:00+00:00	1
1881-01-01 00:00:00+00:00	15
1881-03-31 00:00:00+00:00	1
1881-06-10 00:00:00+00:00	1
1882-01-01 00:00:00+00:00	9
1882-03-04 00:00:00+00:00	1
1883-01-01 00:00:00+00:00	19
1883-02-14 00:00:00+00:00	1
1884-01-01 00:00:00+00:00	12
1885-01-01 00:00:00+00:00	15
1885-03-28 00:00:00+00:00	2
1886-01-01 00:00:00+00:00	5
1886-04-21 00:00:00+00:00	1
1887-01-01 00:00:00+00:00	61
1888-01-01 00:00:00+00:00	14
1889-01-01 00:00:00+00:00	11
1890-01-01 00:00:00+00:00	6
1891-01-01 00:00:00+00:00	10
1891-06-27 00:00:00+00:00	1
1892-01-01 00:00:00+00:00	49
1893-01-01 00:00:00+00:00	4
1893-12-02 00:00:00+00:00	1
1894-01-01 00:00:00+00:00	12
1895-01-01 00:00:00+00:00	35
1895-11-23 00:00:00+00:00	1
1896-01-01 00:00:00+00:00	4
1897-01-01 00:00:00+00:00	29
1898-01-01 00:00:00+00:00	12
1899-01-01 00:00:00+00:00	42
1899-12-31 00:00:00+00:00	2
1900-01-01 00:00:00+00:00	33
1901-01-01 00:00:00+00:00	25
1902-01-01 00:00:00+00:00	17
1902-04-06 00:00:00+00:00	1
1903-01-01 00:00:00+00:00	9
1904-01-01 00:00:00+00:00	39
1905-01-01 00:00:00+00:00	21
1906-01-01 00:00:00+00:00	20
1907-01-01 00:00:00+00:00	19
1908-01-01 00:00:00+00:00	18
1909-01-01 00:00:00+00:00	39
1910-01-01 00:00:00+00:00	36
1910-01-15 00:00:00+00:00	1
1910-10-15 00:00:00+00:00	1
1911-01-01 00:00:00+00:00	9
1912-01-01 00:00:00+00:00	23
1912-03-20 00:00:00+00:00	1
1913-01-01 00:00:00+00:00	21
1913-02-16 00:00:00+00:00	1
1913-05-04 00:00:00+00:00	1
1913-06-08 00:00:00+00:00	1
1913-10-12 00:00:00+00:00	1
1914-01-01 00:00:00+00:00	17
1915-01-01 00:00:00+00:00	10
1916-01-01 00:00:00+00:00	17
1916-05-01 00:00:00+00:00	1
1916-10-01 00:00:00+00:00	1
1916-11-01 00:00:00+00:00	2
1916-12-14 00:00:00+00:00	1
1917-01-01 00:00:00+00:00	23
1917-10-01 00:00:00+00:00	1
1918-01-01 00:00:00+00:00	22
1918-03-01 00:00:00+00:00	1
1919-01-01 00:00:00+00:00	18
1920-01-01 00:00:00+00:00	12
1920-01-03 00:00:00+00:00	1
1921-01-01 00:00:00+00:00	22
1922-01-01 00:00:00+00:00	18
1923-01-01 00:00:00+00:00	21
1923-07-07 00:00:00+00:00	1
1923-10-21 00:00:00+00:00	1
1924-01-01 00:00:00+00:00	21
1924-05-20 00:00:00+00:00	2
1924-10-09 00:00:00+00:00	1
1924-11-24 00:00:00+00:00	1
1925-01-01 00:00:00+00:00	23
1925-03-05 00:00:00+00:00	1
1926-01-01 00:00:00+00:00	15
1926-10-31 00:00:00+00:00	1
1927-01-01 00:00:00+00:00	31
1927-01-29 00:00:00+00:00	1
1927-04-03 00:00:00+00:00	1
1927-07-23 00:00:00+00:00	2
1927-07-29 00:00:00+00:00	1
1928-01-01 00:00:00+00:00	39
1928-07-21 00:00:00+00:00	2
1928-07-28 00:00:00+00:00	1
1929-01-01 00:00:00+00:00	40
1929-06-01 00:00:00+00:00	1
1929-12-01 00:00:00+00:00	1
1930-01-01 00:00:00+00:00	27
1930-03-17 00:00:00+00:00	1
1930-04-01 00:00:00+00:00	4
1930-05-01 00:00:00+00:00	1
1930-07-01 00:00:00+00:00	1
1931-01-01 00:00:00+00:00	38
1931-03-01 00:00:00+00:00	1
1931-04-17 00:00:00+00:00	2
1931-05-01 00:00:00+00:00	1
1931-05-10 00:00:00+00:00	1
1932-01-01 00:00:00+00:00	65
1932-01-03 00:00:00+00:00	1
1932-01-24 00:00:00+00:00	1
1932-03-07 00:00:00+00:00	1
1932-03-09 00:00:00+00:00	1
1932-03-10 00:00:00+00:00	2
1932-03-11 00:00:00+00:00	1
1932-03-13 00:00:00+00:00	1
1932-03-18 00:00:00+00:00	3
1932-03-19 00:00:00+00:00	1
1932-03-20 00:00:00+00:00	1
1932-03-22 00:00:00+00:00	1
1932-03-23 00:00:00+00:00	1
1932-03-24 00:00:00+00:00	2
1932-03-26 00:00:00+00:00	1
1932-03-31 00:00:00+00:00	1
1932-04-01 00:00:00+00:00	3
1932-04-02 00:00:00+00:00	3
1932-04-03 00:00:00+00:00	1
1932-04-04 00:00:00+00:00	1
1932-04-05 00:00:00+00:00	2
1932-04-06 00:00:00+00:00	7
1932-04-07 00:00:00+00:00	7
1932-04-08 00:00:00+00:00	6
1932-04-09 00:00:00+00:00	5
1932-04-10 00:00:00+00:00	1
1932-04-11 00:00:00+00:00	1
1932-04-12 00:00:00+00:00	1
1932-04-14 00:00:00+00:00	3
1932-04-15 00:00:00+00:00	1
1932-04-17 00:00:00+00:00	1
1932-04-18 00:00:00+00:00	2
1932-04-19 00:00:00+00:00	2
1932-04-20 00:00:00+00:00	2
1932-04-21 00:00:00+00:00	1
1932-04-24 00:00:00+00:00	1
1932-04-30 00:00:00+00:00	2
1932-05-01 00:00:00+00:00	1
1932-05-07 00:00:00+00:00	1
1932-09-01 00:00:00+00:00	1
1932-11-01 00:00:00+00:00	2
1932-12-02 00:00:00+00:00	1
1933-01-01 00:00:00+00:00	62
1933-02-22 00:00:00+00:00	1
1933-07-21 00:00:00+00:00	1
1933-07-25 00:00:00+00:00	1
1933-08-01 00:00:00+00:00	1
1933-08-18 00:00:00+00:00	1
1933-08-20 00:00:00+00:00	1
1933-09-01 00:00:00+00:00	1
1933-09-23 00:00:00+00:00	1
1933-11-01 00:00:00+00:00	1
1933-12-03 00:00:00+00:00	1
1934-01-01 00:00:00+00:00	52
1934-03-16 00:00:00+00:00	2
1934-03-23 00:00:00+00:00	1
1934-03-25 00:00:00+00:00	1
1934-03-27 00:00:00+00:00	1
1934-04-01 00:00:00+00:00	1
1934-04-20 00:00:00+00:00	1
1934-08-05 00:00:00+00:00	1
1934-08-30 00:00:00+00:00	1
1934-09-29 00:00:00+00:00	1
1934-11-01 00:00:00+00:00	1
1934-12-01 00:00:00+00:00	1
1935-01-01 00:00:00+00:00	29
1935-02-13 00:00:00+00:00	1
1935-02-23 00:00:00+00:00	1
1935-04-17 00:00:00+00:00	1
1935-05-08 00:00:00+00:00	1
1935-06-04 00:00:00+00:00	1
1935-06-15 00:00:00+00:00	1
1935-07-01 00:00:00+00:00	1
1935-07-31 00:00:00+00:00	1
1935-08-10 00:00:00+00:00	1
1935-08-13 00:00:00+00:00	1
1935-08-20 00:00:00+00:00	1
1935-08-23 00:00:00+00:00	1
1935-10-08 00:00:00+00:00	1
1935-10-20 00:00:00+00:00	1
1935-11-23 00:00:00+00:00	1
1936-01-01 00:00:00+00:00	64
1936-02-05 00:00:00+00:00	1
1936-02-06 00:00:00+00:00	1
1936-02-12 00:00:00+00:00	1
1936-02-20 00:00:00+00:00	1
1936-02-28 00:00:00+00:00	1
1936-03-12 00:00:00+00:00	1
1936-04-01 00:00:00+00:00	5
1936-05-06 00:00:00+00:00	1
1936-06-01 00:00:00+00:00	1
1936-07-15 00:00:00+00:00	2
1936-09-07 00:00:00+00:00	1
1936-10-25 00:00:00+00:00	1
1936-10-31 00:00:00+00:00	1
1936-11-22 00:00:00+00:00	1
1936-12-06 00:00:00+00:00	2
1937-01-01 00:00:00+00:00	70
1937-03-01 00:00:00+00:00	1
1937-03-23 00:00:00+00:00	1
1937-04-15 00:00:00+00:00	1
1937-05-01 00:00:00+00:00	1
1937-05-18 00:00:00+00:00	1
1937-05-22 00:00:00+00:00	2
1937-05-30 00:00:00+00:00	2
1937-06-02 00:00:00+00:00	1
1937-06-04 00:00:00+00:00	2
1937-06-13 00:00:00+00:00	1
1937-09-01 00:00:00+00:00	1
1937-09-20 00:00:00+00:00	1
1937-10-06 00:00:00+00:00	1
1937-10-07 00:00:00+00:00	1
1937-11-01 00:00:00+00:00	1
1937-11-07 00:00:00+00:00	1
1937-11-14 00:00:00+00:00	1
1937-11-15 00:00:00+00:00	1
1937-11-17 00:00:00+00:00	1
1937-11-18 00:00:00+00:00	1
1937-12-19 00:00:00+00:00	1
1938-01-01 00:00:00+00:00	76
1938-02-23 00:00:00+00:00	1
1938-02-24 00:00:00+00:00	1
1938-03-20 00:00:00+00:00	1
1938-04-01 00:00:00+00:00	1
1938-05-01 00:00:00+00:00	1
1938-05-15 00:00:00+00:00	1
1938-05-20 00:00:00+00:00	1
1938-05-21 00:00:00+00:00	1
1938-05-22 00:00:00+00:00	1
1938-06-01 00:00:00+00:00	1
1938-06-19 00:00:00+00:00	1
1938-06-26 00:00:00+00:00	1
1938-07-03 00:00:00+00:00	1
1938-07-28 00:00:00+00:00	1
1938-07-30 00:00:00+00:00	1
1938-08-07 00:00:00+00:00	1
1938-08-12 00:00:00+00:00	1
1938-08-26 00:00:00+00:00	1
1938-08-29 00:00:00+00:00	1
1938-09-01 00:00:00+00:00	2
1938-09-03 00:00:00+00:00	2
1938-09-23 00:00:00+00:00	1
1938-10-03 00:00:00+00:00	1
1938-10-15 00:00:00+00:00	1
1938-10-18 00:00:00+00:00	1
1938-10-19 00:00:00+00:00	1
1938-10-21 00:00:00+00:00	1
1938-10-29 00:00:00+00:00	1
1938-11-03 00:00:00+00:00	1
1938-11-15 00:00:00+00:00	1
1938-11-17 00:00:00+00:00	1
1938-12-02 00:00:00+00:00	1
1938-12-03 00:00:00+00:00	1
1938-12-11 00:00:00+00:00	1
1938-12-24 00:00:00+00:00	1
1938-12-31 00:00:00+00:00	3
1939-01-01 00:00:00+00:00	19
1939-01-04 00:00:00+00:00	1
1939-01-28 00:00:00+00:00	1
1939-02-17 00:00:00+00:00	1
1939-03-01 00:00:00+00:00	1
1939-03-29 00:00:00+00:00	1
1939-03-31 00:00:00+00:00	1
1939-04-01 00:00:00+00:00	6
1939-04-30 00:00:00+00:00	1
1939-05-01 00:00:00+00:00	4
1939-06-01 00:00:00+00:00	1
1939-06-30 00:00:00+00:00	2
1939-08-06 00:00:00+00:00	2
1941-01-01 00:00:00+00:00	10
1943-01-01 00:00:00+00:00	1
1943-09-22 00:00:00+00:00	1
1944-01-01 00:00:00+00:00	2
1945-01-01 00:00:00+00:00	1
1945-03-15 00:00:00+00:00	1
1945-05-27 00:00:00+00:00	1
1945-08-17 00:00:00+00:00	1
1945-10-15 00:00:00+00:00	1
1945-12-31 23:00:00+00:00	1
1946-01-01 00:00:00+00:00	3
1946-03-15 00:00:00+00:00	1
1946-05-26 00:00:00+00:00	1
1946-06-09 00:00:00+00:00	1
1946-07-01 00:00:00+00:00	1
1946-08-03 00:00:00+00:00	1
1946-08-04 00:00:00+00:00	1
1946-08-05 00:00:00+00:00	1
1946-08-16 00:00:00+00:00	1
1946-09-01 00:00:00+00:00	1
1946-10-02 00:00:00+00:00	1
1946-10-12 00:00:00+00:00	1
1946-10-18 00:00:00+00:00	1
1946-11-03 00:00:00+00:00	1
1947-01-01 00:00:00+00:00	6
1947-02-28 00:00:00+00:00	1
1947-06-15 00:00:00+00:00	1
1947-07-06 00:00:00+00:00	1
1947-07-13 00:00:00+00:00	1
1947-09-09 00:00:00+00:00	1
1948-01-01 00:00:00+00:00	3
1948-02-01 00:00:00+00:00	1
1948-02-15 00:00:00+00:00	1
1948-03-21 00:00:00+00:00	1
1948-08-03 00:00:00+00:00	1
1948-08-05 00:00:00+00:00	1
1948-08-06 00:00:00+00:00	1
1948-08-09 00:00:00+00:00	1
1948-08-14 00:00:00+00:00	1
1948-08-15 00:00:00+00:00	1
1948-08-19 00:00:00+00:00	1
1948-08-21 00:00:00+00:00	1
1948-08-29 00:00:00+00:00	1
1949-01-01 00:00:00+00:00	11
1949-10-16 00:00:00+00:00	1
1950-01-01 00:00:00+00:00	4
1952-01-01 00:00:00+00:00	1
1953-01-03 00:00:00+00:00	1
1953-06-16 00:00:00+00:00	1
1953-09-25 00:00:00+00:00	1
1954-01-05 00:00:00+00:00	1
1954-02-08 00:00:00+00:00	1
1954-08-24 00:00:00+00:00	1
1954-12-01 00:00:00+00:00	1
1955-01-01 00:00:00+00:00	3
1956-01-01 00:00:00+00:00	1
1957-01-01 00:00:00+00:00	4
1958-01-01 00:00:00+00:00	9
1959-01-01 00:00:00+00:00	1
1960-01-01 00:00:00+00:00	14
1961-01-01 00:00:00+00:00	2
1962-01-01 00:00:00+00:00	6
1962-06-12 00:00:00+00:00	2
1963-03-31 00:00:00+00:00	1
1964-01-01 00:00:00+00:00	7
1965-01-01 00:00:00+00:00	10
1966-01-01 00:00:00+00:00	1
1966-08-01 00:00:00+00:00	1
1966-09-19 00:00:00+00:00	1
1967-01-01 00:00:00+00:00	5
1967-05-18 00:00:00+00:00	1
1968-01-01 00:00:00+00:00	13
1969-01-01 00:00:00+00:00	3
1970-01-01 00:00:00+00:00	1
1971-01-01 00:00:00+00:00	5
1972-01-01 00:00:00+00:00	16
1973-01-01 00:00:00+00:00	6
1974-01-01 00:00:00+00:00	4
1975-01-01 00:00:00+00:00	7
1976-01-01 00:00:00+00:00	3
1977-01-01 00:00:00+00:00	3
1978-01-01 00:00:00+00:00	6
1979-01-01 00:00:00+00:00	3
1980-01-01 00:00:00+00:00	4
1981-01-01 00:00:00+00:00	8
1982-01-01 00:00:00+00:00	1
1983-01-01 00:00:00+00:00	7
1983-11-09 00:00:00+00:00	1
1984-01-01 00:00:00+00:00	5
1985-01-01 00:00:00+00:00	6
1986-01-01 00:00:00+00:00	1
1986-04-27 00:00:00+00:00	1
1987-01-01 00:00:00+00:00	17
1988-01-01 00:00:00+00:00	1
1989-01-01 00:00:00+00:00	2
1990-01-01 00:00:00+00:00	3
1991-01-01 00:00:00+00:00	2
1992-01-01 00:00:00+00:00	15
1992-11-11 00:00:00+00:00	2
1993-01-01 00:00:00+00:00	8
1994-01-01 00:00:00+00:00	4
1995-01-01 00:00:00+00:00	2
1996-01-01 00:00:00+00:00	3
1997-01-01 00:00:00+00:00	6
1998-01-01 00:00:00+00:00	6
1999-01-01 00:00:00+00:00	6
2000-01-01 00:00:00+00:00	23
2001-01-01 00:00:00+00:00	6
2001-07-12 00:00:00+00:00	1
2001-07-17 00:00:00+00:00	1
2002-01-01 00:00:00+00:00	11
2003-01-01 00:00:00+00:00	16
