1856-01-01 00:00:00+00:00	2
1863-01-01 00:00:00+00:00	2
1863-06-20 00:00:00+00:00	1
1865-01-01 00:00:00+00:00	2
1865-12-23 00:00:00+00:00	1
1866-01-01 00:00:00+00:00	2
1866-03-24 00:00:00+00:00	1
1866-07-14 00:00:00+00:00	1
1866-12-01 00:00:00+00:00	1
1867-01-01 00:00:00+00:00	2
1867-01-05 00:00:00+00:00	1
1867-04-02 00:00:00+00:00	1
1867-06-22 00:00:00+00:00	1
1867-11-23 00:00:00+00:00	2
1867-11-30 00:00:00+00:00	1
1868-01-01 00:00:00+00:00	9
1869-01-01 00:00:00+00:00	3
1870-01-01 00:00:00+00:00	5
1870-08-11 00:00:00+00:00	1
1870-10-29 00:00:00+00:00	1
1871-01-01 00:00:00+00:00	7
1871-03-11 00:00:00+00:00	1
1871-08-12 00:00:00+00:00	1
1872-01-01 00:00:00+00:00	26
1872-07-03 00:00:00+00:00	1
1872-11-09 00:00:00+00:00	1
1873-01-01 00:00:00+00:00	11
1873-09-04 00:00:00+00:00	1
1874-01-01 00:00:00+00:00	5
1874-06-10 00:00:00+00:00	1
1875-01-01 00:00:00+00:00	4
1875-03-13 00:00:00+00:00	1
1875-04-03 00:00:00+00:00	1
1875-12-30 00:00:00+00:00	1
1876-01-01 00:00:00+00:00	14
1876-02-18 00:00:00+00:00	1
1876-04-01 00:00:00+00:00	2
1876-04-08 00:00:00+00:00	2
1877-01-01 00:00:00+00:00	19
1877-01-06 00:00:00+00:00	1
1877-06-09 00:00:00+00:00	1
1877-08-15 00:00:00+00:00	1
1877-08-18 00:00:00+00:00	9
1877-09-09 00:00:00+00:00	1
1877-09-13 00:00:00+00:00	1
1877-12-01 00:00:00+00:00	1
1878-01-01 00:00:00+00:00	7
1878-01-12 00:00:00+00:00	1
1879-01-01 00:00:00+00:00	8
1879-12-15 00:00:00+00:00	2
1880-01-01 00:00:00+00:00	12
1880-01-18 00:00:00+00:00	1
1880-04-01 00:00:00+00:00	1
1880-07-01 00:00:00+00:00	3
1881-01-01 00:00:00+00:00	25
1881-03-24 00:00:00+00:00	1
1881-04-01 00:00:00+00:00	1
1881-06-18 00:00:00+00:00	1
1881-09-29 00:00:00+00:00	1
1881-11-05 00:00:00+00:00	1
1881-12-17 00:00:00+00:00	1
1882-01-01 00:00:00+00:00	19
1882-01-14 00:00:00+00:00	2
1882-02-11 00:00:00+00:00	1
1882-05-27 00:00:00+00:00	1
1883-01-01 00:00:00+00:00	56
1883-04-08 00:00:00+00:00	1
1883-04-14 00:00:00+00:00	3
1883-04-15 00:00:00+00:00	1
1883-04-18 00:00:00+00:00	1
1883-04-22 00:00:00+00:00	2
1883-04-24 00:00:00+00:00	1
1883-05-15 00:00:00+00:00	1
1883-09-22 00:00:00+00:00	1
1883-10-01 00:00:00+00:00	2
1883-11-29 00:00:00+00:00	1
1884-01-01 00:00:00+00:00	20
1884-04-01 00:00:00+00:00	4
1884-05-01 00:00:00+00:00	1
1884-05-03 00:00:00+00:00	1
1884-06-07 00:00:00+00:00	1
1884-08-01 00:00:00+00:00	1
1884-08-09 00:00:00+00:00	2
1884-08-25 00:00:00+00:00	1
1884-09-13 00:00:00+00:00	1
1884-10-01 00:00:00+00:00	1
1885-01-01 00:00:00+00:00	10
1885-01-08 00:00:00+00:00	1
1885-02-01 00:00:00+00:00	1
1885-03-15 00:00:00+00:00	1
1885-05-06 00:00:00+00:00	1
1885-07-04 00:00:00+00:00	1
1885-11-01 00:00:00+00:00	1
1885-11-28 00:00:00+00:00	1
1885-12-12 00:00:00+00:00	1
1886-01-01 00:00:00+00:00	11
1886-01-09 00:00:00+00:00	1
1886-01-16 00:00:00+00:00	2
1886-01-23 00:00:00+00:00	1
1886-01-30 00:00:00+00:00	1
1886-03-13 00:00:00+00:00	1
1886-05-15 00:00:00+00:00	1
1886-10-30 00:00:00+00:00	1
1887-01-01 00:00:00+00:00	11
1887-04-16 00:00:00+00:00	1
1887-04-30 00:00:00+00:00	1
1887-07-17 00:00:00+00:00	1
1887-08-27 00:00:00+00:00	1
1887-09-04 00:00:00+00:00	1
1887-09-24 00:00:00+00:00	1
1887-11-05 00:00:00+00:00	1
1887-12-03 00:00:00+00:00	1
1887-12-04 00:00:00+00:00	1
1888-01-01 00:00:00+00:00	27
1888-02-04 00:00:00+00:00	2
1888-05-05 00:00:00+00:00	1
1888-06-16 00:00:00+00:00	2
1888-12-29 00:00:00+00:00	1
1889-01-01 00:00:00+00:00	8
1889-01-26 00:00:00+00:00	1
1889-08-11 00:00:00+00:00	1
1889-11-30 00:00:00+00:00	1
1890-01-01 00:00:00+00:00	7
1890-01-04 00:00:00+00:00	1
1890-02-01 00:00:00+00:00	1
1890-02-08 00:00:00+00:00	1
1890-02-16 00:00:00+00:00	1
1890-04-06 00:00:00+00:00	1
1890-04-27 00:00:00+00:00	1
1890-05-25 00:00:00+00:00	1
1890-11-23 00:00:00+00:00	1
1891-01-01 00:00:00+00:00	4
1891-04-25 00:00:00+00:00	1
1891-05-16 00:00:00+00:00	1
1891-07-18 00:00:00+00:00	1
1892-01-01 00:00:00+00:00	12
1892-03-20 00:00:00+00:00	1
1892-10-15 00:00:00+00:00	1
1892-12-10 00:00:00+00:00	1
1893-01-01 00:00:00+00:00	16
1893-01-07 00:00:00+00:00	1
1893-03-19 00:00:00+00:00	1
1893-10-01 00:00:00+00:00	1
1893-12-08 00:00:00+00:00	1
1893-12-16 00:00:00+00:00	1
1894-01-01 00:00:00+00:00	12
1894-06-19 00:00:00+00:00	1
1894-06-30 00:00:00+00:00	1
1894-08-08 00:00:00+00:00	1
1894-08-15 00:00:00+00:00	1
1894-08-18 00:00:00+00:00	1
1894-12-01 00:00:00+00:00	1
1895-01-01 00:00:00+00:00	15
1895-01-04 00:00:00+00:00	1
1895-01-14 00:00:00+00:00	1
1895-02-15 00:00:00+00:00	1
1895-03-02 00:00:00+00:00	1
1895-04-28 00:00:00+00:00	1
1895-06-29 00:00:00+00:00	1
1895-12-15 00:00:00+00:00	1
1896-01-01 00:00:00+00:00	14
1896-05-18 00:00:00+00:00	1
1896-12-13 00:00:00+00:00	1
1896-12-20 00:00:00+00:00	2
1897-01-01 00:00:00+00:00	4
1897-02-01 00:00:00+00:00	1
1897-08-21 00:00:00+00:00	1
1898-01-01 00:00:00+00:00	16
1898-09-24 00:00:00+00:00	1
1899-01-01 00:00:00+00:00	31
1899-11-28 00:00:00+00:00	2
1899-12-16 00:00:00+00:00	1
1900-01-01 00:00:00+00:00	9
1900-05-02 00:00:00+00:00	1
1900-05-03 00:00:00+00:00	1
1900-05-04 00:00:00+00:00	1
1900-11-10 00:00:00+00:00	1
1901-01-01 00:00:00+00:00	13
1901-01-26 00:00:00+00:00	1
1901-01-27 00:00:00+00:00	1
1901-07-20 00:00:00+00:00	1
1901-08-31 00:00:00+00:00	1
1901-11-24 00:00:00+00:00	1
1901-11-30 00:00:00+00:00	1
1901-12-01 00:00:00+00:00	1
1902-01-01 00:00:00+00:00	13
1902-03-08 00:00:00+00:00	1
1902-05-15 00:00:00+00:00	1
1902-06-14 00:00:00+00:00	1
1902-07-05 00:00:00+00:00	1
1903-01-01 00:00:00+00:00	3
1903-01-28 00:00:00+00:00	1
1903-03-25 00:00:00+00:00	1
1903-10-22 00:00:00+00:00	1
1903-12-12 00:00:00+00:00	1
1904-01-01 00:00:00+00:00	20
1904-01-06 00:00:00+00:00	2
1904-06-04 00:00:00+00:00	1
1904-06-17 00:00:00+00:00	1
1904-07-30 00:00:00+00:00	1
1904-08-06 00:00:00+00:00	1
1904-09-17 00:00:00+00:00	1
1905-01-01 00:00:00+00:00	16
1905-04-22 00:00:00+00:00	1
1905-07-01 00:00:00+00:00	1
1905-09-30 00:00:00+00:00	1
1905-12-23 00:00:00+00:00	1
1906-01-01 00:00:00+00:00	13
1906-05-05 00:00:00+00:00	1
1906-06-09 00:00:00+00:00	1
1906-09-29 00:00:00+00:00	1
1907-01-01 00:00:00+00:00	14
1907-02-09 00:00:00+00:00	1
1907-03-01 00:00:00+00:00	1
1907-03-30 00:00:00+00:00	1
1907-04-27 00:00:00+00:00	1
1907-08-03 00:00:00+00:00	1
1907-08-17 00:00:00+00:00	1
1907-09-14 00:00:00+00:00	1
1907-09-26 00:00:00+00:00	1
1907-11-15 00:00:00+00:00	1
1908-01-01 00:00:00+00:00	17
1908-01-11 00:00:00+00:00	1
1908-10-31 00:00:00+00:00	1
1908-11-21 00:00:00+00:00	2
1909-01-01 00:00:00+00:00	6
1909-02-19 00:00:00+00:00	1
1909-12-11 00:00:00+00:00	1
1910-01-01 00:00:00+00:00	12
1910-03-06 00:00:00+00:00	1
1910-06-18 00:00:00+00:00	1
1910-06-26 00:00:00+00:00	1
1911-01-01 00:00:00+00:00	9
1911-02-04 00:00:00+00:00	1
1911-04-22 00:00:00+00:00	1
1911-06-01 00:00:00+00:00	1
1912-01-01 00:00:00+00:00	7
1912-01-09 00:00:00+00:00	1
1912-03-10 00:00:00+00:00	2
1912-03-17 00:00:00+00:00	1
1912-05-15 00:00:00+00:00	1
1912-09-07 00:00:00+00:00	1
1912-12-21 00:00:00+00:00	2
1913-01-01 00:00:00+00:00	8
1913-04-11 00:00:00+00:00	1
1913-10-30 00:00:00+00:00	1
1913-11-13 00:00:00+00:00	1
1913-12-11 00:00:00+00:00	1
1913-12-18 00:00:00+00:00	1
1914-01-01 00:00:00+00:00	15
1914-01-08 00:00:00+00:00	1
1914-01-15 00:00:00+00:00	1
1914-01-20 00:00:00+00:00	2
1914-01-22 00:00:00+00:00	1
1914-01-29 00:00:00+00:00	1
1914-02-05 00:00:00+00:00	1
1914-02-26 00:00:00+00:00	1
1914-03-06 00:00:00+00:00	1
1914-03-12 00:00:00+00:00	1
1914-03-19 00:00:00+00:00	2
1914-03-27 00:00:00+00:00	1
1914-04-23 00:00:00+00:00	1
1914-09-08 00:00:00+00:00	1
1915-01-01 00:00:00+00:00	6
1915-01-22 00:00:00+00:00	1
1915-06-16 00:00:00+00:00	1
1915-07-07 00:00:00+00:00	1
1915-07-08 00:00:00+00:00	1
1915-11-14 00:00:00+00:00	1
1915-12-24 00:00:00+00:00	1
1916-01-01 00:00:00+00:00	5
1916-03-27 00:00:00+00:00	1
1916-09-01 00:00:00+00:00	1
1916-09-24 00:00:00+00:00	1
1916-11-15 00:00:00+00:00	1
1917-01-01 00:00:00+00:00	5
1918-01-01 00:00:00+00:00	11
1919-01-01 00:00:00+00:00	6
1919-07-14 00:00:00+00:00	1
1920-01-01 00:00:00+00:00	7
1920-09-01 00:00:00+00:00	1
1921-01-01 00:00:00+00:00	8
1921-12-03 00:00:00+00:00	1
1922-01-01 00:00:00+00:00	9
1922-04-04 00:00:00+00:00	2
1922-04-30 00:00:00+00:00	1
1922-06-04 00:00:00+00:00	1
1922-07-18 00:00:00+00:00	1
1923-01-01 00:00:00+00:00	12
1923-01-14 00:00:00+00:00	1
1923-01-15 00:00:00+00:00	1
1923-02-28 00:00:00+00:00	1
1923-03-25 00:00:00+00:00	1
1923-06-03 00:00:00+00:00	1
1923-09-23 00:00:00+00:00	3
1923-10-26 00:00:00+00:00	1
1923-12-20 00:00:00+00:00	1
1924-01-01 00:00:00+00:00	29
1924-01-13 00:00:00+00:00	1
1924-02-15 00:00:00+00:00	1
1924-09-07 00:00:00+00:00	1
1924-09-27 00:00:00+00:00	1
1924-10-12 00:00:00+00:00	1
1924-11-09 00:00:00+00:00	1
1924-11-19 00:00:00+00:00	2
1924-12-21 00:00:00+00:00	1
1925-01-01 00:00:00+00:00	19
1925-02-28 00:00:00+00:00	6
1925-04-03 00:00:00+00:00	1
1925-04-08 00:00:00+00:00	7
1925-05-03 00:00:00+00:00	2
1925-06-30 00:00:00+00:00	6
1925-07-15 00:00:00+00:00	1
1925-11-07 00:00:00+00:00	1
1925-11-28 00:00:00+00:00	1
1925-11-30 00:00:00+00:00	1
1925-12-15 00:00:00+00:00	1
1926-01-01 00:00:00+00:00	13
1926-01-30 00:00:00+00:00	1
1926-02-08 00:00:00+00:00	1
1926-03-04 00:00:00+00:00	1
1926-03-09 00:00:00+00:00	1
1926-03-21 00:00:00+00:00	1
1926-03-31 00:00:00+00:00	3
1926-05-15 00:00:00+00:00	1
1926-05-18 00:00:00+00:00	1
1926-05-26 00:00:00+00:00	2
1926-05-27 00:00:00+00:00	2
1926-06-16 00:00:00+00:00	1
1926-06-17 00:00:00+00:00	1
1926-08-27 00:00:00+00:00	1
1926-10-17 00:00:00+00:00	1
1926-11-21 00:00:00+00:00	1
1926-11-30 00:00:00+00:00	4
1926-12-31 00:00:00+00:00	2
1927-01-01 00:00:00+00:00	36
1927-02-01 00:00:00+00:00	2
1927-02-08 00:00:00+00:00	1
1927-02-15 00:00:00+00:00	2
1927-02-16 00:00:00+00:00	2
1927-02-17 00:00:00+00:00	1
1927-02-19 00:00:00+00:00	1
1927-02-27 00:00:00+00:00	1
1927-03-01 00:00:00+00:00	1
1927-03-13 00:00:00+00:00	1
1927-04-24 00:00:00+00:00	1
1927-05-08 00:00:00+00:00	1
1927-05-15 00:00:00+00:00	1
1927-06-12 00:00:00+00:00	1
1927-06-13 00:00:00+00:00	1
1927-06-30 00:00:00+00:00	2
1927-07-01 00:00:00+00:00	2
1927-07-30 00:00:00+00:00	2
1927-08-07 00:00:00+00:00	1
1927-08-08 00:00:00+00:00	1
1927-09-01 00:00:00+00:00	1
1927-09-20 00:00:00+00:00	1
1927-09-27 00:00:00+00:00	1
1927-10-18 00:00:00+00:00	1
1928-01-01 00:00:00+00:00	28
1928-01-15 00:00:00+00:00	1
1928-01-18 00:00:00+00:00	8
1928-02-18 00:00:00+00:00	1
1928-02-29 00:00:00+00:00	1
1928-03-01 00:00:00+00:00	3
1928-03-10 00:00:00+00:00	1
1928-03-11 00:00:00+00:00	1
1928-04-02 00:00:00+00:00	1
1928-04-30 00:00:00+00:00	1
1928-05-05 00:00:00+00:00	1
1928-05-31 00:00:00+00:00	1
1928-06-04 00:00:00+00:00	3
1928-06-11 00:00:00+00:00	1
1928-06-13 00:00:00+00:00	1
1928-06-14 00:00:00+00:00	1
1928-06-30 00:00:00+00:00	1
1928-07-01 00:00:00+00:00	1
1928-07-24 00:00:00+00:00	1
1928-08-18 00:00:00+00:00	1
1928-08-21 00:00:00+00:00	1
1928-08-26 00:00:00+00:00	1
1928-10-09 00:00:00+00:00	8
1928-11-01 00:00:00+00:00	1
1928-11-14 00:00:00+00:00	1
1928-11-30 00:00:00+00:00	1
1928-12-07 00:00:00+00:00	1
1928-12-08 00:00:00+00:00	3
1928-12-09 00:00:00+00:00	1
1928-12-15 00:00:00+00:00	2
1929-01-01 00:00:00+00:00	59
1929-01-31 00:00:00+00:00	1
1929-02-13 00:00:00+00:00	1
1929-03-01 00:00:00+00:00	2
1929-03-24 00:00:00+00:00	1
1929-03-26 00:00:00+00:00	1
1929-03-27 00:00:00+00:00	1
1929-03-28 00:00:00+00:00	1
1929-03-29 00:00:00+00:00	3
1929-03-31 00:00:00+00:00	1
1929-04-01 00:00:00+00:00	7
1929-04-02 00:00:00+00:00	1
1929-05-01 00:00:00+00:00	4
1929-05-04 00:00:00+00:00	1
1929-05-29 00:00:00+00:00	2
1929-05-30 00:00:00+00:00	2
1929-06-20 00:00:00+00:00	1
1929-07-01 00:00:00+00:00	3
1929-07-15 00:00:00+00:00	1
1929-08-29 00:00:00+00:00	1
1929-08-30 00:00:00+00:00	1
1929-08-31 00:00:00+00:00	3
1929-09-13 00:00:00+00:00	1
1929-09-16 00:00:00+00:00	1
1929-09-21 00:00:00+00:00	1
1929-10-01 00:00:00+00:00	4
1929-10-27 00:00:00+00:00	2
1929-12-01 00:00:00+00:00	2
1930-01-01 00:00:00+00:00	32
1930-01-08 00:00:00+00:00	1
1930-01-30 00:00:00+00:00	1
1930-02-25 00:00:00+00:00	1
1930-03-01 00:00:00+00:00	1
1930-03-02 00:00:00+00:00	1
1930-04-01 00:00:00+00:00	7
1930-04-20 00:00:00+00:00	1
1930-04-25 00:00:00+00:00	1
1930-06-01 00:00:00+00:00	3
1930-06-19 00:00:00+00:00	1
1930-06-20 00:00:00+00:00	1
1930-06-22 00:00:00+00:00	2
1930-07-01 00:00:00+00:00	12
1930-10-01 00:00:00+00:00	1
1930-11-01 00:00:00+00:00	3
1930-11-25 00:00:00+00:00	1
1931-01-01 00:00:00+00:00	25
1931-02-28 00:00:00+00:00	1
1931-03-01 00:00:00+00:00	6
1931-03-19 00:00:00+00:00	1
1931-04-01 00:00:00+00:00	8
1931-04-15 00:00:00+00:00	1
1931-05-01 00:00:00+00:00	5
1931-06-15 00:00:00+00:00	1
1931-06-24 00:00:00+00:00	1
1931-07-01 00:00:00+00:00	8
1931-07-06 00:00:00+00:00	1
1931-09-14 00:00:00+00:00	1
1931-09-21 00:00:00+00:00	10
1931-09-30 00:00:00+00:00	2
1931-10-01 00:00:00+00:00	3
1931-10-18 00:00:00+00:00	3
1931-10-20 00:00:00+00:00	2
1931-10-21 00:00:00+00:00	1
1931-10-27 00:00:00+00:00	1
1931-11-07 00:00:00+00:00	1
1931-11-10 00:00:00+00:00	1
1931-11-15 00:00:00+00:00	1
1932-01-01 00:00:00+00:00	19
1932-01-03 00:00:00+00:00	1
1932-01-10 00:00:00+00:00	1
1932-03-01 00:00:00+00:00	15
1932-04-03 00:00:00+00:00	1
1932-04-17 00:00:00+00:00	1
1932-05-08 00:00:00+00:00	1
1932-11-01 00:00:00+00:00	1
1932-11-30 00:00:00+00:00	2
1932-12-01 00:00:00+00:00	3
1932-12-31 00:00:00+00:00	2
1933-01-01 00:00:00+00:00	45
1933-03-18 00:00:00+00:00	1
1933-03-23 00:00:00+00:00	1
1933-03-31 00:00:00+00:00	1
1933-06-01 00:00:00+00:00	2
1933-08-20 00:00:00+00:00	1
1933-10-01 00:00:00+00:00	3
1933-10-13 00:00:00+00:00	1
1933-10-20 00:00:00+00:00	2
1933-10-26 00:00:00+00:00	1
1933-11-01 00:00:00+00:00	1
1933-11-07 00:00:00+00:00	1
1933-11-09 00:00:00+00:00	1
1933-11-21 00:00:00+00:00	2
1933-12-01 00:00:00+00:00	1
1933-12-09 00:00:00+00:00	1
1933-12-30 00:00:00+00:00	1
1934-01-01 00:00:00+00:00	39
1934-01-31 00:00:00+00:00	1
1934-02-02 00:00:00+00:00	1
1934-02-04 00:00:00+00:00	1
1934-02-28 00:00:00+00:00	1
1934-04-01 00:00:00+00:00	7
1934-05-06 00:00:00+00:00	1
1934-06-09 00:00:00+00:00	1
1934-06-10 00:00:00+00:00	1
1934-07-12 00:00:00+00:00	1
1934-07-13 00:00:00+00:00	1
1934-07-22 00:00:00+00:00	2
1934-07-25 00:00:00+00:00	2
1934-07-29 00:00:00+00:00	2
1934-08-05 00:00:00+00:00	2
1934-08-07 00:00:00+00:00	1
1934-08-20 00:00:00+00:00	2
1934-08-21 00:00:00+00:00	1
1934-08-26 00:00:00+00:00	1
1934-08-31 00:00:00+00:00	3
1934-09-23 00:00:00+00:00	1
1934-10-01 00:00:00+00:00	2
1934-10-25 00:00:00+00:00	2
1934-11-09 00:00:00+00:00	1
1934-12-01 00:00:00+00:00	5
1934-12-15 00:00:00+00:00	1
1934-12-31 00:00:00+00:00	2
1935-01-01 00:00:00+00:00	55
1935-02-10 00:00:00+00:00	1
1935-02-25 00:00:00+00:00	1
1935-03-30 00:00:00+00:00	1
1935-04-21 00:00:00+00:00	1
1935-04-25 00:00:00+00:00	1
1935-06-23 00:00:00+00:00	1
1935-07-19 00:00:00+00:00	1
1935-08-31 00:00:00+00:00	4
1935-09-01 00:00:00+00:00	1
1935-09-04 00:00:00+00:00	1
1935-10-01 00:00:00+00:00	1
1935-10-03 00:00:00+00:00	1
1935-11-30 00:00:00+00:00	1
1935-12-31 00:00:00+00:00	1
1936-01-01 00:00:00+00:00	53
1936-01-14 00:00:00+00:00	1
1936-03-01 00:00:00+00:00	1
1936-04-01 00:00:00+00:00	1
1936-06-01 00:00:00+00:00	1
1936-06-06 00:00:00+00:00	1
1936-06-21 00:00:00+00:00	1
1936-06-30 00:00:00+00:00	2
1936-07-08 00:00:00+00:00	1
1936-07-21 00:00:00+00:00	1
1936-08-30 00:00:00+00:00	1
1936-09-01 00:00:00+00:00	1
1936-10-01 00:00:00+00:00	1
1936-11-04 00:00:00+00:00	1
1936-11-13 00:00:00+00:00	1
1936-11-17 00:00:00+00:00	1
1936-11-29 00:00:00+00:00	1
1936-11-30 00:00:00+00:00	3
1936-12-10 00:00:00+00:00	2
1936-12-30 00:00:00+00:00	1
1936-12-31 00:00:00+00:00	1
1937-01-01 00:00:00+00:00	66
1937-01-17 00:00:00+00:00	1
1937-01-30 00:00:00+00:00	1
1937-03-21 00:00:00+00:00	3
1937-03-22 00:00:00+00:00	2
1937-03-25 00:00:00+00:00	2
1937-03-27 00:00:00+00:00	1
1937-04-01 00:00:00+00:00	4
1937-04-03 00:00:00+00:00	1
1937-04-30 00:00:00+00:00	2
1937-05-13 00:00:00+00:00	1
1937-05-26 00:00:00+00:00	1
1937-06-30 00:00:00+00:00	1
1937-07-01 00:00:00+00:00	2
1937-08-08 00:00:00+00:00	1
1937-09-01 00:00:00+00:00	1
1937-10-03 00:00:00+00:00	1
1937-11-01 00:00:00+00:00	1
1937-11-28 00:00:00+00:00	1
1937-12-15 00:00:00+00:00	1
1937-12-19 00:00:00+00:00	1
1937-12-31 00:00:00+00:00	3
1938-01-01 00:00:00+00:00	34
1938-01-11 00:00:00+00:00	1
1938-01-25 00:00:00+00:00	1
1938-02-13 00:00:00+00:00	1
1938-03-15 00:00:00+00:00	1
1938-04-01 00:00:00+00:00	1
1938-07-01 00:00:00+00:00	4
1938-08-07 00:00:00+00:00	1
1938-08-26 00:00:00+00:00	1
1938-09-11 00:00:00+00:00	1
1938-09-20 00:00:00+00:00	1
1938-09-25 00:00:00+00:00	2
1938-10-01 00:00:00+00:00	2
1939-01-01 00:00:00+00:00	19
1939-01-14 00:00:00+00:00	1
1939-01-15 00:00:00+00:00	1
1939-01-22 00:00:00+00:00	2
1939-01-28 00:00:00+00:00	1
1939-02-16 00:00:00+00:00	1
1939-03-01 00:00:00+00:00	1
1939-03-14 00:00:00+00:00	1
1939-03-15 00:00:00+00:00	1
1939-04-02 00:00:00+00:00	1
1939-05-21 00:00:00+00:00	1
1939-06-01 00:00:00+00:00	1
1939-07-01 00:00:00+00:00	1
1939-08-27 00:00:00+00:00	1
1939-08-28 00:00:00+00:00	1
1939-08-30 00:00:00+00:00	1
1941-01-01 00:00:00+00:00	4
1942-01-01 00:00:00+00:00	1
1943-08-31 00:00:00+00:00	3
1944-05-15 00:00:00+00:00	1
1945-01-01 00:00:00+00:00	2
1945-08-19 00:00:00+00:00	1
1945-08-28 00:00:00+00:00	1
1946-01-01 00:00:00+00:00	1
1946-03-03 00:00:00+00:00	1
1946-09-01 00:00:00+00:00	1
1946-11-16 00:00:00+00:00	1
1947-01-01 00:00:00+00:00	2
1948-01-01 00:00:00+00:00	1
1948-05-01 00:00:00+00:00	1
1949-01-01 00:00:00+00:00	1
1951-09-02 00:00:00+00:00	2
1951-09-09 00:00:00+00:00	2
1951-09-30 00:00:00+00:00	1
1951-10-14 00:00:00+00:00	2
1951-10-21 00:00:00+00:00	1
1951-10-28 00:00:00+00:00	1
1951-11-04 00:00:00+00:00	2
1951-11-11 00:00:00+00:00	1
1955-01-21 00:00:00+00:00	1
1955-01-28 00:00:00+00:00	1
1955-02-13 00:00:00+00:00	1
1955-05-01 00:00:00+00:00	2
1955-10-15 00:00:00+00:00	2
1956-01-01 00:00:00+00:00	1
1956-03-27 00:00:00+00:00	1
1957-02-10 00:00:00+00:00	1
1958-09-22 00:00:00+00:00	1
1958-11-23 00:00:00+00:00	1
1959-04-01 00:00:00+00:00	1
1959-05-11 00:00:00+00:00	1
1960-01-01 00:00:00+00:00	2
1960-08-15 00:00:00+00:00	1
1961-01-01 00:00:00+00:00	6
1961-04-01 00:00:00+00:00	2
1961-09-03 00:00:00+00:00	1
1962-01-01 00:00:00+00:00	3
1962-09-23 00:00:00+00:00	1
1963-01-01 00:00:00+00:00	2
1963-11-03 00:00:00+00:00	1
1964-01-01 00:00:00+00:00	8
1964-10-30 00:00:00+00:00	1
1965-01-01 00:00:00+00:00	2
1966-02-04 00:00:00+00:00	1
1966-08-01 00:00:00+00:00	3
1966-12-25 00:00:00+00:00	2
1968-01-01 00:00:00+00:00	8
1968-07-11 00:00:00+00:00	1
1968-08-02 00:00:00+00:00	1
1968-08-26 00:00:00+00:00	1
1969-12-29 00:00:00+00:00	1
1970-08-25 00:00:00+00:00	2
1971-02-27 00:00:00+00:00	2
1971-12-31 00:00:00+00:00	1
1972-01-01 00:00:00+00:00	2
1972-06-30 00:00:00+00:00	4
1973-01-01 00:00:00+00:00	1
1973-02-06 00:00:00+00:00	1
1973-02-07 00:00:00+00:00	1
1973-07-22 00:00:00+00:00	1
1973-07-29 00:00:00+00:00	1
1973-08-12 00:00:00+00:00	1
1974-01-01 00:00:00+00:00	3
1974-01-24 00:00:00+00:00	1
1974-08-31 00:00:00+00:00	1
1974-12-31 00:00:00+00:00	2
1975-01-01 00:00:00+00:00	7
1975-06-30 00:00:00+00:00	1
1975-08-30 00:00:00+00:00	2
1975-09-04 00:00:00+00:00	1
1975-10-31 00:00:00+00:00	3
1975-11-20 00:00:00+00:00	1
1975-12-31 00:00:00+00:00	2
1976-03-17 00:00:00+00:00	1
1976-04-30 00:00:00+00:00	6
1976-07-31 00:00:00+00:00	2
1976-10-30 00:00:00+00:00	1
1977-01-01 00:00:00+00:00	1
1977-01-31 00:00:00+00:00	1
1977-03-31 00:00:00+00:00	1
1977-10-01 00:00:00+00:00	1
1977-10-31 00:00:00+00:00	1
1978-01-01 00:00:00+00:00	2
1978-02-28 00:00:00+00:00	4
1978-07-31 00:00:00+00:00	2
1979-02-28 00:00:00+00:00	2
1980-01-01 00:00:00+00:00	3
1980-01-31 00:00:00+00:00	3
1980-03-31 00:00:00+00:00	1
1980-04-30 00:00:00+00:00	1
1980-05-31 00:00:00+00:00	4
1980-08-30 00:00:00+00:00	2
1981-01-01 00:00:00+00:00	3
1982-01-01 00:00:00+00:00	3
1983-01-01 00:00:00+00:00	3
1983-12-02 00:00:00+00:00	1
1983-12-23 00:00:00+00:00	1
1984-01-01 00:00:00+00:00	7
1984-02-01 00:00:00+00:00	1
1984-05-31 00:00:00+00:00	1
1984-06-30 00:00:00+00:00	1
1984-09-29 00:00:00+00:00	1
1984-11-30 00:00:00+00:00	1
1985-01-01 00:00:00+00:00	2
1985-02-28 00:00:00+00:00	6
1985-04-30 00:00:00+00:00	2
1985-05-31 00:00:00+00:00	1
1985-06-28 00:00:00+00:00	2
1985-07-31 00:00:00+00:00	1
1985-08-31 00:00:00+00:00	3
1985-09-25 00:00:00+00:00	1
1986-01-01 00:00:00+00:00	11
1986-07-31 00:00:00+00:00	2
1986-08-31 00:00:00+00:00	1
1987-01-01 00:00:00+00:00	4
1987-01-31 00:00:00+00:00	3
1987-07-31 00:00:00+00:00	2
1987-10-31 00:00:00+00:00	2
1988-01-01 00:00:00+00:00	6
1988-03-31 00:00:00+00:00	5
1988-05-19 00:00:00+00:00	1
1988-05-28 00:00:00+00:00	1
1988-11-30 00:00:00+00:00	5
1989-01-01 00:00:00+00:00	3
1989-02-28 00:00:00+00:00	1
1990-01-01 00:00:00+00:00	2
1990-01-31 00:00:00+00:00	1
1990-08-31 00:00:00+00:00	6
1991-01-01 00:00:00+00:00	6
1991-02-13 00:00:00+00:00	1
1991-04-30 00:00:00+00:00	4
1991-07-31 00:00:00+00:00	1
1991-10-30 00:00:00+00:00	1
1991-11-29 00:00:00+00:00	3
1992-01-01 00:00:00+00:00	4
1992-01-22 00:00:00+00:00	1
1992-01-26 00:00:00+00:00	1
1992-02-28 00:00:00+00:00	3
1992-04-30 00:00:00+00:00	8
1992-05-29 00:00:00+00:00	2
1992-08-31 00:00:00+00:00	2
1992-11-28 00:00:00+00:00	1
1992-12-01 00:00:00+00:00	1
1992-12-02 00:00:00+00:00	1
1993-01-01 00:00:00+00:00	5
1993-01-03 00:00:00+00:00	1
1993-03-31 00:00:00+00:00	3
1993-09-30 00:00:00+00:00	1
1994-01-01 00:00:00+00:00	7
1994-02-08 00:00:00+00:00	1
1994-02-28 00:00:00+00:00	6
1994-03-31 00:00:00+00:00	1
1994-04-29 00:00:00+00:00	6
1994-05-01 00:00:00+00:00	1
1994-08-07 00:00:00+00:00	1
1994-08-31 00:00:00+00:00	3
1994-10-31 00:00:00+00:00	8
1994-12-28 00:00:00+00:00	1
1995-01-01 00:00:00+00:00	5
1995-01-22 00:00:00+00:00	1
1995-04-18 00:00:00+00:00	1
1995-05-17 00:00:00+00:00	1
1995-09-26 00:00:00+00:00	2
1995-12-30 00:00:00+00:00	1
1996-01-01 00:00:00+00:00	7
1996-02-20 00:00:00+00:00	1
1996-08-30 00:00:00+00:00	2
1996-10-01 00:00:00+00:00	1
1997-01-01 00:00:00+00:00	18
1997-03-18 00:00:00+00:00	1
1997-03-28 00:00:00+00:00	1
1997-07-12 00:00:00+00:00	1
1997-08-01 00:00:00+00:00	1
1997-08-21 00:00:00+00:00	2
1997-09-17 00:00:00+00:00	3
1998-01-01 00:00:00+00:00	6
1998-01-13 00:00:00+00:00	2
1998-01-19 00:00:00+00:00	2
1998-03-16 00:00:00+00:00	1
1998-06-17 00:00:00+00:00	1
1998-06-30 00:00:00+00:00	3
1998-08-03 00:00:00+00:00	1
1998-09-09 00:00:00+00:00	1
1998-09-30 00:00:00+00:00	5
1998-10-30 00:00:00+00:00	1
1998-11-15 00:00:00+00:00	1
1999-01-01 00:00:00+00:00	20
1999-01-29 00:00:00+00:00	2
1999-03-31 00:00:00+00:00	1
1999-06-30 00:00:00+00:00	1
1999-07-30 00:00:00+00:00	1
1999-08-24 00:00:00+00:00	4
1999-08-31 00:00:00+00:00	3
1999-12-31 00:00:00+00:00	5
2000-01-01 00:00:00+00:00	11
2000-02-29 00:00:00+00:00	1
2000-03-31 00:00:00+00:00	12
2000-05-31 00:00:00+00:00	2
2000-06-14 00:00:00+00:00	1
2000-06-30 00:00:00+00:00	4
2000-07-31 00:00:00+00:00	1
2001-01-01 00:00:00+00:00	7
2001-08-31 00:00:00+00:00	1
2002-01-01 00:00:00+00:00	6
2002-02-02 00:00:00+00:00	1
2002-06-17 00:00:00+00:00	1
2002-06-28 00:00:00+00:00	3
2002-08-01 00:00:00+00:00	1
2002-10-28 00:00:00+00:00	1
2002-11-13 00:00:00+00:00	1
2003-01-01 00:00:00+00:00	7
2003-01-31 00:00:00+00:00	1
2003-02-17 00:00:00+00:00	1
2003-02-28 00:00:00+00:00	1
2003-04-01 00:00:00+00:00	1
2003-05-30 00:00:00+00:00	1
2003-07-31 00:00:00+00:00	1
2003-09-01 00:00:00+00:00	1
2003-09-30 00:00:00+00:00	1
2003-11-28 00:00:00+00:00	1
