1887-01-01 00:00:00+00:00	5
1894-01-01 00:00:00+00:00	1
1898-01-01 00:00:00+00:00	6
1898-11-19 00:00:00+00:00	2
1901-01-01 00:00:00+00:00	1
1927-01-01 00:00:00+00:00	3
1930-01-01 00:00:00+00:00	2
1931-02-11 00:00:00+00:00	1
1931-03-04 00:00:00+00:00	1
1931-07-05 00:00:00+00:00	1
1933-01-01 00:00:00+00:00	1
1935-04-10 00:00:00+00:00	1
1935-04-20 00:00:00+00:00	1
1936-01-01 00:00:00+00:00	2
1936-11-21 00:00:00+00:00	1
1937-06-11 00:00:00+00:00	1
1938-01-01 00:00:00+00:00	2
1938-05-22 00:00:00+00:00	1
1945-05-01 00:00:00+00:00	1
1949-01-01 00:00:00+00:00	1
1952-01-01 00:00:00+00:00	1
1953-01-01 00:00:00+00:00	1
1953-04-11 00:00:00+00:00	1
1957-01-01 00:00:00+00:00	1
1959-03-29 00:00:00+00:00	1
1970-01-01 00:00:00+00:00	1
1972-01-01 00:00:00+00:00	2
1972-07-09 00:00:00+00:00	1
1973-01-01 00:00:00+00:00	1
1974-01-01 00:00:00+00:00	1
1975-01-01 00:00:00+00:00	2
1977-01-01 00:00:00+00:00	4
1978-01-01 00:00:00+00:00	1
1981-01-01 00:00:00+00:00	2
1981-03-24 00:00:00+00:00	1
1981-08-08 00:00:00+00:00	1
1982-03-01 00:00:00+00:00	1
1983-01-01 00:00:00+00:00	4
1983-03-26 00:00:00+00:00	1
1984-01-01 00:00:00+00:00	2
1984-01-04 00:00:00+00:00	1
1984-05-02 00:00:00+00:00	1
1984-08-05 00:00:00+00:00	1
1985-09-30 00:00:00+00:00	1
1987-01-01 00:00:00+00:00	1
1988-01-01 00:00:00+00:00	1
1988-08-03 00:00:00+00:00	1
1988-09-01 00:00:00+00:00	1
1989-01-01 00:00:00+00:00	3
1989-11-01 00:00:00+00:00	1
1991-01-01 00:00:00+00:00	2
1991-01-06 00:00:00+00:00	1
1991-06-01 00:00:00+00:00	1
1992-04-29 00:00:00+00:00	1
1993-01-01 00:00:00+00:00	3
1993-08-07 00:00:00+00:00	1
1994-01-01 00:00:00+00:00	2
1995-01-01 00:00:00+00:00	4
1995-12-05 00:00:00+00:00	1
1996-01-01 00:00:00+00:00	3
1997-01-01 00:00:00+00:00	3
1997-05-22 00:00:00+00:00	1
1998-01-01 00:00:00+00:00	4
1998-11-06 00:00:00+00:00	1
1999-01-01 00:00:00+00:00	4
1999-03-11 00:00:00+00:00	1
2000-01-01 00:00:00+00:00	8
2001-01-01 00:00:00+00:00	2
2002-01-01 00:00:00+00:00	1
2002-01-15 00:00:00+00:00	1
2002-04-01 00:00:00+00:00	1
2003-01-01 00:00:00+00:00	5
