1950-01-01 00:00:00+00:00	1
1950-06-27 00:00:00+00:00	1
1950-06-29 00:00:00+00:00	3
1950-07-01 00:00:00+00:00	1
1950-07-02 00:00:00+00:00	1
1950-07-03 00:00:00+00:00	1
1950-07-05 00:00:00+00:00	1
1950-07-06 00:00:00+00:00	1
1950-07-07 00:00:00+00:00	1
1950-07-11 00:00:00+00:00	1
1950-07-15 00:00:00+00:00	1
1950-07-16 00:00:00+00:00	1
1950-08-06 00:00:00+00:00	1
1950-08-09 00:00:00+00:00	1
1950-08-14 00:00:00+00:00	1
1950-08-15 00:00:00+00:00	1
1950-08-20 00:00:00+00:00	1
1950-10-23 00:00:00+00:00	1
1950-11-08 00:00:00+00:00	1
1950-12-07 00:00:00+00:00	1
1950-12-21 00:00:00+00:00	1
1950-12-24 00:00:00+00:00	1
1950-12-28 00:00:00+00:00	1
1951-01-04 00:00:00+00:00	1
1951-01-12 00:00:00+00:00	1
1951-04-27 00:00:00+00:00	1
1951-09-09 00:00:00+00:00	1
1951-10-05 00:00:00+00:00	1
1952-06-23 00:00:00+00:00	1
1953-02-19 00:00:00+00:00	1
1953-03-05 00:00:00+00:00	1
1953-05-06 00:00:00+00:00	1
1953-06-22 00:00:00+00:00	1
1953-07-21 00:00:00+00:00	1
1953-07-23 00:00:00+00:00	1
1953-07-26 00:00:00+00:00	1
1953-10-15 00:00:00+00:00	1
1954-01-01 00:00:00+00:00	2
1954-01-08 00:00:00+00:00	1
1954-05-13 00:00:00+00:00	1
1954-06-19 00:00:00+00:00	1
1954-06-24 00:00:00+00:00	1
1954-06-30 00:00:00+00:00	1
1954-12-11 00:00:00+00:00	1
1955-08-10 00:00:00+00:00	1
1955-08-11 00:00:00+00:00	1
1955-08-15 00:00:00+00:00	1
1955-08-18 00:00:00+00:00	1
1955-08-31 00:00:00+00:00	1
1955-11-18 00:00:00+00:00	1
1956-01-26 00:00:00+00:00	1
1958-02-28 00:00:00+00:00	2
1959-01-24 00:00:00+00:00	1
1960-01-01 00:00:00+00:00	4
1960-04-19 00:00:00+00:00	1
1960-04-29 00:00:00+00:00	1
1960-05-04 00:00:00+00:00	2
1960-05-30 00:00:00+00:00	1
1960-05-31 00:00:00+00:00	1
1960-07-02 00:00:00+00:00	1
1960-07-29 00:00:00+00:00	1
1960-07-31 00:00:00+00:00	1
1960-08-17 00:00:00+00:00	1
1960-08-18 00:00:00+00:00	1
1960-08-23 00:00:00+00:00	1
1960-10-11 00:00:00+00:00	1
1961-01-01 00:00:00+00:00	2
1961-05-17 00:00:00+00:00	1
1961-05-18 00:00:00+00:00	1
1961-11-05 00:00:00+00:00	1
1962-01-01 00:00:00+00:00	1
1962-08-31 00:00:00+00:00	2
1963-01-01 00:00:00+00:00	2
1963-03-31 00:00:00+00:00	1
1963-11-30 00:00:00+00:00	1
1964-06-05 00:00:00+00:00	1
1964-06-30 00:00:00+00:00	1
1964-09-04 00:00:00+00:00	1
1965-01-01 00:00:00+00:00	1
1965-01-23 00:00:00+00:00	1
1965-04-20 00:00:00+00:00	1
1965-06-18 00:00:00+00:00	1
1965-06-30 00:00:00+00:00	1
1965-07-04 00:00:00+00:00	1
1965-07-13 00:00:00+00:00	1
1965-07-15 00:00:00+00:00	1
1965-07-31 00:00:00+00:00	1
1965-08-03 00:00:00+00:00	1
1965-08-16 00:00:00+00:00	1
1965-08-29 00:00:00+00:00	1
1965-10-21 00:00:00+00:00	1
1965-10-23 00:00:00+00:00	1
1965-10-31 00:00:00+00:00	1
1965-11-05 00:00:00+00:00	1
1965-12-31 00:00:00+00:00	1
1966-01-01 00:00:00+00:00	2
1966-01-02 00:00:00+00:00	1
1966-01-11 00:00:00+00:00	1
1966-01-13 00:00:00+00:00	1
1966-01-22 00:00:00+00:00	1
1966-02-07 00:00:00+00:00	1
1966-02-12 00:00:00+00:00	1
1966-02-17 00:00:00+00:00	1
1966-02-22 00:00:00+00:00	1
1966-03-01 00:00:00+00:00	2
1966-03-10 00:00:00+00:00	1
1966-04-08 00:00:00+00:00	1
1966-04-26 00:00:00+00:00	1
1966-04-28 00:00:00+00:00	1
1966-04-30 00:00:00+00:00	2
1966-05-18 00:00:00+00:00	1
1966-06-17 00:00:00+00:00	2
1966-06-30 00:00:00+00:00	1
1966-07-31 00:00:00+00:00	1
1966-08-09 00:00:00+00:00	1
1966-08-20 00:00:00+00:00	1
1966-08-31 00:00:00+00:00	1
1966-09-06 00:00:00+00:00	1
1966-09-30 00:00:00+00:00	1
1966-10-05 00:00:00+00:00	1
1966-11-26 00:00:00+00:00	2
1967-01-01 00:00:00+00:00	1
1967-02-07 00:00:00+00:00	1
1967-02-28 00:00:00+00:00	2
1967-05-16 00:00:00+00:00	1
1967-07-07 00:00:00+00:00	1
1967-07-09 00:00:00+00:00	1
1967-07-31 00:00:00+00:00	1
1967-09-15 00:00:00+00:00	1
1967-10-13 00:00:00+00:00	1
1967-11-05 00:00:00+00:00	1
1968-01-01 00:00:00+00:00	1
1968-01-22 00:00:00+00:00	1
1968-01-26 00:00:00+00:00	1
1968-02-01 00:00:00+00:00	1
1968-02-08 00:00:00+00:00	1
1968-02-29 00:00:00+00:00	1
1968-03-31 00:00:00+00:00	1
1968-11-21 00:00:00+00:00	1
1968-11-30 00:00:00+00:00	2
1969-01-01 00:00:00+00:00	1
1969-01-19 00:00:00+00:00	1
1969-02-16 00:00:00+00:00	1
1969-03-04 00:00:00+00:00	1
1969-04-17 00:00:00+00:00	3
1969-08-05 00:00:00+00:00	1
1969-12-28 00:00:00+00:00	1
1969-12-31 00:00:00+00:00	1
1970-01-01 00:00:00+00:00	1
1970-01-16 00:00:00+00:00	1
1970-02-06 00:00:00+00:00	1
1970-06-05 00:00:00+00:00	1
1970-07-07 00:00:00+00:00	1
1970-07-10 00:00:00+00:00	1
1970-07-11 00:00:00+00:00	1
1970-11-04 00:00:00+00:00	1
1970-12-17 00:00:00+00:00	1
1971-01-01 00:00:00+00:00	1
1971-01-17 00:00:00+00:00	1
1971-04-23 00:00:00+00:00	1
1971-04-29 00:00:00+00:00	1
1971-07-02 00:00:00+00:00	1
1972-08-19 00:00:00+00:00	1
1972-09-03 00:00:00+00:00	1
1973-01-01 00:00:00+00:00	1
1973-02-01 00:00:00+00:00	1
1973-02-06 00:00:00+00:00	1
1973-07-01 00:00:00+00:00	1
1973-08-10 00:00:00+00:00	2
1974-01-01 00:00:00+00:00	2
1974-03-09 00:00:00+00:00	1
1974-07-04 00:00:00+00:00	1
1974-07-07 00:00:00+00:00	1
1975-01-01 00:00:00+00:00	5
1975-06-25 00:00:00+00:00	1
1976-01-01 00:00:00+00:00	7
1976-08-18 00:00:00+00:00	1
1976-11-05 00:00:00+00:00	1
1976-11-09 00:00:00+00:00	1
1977-01-01 00:00:00+00:00	3
1977-04-29 00:00:00+00:00	1
1977-05-27 00:00:00+00:00	1
1977-07-25 00:00:00+00:00	1
1977-12-13 00:00:00+00:00	1
1978-03-01 00:00:00+00:00	1
1978-04-05 00:00:00+00:00	1
1978-05-22 00:00:00+00:00	1
1978-08-29 00:00:00+00:00	1
1979-01-01 00:00:00+00:00	4
1979-11-20 00:00:00+00:00	1
1980-01-01 00:00:00+00:00	5
1980-02-12 00:00:00+00:00	1
1980-03-09 00:00:00+00:00	1
1980-05-22 00:00:00+00:00	1
1980-05-24 00:00:00+00:00	1
1980-05-26 00:00:00+00:00	1
1981-01-01 00:00:00+00:00	1
1982-01-01 00:00:00+00:00	2
1983-01-01 00:00:00+00:00	55
1983-09-14 00:00:00+00:00	1
1983-11-07 00:00:00+00:00	1
1984-01-01 00:00:00+00:00	10
1984-05-04 00:00:00+00:00	1
1984-07-29 00:00:00+00:00	1
1985-01-01 00:00:00+00:00	11
1985-08-30 00:00:00+00:00	1
1986-01-01 00:00:00+00:00	16
1986-02-05 00:00:00+00:00	1
1986-12-10 00:00:00+00:00	1
1987-01-01 00:00:00+00:00	44
1987-08-19 00:00:00+00:00	1
1987-09-20 00:00:00+00:00	1
1988-01-01 00:00:00+00:00	44
1988-12-05 00:00:00+00:00	1
1989-01-01 00:00:00+00:00	37
1989-02-01 00:00:00+00:00	1
1989-04-30 00:00:00+00:00	1
1989-07-11 00:00:00+00:00	1
1989-09-21 00:00:00+00:00	1
1989-09-22 00:00:00+00:00	1
1989-10-01 00:00:00+00:00	1
1989-10-09 00:00:00+00:00	1
1989-10-17 00:00:00+00:00	1
1990-01-01 00:00:00+00:00	18
1991-01-01 00:00:00+00:00	15
1991-02-17 00:00:00+00:00	1
1991-02-18 00:00:00+00:00	1
1991-03-06 00:00:00+00:00	1
1991-05-22 00:00:00+00:00	1
1991-11-06 00:00:00+00:00	1
1991-12-13 00:00:00+00:00	1
1992-01-01 00:00:00+00:00	10
1992-01-08 00:00:00+00:00	1
1992-01-29 00:00:00+00:00	1
1992-02-02 00:00:00+00:00	1
1992-02-15 00:00:00+00:00	1
1992-04-21 00:00:00+00:00	1
1992-05-19 00:00:00+00:00	2
1992-08-28 00:00:00+00:00	1
1992-10-16 00:00:00+00:00	1
1992-10-18 00:00:00+00:00	1
1992-10-27 00:00:00+00:00	1
1992-10-28 00:00:00+00:00	1
1992-11-24 00:00:00+00:00	1
1992-12-01 00:00:00+00:00	1
1993-01-01 00:00:00+00:00	13
1993-01-08 00:00:00+00:00	1
1993-04-24 00:00:00+00:00	1
1993-05-11 00:00:00+00:00	1
1993-06-01 00:00:00+00:00	1
1993-06-11 00:00:00+00:00	1
1993-07-08 00:00:00+00:00	1
1993-07-13 00:00:00+00:00	1
1993-07-28 00:00:00+00:00	1
1993-08-17 00:00:00+00:00	1
1993-08-29 00:00:00+00:00	2
1993-08-31 00:00:00+00:00	1
1993-09-01 00:00:00+00:00	1
1993-09-22 00:00:00+00:00	2
1993-10-05 00:00:00+00:00	1
1993-10-10 00:00:00+00:00	1
1993-11-02 00:00:00+00:00	1
1993-11-09 00:00:00+00:00	1
1993-11-10 00:00:00+00:00	1
1993-11-12 00:00:00+00:00	1
1993-12-11 00:00:00+00:00	1
1994-01-01 00:00:00+00:00	24
1994-03-03 00:00:00+00:00	1
1994-03-13 00:00:00+00:00	1
1994-08-02 00:00:00+00:00	1
1994-08-06 00:00:00+00:00	1
1994-10-10 00:00:00+00:00	1
1994-12-12 00:00:00+00:00	1
1995-01-01 00:00:00+00:00	13
1995-03-01 00:00:00+00:00	1
1995-03-12 00:00:00+00:00	1
1995-03-19 00:00:00+00:00	1
1995-03-23 00:00:00+00:00	1
1995-07-10 00:00:00+00:00	1
1995-09-16 00:00:00+00:00	1
1995-10-16 00:00:00+00:00	2
1995-11-06 00:00:00+00:00	1
1995-11-14 00:00:00+00:00	1
1995-11-15 00:00:00+00:00	1
1995-11-18 00:00:00+00:00	1
1995-12-18 00:00:00+00:00	1
1995-12-31 23:00:00+00:00	1
1996-01-01 00:00:00+00:00	47
1996-01-07 00:00:00+00:00	1
1996-01-20 00:00:00+00:00	1
1996-02-28 00:00:00+00:00	1
1996-03-12 00:00:00+00:00	1
1996-03-14 00:00:00+00:00	1
1996-04-16 00:00:00+00:00	1
1996-04-27 00:00:00+00:00	1
1996-05-09 00:00:00+00:00	1
1996-05-14 00:00:00+00:00	1
1996-05-15 00:00:00+00:00	1
1996-05-24 00:00:00+00:00	1
1996-06-08 00:00:00+00:00	1
1996-06-14 00:00:00+00:00	1
1996-07-30 00:00:00+00:00	1
1996-08-22 00:00:00+00:00	1
1996-08-23 00:00:00+00:00	1
1996-09-12 00:00:00+00:00	1
1996-12-05 00:00:00+00:00	1
1996-12-10 00:00:00+00:00	1
1996-12-30 00:00:00+00:00	1
1997-01-01 00:00:00+00:00	35
1997-01-18 00:00:00+00:00	1
1997-01-23 00:00:00+00:00	1
1997-02-13 00:00:00+00:00	1
1997-02-14 00:00:00+00:00	1
1997-04-21 00:00:00+00:00	1
1997-07-26 00:00:00+00:00	1
1997-08-07 00:00:00+00:00	1
1997-08-19 00:00:00+00:00	1
1997-08-23 00:00:00+00:00	1
1997-09-10 00:00:00+00:00	1
1997-09-20 00:00:00+00:00	1
1997-09-27 00:00:00+00:00	1
1997-11-24 00:00:00+00:00	1
1997-12-01 00:00:00+00:00	1
1998-01-01 00:00:00+00:00	25
1998-01-09 00:00:00+00:00	1
1998-02-05 00:00:00+00:00	1
1998-02-17 00:00:00+00:00	1
1998-03-10 00:00:00+00:00	1
1998-04-04 00:00:00+00:00	1
1998-04-25 00:00:00+00:00	1
1998-04-26 00:00:00+00:00	1
1998-05-30 00:00:00+00:00	1
1998-06-26 00:00:00+00:00	1
1998-06-27 00:00:00+00:00	1
1998-08-01 00:00:00+00:00	1
1998-08-14 00:00:00+00:00	1
1998-08-18 00:00:00+00:00	1
1998-08-22 00:00:00+00:00	1
1998-09-05 00:00:00+00:00	1
1998-09-24 00:00:00+00:00	1
1998-09-26 00:00:00+00:00	1
1998-11-06 00:00:00+00:00	1
1999-01-01 00:00:00+00:00	25
1999-01-16 00:00:00+00:00	1
1999-02-18 00:00:00+00:00	1
1999-03-05 00:00:00+00:00	1
1999-04-17 00:00:00+00:00	1
1999-05-08 00:00:00+00:00	1
1999-05-15 00:00:00+00:00	1
1999-05-29 00:00:00+00:00	1
1999-06-05 00:00:00+00:00	1
1999-06-16 00:00:00+00:00	1
1999-06-19 00:00:00+00:00	1
1999-08-06 00:00:00+00:00	1
1999-09-25 00:00:00+00:00	1
1999-10-13 00:00:00+00:00	1
1999-10-14 00:00:00+00:00	1
1999-10-23 00:00:00+00:00	1
1999-11-05 00:00:00+00:00	1
2000-01-01 00:00:00+00:00	53
2000-01-06 00:00:00+00:00	1
2000-01-14 00:00:00+00:00	1
2000-01-15 00:00:00+00:00	1
2000-03-06 00:00:00+00:00	1
2000-04-01 00:00:00+00:00	1
2000-04-08 00:00:00+00:00	1
2000-04-11 00:00:00+00:00	1
2000-05-06 00:00:00+00:00	1
2000-05-31 00:00:00+00:00	1
2000-07-07 00:00:00+00:00	1
2000-07-26 00:00:00+00:00	1
2000-09-18 00:00:00+00:00	1
2000-10-25 00:00:00+00:00	1
2000-11-08 00:00:00+00:00	1
2000-11-15 00:00:00+00:00	1
2000-11-29 00:00:00+00:00	1
2000-12-22 00:00:00+00:00	1
2000-12-28 00:00:00+00:00	1
2001-01-01 00:00:00+00:00	21
2001-01-20 00:00:00+00:00	1
2001-01-26 00:00:00+00:00	1
2001-02-06 00:00:00+00:00	1
2001-02-16 00:00:00+00:00	1
2001-03-06 00:00:00+00:00	1
2001-03-17 00:00:00+00:00	1
2001-04-07 00:00:00+00:00	1
2001-06-01 00:00:00+00:00	1
2001-06-09 00:00:00+00:00	1
2001-07-13 00:00:00+00:00	1
2001-09-08 00:00:00+00:00	1
2001-09-14 00:00:00+00:00	1
2001-09-22 00:00:00+00:00	1
2001-11-10 00:00:00+00:00	1
2001-12-12 00:00:00+00:00	1
2001-12-15 00:00:00+00:00	1
2002-01-01 00:00:00+00:00	4
2002-03-12 00:00:00+00:00	1
2002-03-16 00:00:00+00:00	1
2002-04-16 00:00:00+00:00	2
2002-04-23 00:00:00+00:00	1
2002-05-27 00:00:00+00:00	1
2002-05-28 00:00:00+00:00	1
2002-05-29 00:00:00+00:00	1
2002-06-01 00:00:00+00:00	2
2002-06-05 00:00:00+00:00	1
2002-06-15 00:00:00+00:00	1
2002-06-22 00:00:00+00:00	1
2002-06-24 00:00:00+00:00	1
2002-06-29 00:00:00+00:00	1
2002-07-01 00:00:00+00:00	3
2002-07-08 00:00:00+00:00	1
2002-07-25 00:00:00+00:00	1
2002-08-01 00:00:00+00:00	1
2002-08-10 00:00:00+00:00	1
2002-08-14 00:00:00+00:00	1
2002-10-03 00:00:00+00:00	1
2002-11-21 00:00:00+00:00	1
2002-11-26 00:00:00+00:00	1
2002-12-17 00:00:00+00:00	1
2002-12-19 00:00:00+00:00	1
2003-01-01 00:00:00+00:00	12
2003-01-06 00:00:00+00:00	1
2003-01-09 00:00:00+00:00	1
2003-01-20 00:00:00+00:00	1
2003-01-21 00:00:00+00:00	1
2003-01-22 00:00:00+00:00	1
2003-01-27 00:00:00+00:00	1
2003-02-06 00:00:00+00:00	1
2003-02-07 00:00:00+00:00	1
2003-02-18 00:00:00+00:00	1
2003-02-21 00:00:00+00:00	1
2003-02-22 00:00:00+00:00	1
2003-02-24 00:00:00+00:00	1
2003-02-26 00:00:00+00:00	1
2003-03-06 00:00:00+00:00	1
2003-03-22 00:00:00+00:00	1
2003-03-29 00:00:00+00:00	1
2003-04-17 00:00:00+00:00	1
2003-06-03 00:00:00+00:00	1
2003-06-17 00:00:00+00:00	1
2003-07-14 00:00:00+00:00	1
2003-07-18 00:00:00+00:00	1
2003-07-19 00:00:00+00:00	1
2003-07-21 00:00:00+00:00	1
2003-07-31 00:00:00+00:00	1
2003-08-05 00:00:00+00:00	1
2003-08-19 00:00:00+00:00	1
2003-08-20 00:00:00+00:00	1
2003-08-22 00:00:00+00:00	1
2003-09-09 00:00:00+00:00	2
2003-09-10 00:00:00+00:00	1
2003-09-12 00:00:00+00:00	1
2003-09-16 00:00:00+00:00	1
2003-09-27 00:00:00+00:00	1
2003-10-22 00:00:00+00:00	1
2003-11-06 00:00:00+00:00	1
2003-11-18 00:00:00+00:00	1
2003-11-26 00:00:00+00:00	1
2003-12-02 00:00:00+00:00	1
2003-12-10 00:00:00+00:00	1
2003-12-19 00:00:00+00:00	1
2003-12-22 00:00:00+00:00	1
