1887-01-01 00:00:00+00:00	1
1889-01-01 00:00:00+00:00	2
1889-05-17 00:00:00+00:00	1
1890-01-01 00:00:00+00:00	1
1890-01-29 00:00:00+00:00	1
1890-02-07 00:00:00+00:00	1
1891-04-18 00:00:00+00:00	1
1893-01-01 00:00:00+00:00	4
1893-11-11 00:00:00+00:00	1
1894-04-01 00:00:00+00:00	1
1895-04-08 00:00:00+00:00	1
1895-08-17 00:00:00+00:00	1
1895-12-28 00:00:00+00:00	1
1896-12-10 00:00:00+00:00	1
1897-01-01 00:00:00+00:00	3
1897-07-28 00:00:00+00:00	1
1898-01-01 00:00:00+00:00	1
1898-05-28 00:00:00+00:00	1
1899-01-01 00:00:00+00:00	3
1899-07-21 00:00:00+00:00	1
1900-01-01 00:00:00+00:00	7
1900-04-05 00:00:00+00:00	1
1900-04-09 00:00:00+00:00	1
1900-04-13 00:00:00+00:00	1
1900-05-03 00:00:00+00:00	1
1900-05-17 00:00:00+00:00	1
1900-09-04 00:00:00+00:00	1
1900-09-21 00:00:00+00:00	1
1900-10-11 00:00:00+00:00	1
1900-10-17 00:00:00+00:00	1
1901-01-01 00:00:00+00:00	2
1901-04-22 00:00:00+00:00	1
1901-05-19 00:00:00+00:00	1
1901-10-27 00:00:00+00:00	1
1902-01-01 00:00:00+00:00	6
1902-05-11 00:00:00+00:00	1
1902-10-19 00:00:00+00:00	1
1902-11-01 00:00:00+00:00	1
1903-01-01 00:00:00+00:00	3
1903-03-20 00:00:00+00:00	1
1903-04-15 00:00:00+00:00	1
1903-05-19 00:00:00+00:00	1
1903-05-24 00:00:00+00:00	1
1903-07-16 00:00:00+00:00	1
1903-10-12 00:00:00+00:00	1
1903-10-20 00:00:00+00:00	1
1903-10-26 00:00:00+00:00	1
1903-11-06 00:00:00+00:00	1
1903-11-23 00:00:00+00:00	1
1903-12-21 00:00:00+00:00	1
1903-12-22 00:00:00+00:00	1
1904-01-01 00:00:00+00:00	8
1904-06-21 00:00:00+00:00	1
1904-11-05 00:00:00+00:00	1
1905-01-01 00:00:00+00:00	5
1905-04-20 00:00:00+00:00	1
1905-08-18 00:00:00+00:00	1
1906-01-01 00:00:00+00:00	6
1906-09-29 00:00:00+00:00	1
1906-11-01 00:00:00+00:00	1
1907-01-01 00:00:00+00:00	7
1907-01-05 00:00:00+00:00	1
1907-03-27 00:00:00+00:00	1
1907-04-20 00:00:00+00:00	1
1907-08-05 00:00:00+00:00	1
1907-09-14 00:00:00+00:00	1
1908-01-01 00:00:00+00:00	17
1908-03-19 00:00:00+00:00	1
1908-04-04 00:00:00+00:00	1
1908-09-05 00:00:00+00:00	1
1908-09-11 00:00:00+00:00	2
1908-09-12 00:00:00+00:00	1
1909-01-01 00:00:00+00:00	4
1909-08-24 00:00:00+00:00	1
1909-08-28 00:00:00+00:00	1
1909-09-05 00:00:00+00:00	1
1909-09-27 00:00:00+00:00	1
1909-11-24 00:00:00+00:00	1
1909-12-18 00:00:00+00:00	1
1910-01-01 00:00:00+00:00	8
1910-09-22 00:00:00+00:00	1
1910-11-17 00:00:00+00:00	1
1910-11-23 00:00:00+00:00	3
1910-11-27 00:00:00+00:00	1
1910-12-03 00:00:00+00:00	1
1910-12-21 00:00:00+00:00	1
1911-01-01 00:00:00+00:00	8
1911-02-01 00:00:00+00:00	1
1911-03-03 00:00:00+00:00	1
1911-11-15 00:00:00+00:00	1
1911-12-21 00:00:00+00:00	1
1911-12-22 00:00:00+00:00	1
1912-01-01 00:00:00+00:00	5
1912-02-04 00:00:00+00:00	1
1912-04-11 00:00:00+00:00	1
1912-05-24 00:00:00+00:00	1
1913-01-01 00:00:00+00:00	5
1914-01-01 00:00:00+00:00	3
1914-12-06 00:00:00+00:00	1
1915-01-01 00:00:00+00:00	8
1916-01-01 00:00:00+00:00	3
1916-05-23 00:00:00+00:00	1
1916-08-23 00:00:00+00:00	1
1916-09-06 00:00:00+00:00	1
1916-09-22 00:00:00+00:00	1
1916-10-01 00:00:00+00:00	1
1917-01-01 00:00:00+00:00	3
1917-01-04 00:00:00+00:00	1
1918-01-01 00:00:00+00:00	3
1918-04-27 00:00:00+00:00	1
1918-05-11 00:00:00+00:00	1
1918-07-17 00:00:00+00:00	1
1918-09-10 00:00:00+00:00	1
1919-08-07 00:00:00+00:00	1
1919-08-17 00:00:00+00:00	1
1919-10-28 00:00:00+00:00	1
1919-11-23 00:00:00+00:00	1
1920-01-01 00:00:00+00:00	3
1920-08-01 00:00:00+00:00	1
1920-08-02 00:00:00+00:00	1
1920-09-09 00:00:00+00:00	1
1920-09-20 00:00:00+00:00	1
1920-11-21 00:00:00+00:00	1
1921-01-01 00:00:00+00:00	1
1921-06-20 00:00:00+00:00	1
1921-10-25 00:00:00+00:00	1
1921-12-25 00:00:00+00:00	1
1921-12-30 00:00:00+00:00	1
1922-01-01 00:00:00+00:00	2
1922-04-29 00:00:00+00:00	1
1922-05-17 00:00:00+00:00	1
1922-06-09 00:00:00+00:00	1
1922-10-14 00:00:00+00:00	1
1922-11-02 00:00:00+00:00	1
1922-11-10 00:00:00+00:00	1
1923-01-01 00:00:00+00:00	1
1923-01-04 00:00:00+00:00	1
1923-02-13 00:00:00+00:00	1
1923-02-25 00:00:00+00:00	1
1923-03-07 00:00:00+00:00	1
1923-08-07 00:00:00+00:00	1
1923-12-23 00:00:00+00:00	1
1924-01-01 00:00:00+00:00	3
1924-01-12 00:00:00+00:00	1
1924-02-03 00:00:00+00:00	1
1924-03-08 00:00:00+00:00	1
1924-03-09 00:00:00+00:00	1
1924-03-16 00:00:00+00:00	1
1924-03-22 00:00:00+00:00	1
1924-07-04 00:00:00+00:00	1
1924-12-03 00:00:00+00:00	1
1924-12-18 00:00:00+00:00	1
1924-12-20 00:00:00+00:00	1
1924-12-21 00:00:00+00:00	1
1925-01-01 00:00:00+00:00	6
1925-01-31 00:00:00+00:00	1
1925-02-24 00:00:00+00:00	1
1925-06-24 00:00:00+00:00	2
1926-01-01 00:00:00+00:00	1
1926-07-04 00:00:00+00:00	1
1926-11-12 00:00:00+00:00	1
1927-01-01 00:00:00+00:00	2
1927-03-06 00:00:00+00:00	1
1927-03-21 00:00:00+00:00	1
1927-08-04 00:00:00+00:00	1
1927-08-27 00:00:00+00:00	1
1927-09-18 00:00:00+00:00	1
1927-10-13 00:00:00+00:00	1
1927-11-12 00:00:00+00:00	1
1927-11-19 00:00:00+00:00	2
1927-11-20 00:00:00+00:00	1
1927-11-26 00:00:00+00:00	1
1927-11-27 00:00:00+00:00	3
1927-11-29 00:00:00+00:00	2
1927-12-02 00:00:00+00:00	1
1927-12-04 00:00:00+00:00	1
1928-01-01 00:00:00+00:00	5
1928-01-22 00:00:00+00:00	1
1928-01-24 00:00:00+00:00	1
1928-01-26 00:00:00+00:00	2
1928-01-27 00:00:00+00:00	1
1928-01-28 00:00:00+00:00	1
1928-01-29 00:00:00+00:00	1
1928-01-31 00:00:00+00:00	1
1928-02-05 00:00:00+00:00	1
1928-02-07 00:00:00+00:00	2
1928-03-14 00:00:00+00:00	1
1928-03-31 00:00:00+00:00	1
1928-06-17 00:00:00+00:00	1
1928-07-08 00:00:00+00:00	1
1928-08-13 00:00:00+00:00	1
1928-08-29 00:00:00+00:00	1
1928-08-31 00:00:00+00:00	2
1928-09-01 00:00:00+00:00	1
1928-09-05 00:00:00+00:00	1
1928-09-09 00:00:00+00:00	1
1928-09-10 00:00:00+00:00	2
1928-09-13 00:00:00+00:00	1
1928-09-15 00:00:00+00:00	3
1928-09-22 00:00:00+00:00	1
1928-09-23 00:00:00+00:00	3
1928-09-26 00:00:00+00:00	2
1928-09-30 00:00:00+00:00	1
1928-10-02 00:00:00+00:00	1
1928-10-04 00:00:00+00:00	2
1928-11-03 00:00:00+00:00	1
1928-11-28 00:00:00+00:00	1
1929-01-01 00:00:00+00:00	8
1929-01-20 00:00:00+00:00	1
1929-03-26 00:00:00+00:00	1
1929-04-01 00:00:00+00:00	1
1929-04-11 00:00:00+00:00	1
1929-04-20 00:00:00+00:00	2
1929-04-22 00:00:00+00:00	3
1929-04-23 00:00:00+00:00	1
1929-04-24 00:00:00+00:00	2
1929-04-26 00:00:00+00:00	1
1929-04-27 00:00:00+00:00	2
1929-04-28 00:00:00+00:00	1
1929-04-29 00:00:00+00:00	1
1929-04-30 00:00:00+00:00	2
1929-05-25 00:00:00+00:00	1
1929-06-12 00:00:00+00:00	1
1929-06-14 00:00:00+00:00	1
1929-06-22 00:00:00+00:00	1
1929-06-23 00:00:00+00:00	1
1929-06-26 00:00:00+00:00	1
1929-07-07 00:00:00+00:00	1
1929-07-09 00:00:00+00:00	1
1929-07-17 00:00:00+00:00	1
1929-07-27 00:00:00+00:00	1
1929-08-04 00:00:00+00:00	1
1929-08-06 00:00:00+00:00	1
1929-09-01 00:00:00+00:00	1
1929-09-10 00:00:00+00:00	1
1929-09-15 00:00:00+00:00	1
1929-09-25 00:00:00+00:00	1
1929-10-17 00:00:00+00:00	1
1929-11-24 00:00:00+00:00	1
1929-12-01 00:00:00+00:00	1
1929-12-29 00:00:00+00:00	1
1930-01-01 00:00:00+00:00	4
1930-01-15 00:00:00+00:00	1
1930-03-01 00:00:00+00:00	1
1930-03-06 00:00:00+00:00	1
1930-03-08 00:00:00+00:00	1
1930-03-18 00:00:00+00:00	1
1930-05-31 00:00:00+00:00	1
1930-09-16 00:00:00+00:00	1
1930-10-18 00:00:00+00:00	1
1930-11-25 00:00:00+00:00	1
1930-12-15 00:00:00+00:00	1
1930-12-24 00:00:00+00:00	1
1931-01-01 00:00:00+00:00	5
1931-02-10 00:00:00+00:00	1
1931-02-24 00:00:00+00:00	2
1931-03-01 00:00:00+00:00	1
1931-03-11 00:00:00+00:00	1
1931-04-01 00:00:00+00:00	1
1931-04-12 00:00:00+00:00	1
1931-06-12 00:00:00+00:00	1
1931-07-15 00:00:00+00:00	1
1931-08-25 00:00:00+00:00	1
1931-09-20 00:00:00+00:00	1
1931-09-30 00:00:00+00:00	1
1931-10-08 00:00:00+00:00	1
1932-01-01 00:00:00+00:00	3
1932-04-24 00:00:00+00:00	1
1932-07-08 00:00:00+00:00	2
1932-10-01 00:00:00+00:00	2
1932-10-13 00:00:00+00:00	2
1932-10-22 00:00:00+00:00	1
1933-01-01 00:00:00+00:00	3
1933-01-12 00:00:00+00:00	1
1933-01-13 00:00:00+00:00	1
1933-02-20 00:00:00+00:00	1
1933-05-06 00:00:00+00:00	1
1933-08-27 00:00:00+00:00	1
1933-10-08 00:00:00+00:00	1
1933-11-20 00:00:00+00:00	1
1933-11-23 00:00:00+00:00	1
1934-01-01 00:00:00+00:00	8
1934-04-19 00:00:00+00:00	1
1934-08-01 00:00:00+00:00	3
1934-09-01 00:00:00+00:00	5
1935-01-01 00:00:00+00:00	9
1935-01-29 00:00:00+00:00	1
1935-02-12 00:00:00+00:00	1
1935-02-19 00:00:00+00:00	1
1935-02-27 00:00:00+00:00	1
1935-05-06 00:00:00+00:00	1
1935-05-13 00:00:00+00:00	1
1935-06-03 00:00:00+00:00	1
1935-10-19 00:00:00+00:00	1
1935-10-27 00:00:00+00:00	1
1935-11-10 00:00:00+00:00	1
1935-11-18 00:00:00+00:00	3
1935-11-24 00:00:00+00:00	1
1935-12-10 00:00:00+00:00	1
1935-12-14 00:00:00+00:00	1
1935-12-27 00:00:00+00:00	1
1936-01-12 00:00:00+00:00	1
1936-02-09 00:00:00+00:00	1
1936-02-10 00:00:00+00:00	1
1936-02-17 00:00:00+00:00	2
1936-02-23 00:00:00+00:00	1
1936-03-01 00:00:00+00:00	1
1936-05-10 00:00:00+00:00	1
1936-06-07 00:00:00+00:00	1
1936-06-20 00:00:00+00:00	1
1936-12-20 00:00:00+00:00	1
1937-01-01 00:00:00+00:00	7
1937-01-03 00:00:00+00:00	1
1937-01-10 00:00:00+00:00	1
1937-02-08 00:00:00+00:00	1
1937-04-14 00:00:00+00:00	1
1937-04-17 00:00:00+00:00	1
1937-05-19 00:00:00+00:00	1
1937-06-24 00:00:00+00:00	1
1937-07-22 00:00:00+00:00	1
1937-08-07 00:00:00+00:00	1
1937-10-14 00:00:00+00:00	1
1937-10-24 00:00:00+00:00	2
1938-01-01 00:00:00+00:00	2
1938-12-23 00:00:00+00:00	1
1939-01-01 00:00:00+00:00	3
1939-01-24 00:00:00+00:00	1
1939-03-01 00:00:00+00:00	1
1939-04-01 00:00:00+00:00	1
1939-05-01 00:00:00+00:00	1
1939-08-27 00:00:00+00:00	1
1942-01-01 00:00:00+00:00	1
1944-04-08 00:00:00+00:00	1
1946-01-01 00:00:00+00:00	2
1946-08-18 00:00:00+00:00	1
1948-02-01 00:00:00+00:00	1
1948-07-11 00:00:00+00:00	1
1949-01-01 00:00:00+00:00	1
1949-10-12 00:00:00+00:00	1
1949-10-16 00:00:00+00:00	1
1950-11-12 00:00:00+00:00	1
1950-11-26 00:00:00+00:00	1
1950-11-29 00:00:00+00:00	1
1951-07-22 00:00:00+00:00	1
1953-02-01 00:00:00+00:00	1
1953-09-10 00:00:00+00:00	1
1954-01-24 00:00:00+00:00	1
1954-06-24 00:00:00+00:00	1
1954-10-17 00:00:00+00:00	1
1955-10-31 00:00:00+00:00	1
1957-10-23 00:00:00+00:00	1
1958-02-02 00:00:00+00:00	1
1959-01-18 00:00:00+00:00	1
1960-01-01 00:00:00+00:00	2
1960-11-06 00:00:00+00:00	1
1961-02-08 00:00:00+00:00	1
1961-03-19 00:00:00+00:00	1
1961-11-05 00:00:00+00:00	1
1961-12-13 00:00:00+00:00	1
1962-01-01 00:00:00+00:00	2
1962-01-28 00:00:00+00:00	1
1963-01-01 00:00:00+00:00	7
1963-02-10 00:00:00+00:00	1
1963-04-27 00:00:00+00:00	1
1963-10-26 00:00:00+00:00	1
1965-01-01 00:00:00+00:00	2
1965-07-31 00:00:00+00:00	1
1965-10-31 00:00:00+00:00	1
1966-01-01 00:00:00+00:00	8
1967-01-01 00:00:00+00:00	4
1967-10-21 00:00:00+00:00	1
1967-10-30 00:00:00+00:00	1
1968-01-01 00:00:00+00:00	1
1968-04-28 00:00:00+00:00	1
1969-01-01 00:00:00+00:00	2
1969-07-06 00:00:00+00:00	1
1970-01-01 00:00:00+00:00	2
1970-03-22 00:00:00+00:00	1
1971-01-01 00:00:00+00:00	1
1971-11-13 00:00:00+00:00	1
1972-01-01 00:00:00+00:00	7
1972-06-15 00:00:00+00:00	1
1972-10-22 00:00:00+00:00	1
1973-02-18 00:00:00+00:00	1
1974-06-02 00:00:00+00:00	1
1974-06-23 00:00:00+00:00	1
1974-08-04 00:00:00+00:00	1
1975-01-01 00:00:00+00:00	2
1975-11-09 00:00:00+00:00	1
1976-01-01 00:00:00+00:00	5
1976-10-07 00:00:00+00:00	1
1977-01-01 00:00:00+00:00	1
1977-08-04 00:00:00+00:00	1
1978-01-01 00:00:00+00:00	4
1979-01-01 00:00:00+00:00	2
1980-01-01 00:00:00+00:00	8
1981-01-01 00:00:00+00:00	3
1982-01-01 00:00:00+00:00	1
1983-01-01 00:00:00+00:00	1
1984-01-01 00:00:00+00:00	2
1985-01-01 00:00:00+00:00	4
1985-02-18 00:00:00+00:00	1
1985-09-30 00:00:00+00:00	1
1986-01-01 00:00:00+00:00	2
1987-01-01 00:00:00+00:00	2
1988-01-01 00:00:00+00:00	5
1989-01-01 00:00:00+00:00	4
1990-01-01 00:00:00+00:00	1
1992-01-01 00:00:00+00:00	3
1994-01-01 00:00:00+00:00	1
1994-10-01 00:00:00+00:00	1
1996-01-01 00:00:00+00:00	1
1998-04-01 00:00:00+00:00	2
2000-01-01 00:00:00+00:00	1
2001-01-01 00:00:00+00:00	1
2002-01-01 00:00:00+00:00	1
2003-01-01 00:00:00+00:00	1
