1910-01-01 00:00:00+00:00	1
1911-01-01 00:00:00+00:00	1
1916-10-27 00:00:00+00:00	1
1919-01-01 00:00:00+00:00	1
1920-01-01 00:00:00+00:00	2
1920-11-22 00:00:00+00:00	1
1921-01-01 00:00:00+00:00	4
1921-07-16 00:00:00+00:00	1
1922-01-01 00:00:00+00:00	3
1922-10-01 00:00:00+00:00	1
1923-01-01 00:00:00+00:00	1
1923-08-07 00:00:00+00:00	1
1923-10-20 00:00:00+00:00	1
