1860-01-01 00:00:00+00:00	9
1860-01-28 00:00:00+00:00	1
1866-01-01 00:00:00+00:00	1
1869-01-01 00:00:00+00:00	2
1875-01-01 00:00:00+00:00	2
1876-01-01 00:00:00+00:00	1
1878-01-01 00:00:00+00:00	2
1879-01-01 00:00:00+00:00	1
1881-01-01 00:00:00+00:00	3
1884-01-01 00:00:00+00:00	2
1887-01-01 00:00:00+00:00	1
1888-01-01 00:00:00+00:00	2
1889-01-01 00:00:00+00:00	8
1890-01-01 00:00:00+00:00	19
1891-01-01 00:00:00+00:00	1
1893-01-01 00:00:00+00:00	1
1894-01-01 00:00:00+00:00	3
1896-01-01 00:00:00+00:00	1
1897-01-01 00:00:00+00:00	2
1898-01-01 00:00:00+00:00	5
1899-01-01 00:00:00+00:00	1
1900-01-01 00:00:00+00:00	3
1901-01-01 00:00:00+00:00	2
1902-01-01 00:00:00+00:00	2
1903-01-01 00:00:00+00:00	2
1904-01-01 00:00:00+00:00	2
1905-01-01 00:00:00+00:00	3
1906-01-01 00:00:00+00:00	2
1907-01-01 00:00:00+00:00	3
1908-01-01 00:00:00+00:00	6
1909-01-01 00:00:00+00:00	2
1910-01-01 00:00:00+00:00	3
1910-08-01 00:00:00+00:00	1
1911-01-01 00:00:00+00:00	1
1912-01-01 00:00:00+00:00	4
1912-03-01 00:00:00+00:00	1
1913-01-01 00:00:00+00:00	2
1914-01-01 00:00:00+00:00	5
1916-01-01 00:00:00+00:00	2
1917-01-01 00:00:00+00:00	1
1918-01-01 00:00:00+00:00	1
1919-01-01 00:00:00+00:00	15
1919-09-07 00:00:00+00:00	1
1920-01-01 00:00:00+00:00	29
1920-06-01 00:00:00+00:00	2
1920-06-21 00:00:00+00:00	1
1920-10-17 00:00:00+00:00	1
1921-01-01 00:00:00+00:00	23
1921-01-14 00:00:00+00:00	1
1921-01-17 00:00:00+00:00	1
1921-02-06 00:00:00+00:00	1
1921-02-14 00:00:00+00:00	1
1921-02-18 00:00:00+00:00	2
1921-03-10 00:00:00+00:00	1
1921-03-22 00:00:00+00:00	1
1921-03-31 00:00:00+00:00	2
1921-05-14 00:00:00+00:00	2
1921-06-01 00:00:00+00:00	1
1921-07-31 00:00:00+00:00	1
1921-08-02 00:00:00+00:00	1
1921-08-03 00:00:00+00:00	4
1921-08-04 00:00:00+00:00	1
1921-08-07 00:00:00+00:00	3
1921-08-23 00:00:00+00:00	1
1921-10-01 00:00:00+00:00	1
1921-11-13 00:00:00+00:00	3
1922-01-01 00:00:00+00:00	33
1922-03-01 00:00:00+00:00	1
1922-03-12 00:00:00+00:00	1
1922-03-19 00:00:00+00:00	1
1922-04-19 00:00:00+00:00	1
1922-05-01 00:00:00+00:00	7
1922-05-27 00:00:00+00:00	2
1923-01-01 00:00:00+00:00	26
1923-05-01 00:00:00+00:00	4
1923-06-01 00:00:00+00:00	1
1923-09-01 00:00:00+00:00	12
1923-09-27 00:00:00+00:00	1
1923-10-27 00:00:00+00:00	1
1924-01-01 00:00:00+00:00	32
1924-03-29 00:00:00+00:00	1
1924-06-01 00:00:00+00:00	1
1924-06-25 00:00:00+00:00	1
1924-10-01 00:00:00+00:00	1
1924-11-20 00:00:00+00:00	1
1925-01-01 00:00:00+00:00	40
1925-02-01 00:00:00+00:00	1
1925-04-25 00:00:00+00:00	1
1925-06-01 00:00:00+00:00	1
1925-07-01 00:00:00+00:00	10
1925-08-23 00:00:00+00:00	1
1925-09-01 00:00:00+00:00	2
1925-10-01 00:00:00+00:00	1
1925-11-01 00:00:00+00:00	1
1925-11-29 00:00:00+00:00	1
1926-01-01 00:00:00+00:00	21
1926-01-30 00:00:00+00:00	1
1926-03-01 00:00:00+00:00	1
1926-03-15 00:00:00+00:00	1
1926-04-10 00:00:00+00:00	1
1926-07-19 00:00:00+00:00	2
1926-10-21 00:00:00+00:00	1
1926-11-01 00:00:00+00:00	1
1926-12-01 00:00:00+00:00	4
1926-12-30 00:00:00+00:00	1
1927-01-01 00:00:00+00:00	50
1927-01-18 00:00:00+00:00	1
1927-02-11 00:00:00+00:00	1
1927-02-26 00:00:00+00:00	1
1927-04-01 00:00:00+00:00	1
1927-04-10 00:00:00+00:00	8
1927-06-01 00:00:00+00:00	2
1927-07-15 00:00:00+00:00	3
1927-10-01 00:00:00+00:00	5
1927-11-03 00:00:00+00:00	1
1927-11-25 00:00:00+00:00	1
1927-12-01 00:00:00+00:00	4
1928-01-01 00:00:00+00:00	60
1928-02-01 00:00:00+00:00	2
1928-03-01 00:00:00+00:00	1
1928-05-01 00:00:00+00:00	1
1928-05-20 00:00:00+00:00	1
1928-06-01 00:00:00+00:00	1
1928-09-01 00:00:00+00:00	2
1928-09-17 00:00:00+00:00	1
1928-09-21 00:00:00+00:00	1
1928-10-01 00:00:00+00:00	1
1928-11-01 00:00:00+00:00	1
1929-01-01 00:00:00+00:00	78
1929-01-04 00:00:00+00:00	1
1929-02-01 00:00:00+00:00	3
1929-02-27 00:00:00+00:00	1
1929-04-21 00:00:00+00:00	1
1929-05-01 00:00:00+00:00	1
1929-06-01 00:00:00+00:00	4
1929-07-01 00:00:00+00:00	2
1929-07-21 00:00:00+00:00	3
1929-09-01 00:00:00+00:00	1
1929-09-15 00:00:00+00:00	1
1929-10-01 00:00:00+00:00	1
1929-11-01 00:00:00+00:00	1
1929-12-01 00:00:00+00:00	6
1930-01-01 00:00:00+00:00	90
1930-02-15 00:00:00+00:00	1
1930-04-01 00:00:00+00:00	7
1930-05-01 00:00:00+00:00	1
1930-07-01 00:00:00+00:00	2
1930-08-01 00:00:00+00:00	2
1930-08-29 00:00:00+00:00	1
1930-09-01 00:00:00+00:00	1
1930-09-30 00:00:00+00:00	1
1930-10-01 00:00:00+00:00	1
1930-11-20 00:00:00+00:00	1
1930-12-01 00:00:00+00:00	2
1930-12-04 00:00:00+00:00	2
1931-01-01 00:00:00+00:00	57
1931-02-01 00:00:00+00:00	2
1931-02-28 00:00:00+00:00	1
1931-03-01 00:00:00+00:00	2
1931-03-15 00:00:00+00:00	1
1931-04-01 00:00:00+00:00	2
1931-05-01 00:00:00+00:00	1
1931-07-01 00:00:00+00:00	1
1931-07-04 00:00:00+00:00	1
1931-07-18 00:00:00+00:00	1
1931-07-25 00:00:00+00:00	2
1931-08-01 00:00:00+00:00	3
1931-09-01 00:00:00+00:00	1
1931-10-15 00:00:00+00:00	7
1931-11-01 00:00:00+00:00	1
1931-11-17 00:00:00+00:00	1
1931-12-01 00:00:00+00:00	1
1931-12-15 00:00:00+00:00	1
1932-01-01 00:00:00+00:00	50
1932-01-25 00:00:00+00:00	2
1932-03-01 00:00:00+00:00	4
1932-04-01 00:00:00+00:00	3
1932-04-15 00:00:00+00:00	2
1932-05-01 00:00:00+00:00	3
1932-05-12 00:00:00+00:00	2
1932-05-21 00:00:00+00:00	1
1932-07-01 00:00:00+00:00	1
1932-09-01 00:00:00+00:00	1
1932-09-30 00:00:00+00:00	1
1932-10-01 00:00:00+00:00	1
1932-11-01 00:00:00+00:00	1
1932-12-01 00:00:00+00:00	1
1933-01-01 00:00:00+00:00	64
1933-02-01 00:00:00+00:00	1
1933-03-01 00:00:00+00:00	2
1933-03-15 00:00:00+00:00	1
1933-04-01 00:00:00+00:00	1
1933-06-01 00:00:00+00:00	1
1933-06-15 00:00:00+00:00	1
1933-07-15 00:00:00+00:00	3
1933-08-01 00:00:00+00:00	1
1933-09-01 00:00:00+00:00	2
1933-10-01 00:00:00+00:00	1
1933-11-01 00:00:00+00:00	1
1933-11-15 00:00:00+00:00	1
1933-11-30 00:00:00+00:00	1
1933-12-01 00:00:00+00:00	1
1934-01-01 00:00:00+00:00	70
1934-01-30 00:00:00+00:00	1
1934-02-01 00:00:00+00:00	1
1934-04-01 00:00:00+00:00	5
1934-07-01 00:00:00+00:00	1
1934-07-15 00:00:00+00:00	1
1934-11-01 00:00:00+00:00	1
1934-12-01 00:00:00+00:00	1
1934-12-02 00:00:00+00:00	1
1934-12-15 00:00:00+00:00	1
1935-01-01 00:00:00+00:00	70
1935-01-17 00:00:00+00:00	1
1935-03-01 00:00:00+00:00	2
1935-03-02 00:00:00+00:00	1
1935-03-10 00:00:00+00:00	3
1935-04-01 00:00:00+00:00	1
1935-04-11 00:00:00+00:00	1
1935-05-01 00:00:00+00:00	1
1935-06-01 00:00:00+00:00	1
1935-07-01 00:00:00+00:00	1
1935-07-07 00:00:00+00:00	1
1935-09-01 00:00:00+00:00	1
1935-10-01 00:00:00+00:00	4
1935-10-15 00:00:00+00:00	2
1935-11-01 00:00:00+00:00	1
1935-12-01 00:00:00+00:00	3
1936-01-01 00:00:00+00:00	33
1936-02-01 00:00:00+00:00	1
1936-02-05 00:00:00+00:00	1
1936-03-01 00:00:00+00:00	1
1936-03-08 00:00:00+00:00	1
1936-05-01 00:00:00+00:00	1
1936-05-15 00:00:00+00:00	1
1936-06-01 00:00:00+00:00	2
1936-06-10 00:00:00+00:00	2
1936-07-01 00:00:00+00:00	1
1936-08-01 00:00:00+00:00	1
1936-09-01 00:00:00+00:00	1
1936-11-01 00:00:00+00:00	2
1937-01-01 00:00:00+00:00	22
1937-01-29 00:00:00+00:00	1
1937-02-15 00:00:00+00:00	1
1937-03-01 00:00:00+00:00	1
1937-04-15 00:00:00+00:00	1
1937-05-01 00:00:00+00:00	1
1937-06-01 00:00:00+00:00	1
1937-06-12 00:00:00+00:00	1
1937-07-01 00:00:00+00:00	2
1937-09-15 00:00:00+00:00	1
1937-10-01 00:00:00+00:00	4
1937-11-01 00:00:00+00:00	6
1937-12-15 00:00:00+00:00	1
1938-01-01 00:00:00+00:00	42
1938-01-18 00:00:00+00:00	1
1938-01-23 00:00:00+00:00	1
1938-01-30 00:00:00+00:00	1
1938-02-10 00:00:00+00:00	1
1938-04-29 00:00:00+00:00	1
1938-05-01 00:00:00+00:00	1
1938-05-15 00:00:00+00:00	3
1938-07-01 00:00:00+00:00	1
1938-10-15 00:00:00+00:00	3
1938-11-01 00:00:00+00:00	1
1938-11-30 00:00:00+00:00	1
1938-12-01 00:00:00+00:00	3
1939-01-01 00:00:00+00:00	25
1939-02-01 00:00:00+00:00	1
1939-03-01 00:00:00+00:00	4
1939-04-15 00:00:00+00:00	1
1939-05-01 00:00:00+00:00	7
1939-07-01 00:00:00+00:00	1
1939-09-01 00:00:00+00:00	1
1945-01-01 00:00:00+00:00	5
1945-03-22 00:00:00+00:00	1
1945-05-26 00:00:00+00:00	1
1945-06-05 00:00:00+00:00	1
1945-06-13 00:00:00+00:00	1
1945-07-15 00:00:00+00:00	1
1945-07-19 00:00:00+00:00	1
1945-07-21 00:00:00+00:00	1
1945-08-31 00:00:00+00:00	1
1945-09-08 00:00:00+00:00	1
1945-09-25 00:00:00+00:00	1
1945-09-26 00:00:00+00:00	1
1945-10-19 00:00:00+00:00	1
1946-01-01 00:00:00+00:00	60
1946-01-09 00:00:00+00:00	1
1946-02-09 00:00:00+00:00	1
1946-03-23 00:00:00+00:00	1
1946-08-28 00:00:00+00:00	1
1946-09-01 00:00:00+00:00	5
1946-11-25 00:00:00+00:00	1
1946-12-01 00:00:00+00:00	1
1946-12-06 00:00:00+00:00	1
1946-12-28 00:00:00+00:00	1
1947-01-01 00:00:00+00:00	47
1947-03-24 00:00:00+00:00	1
1947-05-31 00:00:00+00:00	1
1947-06-07 00:00:00+00:00	1
1947-06-26 00:00:00+00:00	1
1947-07-09 00:00:00+00:00	1
1948-01-01 00:00:00+00:00	11
1948-01-11 00:00:00+00:00	1
1948-03-01 00:00:00+00:00	1
1948-04-01 00:00:00+00:00	3
1948-05-01 00:00:00+00:00	1
1948-06-01 00:00:00+00:00	1
1949-01-01 00:00:00+00:00	2
1949-04-02 00:00:00+00:00	1
1949-04-03 00:00:00+00:00	1
1949-10-16 00:00:00+00:00	1
1949-11-11 00:00:00+00:00	1
1949-11-12 00:00:00+00:00	1
1949-12-01 00:00:00+00:00	1
1949-12-30 00:00:00+00:00	1
1950-01-01 00:00:00+00:00	5
1950-07-02 00:00:00+00:00	1
1953-01-01 00:00:00+00:00	3
1953-07-03 00:00:00+00:00	1
1954-12-21 00:00:00+00:00	1
1955-01-01 00:00:00+00:00	1
1955-11-15 00:00:00+00:00	1
1957-01-01 00:00:00+00:00	1
1958-01-01 00:00:00+00:00	1
1959-01-01 00:00:00+00:00	2
1959-01-31 00:00:00+00:00	9
1960-01-01 00:00:00+00:00	2
1961-01-01 00:00:00+00:00	2
1962-01-01 00:00:00+00:00	2
1962-04-01 00:00:00+00:00	1
1962-09-30 00:00:00+00:00	1
1963-01-01 00:00:00+00:00	6
1963-04-30 00:00:00+00:00	1
1963-12-31 00:00:00+00:00	1
1964-01-01 00:00:00+00:00	2
1964-01-22 00:00:00+00:00	1
1965-01-01 00:00:00+00:00	6
1965-03-09 23:00:00+00:00	1
1965-12-31 23:00:00+00:00	1
1966-01-01 00:00:00+00:00	2
1966-05-13 00:00:00+00:00	2
1966-06-23 00:00:00+00:00	1
1966-08-25 00:00:00+00:00	1
1966-09-21 00:00:00+00:00	1
1967-01-01 00:00:00+00:00	4
1967-05-18 00:00:00+00:00	2
1968-01-01 00:00:00+00:00	3
1968-01-08 23:00:00+00:00	1
1968-07-08 23:00:00+00:00	3
1968-08-12 00:00:00+00:00	1
1968-12-31 23:00:00+00:00	1
1969-01-01 00:00:00+00:00	4
1969-04-01 00:00:00+00:00	1
1969-08-31 23:00:00+00:00	1
1969-11-30 00:00:00+00:00	1
1969-12-24 00:00:00+00:00	1
1969-12-31 23:00:00+00:00	10
1970-01-01 00:00:00+00:00	3
1970-06-30 23:00:00+00:00	1
1970-12-31 23:00:00+00:00	4
1971-01-01 00:00:00+00:00	4
1971-01-22 00:00:00+00:00	1
1971-12-31 23:00:00+00:00	3
1972-01-01 00:00:00+00:00	16
1973-01-01 00:00:00+00:00	2
1973-02-20 23:00:00+00:00	5
1973-04-10 23:00:00+00:00	3
1974-01-01 00:00:00+00:00	4
1974-04-30 00:00:00+00:00	1
1974-10-31 00:00:00+00:00	1
1975-01-01 00:00:00+00:00	5
1975-02-28 00:00:00+00:00	1
1975-06-30 00:00:00+00:00	1
1975-10-31 00:00:00+00:00	1
1976-01-01 00:00:00+00:00	12
1976-03-31 00:00:00+00:00	1
1976-05-02 00:00:00+00:00	2
1976-05-12 00:00:00+00:00	1
1977-01-01 00:00:00+00:00	12
1977-08-31 00:00:00+00:00	1
1978-01-01 00:00:00+00:00	5
1978-10-31 00:00:00+00:00	1
1979-01-01 00:00:00+00:00	4
1980-01-01 00:00:00+00:00	2
1980-11-17 00:00:00+00:00	1
1980-12-31 00:00:00+00:00	1
1981-01-01 00:00:00+00:00	5
1981-04-07 00:00:00+00:00	1
1981-05-28 00:00:00+00:00	1
1981-12-31 23:00:00+00:00	1
1982-01-01 00:00:00+00:00	9
1983-01-01 00:00:00+00:00	12
1983-12-31 00:00:00+00:00	1
1983-12-31 23:00:00+00:00	2
1984-01-01 00:00:00+00:00	5
1984-02-29 00:00:00+00:00	1
1984-12-31 23:00:00+00:00	1
1985-01-01 00:00:00+00:00	12
1985-02-18 00:00:00+00:00	1
1985-05-01 00:00:00+00:00	1
1985-05-31 00:00:00+00:00	1
1985-12-31 23:00:00+00:00	2
1986-01-01 00:00:00+00:00	20
1986-12-31 23:00:00+00:00	3
1987-01-01 00:00:00+00:00	16
1987-05-30 00:00:00+00:00	1
1987-08-19 00:00:00+00:00	2
1987-08-31 00:00:00+00:00	1
1988-01-01 00:00:00+00:00	12
1988-05-16 00:00:00+00:00	2
1988-06-19 00:00:00+00:00	2
1989-01-01 00:00:00+00:00	13
1989-12-31 23:00:00+00:00	1
1990-01-01 00:00:00+00:00	21
1991-01-01 00:00:00+00:00	11
1991-08-30 00:00:00+00:00	1
1992-01-01 00:00:00+00:00	7
1992-01-31 00:00:00+00:00	1
1992-04-16 00:00:00+00:00	2
1992-07-03 00:00:00+00:00	1
1992-11-30 00:00:00+00:00	1
1992-12-01 00:00:00+00:00	4
1993-01-01 00:00:00+00:00	12
1993-07-01 00:00:00+00:00	1
1994-01-01 00:00:00+00:00	16
1994-09-15 00:00:00+00:00	4
1995-01-01 00:00:00+00:00	6
1995-03-03 00:00:00+00:00	1
1995-06-28 00:00:00+00:00	1
1995-08-31 00:00:00+00:00	1
1995-10-01 00:00:00+00:00	1
1996-01-01 00:00:00+00:00	12
1996-05-20 00:00:00+00:00	1
1996-09-01 00:00:00+00:00	1
1996-09-11 00:00:00+00:00	1
1996-09-26 00:00:00+00:00	1
1996-10-09 00:00:00+00:00	1
1997-01-01 00:00:00+00:00	15
1997-01-08 00:00:00+00:00	1
1997-01-23 00:00:00+00:00	4
1997-02-06 00:00:00+00:00	1
1997-03-18 00:00:00+00:00	1
1997-05-20 00:00:00+00:00	1
1997-06-05 00:00:00+00:00	1
1997-08-20 00:00:00+00:00	1
1998-01-01 00:00:00+00:00	17
1998-08-31 00:00:00+00:00	1
1998-11-01 00:00:00+00:00	2
1999-01-01 00:00:00+00:00	26
1999-12-31 23:00:00+00:00	14
2000-01-01 00:00:00+00:00	9
2000-04-30 00:00:00+00:00	1
2000-07-26 00:00:00+00:00	1
2000-12-31 23:00:00+00:00	2
2001-01-01 00:00:00+00:00	24
2001-07-25 00:00:00+00:00	1
2001-09-01 00:00:00+00:00	1
2001-10-31 00:00:00+00:00	1
2001-12-31 23:00:00+00:00	1
2002-01-01 00:00:00+00:00	17
2002-01-10 00:00:00+00:00	1
2002-05-31 00:00:00+00:00	1
2002-12-04 00:00:00+00:00	1
2002-12-31 23:00:00+00:00	1
2003-01-01 00:00:00+00:00	18
2003-04-30 00:00:00+00:00	1
2003-12-17 00:00:00+00:00	1
