1973-01-01 00:00:00+00:00	1
1993-01-01 00:00:00+00:00	15
1993-09-08 00:00:00+00:00	1
1993-09-28 00:00:00+00:00	2
1993-11-10 00:00:00+00:00	1
1993-11-26 00:00:00+00:00	1
1993-12-02 00:00:00+00:00	2
1993-12-12 00:00:00+00:00	1
1993-12-15 00:00:00+00:00	1
1994-01-01 00:00:00+00:00	8
1994-02-18 00:00:00+00:00	1
1994-05-08 00:00:00+00:00	1
1994-07-01 00:00:00+00:00	2
1995-01-01 00:00:00+00:00	8
1995-03-02 00:00:00+00:00	1
1995-03-03 00:00:00+00:00	1
1995-03-11 00:00:00+00:00	1
1995-03-17 00:00:00+00:00	1
1995-03-29 00:00:00+00:00	1
1995-04-06 00:00:00+00:00	1
1995-04-27 00:00:00+00:00	1
1995-05-07 00:00:00+00:00	1
1995-07-22 00:00:00+00:00	1
1996-01-01 00:00:00+00:00	7
1996-01-04 00:00:00+00:00	1
1996-01-31 00:00:00+00:00	1
1996-03-29 00:00:00+00:00	1
1997-01-01 00:00:00+00:00	3
1997-03-22 00:00:00+00:00	1
1998-01-01 00:00:00+00:00	4
1998-05-28 00:00:00+00:00	1
1998-09-10 00:00:00+00:00	1
1999-01-01 00:00:00+00:00	4
2000-01-01 00:00:00+00:00	3
2001-06-01 00:00:00+00:00	1
2002-06-24 00:00:00+00:00	1
