	word	lname	iid	duration_start	duration_end	occurences	highlighting
28	Afroamerykanin	Mazowieckie Czasopisma Regionalne	1706194	2002-01-01 00:00:00+00:00	2002-12-31 23:59:59+00:00	0	' stanowe USA nadal trwały \nprzy zasadzie zarówno nieprzyjmowania w swoje szeregi <em>Afroamerykanów</em>, jak \ni'
38	Afroamerykanin	Mazowieckie Czasopisma Regionalne	1706194	2002-01-01 00:00:00+00:00	2002-12-31 23:59:59+00:00	0	"' 1775 r. przyjęła do wolnomularstwa 15 cywilnych osób, <em>Afroamerykanów</em>. Bostońska loża „cywilna"" nie'"
43	Afroamerykanin	Mazowieckie Czasopisma Regionalne	1706223	2000-01-01 00:00:00+00:00	2000-12-31 23:59:59+00:00	0	' prowincji Ontario w Kanadzie. <em>Afroamerykanie</em>, którzy powrócili do ojczyzny swoich przodków, powołali do'
72	Afroamerykanin	Biblioteka Cyfrowa Polskiego Instytutu Antropologii	293860	2003-01-01 00:00:00+00:00	2003-12-31 23:59:59+00:00	0	' różnych grup etnicznych i rasowych (jak np. <em>Afroamerykanie</em>). Tak więc poważną wątpliwość budzi'
90	Afroamerykanin	Małopolska Biblioteka Cyfrowa	606540	2000-10-29 00:00:00+00:00	2000-10-29 23:59:59+00:00	0	' góry nadbiegał <em>Afroamerykanin</em> w białym garniturze z magnum w prawej dłoni. Widząc \ndenatkę i Al Dentego'
117	Afroamerykanin	Mazowieckie Czasopisma Regionalne	1706194	2002-01-01 00:00:00+00:00	2002-12-31 23:59:59+00:00	0	' lat sześćdziesiątych, w New Hampshire pierwsza powstała dopiero w 1975 r. Toteż <em>Afroamerykanie</em> z'
119	Afroamerykanin	Czytelnia Wirtualna Katolickiego Uniwersytetu Lubelskiego Jana Pawła II	4083242	1998-01-01 00:00:00+00:00	1998-12-31 23:59:59+00:00	0	' wiem i Kościołowi i przykazaniu braterskiej miłości (Przemówienie \ndo przedstawicieli <em>Afroamerykanów</em>'
127	Afroamerykanin	Repozytorium Cyfrowe Instytutów Naukowych	842722	2001-01-01 00:00:00+00:00	2001-12-31 23:59:59+00:00	0	' określonej grupie badanych (np. Żydów aszkenazyjskich czy <em>Afroamerykanów</em>).\nW diagnostyce molekularnej, przede'
137	Afroamerykanin	Mazowieckie Czasopisma Regionalne	1706194	2002-01-01 00:00:00+00:00	2002-12-31 23:59:59+00:00	0	' Kolumbii, \ntj. okręgu stołecznego obejmującego Waszyngton i jego okolice). Wolnomularstwo <em>Afroamerykanów</em>'
138	Afroamerykanin	Mazowieckie Czasopisma Regionalne	1706194	2002-01-01 00:00:00+00:00	2002-12-31 23:59:59+00:00	0	' nieprzyjmowania do swego grona <em>Afroamerykanów</em> i nieuznawania ich odrębnych struktur organizacyjnych. Taka dwoista'
139	Afroamerykanin	Mazowieckie Czasopisma Regionalne	1706194	2002-01-01 00:00:00+00:00	2002-12-31 23:59:59+00:00	0	', niekiedy wręcz pomagały. Wyrazistym przejawem \ntego była nominacja w 1987 r. <em>Afroamerykanina</em> doradcą'
144	Afroamerykanin	Armarium. dominikańska biblioteka cyfrowa	303168	1998-01-01 00:00:00+00:00	1998-12-31 23:59:59+00:00	0	' metysów, <em>Afroamerykanów</em> i wieśniaków Ameryki Łacińskiej; 1 min 800 tys. dolarów na walkę z pustynią i'
151	Afroamerykanin	Mazowieckie Czasopisma Regionalne	1706194	2002-01-01 00:00:00+00:00	2002-12-31 23:59:59+00:00	0	"' należeli - prócz <em>Afroamerykanów</em> - pojedynczy biali adepci „sztuki królewskiej"", nie stosowano tu'"
152	Afroamerykanin	Mazowieckie Czasopisma Regionalne	1706223	2000-01-01 00:00:00+00:00	2000-12-31 23:59:59+00:00	0	"' <em>Afroamerykanów</em> w szeregi „sztuki \nkrólewskiej"" był w ciągu blisko dwóch wieków jednym z jego kanonów. Działo \nsię'"
157	Afroamerykanin	Małopolska Biblioteka Cyfrowa	739399	2000-09-03 00:00:00+00:00	2000-09-03 23:59:59+00:00	0	' zawsze było burzliwe i interesujące. Sceny \nz życia <em>Afroamerykanów</em> zostały zarejestrowane na tysiącach'
160	Afroamerykanin	Małopolska Biblioteka Cyfrowa	646065	2002-03-31 00:00:00+00:00	2002-03-31 23:59:59+00:00	0	' typowych złożeń \nimiennycb, których człony polączone są interfikscm -0- (<em>afroamerykanin</em>, afroazjarycki'
166	Afroamerykanin	Dolnośląska Biblioteka Cyfrowa	553759	2000-01-01 00:00:00+00:00	2000-12-31 23:59:59+00:00	0	' aJ. (1995) \nUSA \n<em>Afroamerykanie</em> 22% (119) - Nelson et al. (1995) \nLatynosi 10% (73) populacja'
167	Afroamerykanin	Biblioteka Cyfrowa UMCS	362800	1997-01-01 00:00:00+00:00	1997-12-31 23:59:59+00:00	0	' historię <em>Afroamerykanów</em>. W innych pojawiają się informacje o radykalizmie żydowskim, kulturze słowiańskiej'
171	Afroamerykanin	Śląski Klub Fantastyki	2334038	1999-01-01 00:00:00+00:00	1999-12-31 23:59:59+00:00	0	' na pod3odze, jeden z w3azów otwiera siê i pojawia siê kolejny pan, <em>Afroamerykanin</em> z wygl1du. W koñcu'
176	Afroamerykanin	Śląska Biblioteka Cyfrowa	866395	2000-01-01 00:00:00+00:00	2000-12-31 23:59:59+00:00	0	' <em>Afroamerykanów</em>, przewiezionych tam \ni krzywdzonych przez bialych. Potem pojechalam na \nmistrzostwa Polski w'
177	Afroamerykanin	Bałtycka Biblioteka Cyfrowa	394918	1996-01-01 00:00:00+00:00	1996-12-31 23:59:59+00:00	0	' opisu tego typu społeczeństwa \nAmeryki wystarczałyby terminy: biali, <em>Afroamerykanie</em>, etnicy hiszpańscy'
179	Afroamerykanin	Dolnośląska Biblioteka Cyfrowa	554578	2000-01-01 00:00:00+00:00	2000-12-31 23:59:59+00:00	0	' \nnadciśnienie tętnicze <em>Afroamerykanów</em>, u których \nnadciśnienie cechowało się sodo wrażliwością oraz \nkorzystnym'
181	Afroamerykanin	Dolnośląska Biblioteka Cyfrowa	563689	2001-01-01 00:00:00+00:00	2001-12-31 23:59:59+00:00	0	' analizy przeprowadzono także u ludzi. U <em>Afroamerykanów</em> \n(wzoru populacji sodowrażliwej) wykazano silny'
187	Afroamerykanin	Świętokrzyska Biblioteka Cyfrowa	305287	1993-01-27 00:00:00+00:00	1993-01-27 23:59:59+00:00	0	' \n  Statystyczny Amerykanin jest \nkobietą pochodzenia niemieckiego, <em>Afroamerykanie</em> stanowią \nok. 10 proc. ludności'
190	Afroamerykanin	Cyfrowy Dolny Śląsk	375558	1997-01-01 00:00:00+00:00	1997-12-31 23:59:59+00:00	0	' <em>Afroamerykanów</em>.\n\nPrzegląd\n\nNa program koncertu składają się własne aran~acje\nutworów: pieśni religijne murzynów'
192	Afroamerykanin	Cyfrowy Dolny Śląsk	373143	1996-01-01 00:00:00+00:00	1996-12-31 23:59:59+00:00	0	"' krzywdzić <em>Afroamerykanów</em>! I szkoda tych krążowników\nszos z filmu Parkera, bo ""Czas\nzabijania"" to historia'"
193	Afroamerykanin	Bałtycka Biblioteka Cyfrowa	394918	1996-01-01 00:00:00+00:00	1996-12-31 23:59:59+00:00	0	' kulturowym zbytnio nie różniła się \nod innych etników. Preferencje stworzone <em>Afroamerykanom</em> oraz federalne'
198	Afroamerykanin	Śląska Biblioteka Cyfrowa	899213	2003-01-01 00:00:00+00:00	2003-12-31 23:59:59+00:00	0	' słychać? \n  błyszczą tylko zęby i oczy to - jeśli nie należy do <em>Afroamerykanina</em> - daje dość ponury efekt'
202	Afroamerykanin	Śląska Biblioteka Cyfrowa	1623599	2002-01-01 00:00:00+00:00	2002-12-31 23:59:59+00:00	0	"'"", lecz\n.<em>Afroamerykanin</em>"", nie ""kaleka"", lecz ""niepełnosprawny"",\noraz zwroty takie, jak ""kochający inaczej'"
203	Afroamerykanin	Kujawsko-Pomorska Biblioteka Cyfrowa	562065	1996-08-01 00:00:00+00:00	1996-08-31 23:59:59+00:00	0	"' cia. (""Nie wolno m6wit ""Murzyn"" ani nawet ""Murzynek"", tylko ""<em>Afroamerykanin</em>"", tudziez \n""Afrykanin'"
206	Afroamerykanin	Sejm	3617967	2003-12-16 00:00:00+00:00	2003-12-16 23:59:59+00:00	0	', jeżeli nazywamy człowieka o czarnym kolorze skóry murzynem, a kto inny nazwie go <em>Afroamerykaninem</em>, to to'
208	Afroamerykanin	Śląska Biblioteka Cyfrowa	900434	2003-01-01 00:00:00+00:00	2003-12-31 23:59:59+00:00	0	' \namerykańską Murzynką, która \ndostała się na tę prestiżową listę. \nPierwszym <em>Afroamerykaninem</em> \nna liście'
211	Afroamerykanin	Bałtycka Biblioteka Cyfrowa	430441	1998-01-01 00:00:00+00:00	1998-12-31 23:59:59+00:00	0	' stać się najliczniejszą mniejszością rasowo-etniczną w \nUSA, wyprzedzając <em>Afroamerykanów</em>, \nktórzy'
224	Afroamerykanin	Cyfrowy Dolny Śląsk	377100	1997-01-01 00:00:00+00:00	1997-12-31 23:59:59+00:00	0	"' CONCERT"". Jest to  \nspotkanie z muzyką sakralną <em>Afroamerykanów</em> w wykonaniu  \nJanusza Cedry, towarzyszących'"
232	Afroamerykanin	Cyfrowy Dolny Śląsk	376509	1999-01-01 00:00:00+00:00	1999-12-31 23:59:59+00:00	0	' rytmów Jamesa Browna, \nzyskał popularność nie tylko wśród \n<em>Afroamerykanów</em> \nMistrzowie \n  W Polsce hip hop'
233	Afroamerykanin	Śląska Biblioteka Cyfrowa	901625	1999-01-01 00:00:00+00:00	1999-12-31 23:59:59+00:00	0	"'. \n<em>Afroamerykanie</em> mus""l w niektórych \n  krajach uważać na rasistów, wszyscy \nAmerykanie powinni być ostro.lni \nw'"
236	Afroamerykanin	Śląska Biblioteka Cyfrowa	901759	1998-01-01 00:00:00+00:00	1998-12-31 23:59:59+00:00	0	' \n<em>Afroamerykanom</em> w czasach, gdy byli niewolnikami. \n  WASZYNGTON. Mija już \ndrugi wiek, odkąd postępowi \nAmerykanie'
237	Afroamerykanin	Śląska Biblioteka Cyfrowa	900694	2003-01-01 00:00:00+00:00	2003-12-31 23:59:59+00:00	0	') jest <em>Afroamerykaninem</em> - \n:o wydaje się nieszkodliwy, ale tak \n  naprawdę jest tajnym agentem \n  Bractwa'
238	Afroamerykanin	Bałtycka Biblioteka Cyfrowa	418617	2002-07-26 00:00:00+00:00	2002-07-28 23:59:59+00:00	0	' <em>Afroamerykanie</em> raczej ucie- \n  kają wzrokiem. Przy zetknię iu tych \ndwóch nacji to, co miało być sygnałem'
239	Afroamerykanin	Śląska Biblioteka Cyfrowa	1623619	1999-01-01 00:00:00+00:00	1999-12-31 23:59:59+00:00	0	' i rozwoju, do którego mają .\nprawo. Jej również powierzam <em>Afroamerykanów</em>. W Jej ręce oddaję rów'
240	Afroamerykanin	Śląska Biblioteka Cyfrowa	1624150	1995-01-01 00:00:00+00:00	1995-12-31 23:59:59+00:00	0	' <em>Afroamerykanie</em>. Latynosi. \nA7jaci. Niegdys zahijano Indian. Ozisiaj celowniki wymierLOno w pozostale mniejszości'
243	Afroamerykanin	Bałtycka Biblioteka Cyfrowa	391387	2001-01-01 00:00:00+00:00	2001-12-31 23:59:59+00:00	0	' prawdziwą historię pierwszego Murzyna (albo <em>Afroamerykanina</em>, jak chcą \ntwórcy obrazu), który ukończył'
244	Afroamerykanin	Bałtycka Biblioteka Cyfrowa	420319	2003-05-23 00:00:00+00:00	2003-05-25 23:59:59+00:00	0	' \ndzielnych <em>Afroamerykanów</em> (nie mylić z Murzynami). Widać jak na dłoni, \nże ten wielki aktor dostrzegl w tej'
246	Afroamerykanin	Bałtycka Biblioteka Cyfrowa	391077	2001-01-01 00:00:00+00:00	2001-12-31 23:59:59+00:00	0	""" zabija'młodego <em>Afroamerykanina</em>. \nSprawę przejmuje \nczarny detektyw \npolicyjny John \nShaft. Niestety, \n,:' ', I"""
247	Afroamerykanin	Śląska Biblioteka Cyfrowa	909825	2000-01-01 00:00:00+00:00	2000-12-31 23:59:59+00:00	0	' jest typowym przykładem wadliwego dzialania aparatu sprawiedliwości, \nw którym <em>Afroamerykanie</em> mają dużo'
248	Afroamerykanin	Śląska Biblioteka Cyfrowa	901928	1999-01-01 00:00:00+00:00	1999-12-31 23:59:59+00:00	0	' <em>Afroamerykanów</em>, którzy - według \nczłonków organizacji - wypar1i się swojej rasy. \nCzarnoskóry yuppie jest'
249	Afroamerykanin	Śląska Biblioteka Cyfrowa	1623672	1999-01-01 00:00:00+00:00	1999-12-31 23:59:59+00:00	0	"' (teraz poli-\n, tyczna poprawność wymaga terminu\n.<em>Afroamerykanin</em>""). Po dzieciństwie i\nmłodości spędzonych'"
250	Afroamerykanin	Śląska Biblioteka Cyfrowa	1621695	1997-01-01 00:00:00+00:00	1997-12-31 23:59:59+00:00	0	"'. \nRodzącej się samoświadomości <em>Afroamerykanów</em> poświęcony jest film ""Narastający gniew"" \n(28 sierpnia). \nPrzez'"
251	Afroamerykanin	Bałtycka Biblioteka Cyfrowa	427612	1999-01-01 00:00:00+00:00	1999-12-31 23:59:59+00:00	0	' \nkobiety w świecie. I do oczekiwań odbiorców także. Przykłady? Zaspokojeniu ambicji <em>Afroamerykanów</em> miała'
256	Afroamerykanin	Bałtycka Biblioteka Cyfrowa	432926	1999-11-20 00:00:00+00:00	1999-11-21 23:59:59+00:00	0	' większości \nmieszkańców. Brutalne metody policji \nnowojorskiej zraziły jednak do niego \n<em>Afroamerykanów</em> i'
258	Afroamerykanin	System Analizy Orzeczeń Sądowych	2982665	2002-11-07 00:00:00+00:00	2002-11-07 23:59:59+00:00	0	' następujący stan faktyczny. Powód Larry M., <em>afroamerykanin</em>, doktor praw, absolwent Boston College, decyzją'
259	Afroamerykanin	Bałtycka Biblioteka Cyfrowa	1565033	2000-09-23 00:00:00+00:00	2000-09-24 23:59:59+00:00	0	' dotyczący <em>Afroamerykanów</em>. \n- Jak liczne jest Towarzystwo? \n- Mamy około sześćdziesięciu \nczłonków, to'
260	Afroamerykanin	Bałtycka Biblioteka Cyfrowa	391581	1999-01-01 00:00:00+00:00	1999-12-31 23:59:59+00:00	0	"' konstytucyjnej opieki prawnej ""całą \nklasę ludzi - <em>Afroamerykanów</em>"" . Powiedział, że podobny kryzys ma miejsce we'"
262	Afroamerykanin	Śląska Biblioteka Cyfrowa	1623133	1989-01-01 00:00:00+00:00	1989-12-31 23:59:59+00:00	0	'- \nIzkaóców Stanów Zjednoczonych <em>Afroamerykanie</em> \n- taką terminologią określa sił.: dzIś tyjących w \nUSA'
263	Afroamerykanin	Bałtycka Biblioteka Cyfrowa	1564209	2000-12-20 00:00:00+00:00	2000-12-20 23:59:59+00:00	0	', odchodzi na emeryturę. Jego miejsce ma zająć \nkonserwatywny <em>Afroamerykanin</em>, \ndotychczas mało znany profesor'
264	Afroamerykanin	Bałtycka Biblioteka Cyfrowa	1562725	2001-06-21 00:00:00+00:00	2001-06-21 23:59:59+00:00	0	' reklamy. Młody <em>Afroamerykanin</em> \nopracowuje projekt reklamowego \npakietu promującego czarnych'
265	Afroamerykanin	Bałtycka Biblioteka Cyfrowa	1566325	2001-09-03 00:00:00+00:00	2001-09-03 23:59:59+00:00	0	' stanie się dom pary \nwiekowych <em>Afroamerykanów</em>. \n20.00 RTL 7 \nZAMKNIĘTA STREFA \n  19.45 Sport \n19.50'
266	Afroamerykanin	Cyfrowy Dolny Śląsk	374487	1999-01-01 00:00:00+00:00	1999-12-31 23:59:59+00:00	0	' milionów \nmieszkańców, z tego 80% to ludność  \npochodzenia europejskiego (17% stanową \n<em>Afroamerykanie</em>, 26'
267	Afroamerykanin	Bałtycka Biblioteka Cyfrowa	391837	2001-01-01 00:00:00+00:00	2001-12-31 23:59:59+00:00	0	' Monique \nClark, Dee Jay Danieis (25 min) Darrył Hughley, <em>Afroamerykanin</em>, który \nodniósł ogromny sukces w'
268	Afroamerykanin	Bałtycka Biblioteka Cyfrowa	391789	2001-01-01 00:00:00+00:00	2001-12-31 23:59:59+00:00	0	', D-L Hughley, Elisa Neal, Ashley Monique \nClark Darryl Hughley, <em>Afroamerykanin</em>, który odniósł ogromny'
269	Afroamerykanin	Bałtycka Biblioteka Cyfrowa	393315	1996-01-01 00:00:00+00:00	1996-12-31 23:59:59+00:00	0	' masowo kobiety, mniejszości rasowe - <em>Afroamerykanie</em> \ni Latynosi - młodzi wyborcy, katolicy, liberalni'
270	Afroamerykanin	Bałtycka Biblioteka Cyfrowa	391823	2001-01-01 00:00:00+00:00	2001-12-31 23:59:59+00:00	0	', \n<em>Afroamerykanin</em>, który odniósł \nogromny sukces w interesach, podejmuje decyzję o zmianie miejsca \nzamieszkania'
271	Afroamerykanin	Bałtycka Biblioteka Cyfrowa	391827	2001-01-01 00:00:00+00:00	2001-12-31 23:59:59+00:00	0	'. Elisa Neal. Ashley Monique \nClark, Dee Jay Danieis (25 min) Darryl Hughley, <em>Afroamerykanin</em>, który'
272	Afroamerykanin	Bałtycka Biblioteka Cyfrowa	391794	2001-01-01 00:00:00+00:00	2001-12-31 23:59:59+00:00	0	', <em>Afroamerykanin</em>, który odniósł ogromny \nsukces w interesach, podejmuje decyzję o zmianie miejsca zamieszkania'
273	Afroamerykanin	Bałtycka Biblioteka Cyfrowa	393415	1996-01-01 00:00:00+00:00	1996-12-31 23:59:59+00:00	0	' <em>Afroamerykanów</em> bijących białych. Na sali było około tysiąca \npolskich kibiców z flagami narodowymi. \nW hali nie'
274	Afroamerykanin	Podlaska Biblioteka Cyfrowa	3778700	1986-01-01 00:00:00+00:00	1986-12-31 23:59:59+00:00	0	' amerykańsidch, \ngdzie szczególnie liczne są mniejszości <em>Afroamerykanów</em>, Portorykańczyków 1 obywateli pochodzenia'
275	Afroamerykanin	Śląska Biblioteka Cyfrowa	910156	1998-01-01 00:00:00+00:00	1998-12-31 23:59:59+00:00	0	' pójścia we wtorek do lokali wyborczych. <em>Afroamerykanie</em> najbard.liej solidarnie popierają prezydenta, ale'
276	Afroamerykanin	Śląska Biblioteka Cyfrowa	1620336	1997-01-01 00:00:00+00:00	1997-12-31 23:59:59+00:00	0	' \nskóry, jest on - jak sam podkresla - tylko w cz{!Sci <em>Afroamerykaninem</em>; pochodzi bowiem \nz mieszanego'
277	Afroamerykanin	Śląska Biblioteka Cyfrowa	1621639	1997-01-01 00:00:00+00:00	1997-12-31 23:59:59+00:00	0	'. Wydawałoby się, że czasy segregacji rasowej mamy już za sobą, tymczasem <em>Afroamerykanie</em> \nwciąż nie są'
278	Afroamerykanin	Śląska Biblioteka Cyfrowa	907917	1996-01-01 00:00:00+00:00	1996-12-31 23:59:59+00:00	0	'), czyli głównej \norganizacji <em>Afroamerykanów</em> \nw USA. Republikański kandydat \ntłumaczył się najpierw brakiem'
279	Afroamerykanin	Śląska Biblioteka Cyfrowa	907924	1996-01-01 00:00:00+00:00	1996-12-31 23:59:59+00:00	0	' \nEnterprise Institute, w 1993 roku \n12,6 proc. <em>Afroamerykanów</em> zawierało małżeństwa z białymi, \npodczas gdy w'
280	Afroamerykanin	Bałtycka Biblioteka Cyfrowa	1563711	1973-10-28 00:00:00+00:00	1973-10-29 23:59:59+00:00	0	""" Dar eS \nSalaam przYbyła tutaj 375-oso \nbowa \\\\ycieczka tzw. <em>Afroamerykanów</em>. Jej przewodniczat'v. pan"""
282	Afroamerykanin	Archiwum czasopism dla niewidomych	3930257	2003-12-01 00:00:00+00:00	2003-12-31 23:59:59+00:00	0	X
