	word	lname	iid	duration_start	duration_end	occurences	highlighting
11	afroamerykański	Internet Archive	1452496	1974-02-01 00:00:00+00:00	1974-02-28 23:59:19+00:00	1	' gatunek muzyczny, który można określić jako muzykę <em>afroamerykańską</em>. Chociaż wiele z nich \npowstało pośród'
14	afroamerykański	Mazowieckie Czasopisma Regionalne	1706194	2002-01-01 00:00:00+00:00	2002-12-31 23:59:59+00:00	1	"' <em>afroamerykańskich</em> \nadeptów „sztuki królewskiej"" \n68 \n. \n67 \nIbidem, t. 1, s. 98, 104, 114, 140, 149, 157, 169, 198'"
34	afroamerykański	Wielkopolska Biblioteka Cyfrowa	816915	1985-01-01 00:00:00+00:00	1985-12-31 23:59:59+00:00	1	' głównie dla Gujańczyków. W 1979 roku film został więc wyświetlony przec \nwidownią <em>afroamerykańską</em> i'
55	afroamerykański	Biblioteka Cyfrowa Polskiego Instytutu Antropologii	296005	1971-01-01 00:00:00+00:00	1971-12-31 23:59:59+00:00	1	' rewolucyjnych ideologii\npowstających w łonie <em>afroamerykańskich</em> społeczności Stanów Zjednoczonych, do'
72	afroamerykański	Repozytorium Cyfrowe Instytutów Naukowych	857020	1999-01-01 00:00:00+00:00	1999-12-31 23:59:59+00:00	1	"""/1991. \nsoul 'styl <em>afroamerykańskiej</em> muzyki rozrywkowej, charakteryzujący się dramatyczną ekspresją"""
73	afroamerykański	Repozytorium Cyfrowe Instytutów Naukowych	858117	2000-01-01 00:00:00+00:00	2000-12-31 23:59:59+00:00	1	' głównie\nselektywnemu odpływowi <em>afroamerykańskiej</em> klasy średniej z części centralnego\nmiasta o'
76	afroamerykański	Mazowieckie Czasopisma Regionalne	1706194	2002-01-01 00:00:00+00:00	2002-12-31 23:59:59+00:00	1	' \n53 \n. <em>Afroamerykańscy</em> adepci utworzyli w latach sześćdziesiątych i następnych placówki PH \nteż w'
84	afroamerykański	Mazowieckie Czasopisma Regionalne	1706194	2002-01-01 00:00:00+00:00	2002-12-31 23:59:59+00:00	1	"' Kwaterze Głównej SHAPE); po jednej \n„<em>afroamerykańskiej</em>"" na Azorach (Portugalia), w Islandii (Keflavik) i'"
90	afroamerykański	Bibliologiczna Biblioteka Cyfrowa	5653	1999-01-01 00:00:00+00:00	1999-12-31 23:59:59+00:00	1	' ogólne rodzaje tych mniejszości, a więc takie jak Czarni  \n(ludność <em>afroamerykańska</em>, Blacks), Azjaci'
104	afroamerykański	Bałtycka Biblioteka Cyfrowa	394918	1996-01-01 00:00:00+00:00	1996-12-31 23:59:59+00:00	1	', \njedna czwarta <em>afroamerykańskich</em> mężczyzn w grupie wieku 20-30 lat,jest w więzieniu lub na warunkowym'
106	afroamerykański	Cyfrowy Dolny Śląsk	375536	1998-01-01 00:00:00+00:00	1998-12-31 23:59:59+00:00	1	' dobrze uargumentowane przekonanie, że popularna\nmuzyka\nrap, wyrastająca\nz <em>afroamerykańskiej</em> subkultury'
117	afroamerykański	Małopolska Biblioteka Cyfrowa	630141	1995-10-19 00:00:00+00:00	1995-10-19 23:59:59+00:00	1	' zastanawia się \nnad swą kreolską i <em>afroamerykańską</em> tożsamością. Znany pisarz i etnograf, Miguel Barnet'
122	afroamerykański	Małopolska Biblioteka Cyfrowa	778008	1996-12-01 00:00:00+00:00	1996-12-01 23:59:59+00:00	1	' wydaniu kojarzą się z rytmami afrykańskimi, <em>afroamerykańskimi</em> czy południowoamerykańskimi. Można ulec'
125	afroamerykański	Małopolska Biblioteka Cyfrowa	606540	2000-10-29 00:00:00+00:00	2000-10-29 23:59:59+00:00	1	' porucznika długonoga i długo rzęsa piękność - nader udana mieszanka krwi chińsko-<em>afroamerykańskiej</em>. \nW'
131	afroamerykański	Śląska Biblioteka Cyfrowa	910164	1998-01-01 00:00:00+00:00	1998-12-31 23:59:59+00:00	1	'. Nawet z tytułowego bohatera \nproducenci uczynili <em>afroamerykańskiego</em> weterynarza (czy to syndrom'
135	afroamerykański	Śląska Biblioteka Cyfrowa	1621725	1997-01-01 00:00:00+00:00	1997-12-31 23:59:59+00:00	2	' \n  W śród gwiazd Hollywoodu - zwłaszcza <em>afroamerykańskich</em> - \nDenzel Washington należy do wyjątków'
138	afroamerykański	Śląska Biblioteka Cyfrowa	1624046	1997-01-01 00:00:00+00:00	1997-12-31 23:59:59+00:00	1	' ludności tubylczej\ni <em>afroamerykańskiej</em> .\n\\\n***\n/2 listopada w w święto Matki Bożej Z Guadalupe rozpocznie'
139	afroamerykański	Śląska Biblioteka Cyfrowa	900518	2003-01-01 00:00:00+00:00	2003-12-31 23:59:59+00:00	1	' miłośników awangardy. Muzyka Great Black Trifactor to połączenie afrykanskiej \ntradycji z <em>afroamerykańskimi</em>'
140	afroamerykański	Bałtycka Biblioteka Cyfrowa	418653	2002-07-08 00:00:00+00:00	2002-07-08 23:59:59+00:00	1	' \nto, że od ponad 100 lat muzycy <em>afroamerykańscy</em> nie otrzymywali \nwszystkich należnych im pieniędzy'
145	afroamerykański	Małopolska Biblioteka Cyfrowa	709917	1985-01-01 00:00:00+00:00	1985-12-31 23:59:59+00:00	2	' całej Ameryki \nna przełomie XIX i XX wieku. <em>Afroamerykański</em> styl choreograficzny staje się jeszcze'
146	afroamerykański	Cyfrowy Dolny Śląsk	367863	2002-09-03 00:00:00+00:00	2002-09-03 23:59:59+00:00	1	'. Zespól śpiewa też utwory \nkompozytorów <em>Afroamerykańskich</em> i kładzie \nnacisk na popularyzowanie kompozycji'
148	afroamerykański	Bałtycka Biblioteka Cyfrowa	419701	2001-01-01 00:00:00+00:00	2001-12-31 23:59:59+00:00	1	' ugrupowania mafijne - azjatyckie \ni <em>afroamerykańskie</em>. Obie strony walczą o władzę, ale konflikt nasila się'
149	afroamerykański	Bałtycka Biblioteka Cyfrowa	432880	1999-11-09 00:00:00+00:00	1999-11-09 23:59:59+00:00	0	', <em>afroamerykańsko</em>-niemiecki projekt \nUniversal Super Sesion z polskim \ntrębaczem Ziutem Gralakiem \noraz amerykańsko'
150	afroamerykański	Bałtycka Biblioteka Cyfrowa	393327	1996-01-01 00:00:00+00:00	1996-12-31 23:59:59+00:00	1	' wystąpił \nsłynny skrzypek i saksofonista Michał \nUrbaniak z zespołem młodych <em>afroamerykańskich</em> muzyków'
151	afroamerykański	Bałtycka Biblioteka Cyfrowa	419402	2000-01-01 00:00:00+00:00	2000-12-31 23:59:59+00:00	1	' powodu otworzył ogień do tłumu uczestników <em>afroamerykańskiego</em> festiwalu, tradycyjnie odbywającego się w'
152	afroamerykański	Bałtycka Biblioteka Cyfrowa	428712	1998-01-01 00:00:00+00:00	1998-12-31 23:59:59+00:00	1	' <em>afroamerykańskim</em> bluesem w najlepszym \nstylu zabrał nas... \n  Keith Dunn \n  Ten syn pieśniarza gospel i wnuk'
154	afroamerykański	Śląska Biblioteka Cyfrowa	901773	1999-01-01 00:00:00+00:00	1999-12-31 23:59:59+00:00	1	' - SZlag trafił - reportat \n11.30 Smaki Ameryki (8-ost.): Kuchnia \n<em>afroamerykańska</em> - ser. dok, prod. ang'
155	afroamerykański	Bałtycka Biblioteka Cyfrowa	396455	1986-01-01 00:00:00+00:00	1986-12-31 23:59:59+00:00	1	' \nzamordowania przez białych rasistów <em>afroamerykańskiego</em> bojoWnika o prawa obywatel,skie. M. L. \nKingo'
156	afroamerykański	Małopolska Biblioteka Cyfrowa	575971	1979-11-04 00:00:00+00:00	1979-11-04 23:59:59+00:00	1	' <em>afroamerykańskiego</em> (choć podobno tańczy \nrównie iwittnif do melodii chorału \ngregoriańskiego) czy religijnych pieśni'
157	afroamerykański	Bałtycka Biblioteka Cyfrowa	424249	1994-01-01 00:00:00+00:00	1994-12-31 23:59:59+00:00	1	' -literaturę angielską i historię <em>afroamerykańską</em>. Była szczęśliwa,.gdy wreszcie \nobracała się wśród'
158	afroamerykański	Bałtycka Biblioteka Cyfrowa	392989	1997-01-01 00:00:00+00:00	1997-12-31 23:59:59+00:00	1	' skali). są utwory <em>afroamerykańskie</em>. Niektóre \nz nich są pisane specjalnie na zamówienie chóru przez'
160	afroamerykański	Małopolska Biblioteka Cyfrowa	628164	1986-01-01 00:00:00+00:00	1986-12-31 23:59:59+00:00	1	'). \n  * \n  W Nowym Jorku <em>afroamerykański</em> zespół teatralny wystąpił z niezwykle gorąco przyjętą i wysoko'
162	afroamerykański	Małopolska Biblioteka Cyfrowa	594194	1986-01-01 00:00:00+00:00	1986-12-31 23:59:59+00:00	1	' Cortazar), \nproblematyki .indiańskiej i <em>afroamerykańskiej</em> (opowiadania Arguedasa, Roa \nBastosa, Ca'
163	afroamerykański	Śląska Biblioteka Cyfrowa	901926	1998-01-01 00:00:00+00:00	1998-12-31 23:59:59+00:00	1	""" znanego reżysera kina <em>afroamerykańskiego</em> Spike'a Lee. We wszystkich jego filmach muzyka odgrywa \nniezwykle"""
164	afroamerykański	Śląska Biblioteka Cyfrowa	913548	1994-01-01 00:00:00+00:00	1994-12-31 23:59:59+00:00	1	""", byłby pierwszym <em>afroamerykańskim</em> prezydentem USA. \n  .' \n  Na pamiątkę \nRZYM (PAP) Adwokat Romano"""
165	afroamerykański	Śląska Biblioteka Cyfrowa	1622471	1992-01-01 00:00:00+00:00	1992-12-31 23:59:59+00:00	1	' <em>afroamerykańskich</em> kul \ntow czyni składanie ofiar jednym z centralnych elementów \nswych religIJ. Jednak w celu'
168	afroamerykański	Archiwum czasopism dla niewidomych	3930228	2001-06-01 00:00:00+00:00	2001-06-30 23:59:59+00:00	1	X
169	afroamerykański	Archiwum czasopism dla niewidomych	3930235	2002-01-01 00:00:00+00:00	2002-01-31 23:59:59+00:00	1	X
170	afroamerykański	Archiwum czasopism dla niewidomych	3930257	2003-12-01 00:00:00+00:00	2003-12-31 23:59:59+00:00	1	X
