	word	lname	iid	duration_start	duration_end	occurences	highlighting
0	afrykanista	Repozytorium Cyfrowe Instytutów Naukowych	853479	1995-01-01 00:00:00+00:00	1995-12-31 23:59:59+00:00	1	' Westermann, \nświatowej sławy <em>afrykanista</em> \n  11. Profesor Jan Rozwadowski \nmistrz profesora Stopy'
2	afrykanista	Repozytorium Cyfrowe Instytutów Naukowych	853479	1995-01-01 00:00:00+00:00	1995-12-31 23:59:59+00:00	2	', \nwięc kierownictwo orientalistyki cierpiało, znosiło tego przybłędę czy podrzutka-<em>afrykanistę</em>, ale do'
3	afrykanista	Biblioteka Cyfrowa Polskiego Instytutu Antropologii	295579	1964-01-01 00:00:00+00:00	1964-12-31 23:59:59+00:00	4	' poszczególnych zagadnień znaleźć \nmożna w szybko zwiększającej się produkcji naukowej polskich <em>afrykanistów</em> lub'
4	afrykanista	Repozytorium Cyfrowe Instytutów Naukowych	840366	1980-01-01 00:00:00+00:00	1980-12-31 23:59:59+00:00	1	': Etiopia. Podstawowe wiadomości o kraju, jego dziejach i historii badań. Skrypt dla\n<em>afrykanistów</em> i'
6	afrykanista	Biblioteka Cyfrowa Polskiego Instytutu Antropologii	295351	1963-01-01 00:00:00+00:00	1963-12-31 23:59:59+00:00	5	' Krzysztof Makulski \n474 \nZSRR \nPosiedzenie <em>afrykanistów</em> radzieckich poświęcone problemom koordynacji badań'
7	afrykanista	Biblioteka Cyfrowa Polskiego Instytutu Antropologii	295579	1964-01-01 00:00:00+00:00	1964-12-31 23:59:59+00:00	3	' umknęłyby amatorom-<em>afrykanistom</em>, nie zawsze mającym łatwy dostęp do literatury afrykanistycznej. Niestety w'
8	afrykanista	Repozytorium Cyfrowe Instytutów Naukowych	834124	1976-01-01 00:00:00+00:00	1976-12-31 23:59:59+00:00	2	' \n<em>afrykanista</em> \nafrykanistyka \nafrykanologia \n* agresywność \nagrobiologia (roln.) \nagrochemia (roln.) \nagrogeolog'
9	afrykanista	Biblioteka Cyfrowa Polskiego Instytutu Antropologii	295626	1987-01-01 00:00:00+00:00	1987-12-31 23:59:59+00:00	2	'\nantropologia miasta. Niewiele uwagi poświęcili jej francuscy <em>afrykaniści</em> (m. in.\nBalandier, 1955), co Gutwirth'
10	afrykanista	Biblioteka Cyfrowa Polskiego Instytutu Antropologii	296427	1977-01-01 00:00:00+00:00	1977-12-31 23:59:59+00:00	2	', Państwowe \nMuzeum Etnograficzne, \n17 V-15 VI. Współorganizatorzy: Koło naukowe \n<em>Afrykanistów</em> SZSP, Komitet'
11	afrykanista	Biblioteka Cyfrowa Polskiego Instytutu Antropologii	296246	1987-01-01 00:00:00+00:00	1987-12-31 23:59:59+00:00	3	' dysertacją doktorską szwedzkiego antropologa <em>afrykanisty</em>, Patrika\nWallmarka,\nprzynoszącą\nobfity, dobrze'
16	afrykanista	Repozytorium Cyfrowe Instytutów Naukowych	853479	1995-01-01 00:00:00+00:00	1995-12-31 23:59:59+00:00	1	' Berlińskiego, Diedrich Westennann, światowej sławy <em>afrykanista</em> \n13. Profesor Stopa - nauczyciel gimnazjalny w'
17	afrykanista	Biblioteka Cyfrowa Polskiego Instytutu Antropologii	295569	1965-01-01 00:00:00+00:00	1965-12-31 23:59:59+00:00	8	'\n\n<em>afrykanistów</em>\n\nKongresie,\n\no\n\n9\n\ntę\n\nna\n\nosób\n\nMoskwie\n\nintelektualnychtak, by\n\ndelegatów\nw\n\nw\n\nskalę'
18	afrykanista	Biblioteka Cyfrowa Polskiego Instytutu Antropologii	295304	1975-01-01 00:00:00+00:00	1975-12-31 23:59:59+00:00	1	'\n\n1973,\n\nAutor pracy jest znanym radzieckim <em>afrykanistą</em>, dyrektorem Instytutu Afryki\nA N Z S R R . W swej'
19	afrykanista	ChronoPress	3452344	1952-08-31 00:00:00+00:00	1952-08-31 23:59:59+00:00	4	'-<em>afrykanistów</em> o udzielenie nam kilku informacji na ten temat: Czy mógłby Pan coś powiedzieć o pracach ośrodka'
23	afrykanista	ChronoPress	3430325	1947-11-09 00:00:00+00:00	1947-11-09 23:59:59+00:00	1	' politycznie kolegami, do których przede wszystkim należeli historyk Robert Holtzmann, <em>afrykanista</em> Westermann'
27	afrykanista	Śląska Biblioteka Cyfrowa	865318	1918-01-01 00:00:00+00:00	1918-12-31 23:59:59+00:00	1	' możność skierowania energji ku celom produkcyjnym. \nZadanie to dla <em>afrykanistów</em> rozwiązało Biuro'
29	afrykanista	Biblioteka Cyfrowa Polskiego Instytutu Antropologii	297081	1995-01-01 00:00:00+00:00	1995-12-31 23:59:59+00:00	6	"' religie Afryki a ewangelizacja"". Było to pierwsze\nogólnopolskie spotkanie <em>afrykanistów</em> w KUL, którego'"
32	afrykanista	Biblioteka Cyfrowa Polskiego Instytutu Antropologii	294802	1966-01-01 00:00:00+00:00	1966-12-31 23:59:59+00:00	1	"' <em>afrykanista</em>\ni slawista.\nZao\'\'\'\'i Towarzystwa\ni Redakch\n""Ludu"" składaj,\nhold pc\'mięci jed:\'err.u\nz'"
35	afrykanista	Małopolska Biblioteka Cyfrowa	601594	1959-11-30 00:00:00+00:00	1959-11-30 23:59:59+00:00	1	' odpowiadac\nnegatywnie (znany <em>afrykanista</em>, Herskowits, nada! swej ksiqzce znamienny tytul The Myth of the'
37	afrykanista	Wielkopolska Biblioteka Cyfrowa	1216856	1967-01-01 00:00:00+00:00	1967-12-31 23:59:59+00:00	2	' Polaka jako \nnader utalentowanego badacza. Staje się wówczas pierwszym polskim \n<em>afrykanistą</em>, znawcą ludów'
38	afrykanista	Śląska Biblioteka Cyfrowa	877988	1992-01-01 00:00:00+00:00	1992-12-31 23:59:59+00:00	1	'. . . \nSzczególnie miło wspomina znakomity <em>afrykanista</em> pobyt VJ Londynie , \ngdzie mieszkał w dzielnicy Chelsea w'
40	afrykanista	Małopolska Biblioteka Cyfrowa	781197	1974-07-31 00:00:00+00:00	1974-07-31 23:59:59+00:00	1	' na ilose opadów, ale zlagodziloby znacznie skutki niedoboru.\nGrupa francuskich <em>afrykanistów</em>'
43	afrykanista	Biblioteka Cyfrowa Polskiego Instytutu Antropologii	293846	2003-01-01 00:00:00+00:00	2003-12-31 23:59:59+00:00	1	"' chronologicznym, za najwybitniejszych ""<em>afrykanistów</em>"" należy uznać kolejno rzymskich geografów i historyków Tytusa'"
45	afrykanista	Biblioteka Cyfrowa Polskiego Instytutu Antropologii	297086	1994-01-01 00:00:00+00:00	1994-12-31 23:59:59+00:00	1	' naukowych, niezwykle cenne dla <em>afrykanistów</em>\nokazaly się doświadczenia praktyków, na co dzień działających w'
46	afrykanista	Biblioteka Cyfrowa Polskiego Instytutu Antropologii	296352	1994-01-01 00:00:00+00:00	1994-12-31 23:59:59+00:00	3	' zainteresowań polskich <em>afrykanistów</em>, ich dotychczasowych osiągnięć i nowych\nperspektyw badawczych. Gwoli'
47	afrykanista	Repozytorium Cyfrowe Instytutów Naukowych	834124	1976-01-01 00:00:00+00:00	1976-12-31 23:59:59+00:00	1	'-badaczy: języka, kultury, literatury itp. (<em>afrykanista</em>, andynista, iranista, japonista), wskazują na'
49	afrykanista	Repozytorium Cyfrowe Instytutów Naukowych	853479	1995-01-01 00:00:00+00:00	1995-12-31 23:59:59+00:00	1	""" cała grupa <em>afrykanistów</em> z uniwersytetu Witwatersrand skupiona wokół Doke'a i Pienaara straciła"""
53	afrykanista	Biblioteka Cyfrowa Polskiego Instytutu Antropologii	296423	1996-01-01 00:00:00+00:00	1996-12-31 23:59:59+00:00	1	' dziedzinie można Autorowi zaufać, Zajączkowski jest bowiem także znanym \ni uznanym <em>afrykanistą</em> (por. A'
54	afrykanista	Biblioteka Cyfrowa Polskiego Instytutu Antropologii	295287	1975-01-01 00:00:00+00:00	1975-12-31 23:59:59+00:00	1	"' przez <em>afrykanistów</em> francuskich pojęcia „sztuka \nAfryki"". Fakt ten zdają się potwierdzać i inne tytuły'"
57	afrykanista	Małopolska Biblioteka Cyfrowa	609103	1998-01-01 00:00:00+00:00	1998-12-31 23:59:59+00:00	1	' lubianego przez młodzież, znanego w świecie \norientalistę - w szczególności arabistę \ni <em>afrykanistę</em>'
58	afrykanista	Biblioteka Cyfrowa Polskiego Instytutu Antropologii	297081	1995-01-01 00:00:00+00:00	1995-12-31 23:59:59+00:00	3	' integracja polskich <em>afrykanistów</em> i misjologów, z których\nwiększość z autopsji zna problemy społeczne'
59	afrykanista	Biblioteka Cyfrowa Polskiego Instytutu Antropologii	294889	1969-01-01 00:00:00+00:00	1969-12-31 23:59:59+00:00	1	""", ryc. 5·8.\nDietrich Drost, pl'zedstawiciel średniego pokolenia <em>afrykanistów</em> niemieckich, długoletni"""
60	afrykanista	Małopolska Biblioteka Cyfrowa	698063	1979-03-31 00:00:00+00:00	1979-03-31 23:59:59+00:00	1	' chrzescijaninem? Podobnie socjolog-<em>afrykanista</em> R. Luneau cytuje z pochwalq \nzdanie Ph. Ariesa, do kt6rego'
62	afrykanista	Biblioteka Cyfrowa Polskiego Instytutu Antropologii	297086	1994-01-01 00:00:00+00:00	1994-12-31 23:59:59+00:00	1	': antropologiczną i misjologiczną.\nPierwszy dzień poświęcono głównie referatom <em>afrykanistów</em> analizującym wybrane'
63	afrykanista	Małopolska Biblioteka Cyfrowa	647770	1967-01-31 00:00:00+00:00	1967-01-31 23:59:59+00:00	1	' podstawie napisać gramatykę i słownik ówczesnego języka polskiego. \nGdybyśmy zapytali <em>afrykanistę</em>, co należy'
64	afrykanista	Biblioteka Cyfrowa Polskiego Instytutu Antropologii	297020	1993-01-01 00:00:00+00:00	1993-12-31 23:59:59+00:00	1	'\n\niż\n\nzaprosił\n\nco\n\nkilka\n\nlat\n\nLubelskimuczestniczyli\n\n<em>afrykaniści</em>,\n\nreligioznawcy,\n\nmisjolodzy'
65	afrykanista	Repozytorium Cyfrowe Instytutów Naukowych	853479	1995-01-01 00:00:00+00:00	1995-12-31 23:59:59+00:00	1	' \nodwiedzin u znakomitego <em>afrykanisty</em>, a przy tym pastora ewangelickiego, \nprofesora uniwersytetu w Moguncji'
66	afrykanista	Repozytorium Cyfrowe Instytutów Naukowych	853479	1995-01-01 00:00:00+00:00	1995-12-31 23:59:59+00:00	1	'i zaprzepaściłem widoki na pozyskanie sobie znakomitego antropologa i <em>afrykanisty</em>, gdyż'
69	afrykanista	Biblioteka Cyfrowa Polskiego Instytutu Antropologii	295569	1965-01-01 00:00:00+00:00	1965-12-31 23:59:59+00:00	2	'\n\nuogólnień.\nJan\n\nP R O B L E M Y\ndowego\nWarszawa\n\n<em>Afrykanistów</em>,\n\n„Wkroczeniu\nnoafrykańskie\nnomicznym...\n\nw'
70	afrykanista	Biblioteka Cyfrowa Polskiego Instytutu Antropologii	295569	1965-01-01 00:00:00+00:00	1965-12-31 23:59:59+00:00	2	'\n\n<em>afrykanisty</em>\n\nautorce\n\nliczbougrupowania\n\nradzieckiej,\n\nrejestrując\n\nnarodyokreśla\n\ndane\n\nstanowiska'
71	afrykanista	Biblioteka Cyfrowa Polskiego Instytutu Antropologii	295328	1974-01-01 00:00:00+00:00	1974-12-31 23:59:59+00:00	2	', z Ugandy, Ghany czy Pretorii. Nazwiska uczonych, ś w i a t o w e j s ł a w y <em>afrykanistów</em>, takich'
74	afrykanista	Repozytorium Cyfrowe Instytutów Naukowych	853479	1995-01-01 00:00:00+00:00	1995-12-31 23:59:59+00:00	2	' słowy, że tamtejsi <em>afrykaniści</em> doszli do przekonania, że to nie doktor Pienaar (względnie jego prof'
75	afrykanista	Biblioteka Cyfrowa Polskiego Instytutu Antropologii	296235	1988-01-01 00:00:00+00:00	1988-12-31 23:59:59+00:00	1	' Lbfwander, niezależnie od swoich walorów naukowych dla <em>afrykanisty</em>, \nmoglaby stanowić pożyteczną lekturę dla'
76	afrykanista	Biblioteka Cyfrowa Polskiego Instytutu Antropologii	295963	1983-01-01 00:00:00+00:00	1983-12-31 23:59:59+00:00	1	' zawiera informacje ważne dla każdego <em>afrykanisty</em>. \nIrena Turnau \nAAGOT NOSS, Statuane i Nordmandsdalen'
80	afrykanista	Biblioteka Cyfrowa Polskiego Instytutu Antropologii	295249	1977-01-01 00:00:00+00:00	1977-12-31 23:59:59+00:00	4	' the Congo) — Krzysztof\nMakulski, p. 474-479.\n254. Posiedzenie <em>afrykanistów</em> radzieckich poświęcone'
82	afrykanista	Biblioteka Cyfrowa Polskiego Instytutu Antropologii	295546	1965-01-01 00:00:00+00:00	1965-12-31 23:59:59+00:00	2	'\n\nde danse\n\nludów\n\nLeszek\n\nCzarna\n\nRepublieii\n\npod\n\nde la montagne,\n\n1962 —\n\n<em>Afrykanistów</em>,\n\n1963'
83	afrykanista	Biblioteka Cyfrowa Polskiego Instytutu Antropologii	295804	1974-01-01 00:00:00+00:00	1974-12-31 23:59:59+00:00	2	"' szel\'szęj dyskusji nad tzw. ""stylem ludowym"" i jego determinantami,\nw której wypowiedzi\n<em>afrykanistów</em>\nwinny'"
84	afrykanista	Biblioteka Cyfrowa Polskiego Instytutu Antropologii	297020	1993-01-01 00:00:00+00:00	1993-12-31 23:59:59+00:00	1	"' ewangelizacja"".\nOrganizatorami tego pierwszego ogólnopolskiego spotkania <em>afrykanistów</em> w K U L byli pracownicy'"
85	afrykanista	Kujawsko-Pomorska Biblioteka Cyfrowa	654097	1999-01-01 00:00:00+00:00	1999-12-31 23:59:59+00:00	1	', jeden stolarz, paru studentow, elektryk, malarz, <em>afrykanista</em>, uczen szkolny, gospodyni domowa, pisarz'
86	afrykanista	Biblioteka Cyfrowa Polskiego Instytutu Antropologii	296235	1988-01-01 00:00:00+00:00	1988-12-31 23:59:59+00:00	1	""" jednego \nregis'lu \nsą dla etnografa-<em>afrykanisty</em> \nnader \npożyteczne i interesujące. \nAuturka \nsumiennie"""
87	afrykanista	Biblioteka Cyfrowa Polskiego Instytutu Antropologii	295579	1964-01-01 00:00:00+00:00	1964-12-31 23:59:59+00:00	1	' ów-<em>afrykanistów</em>, którzy opierając swą wiedzę na obcej literaturze naukowej znajdą w nich \nszereg'
88	afrykanista	Biblioteka Cyfrowa Polskiego Instytutu Antropologii	295815	1975-01-01 00:00:00+00:00	1975-12-31 23:59:59+00:00	2	' polskich moskiewski Instytut Narodów Afryki celem zapoznania się z pracami <em>afrykanistów</em> radzieckich i'
89	afrykanista	Biblioteka Cyfrowa Polskiego Instytutu Antropologii	293843	2003-01-01 00:00:00+00:00	2003-12-31 23:59:59+00:00	1	'), wybitnego <em>afrykanisty</em>, \njęzykoznawcy i muzykologa, profesora Uniwersytetu Jagiellońskiego, który w latach'
91	afrykanista	Biblioteka Cyfrowa Polskiego Instytutu Antropologii	295345	1963-01-01 00:00:00+00:00	1963-12-31 23:59:59+00:00	10	', lingwistów, p r a w n i k ó w itd. Właśnie dzięki temu Seminarium badacze-<em>afrykaniści</em> mogli lepiej poznać się'
92	afrykanista	Repozytorium Cyfrowe Instytutów Naukowych	842063	1979-01-01 00:00:00+00:00	1979-12-31 23:59:59+00:00	1	' <em>afrykanistów</em>\neuropejskich lub geografów afrykańskich — na tematy bardziej ogólne. Kolejno\nmówili:\n— prof. Akirn'
93	afrykanista	Repozytorium Cyfrowe Instytutów Naukowych	840690	1970-01-01 00:00:00+00:00	1970-12-31 23:59:59+00:00	1	'Afryka\n\n230\n\nrodowego Kongresu <em>Afrykanistów</em> (Akra,\ngrudzień 1962). Red. Stefan Strelcyn.\nWarszawa'
94	afrykanista	Biblioteka Cyfrowa Polskiego Instytutu Antropologii	295569	1965-01-01 00:00:00+00:00	1965-12-31 23:59:59+00:00	1	',\n\naktualności\ni\n\nlub\n\netnograficznej\n\npopularyzatorskiej\n\n<em>afrykaniści</em>\n\nwykazanie\n\nsynonimiczny\n\njakiś\n\nz\n\nale'
95	afrykanista	Biblioteka Cyfrowa Polskiego Instytutu Antropologii	295546	1965-01-01 00:00:00+00:00	1965-12-31 23:59:59+00:00	1	'\n\n<em>Afrykanistów</em>\n\nCzarna\n\nof\n\n601\nMiędzynarodowego\nreadings\n\nAccra, December\n\nfrom\n\nthe\n\n1962, e d . b y\n\nDzięgiel'
96	afrykanista	Małopolska Biblioteka Cyfrowa	682478	1949-11-30 00:00:00+00:00	1949-11-30 23:59:59+00:00	1	' dźwięków w niektórych językach afrykańskich, s. 46-9. \nAutor, znany <em>afrykanista</em>, stara się na \nmaterie.1e'
97	afrykanista	Biblioteka Cyfrowa Polskiego Instytutu Antropologii	296960	1999-01-01 00:00:00+00:00	1999-12-31 23:59:59+00:00	1	""" <em>afrykanista</em>\nw książce pt. Arabowie\n:: nar I (I/tllid. ,){){)(ecl/o.vi \\V svtuocji ::aRro:':enio ekologicnego"""
98	afrykanista	Biblioteka Cyfrowa Polskiego Instytutu Antropologii	295469	1968-01-01 00:00:00+00:00	1968-12-31 23:59:59+00:00	3	' nieznanym przedmiocie . Jest ona konieczna nie tylko <em>afrykanistom</em>, lecz również\ntym wszystkim, których'
99	afrykanista	"Zachodniopomorska Biblioteka Cyfrowa ""Pomerania"""	323754	1982-01-01 00:00:00+00:00	1982-12-31 23:59:59+00:00	1	'. 2903 \n  277. F i l i p o w i a k W1adysław: Szczeciński <em>afrykanista</em>. Rozm. przepr. Andrzej \nEjsmont'
101	afrykanista	Biblioteka Cyfrowa Polskiego Instytutu Antropologii	294988	1967-01-01 00:00:00+00:00	1967-12-31 23:59:59+00:00	1	' podstawę dla <em>afrykanistów</em>,\nprzytacza je H. Baumann, R. Thurnwald i Westermann.\nPo okresie krótkiego pobytu'
102	afrykanista	Biblioteka Cyfrowa Polskiego Instytutu Antropologii	295190	1969-01-01 00:00:00+00:00	1969-12-31 23:59:59+00:00	3	' e\n\nRogozińskiego\n\nwymarzonego\n\nw pierwszym\n<em>afrykanisty</em>\nNie\n\ndzieła. N i e m n i e j\n\nto, co uczynił'
103	afrykanista	Biblioteka Cyfrowa Polskiego Instytutu Antropologii	295249	1977-01-01 00:00:00+00:00	1977-12-31 23:59:59+00:00	2	' Międzynarodowego\nKongresu <em>Afrykanistów</em>, Akra, grudzień 1962, pod red. S. Strelcyna, Warszawa\n1963 — Leszek Dzięgiel'
104	afrykanista	Biblioteka Cyfrowa Polskiego Instytutu Antropologii	295345	1963-01-01 00:00:00+00:00	1963-12-31 23:59:59+00:00	1	' Egiptu).\nWzięli w nim udział wybitni <em>afrykaniści</em> i zaproszeni goście z zagranicy: prof,\ndr Ahmed Mahmoud'
105	afrykanista	Małopolska Biblioteka Cyfrowa	686726	1996-01-31 00:00:00+00:00	1996-01-31 23:59:59+00:00	1	' się nas do a 2 ; por. też hasło \n<em>afrykanista</em> i amerykanista; definicje są sprzeczne: a 2 «szósty'
107	afrykanista	Miesięcznik Morze	1447952	1930-01-01 00:00:00+00:00	1930-12-31 23:59:59+00:00	1	' Griaule został \nmianowany sekretarzem generalnym \nZwiązku <em>Afrykanistów</em>. jaki powstał \nobecnie we Francji'
109	afrykanista	Biblioteka Cyfrowa Polskiego Instytutu Antropologii	296578	2002-01-01 00:00:00+00:00	2002-12-31 23:59:59+00:00	2	' opublikował m.in. Bronisław Nowak\n(1985), a także Andrzej Krasnowolski (1987). W kręgu polskich <em>afrykanistów</em>'
110	afrykanista	Biblioteka Cyfrowa Polskiego Instytutu Antropologii	294770	1962-01-01 00:00:00+00:00	1962-12-31 23:59:59+00:00	2	' się rola <em>afrykanistów</em>,\nszczególnie etnografów, od których można i należy oczekiwać pomocy w'
111	afrykanista	Biblioteka Cyfrowa Uniwersytetu Wrocławskiego	126297	2002-07-01 00:00:00+00:00	2002-07-31 23:59:59+00:00	1	' dziennikarz frontowy PAP, korespondent w Bejrucie i Kairze, potem redaktor \x84Polityki\x94. <em>Afrykanista</em> z'
114	afrykanista	Kujawsko-Pomorska Biblioteka Cyfrowa	573285	2000-11-01 00:00:00+00:00	2000-11-30 23:59:59+00:00	1	' Jerzy - późniejszy chirurg i podróżnik-<em>afrykanista</em>, w 1937 roku Witold polonista, dziennikarz, poeta'
115	afrykanista	Małopolska Biblioteka Cyfrowa	570157	1997-01-12 00:00:00+00:00	1997-01-12 23:59:59+00:00	1	' Michał Wielowski, 74, \ndziennikarz. \nBogdan Winid, 74, w Warszawie, \ngeograf i <em>afrykanista</em>, em. prof. UW'
116	afrykanista	Biblioteka Cyfrowa Polskiego Instytutu Antropologii	294770	1962-01-01 00:00:00+00:00	1962-12-31 23:59:59+00:00	1	' Radzieckiego.\nFilologowie <em>afrykaniści</em>\npod kierunkiem\nD. A. Olderogge przygotowali\ndo druku pierwszy tom żródeł'
117	afrykanista	Biblioteka Cyfrowa Polskiego Instytutu Antropologii	294808	1958-01-01 00:00:00+00:00	1958-12-31 23:59:59+00:00	2	""" afryk1anilstyczmą. P'IlL -poczyni starania o wydanie prac polskich <em>afrykanistów</em> i tłumaczeń artykułów obcych"""
118	afrykanista	e-biblioteka Uniwersytetu Warszawskiego	524735	1933-01-01 00:00:00+00:00	1933-12-31 23:59:59+00:00	1	"' katolickich \nokręgów \nmisyjnych \nw Afryce, sporządzono spis „<em>afrykanistów</em>"" i zgromadzeń zakonnych, pracujących'"
120	afrykanista	Biblioteka Cyfrowa Polskiego Instytutu Antropologii	294770	1962-01-01 00:00:00+00:00	1962-12-31 23:59:59+00:00	1	"'\nantropologicznego"",\n""Prace Instytutu\nEtnografii"",\n""Prace Towarzystwa\n<em>afrykanistów</em>"",\n""Prace\nTowarzystwa\namerykanistów'"
121	afrykanista	Biblioteka Cyfrowa Polskiego Instytutu Antropologii	294868	1959-01-01 00:00:00+00:00	1959-12-31 23:59:59+00:00	1	'. Buehlmanna\nkrótką\ninformację\no konferencji\nmisyjnej\n<em>afrykanistów</em>.\nJ. Szoeverffyego - przyczynek do'
122	afrykanista	Biblioteka Cyfrowa Polskiego Instytutu Antropologii	294868	1959-01-01 00:00:00+00:00	1959-12-31 23:59:59+00:00	1	' zainteresowań\n(<em>afrykaniści</em>, amerykaniści, Akademia Malgaska i inne), czasopisma i wydawnictwa\nciągłe, ośrodki'
123	afrykanista	e-biblioteka Uniwersytetu Warszawskiego	1641884	1899-01-01 00:00:00+00:00	1899-12-31 23:59:59+00:00	1	'), \nSzolc-Rogoziński (<em>afrykanista</em>), Z. Kaczkowski (powieściopisarz) i żyjący: S. Szczepanowski (Galicya), H'
124	afrykanista	Biblioteka Cyfrowa Polskiego Instytutu Antropologii	294812	1958-01-01 00:00:00+00:00	1958-12-31 23:59:59+00:00	1	"""\nw Europie\nautorów\nmożna by wymienić:\nMelvilla\nH e r s k o v i t s a,\nznanego <em>afrykanistę</em>;\nBoggs'a"""
125	afrykanista	Dolnośląska Biblioteka Cyfrowa	562248	1999-01-01 00:00:00+00:00	1999-12-31 23:59:59+00:00	1	', <em>afrykanista</em> Diedrich H. Westermann i młodsi: Walter Greite (nb. członek NSDAP),\nktóry przyjechał do obozu'
126	afrykanista	Małopolska Biblioteka Cyfrowa	581622	1996-01-07 00:00:00+00:00	1996-01-07 23:59:59+00:00	1	' gestykulacja. Biorąc \nsobą miał studia u najwybitniejszych <em>afrykanistów</em> w Niemczech. pod uwagę niezwykły'
127	afrykanista	Repozytorium Cyfrowe Instytutów Naukowych	848119	1985-01-01 00:00:00+00:00	1985-12-31 23:59:59+00:00	3	', wzbudziły powszechne zainteresowanie\nw międzynarodowym środowisku <em>afrykanistów</em>. Są one cytowane w większości'
128	afrykanista	Biblioteka Cyfrowa Polskiego Instytutu Antropologii	295190	1969-01-01 00:00:00+00:00	1969-12-31 23:59:59+00:00	2	' rozwijała\n\n<em>Afrykanistów</em>\n\nCiekawy,\n\na zarazem\n\nktóre\n\nw\n\nsposób\n\nwspomniałem\n\nwidoczny\n\nn a wstępie\n\ns m u t'
129	afrykanista	Śląska Biblioteka Cyfrowa	1623577	2002-01-01 00:00:00+00:00	2002-12-31 23:59:59+00:00	1	' mówili zaproszeni afrykańskie maski. Wystawę\ngoście - wyhitny <em>afrykanista</em> uzupełniają również plansze\ni'
131	afrykanista	Miesięcznik Morze	1447954	1931-01-01 00:00:00+00:00	1931-12-31 23:59:59+00:00	1	"': generałów Hertzoga i Smutsa. \nNarodowy ruch b\'oerski propaguje używanie wyłącznie języka ..<em>afrykanistów</em>"". \nt'"
132	afrykanista	Biblioteka Cyfrowa Polskiego Instytutu Antropologii	294812	1958-01-01 00:00:00+00:00	1958-12-31 23:59:59+00:00	2	' trzydziestoletniej\npracy slawistycznej - gdyż\ndawniej byłem <em>afrykanistą</em> - w Historii\nPolski\nznajduje się tylko taki'
133	afrykanista	Małopolska Biblioteka Cyfrowa	768362	1967-01-01 00:00:00+00:00	1967-12-31 23:59:59+00:00	2	""" historyka literatur afrykańskich G. Moore'a i austriackiego <em>afrykanistę</em>, b. redaktora \n  ANTOINE ROGER"""
134	afrykanista	Śląska Biblioteka Cyfrowa	900882	2003-01-01 00:00:00+00:00	2003-12-31 23:59:59+00:00	1	' <em>afrykanistą</em>. Studiowała w Moskwie język suahili i \nlingała. Ten drugi używany jest w \nKongo i Zairze'
135	afrykanista	Miesięcznik Morze	1447960	1931-01-01 00:00:00+00:00	1931-12-31 23:59:59+00:00	1	""" <em>Afrykanistów</em>. weźmie udział kilkudziesięciu wybitnych uczonych' francuskich oraz cały sztab operatorów"""
136	afrykanista	Chełmska Biblioteka Cyfrowa	342658	1931-08-01 00:00:00+00:00	1931-08-31 23:59:59+00:00	1	""" <em>Afrykanistów</em>, weźmie udział klku- \n,d>!:esięciu wybitnych uczonych' francuskich oraz cały sztab operatorów"""
137	afrykanista	Małopolska Biblioteka Cyfrowa	719158	1992-02-09 00:00:00+00:00	1992-02-09 23:59:59+00:00	1	', \nświatowej sławy <em>afrykanista</em>): Gimnastykuję się \nwcześnie rano przed \nśniadaniem, potem chłodna kąpiel. Po'
138	afrykanista	Chełmska Biblioteka Cyfrowa	342632	1931-01-01 00:00:00+00:00	1931-01-31 23:59:59+00:00	1	"' boerski propagui e używanie wyłącznie języka ""<em>afrykanistów</em>"", \nt, j. bocrskiego, a tylko w ostateczności'"
139	afrykanista	Biblioteka Cyfrowa Polskiego Instytutu Antropologii	295485	1967-01-01 00:00:00+00:00	1967-12-31 23:59:59+00:00	1	' c h o w a n i a\nterpretacjekrytycznego\n\nDla\n\nspojrzenia\n\netnografa-<em>afrykanisty</em>\n\nna podawane\nHistoria'
141	afrykanista	Bałtycka Biblioteka Cyfrowa	396186	1988-01-01 00:00:00+00:00	1988-12-31 23:59:59+00:00	2	""" się osobiście lub telefonicznie pod numerem: 223-62, w godz. \n16-18. (a) \n  Spotkanie'z <em>afrykanistą</em>"""
143	afrykanista	Małopolska Biblioteka Cyfrowa	673997	1984-01-01 00:00:00+00:00	1984-12-31 23:59:59+00:00	1	' MUZEUM <em>AFRYKANISTY</em>- \nCZNE. Lekarz i spolecznik, dr Szczygiel, pczebywal przez dluZsZY czas \nw Afryce; dal'
144	afrykanista	Małopolska Biblioteka Cyfrowa	756636	1979-01-01 00:00:00+00:00	1979-12-31 23:59:59+00:00	1	"', <em>afrykanista</em>. do kt6rego zwrocilem siE: 0 pomoc, powi(\'dzial. ze to j zyk ludzi \nz pl(""mi(1nia Mandingo. Nast'"
145	afrykanista	Cyfrowa Biblioteka Narodowa Polona	1395435	1914-05-09 00:00:00+00:00	1914-05-09 23:59:59+00:00	1	' Wschodu aryjskiego, arabistów, hebraistów, asyryologów, altaistów, <em>afrykanistów</em>, \nchamistów'
146	afrykanista	Biblioteka Cyfrowa Polskiego Instytutu Antropologii	295105	1973-01-01 00:00:00+00:00	1973-12-31 23:59:59+00:00	1	' r y k i d z i s i e j s z e j ,\n\nnad\n\nwielojęzycznymi\n\npióra z n a n e g o\n\nuczonego-<em>afrykanisty</em>'
148	afrykanista	Śląska Biblioteka Cyfrowa	866597	1914-01-01 00:00:00+00:00	1914-12-31 23:59:59+00:00	1	' aryjskiego, arabistów, hebraistów, asyryologów, ałtaistów, <em>afrykanistów</em>, \nchamistów, dyalektomongolistóuv'
149	afrykanista	Biblioteka Cyfrowa Polskiego Instytutu Antropologii	295485	1967-01-01 00:00:00+00:00	1967-12-31 23:59:59+00:00	1	'\n\nCzarnego\n\npozostali\n\nLądu\n\n<em>afrykaniści</em>\n\nliczą\n\npolscy\n\nsię\n\njedynie\n\nzajmują\n\nsię\n\nprace\n\nJana\n\nprzede'
150	afrykanista	Małopolska Biblioteka Cyfrowa	599031	1973-12-11 00:00:00+00:00	1973-12-11 23:59:59+00:00	1	' Miedzynarodowy \nKongre5 <em>Afrykanistów</em>. Bierze w nim \nudzial ponad 350 naukowców z krajów Europy. Ameryki. A\nji i'
151	afrykanista	Małopolska Biblioteka Cyfrowa	764529	1952-08-31 00:00:00+00:00	1952-08-31 23:59:59+00:00	1	"' Hausa. \n- A nowa szkoła <em>afrykanisty</em>(""\'n\'ł.s!ł nad. jakimi \njęzykami pracuje! \n- SwabiU. £We. Hausa \ni'"
153	afrykanista	Cyfrowy Dolny Śląsk	377115	1997-01-01 00:00:00+00:00	1997-12-31 23:59:59+00:00	1	',\nkonstruktor, <em>afrykanista</em>, leśnik, poligraf itp. Jeden z bliskich współpracowników Prószyńskiego opowiedział mi'
159	afrykanista	Cyfrowy Dolny Śląsk	375657	2000-04-04 00:00:00+00:00	2000-04-04 23:59:59+00:00	1	'. Osada, - \n3. Leukoma, - 4. Zawada, - 5. Krystyna, - \n6. Kosmonautka, - 7. Klaryska, - 8. <em>Afrykanista</em>'
160	afrykanista	Gdańska Biblioteka Cyfrowa	1164837	1972-01-01 00:00:00+00:00	1972-12-31 23:59:59+00:00	1	' nawet niechęcią. Może dlatego, że autor me jest <em>afrykanistą</em> i znany jest \nprzede_ wszystkim jako pisarz'
162	afrykanista	"Zachodniopomorska Biblioteka Cyfrowa ""Pomerania"""	354321	1974-09-24 00:00:00+00:00	1974-09-24 23:59:59+00:00	2	"""' Uniwersytetu Warszawskiego \nII akademicka wyprawa \nafrykańska, ,zorganizowana przez Koło Naukow. \n<em>Afrykanistów</em>"""
165	afrykanista	Małopolska Biblioteka Cyfrowa	689384	1973-07-01 00:00:00+00:00	1973-07-01 23:59:59+00:00	1	'. prof. dra Mukarowskiego (z wykształcenia <em>afrykanista</em> jest \npracownikiem Bundespressedienstu), \nże'
166	afrykanista	Biblioteka Cyfrowa - Regionalia Ziemi Łódzkiej	121883	1938-08-17 00:00:00+00:00	1938-08-17 23:59:59+00:00	1	' Anglika. Podczas przerwy\nwarzystwo <em>Afrykanistów</em>, Towarzystwo\nNajdelikatniejszy wylkrój ust mają man\nmodą'
167	afrykanista	Małopolska Biblioteka Cyfrowa	598477	1978-01-01 00:00:00+00:00	1978-12-31 23:59:59+00:00	1	'. Mlody <em>afrykanista</em> z UW po raz pierwszy w \nnaszej Uteraturze przedstawia \nten temat. Mity podane   w'
168	afrykanista	Śląska Biblioteka Cyfrowa	910003	2000-01-01 00:00:00+00:00	2000-12-31 23:59:59+00:00	1	' 7łoią siC; malarstwo krakowskicj plastyclki Kingi Pollt oraz fotografie :lorskiego clnologa-<em>afrykanisty</em>'
169	afrykanista	"Zachodniopomorska Biblioteka Cyfrowa ""Pomerania"""	359514	1978-02-23 00:00:00+00:00	1978-02-23 23:59:59+00:00	1	"'"" \nutrzymana je.«t może w nazbyt drama U cznym tonie, ?.le nie odosobniona. Wielu <em>afrykanistów</em> bowiem wychodzi'"
170	afrykanista	Śląska Biblioteka Cyfrowa	1627346	1985-01-01 00:00:00+00:00	1985-12-31 23:59:59+00:00	1	' francuskich <em>afrykanistów</em> win no wesprzel: wysBki badawcze swoich kolegow z Afryki. \n  JUBII.E\\JSZ URSZULANEK'
171	afrykanista	Jagiellońska Biblioteka Cyfrowa	1052725	1896-03-17 00:00:00+00:00	1896-03-17 23:59:59+00:00	1	"', \nzapalonego ""<em>afrykanisty</em>-, który jednak uznawal \nzawsze, iz ""W ochy SIJi krajem ubogim"", bez \nkapitalów do'"
172	afrykanista	Bałtycka Biblioteka Cyfrowa	396307	1989-01-01 00:00:00+00:00	1989-12-31 23:59:59+00:00	2	' Warszawskiego. \nUczestniczą w niej uczeni - <em>afrykaniści</em> z 1 O \npaństw. QlTlaWlane są problemy rekons\nrukcji'
173	afrykanista	Małopolska Biblioteka Cyfrowa	583410	1984-01-01 00:00:00+00:00	1984-12-31 23:59:59+00:00	1	"'""udycji i dokładności nie powstydziłby się historyk <em>afrykanista</em>. \nMówi. że prz dtem nie interesowal się'"
174	afrykanista	Bałtycka Biblioteka Cyfrowa	1563701	1973-10-21 00:00:00+00:00	1973-10-22 23:59:59+00:00	1	' przez linię frontu. (PAP), \n\n\nMiędzynarodowa Konferencja <em>Afrykanistów</em> \n\n\nRozwój współpracy Afryki \nz'
175	afrykanista	Śląska Biblioteka Cyfrowa	901440	1999-01-01 00:00:00+00:00	1999-12-31 23:59:59+00:00	1	' jest filozofem, <em>afrykanistą</em>, geologiem, działaczem ruchu \neuropejskiego, jest kierownikiem Zakładu'
176	afrykanista	Małopolska Biblioteka Cyfrowa	775051	1970-01-01 00:00:00+00:00	1970-12-31 23:59:59+00:00	1	"' Afryki"". \nsLwierdził na marginesie festiwalu \nwybitny <em>afrykanista</em> francuski. \nSpblkanłe pisarzy. i'"
177	afrykanista	Jagiellońska Biblioteka Cyfrowa	1136994	1914-04-19 00:00:00+00:00	1914-04-19 23:59:59+00:00	1	', zbieracze tekstów \nPiłsudzki i Sieroszewski, głośnym <em>afrykanistą</em> \njest prof. Czekanowski, ham tystą dr'
178	afrykanista	Małopolska Biblioteka Cyfrowa	741196	1968-09-29 00:00:00+00:00	1968-09-29 23:59:59+00:00	1	"' secunda to <em>afrykanista</em> *), CZ \'""I sit: \nuprawniony - spodziewam si , ze ybaczy mi to jako...\' emu'"
179	afrykanista	Jagiellońska Biblioteka Cyfrowa	1152425	1890-08-29 00:00:00+00:00	1890-08-29 23:59:59+00:00	1	"' zaufania, w nim położonego. \n""<em>Afrykaniści</em>"" niemieccy, jak prasa nazywa zwolenników kolonizacyi niemieckiej'"
180	afrykanista	Bałtycka Biblioteka Cyfrowa	393132	1988-01-01 00:00:00+00:00	1988-12-31 23:59:59+00:00	1	', <em>afrykanistą</em>, pracownikiem naukowym Polskiego Instytutu \nSpraw Międzynarodowych, autorem kilku \nksiążek o'
181	afrykanista	Małopolska Biblioteka Cyfrowa	765506	1981-01-01 00:00:00+00:00	1981-12-31 23:59:59+00:00	1	'), dziennikaf7.. \nprasOz.nawc3, autM wielu ksią:!ek z \nt j dziedziny. Zamiłowany <em>afrykanista</em>, opracował (wsPólnip'
182	afrykanista	Małopolska Biblioteka Cyfrowa	584561	1966-01-01 00:00:00+00:00	1966-12-31 23:59:59+00:00	1	"' LICZBACH \n  Terminem ""łłtł!ratura afrykańska"" \nI!eQ1SU Irtracto <em>afrykaniścI</em> zwykłl okrl\' lać literaturę'"
183	afrykanista	Śląska Biblioteka Cyfrowa	882938	1963-01-01 00:00:00+00:00	1963-12-31 23:59:59+00:00	1	' stworzyć osobliwość \nże królestwo Mali, 1o temat \nprawie nietknięty przez <em>afrykanistów</em>, to kraj, gdzie juz'
184	afrykanista	Małopolska Biblioteka Cyfrowa	780161	1961-01-01 00:00:00+00:00	1961-12-31 23:59:59+00:00	1	"' niemieckiegC"" \n<em>afrykanisty</em> \nProf. Ern!rt Damma,nn znak.omity \nafryka,nista z BerUna (NRD) wy((losi \nU odczytów'"
185	afrykanista	Bałtycka Biblioteka Cyfrowa	402035	1963-08-29 00:00:00+00:00	1963-08-29 23:59:59+00:00	1	' \nTABELA i waszyngtonie Maroko, Daha- log i <em>afrykanista</em>. Zmarb ne onta y. \n1. Lublin\nanka \n : :\n\n Imej i'
186	afrykanista	Podlaska Biblioteka Cyfrowa	3372193	1976-01-01 00:00:00+00:00	1976-12-31 23:59:59+00:00	1	"' \nksiążki „The Zimbabwe Culture"", oraz Węgierski <em>afrykanista</em> Endre Stk. \n  Szkoła ta -— nazwijmy ją dla \nW)g'"
187	afrykanista	Bałtycka Biblioteka Cyfrowa	1563023	1973-08-08 00:00:00+00:00	1973-08-08 23:59:59+00:00	2	""" a1rykanistycz \nIW, AWlł\n'12, zorganizowa \nna przed rol\\.1e1n przez Ko \nlo Navkowe <em>Afrykanistów</em> \nZSP przy Studivm"""
188	afrykanista	Bałtycka Biblioteka Cyfrowa	1563745	1973-12-01 00:00:00+00:00	1973-12-01 23:59:59+00:00	3	""" pierwszy polskim <em>afrykanistom</em> bezpołredalą konfrontacje I przeprowa \ndzenie bada6 w Af1'Yce. esy \ntego"""
189	afrykanista	Małopolska Biblioteka Cyfrowa	731967	1977-01-01 00:00:00+00:00	1977-12-31 23:59:59+00:00	1	""" filmowy? Moravia eseista \nczy Disarz pornograficzny'? Mor:wiR \n<em>afrykanista</em> czy pisarz rzymski? NielIItwe"""
190	afrykanista	Śląska Biblioteka Cyfrowa	1621724	1997-01-01 00:00:00+00:00	1997-12-31 23:59:59+00:00	1	"' <em>Afrykanisty</em>""zne (Szpitalna 32): czynne codziennie z wyjątkiem poniedziałków, g. 9.00- \n16.00; Baszta z'"
191	afrykanista	Kujawsko-Pomorska Biblioteka Cyfrowa	615685	1974-01-01 00:00:00+00:00	1974-12-31 23:59:59+00:00	2	"', żeby tylko wymienić najbardziej znanych \n""<em>afrykanistów</em>"", rozchodziły się wówczas w Europie, w Stanach i'"
192	afrykanista	Śląska Biblioteka Cyfrowa	1625046	1977-01-01 00:00:00+00:00	1977-12-31 23:59:59+00:00	1	' spoleeznoeikonomiczhym tyclu wsp61eze- \n!mej Afryki. RaDieckl <em>afrykanista</em>, L. Pribytkowski, przytQCzyl \nkiedyi historJ'
