	word	lname	iid	duration_start	duration_end	occurences	highlighting
0	aktynowiec	Wielkopolska Biblioteka Cyfrowa	824554	2003-01-01 00:00:00+00:00	2003-12-31 23:59:59+00:00	1	'UKŁAD OKRESOWY PIERWIASTKÓW\n\nMetale przejściowe\n\n* Lantanowce\n\n** <em>Aktynowce</em>\n\n147\n\n '
2	aktynowiec	Urząd Patentowy RP	2471149	1979-10-31 00:00:00+00:00	1979-10-31 23:59:59+00:00	1	' atomowym, \nlub metal z grupy lantanowców i <em>aktynowców</em> u- 8. Sposób według zasitirz. 7, znamienny tym, że'
4	aktynowiec	Dolnośląska Biblioteka Cyfrowa	537238	2002-01-01 00:00:00+00:00	2002-12-31 23:59:59+00:00	2	' \n114.82 \n57-71 \nLantanowce \n81 \nTI \n204.2 \n89 -103 \n<em>Aktynowce</em> \nGrupa 4 \n6 \nC \n12.011 \n14 \nSi \n28.0855 \n22'
6	aktynowiec	Repozytorium Cyfrowe Instytutów Naukowych	851265	1987-01-01 00:00:00+00:00	1987-12-31 23:59:59+00:00	2	' się nie przyjęła.\nAutor uzupełnił układ Sosmana [l] o szereg <em>aktynowców</em>, kurczatov«\nnllsbor i-serię'
7	aktynowiec	Urząd Patentowy RP	2547590	2001-08-31 00:00:00+00:00	2001-08-31 23:59:59+00:00	3	' rozpuszczania pewnych <em>aktynowców</em> przy pH obojętnym. \nSposób według niniejszego wynalazku może ponadto obejmować'
9	aktynowiec	Urząd Patentowy RP	2414020	1969-06-25 00:00:00+00:00	1969-06-25 23:59:59+00:00	1	', krzemków lub węglików \nglinu, magnezu, berylu, cyrkonu, tytanu, <em>aktynowców</em>, tantalu, krzemu, boru, chromu'
14	aktynowiec	Urząd Patentowy RP	2547590	2001-08-31 00:00:00+00:00	2001-08-31 23:59:59+00:00	3	' chelatowania je st w stanie usunąć <em>aktynowce</em> z roztworu rozpuszczającego \nw obecności stężeń węglanu'
17	aktynowiec	Repozytorium Cyfrowe Instytutów Naukowych	834124	1976-01-01 00:00:00+00:00	1976-12-31 23:59:59+00:00	1	' \naksjologia jilozaktorzyk rzad. \naktówka \n. aktualizacj a \n<em>aktynowiec</em> chem. \naktyw \naktywizator \nakwalung mors'
19	aktynowiec	Dolnośląska Biblioteka Cyfrowa	1575428	1997-01-01 00:00:00+00:00	1997-12-31 23:59:59+00:00	2	' magnetycznych związków uranu, \nlantanowców i <em>aktynowców</em> w skali światowej. Praktycznie nie ma na świecie'
20	aktynowiec	Dolnośląska Biblioteka Cyfrowa	538448	2002-01-01 00:00:00+00:00	2002-12-31 23:59:59+00:00	2	' to można następująco: <em>aktynowce</em>, w tym i  \nsyntetyczne transuranowce (składniki odpadów nuklearnych'
21	aktynowiec	Dolnośląska Biblioteka Cyfrowa	3377593	1992-01-01 00:00:00+00:00	1992-12-31 23:59:59+00:00	1	'. , (1987), Lantanowce i <em>aktynowce</em>. WNT, Warszawa. \nCharewicz W. i wsp. , (1991), Pierwiastki ziem rzadkich'
22	aktynowiec	Dolnośląska Biblioteka Cyfrowa	1575428	1997-01-01 00:00:00+00:00	1997-12-31 23:59:59+00:00	1	' magnetycznych tlenków uranu i toru. Zapoczątkowane \nwówczas prace nad magnetochemią <em>aktynowców</em> rozwinęły się po'
23	aktynowiec	Urząd Patentowy RP	2514295	1989-10-31 00:00:00+00:00	1989-10-31 23:59:59+00:00	3	', \nlantanowce i <em>aktynowce</em>. Do lantanowców należę lantan, cer, prazeodym, naodym, promet, \nsamar, europ, gadolin'
28	aktynowiec	Urząd Patentowy RP	2521089	1991-10-31 00:00:00+00:00	1991-10-31 23:59:59+00:00	3	' podczas gry i zatrzymanie się na kółku pozycyjnym aktynu 89 zmusza do podążenia kołem <em>aktynowców</em>'
29	aktynowiec	Pomorska Biblioteka Cyfrowa	57698	1996-01-01 00:00:00+00:00	1996-12-31 23:59:59+00:00	1	' \nKr \n54 \nXe \n86 \nRn \nlantanowce \n<em>aktynowce</em> \n96 \nCm \n89 \nAc \n97 \nBk \n90 \nTh \n98 \nCf \n91 \nPa \n99 \nΕ \n92'
32	aktynowiec	Urząd Patentowy RP	2494283	1984-01-31 00:00:00+00:00	1984-01-31 23:59:59+00:00	2	', w tym metale grup Vb i VIb układu okre_ \nsowego jak również różne lantanowce i <em>aktynowce</em>. \nW dalszej'
33	aktynowiec	Urząd Patentowy RP	2547590	2001-08-31 00:00:00+00:00	2001-08-31 23:59:59+00:00	2	' wynalazek jest szczególnie użyteczny w odniesieniu do rozpuszczania i odzyskiwania <em>aktynowców</em>, i może być'
34	aktynowiec	Urząd Patentowy RP	2494283	1984-01-31 00:00:00+00:00	1984-01-31 23:59:59+00:00	3	' zostają rozpuszczane lantanowce \ni <em>aktynowce</em> związane adsorpcyjmie. Metale te, \nz wyjątkiem uranu, nie'
38	aktynowiec	Monitor Polski - Dziennik Urzędowy Rzeczypospolitej Polskiej	1474682	1996-12-20 00:00:00+00:00	1996-12-20 23:59:59+00:00	2	' \nmikrofluoryzacji skonstruowane z przeznaczeniem \ndo pracy w obecności <em>aktynowców</em> lub fluorków \n<em>aktynowców</em>. \n38'
42	aktynowiec	Repozytorium Cyfrowe Instytutów Naukowych	849923	1997-01-01 00:00:00+00:00	1997-12-31 23:59:59+00:00	1	' jonów \nlantanowców czy <em>aktynowców</em>. \nZnane są również dwie struktury warstwowe 138 zbudowane z kompleksów'
43	aktynowiec	Monitor Polski - Dziennik Urzędowy Rzeczypospolitej Polskiej	1475245	1996-01-01 00:00:00+00:00	1996-12-31 23:59:59+00:00	2	' <em>aktynowców</em> lub fluorków \n<em>aktynowców</em>. \n38 Urz\\ldzenia testuj\\lce, kontrolne i produkcyjne \n38 Następuj\\lce'
45	aktynowiec	Urząd Patentowy RP	2547590	2001-08-31 00:00:00+00:00	2001-08-31 23:59:59+00:00	2	', nie zaw ierają \nwęglanu i nie są szczególnie użyteczne ani odpowiednie do rozpuszczania <em>aktynowców</em>'
46	aktynowiec	Urząd Patentowy RP	2547590	2001-08-31 00:00:00+00:00	2001-08-31 23:59:59+00:00	2	', wodorowęglan sodu lub inne sole \nwęglanowe. Sole węglanowe tworzą rozpuszczalne kompleksy z różnymi <em>aktynowcami</em>'
51	aktynowiec	Annales Societatis Geologorum Poloniae	2664000	1973-01-01 00:00:00+00:00	1973-12-31 23:59:59+00:00	1	' wykazują także wzbogace— \nnie W pierwiastki ziem rzadkićh, którym często towarzyszą <em>aktynowce</em> \n(tor, uran'
59	aktynowiec	Dolnośląska Biblioteka Cyfrowa	1575428	1997-01-01 00:00:00+00:00	1997-12-31 23:59:59+00:00	1	' zainteresowania są głównie \nzwiązki <em>aktynowców</em> i pierwiastków ziem rzadkich oraz ich wodorki. Na  \npodkreślenie'
70	aktynowiec	Urząd Patentowy RP	2551582	2003-05-30 00:00:00+00:00	2003-05-30 23:59:59+00:00	1	' <em>aktynowców</em> odpowiedniej ilości odpadów reaktora wodnego w celu osiągnięcia \npożądanej wartości k. Procedura'
71	aktynowiec	Pomorska Biblioteka Cyfrowa	57698	1996-01-01 00:00:00+00:00	1996-12-31 23:59:59+00:00	1	' podpoziomie \n5f przy zapełnionych 6s, 6p i 7s nazywają się <em>aktynowcami</em>. \nPo lewej stronie układu okresowego'
72	aktynowiec	Urząd Patentowy RP	2437195	1974-06-29 00:00:00+00:00	1974-06-29 23:59:59+00:00	1	' podgrupy lantanowców, taki jak \nlanten lub cer lub z podgrupy <em>aktynowców</em>, taki jak tor i koordynowane przez'
73	aktynowiec	Repozytorium Cyfrowe Instytutów Naukowych	834124	1976-01-01 00:00:00+00:00	1976-12-31 23:59:59+00:00	1	' rzadziej i nazywają, z wyjątkiem rzeczowników <em>aktynowiec</em> chem. i środkowiec (1. (stojak), 2. łwiertło'
74	aktynowiec	Urząd Patentowy RP	2507670	1987-08-31 00:00:00+00:00	1987-08-31 23:59:59+00:00	1	' <em>aktynowców</em>, a zwłaszcza \ncyrkowi, ołowiu, wanadu, tantalu, mofen, mołfbdemi, ceru, lub tytanu. Katabiator o'
75	aktynowiec	Dolnośląska Biblioteka Cyfrowa	3382135	1993-01-01 00:00:00+00:00	1993-12-31 23:59:59+00:00	1	' i <em>aktynowce</em>, WNT, Warszawa. \nJarosiński A., i in., (1988), Zastosowaniefosfogipsowych odpadów'
79	aktynowiec	Dolnośląska Biblioteka Cyfrowa	1575428	1997-01-01 00:00:00+00:00	1997-12-31 23:59:59+00:00	1	' Międzynarodowa Konferencja Struktury Elektronowej <em>Aktynowców</em> — Wrocław (1976). \n• XI Międzynarodowy Kongres'
80	aktynowiec	Urząd Patentowy RP	2437029	1974-04-30 00:00:00+00:00	1974-04-30 23:59:59+00:00	1	' gamma lub <em>aktynowcami</em>. W celu przyspieszenia reakcji można \n15 \n20 \n25 \n80 \nrównież stosować dodatkowo'
82	aktynowiec	Urząd Patentowy RP	2414020	1969-06-25 00:00:00+00:00	1969-06-25 23:59:59+00:00	1	': ,Jtlenków, azotków, borków, krzemków lub węglików ^glinu, magnezu, \nberylu, cyroku, tytanu, <em>aktynowców</em>'
83	aktynowiec	Urząd Patentowy RP	2409831	1967-08-25 00:00:00+00:00	1967-08-25 23:59:59+00:00	1	'), III b (Sc, Y, Ziemie rzadkie, \n<em>Aktynowce</em>), IV a, b (Ti, Zr, Hf, Si, Ge, Sn, Pb), \nVa,b(V,Nb.Ta,As,Sb'
89	aktynowiec	Urząd Patentowy RP	2454911	1976-10-30 00:00:00+00:00	1976-10-30 23:59:59+00:00	1	' koordynacyjny o charakterze kwaśnym, z pMgrupy \nlamtanowców, taki jak lamtan lub cer lub z podgrupy <em>aktynowców</em>'
91	aktynowiec	Urząd Patentowy RP	2449082	1975-12-31 00:00:00+00:00	1975-12-31 23:59:59+00:00	1	' oraz z szeregu <em>aktynowców</em>, takim jak tor, przy czym rodnik \nkoordynacyjny połączony jest z wolframem i'
97	aktynowiec	Monitor Polski - Dziennik Urzędowy Rzeczypospolitej Polskiej	1475245	1996-01-01 00:00:00+00:00	1996-12-31 23:59:59+00:00	1	' stopionego uranu \nTygle odporne na płynne zwi~zki <em>aktynowców</em> \nTygle wykonane z azotowanego stopu niobu z'
99	aktynowiec	Urząd Patentowy RP	2551582	2003-05-30 00:00:00+00:00	2003-05-30 23:59:59+00:00	1	' których wchodzą przeznaczone \ndo likwidacji <em>aktynowce</em>. \n* \n* \n* \nPrzedmiotem wynalazku jest sposób'
103	aktynowiec	Urząd Patentowy RP	2551582	2003-05-30 00:00:00+00:00	2003-05-30 23:59:59+00:00	1	' wchodzą przeznaczone do likwidacji <em>aktynowce</em>. \nKorzystnie stosuje się ołów i/lub bizmut zarówno na tarczę'
105	aktynowiec	Urząd Patentowy RP	2529491	1994-03-31 00:00:00+00:00	1994-03-31 23:59:59+00:00	1	' <em>aktynowce</em>/, a także sól srebra, stosuje się jako funkcjonalne czynniki, \nnatomiast sól złota stosuje się do'
110	aktynowiec	Urząd Patentowy RP	2551582	2003-05-30 00:00:00+00:00	2003-05-30 23:59:59+00:00	1	' pierwiastki rozszczepialne, w skład których wchodząprzeznaczone do likwidacji <em>aktynowce</em>. \n16. Sposób według'
111	aktynowiec	Urząd Patentowy RP	2551582	2003-05-30 00:00:00+00:00	2003-05-30 23:59:59+00:00	1	' <em>aktynowce</em>. \nZatem zgodnie z wynalazkiem realizuje się sposób transmutacji pierwiastków przy skutecznym'
112	aktynowiec	Urząd Patentowy RP	2551582	2003-05-30 00:00:00+00:00	2003-05-30 23:59:59+00:00	1	' oddzielenia chemicznego. \nW kolejności znaczenia, największy udział mają <em>aktynowce</em> inne, niż uran, czyli'
113	aktynowiec	Urząd Patentowy RP	2551582	2003-05-30 00:00:00+00:00	2003-05-30 23:59:59+00:00	1	' atrakcyjnym typem źródła jest <em>aktynowiec</em> o dużym prawdopodobieństwie \nrozszczepienia spontanicznego, jak na'
114	aktynowiec	Małopolska Biblioteka Cyfrowa	600024	1983-01-01 00:00:00+00:00	1983-12-31 23:59:59+00:00	1	""", \ntakże i rzeczowników, np. kiurowiec 'jeden \nz ośmiu najciężśzych pierwiastków zaliczanych do <em>aktynowców</em>"""
117	aktynowiec	Urząd Patentowy RP	2550658	2002-11-29 00:00:00+00:00	2002-11-29 23:59:59+00:00	1	' lantanowców lub <em>aktynowców</em>, przy czym \nkorzystnym metalem przejściowym jest metal z grupy 4, a zwłaszcza tytan'
121	aktynowiec	Urząd Patentowy RP	2551582	2003-05-30 00:00:00+00:00	2003-05-30 23:59:59+00:00	1	' neutronów w przypadku źródła α 100 Cie, lub źródła z <em>aktynowcami</em>, jak 252Cf, które \nm ająprawdopodobieństwo'
122	aktynowiec	Urząd Patentowy RP	2551582	2003-05-30 00:00:00+00:00	2003-05-30 23:59:59+00:00	1	') transmutowania <em>aktynowców</em> w obszarze \nrdzeniowym, i (ii) do wytwarzania uchodzących neutronów wykorzystywanych do'
123	aktynowiec	Urząd Patentowy RP	2544343	2000-03-31 00:00:00+00:00	2000-03-31 23:59:59+00:00	1	' najmniej jeden metal grup 2, 3 (obejmujące lantanowce i <em>aktynowce</em>),4 , 5 ,6 ,7 ,8 ,9 ,10,1 1 ,12 ,1 3 i 14'
124	aktynowiec	Urząd Patentowy RP	2544343	2000-03-31 00:00:00+00:00	2000-03-31 23:59:59+00:00	1	' <em>aktynowce</em>), 4 ,5 ,6 ,7 ,8 ,9 ,10,11 ,12 ,13 i 14 według IUPAC. Korzystnie, \n178 269 \n15 \n\n \n'
125	aktynowiec	Urząd Patentowy RP	2544343	2000-03-31 00:00:00+00:00	2000-03-31 23:59:59+00:00	1	' \npowyższych. Metal węglika zawiera co najmniej jeden metal z grup 3 (zawierającej lantanowce i \n<em>aktynowce</em>'
126	aktynowiec	Urząd Patentowy RP	2544285	2000-03-31 00:00:00+00:00	2000-03-31 23:59:59+00:00	1	', lantanowców, \n<em>aktynowców</em>, galu, indu, krzemu, tytanu, cyrkonu, hafnu, toru, germanu, cyny, ołowiu, wanadu'
128	aktynowiec	Urząd Patentowy RP	2552176	2003-10-31 00:00:00+00:00	2003-10-31 23:59:59+00:00	1	' <em>aktynowców</em> i lantanowców i ich \nzwiązków, pierwiastków grupy IIIB i IVB i ich związków. Metale przejściowe'
134	aktynowiec	Dziennik Ustaw Rzeczypospolitej Polskiej	1758292	1998-08-03 00:00:00+00:00	1998-08-03 23:59:59+00:00	1	'. \nNastępujące tygle wykonane z materiałów odpornych na płynne <em>aktynowce</em>: \na. Tygle o pojemności od 150 mi do 8'
137	aktynowiec	Urząd Patentowy RP	2521089	1991-10-31 00:00:00+00:00	1991-10-31 23:59:59+00:00	1	' pozycyjnego kurczatowa /1 04/ jest usytuowana kolista linia dodatkowa z kółkami pozycyjnymi <em>aktynowców</em> \n/od 90'
138	aktynowiec	Urząd Patentowy RP	2530172	1994-06-30 00:00:00+00:00	1994-06-30 23:59:59+00:00	1	', Sn, Pb, Sb oraz \n<em>aktynowców</em> lub lantanowców. Natomiast jako metale szlachetne stosuje się: Pt, Ru, Rh'
139	aktynowiec	Biblioteka Cyfrowa Uniwersytetu Wrocławskiego	125794	1998-06-01 00:00:00+00:00	1998-06-30 23:59:59+00:00	1	' szkoły magnetyzmu <em>aktynowców</em>, cieszącej się uznaniem w literaturze \nświatowej. \nProfesor był wykładowcą i'
140	aktynowiec	Monitor Polski - Dziennik Urzędowy Rzeczypospolitej Polskiej	1474682	1996-12-20 00:00:00+00:00	1996-12-20 23:59:59+00:00	1	' płynne <em>aktynowce</em> : \na. Tygle o pojemności od 150 mi do 8 litrów i wykonane z jednego z następujących'
143	aktynowiec	Urząd Patentowy RP	2544343	2000-03-31 00:00:00+00:00	2000-03-31 23:59:59+00:00	1	'178 269 \n13 \nnowce i <em>aktynowce</em>), 4 ,5 i 6, korzystniej jeden albo więcej z Ti, Zr, Hf, V, Nb, Ta'
144	aktynowiec	Urząd Patentowy RP	2538846	1997-11-28 00:00:00+00:00	1997-11-28 23:59:59+00:00	1	', albo z szeregu <em>aktynowców</em> o liczbie atomowej 90-103, do przygotowania żeli lub \nmatryc zawierających'
153	aktynowiec	Urząd Patentowy RP	2530267	1994-06-30 00:00:00+00:00	1994-06-30 23:59:59+00:00	2	' jednego \nzwiązku z grupy tlenków Mg, Ca, Sr, Ba, Al, Sc, Y, lantanowców, <em>aktynowców</em>, Ga, In, Tl, Si, Ti'
154	aktynowiec	Urząd Patentowy RP	2521089	1991-10-31 00:00:00+00:00	1991-10-31 23:59:59+00:00	1	' pozycyjnymi <em>aktynowców</em>. \nGrupując kółka pierwiastków według podobieństwa ich charakteru chemicznego układ'
155	aktynowiec	Urząd Patentowy RP	2521089	1991-10-31 00:00:00+00:00	1991-10-31 23:59:59+00:00	1	' pozycyjnymi <em>aktynowców</em> od 90 do 1 0 3. \n\n \n'
158	aktynowiec	Urząd Patentowy RP	2494283	1984-01-31 00:00:00+00:00	1984-01-31 23:59:59+00:00	1	' rzadkich 2077 \n„ \n„ \n<em>Aktynowce</em> 2500 „ „ \nNa podstawie pomiarów derywatograficznych minimalna temperatura'
159	aktynowiec	Monitor Polski - Dziennik Urzędowy Rzeczypospolitej Polskiej	1475245	1996-01-01 00:00:00+00:00	1996-12-31 23:59:59+00:00	1	' wykonane z materiałów odpornych \nna płynne <em>aktynowce</em> : \na. Tygle o pojemności od 150 mi do 8 litrów i wyko'
167	aktynowiec	Urząd Patentowy RP	2520272	1991-08-30 00:00:00+00:00	1991-08-30 23:59:59+00:00	1	' <em>aktynowców</em> tych anionów. Korzystne są siarczki, karbonylki i tlenki a szczególnie \nkorzystne są siarczki'
168	aktynowiec	Urząd Patentowy RP	2530697	1994-08-31 00:00:00+00:00	1994-08-31 23:59:59+00:00	1	' również spośród lantanowców i <em>aktynowców</em>. Składniki te wpływają na zdolność utleniającą Cu w katalizatorze'
169	aktynowiec	Urząd Patentowy RP	2494892	1984-03-31 00:00:00+00:00	1984-03-31 23:59:59+00:00	1	', Ac i <em>aktynowce</em>, Ti, \n60 Zr,Hf,V,Nb,Ta,Gr,Mo, W, Mn, Tc, Re, Fe, Co, Ni, \nRu, Rh, Pd, Ós, Ir, Pt, Cu'
173	aktynowiec	Urząd Patentowy RP	2462739	1978-01-31 00:00:00+00:00	1978-01-31 23:59:59+00:00	1	', Nd, Pm, Sm, Eu, \nGd,Tb,Dy,Ho,Er,Tm,YbiLu/izmetaliz \ngrupy <em>aktynowców</em> /mianowicie: Th, Pa, U, Np, \nPu'
175	aktynowiec	Cyfrowy Dolny Śląsk	3829441	1992-01-01 00:00:00+00:00	1992-12-31 23:59:59+00:00	1	' niedźwiedziu, 12.Nieujemna \nelektroda, 17.Buchająca dymem i żarem trucizna, 19.<em>Aktynowiec</em>, 21.P erfo ra tor do'
176	aktynowiec	Urząd Patentowy RP	2471149	1979-10-31 00:00:00+00:00	1979-10-31 23:59:59+00:00	1	' <em>aktynowców</em> układu okresowego. \nSzczególnie korzystne jest stosowanie metali o \nniższych ciężarach atomowych z'
177	aktynowiec	Urząd Patentowy RP	2447941	1975-10-31 00:00:00+00:00	1975-10-31 23:59:59+00:00	1	' pierwiastków ziem rzadkich i halogenki \n<em>aktynowców</em>, jak również halogenki Sc, Tr, V, Cr, \nMn, Cu, Ga, Y, Zr, Nb'
178	aktynowiec	Urząd Patentowy RP	2494892	1984-03-31 00:00:00+00:00	1984-03-31 23:59:59+00:00	1	' lantanowce, Ac i <em>aktynowce</em>, Ti, Zr, Hf, V, Nb, Ts, Cr, Mo, W, Mn, Tc, \nRe, Fe, Co, Ni, Ru, Rh, Pd, Os, Ir, Pt'
179	aktynowiec	Kujawsko-Pomorska Biblioteka Cyfrowa	747985	1999-01-01 00:00:00+00:00	1999-12-31 23:59:59+00:00	1	' lantanowców \ni <em>aktynowców</em>. Należy do wąskiego grona \ntwórców tej dziedziny fizyki. Książka Spectro.fcopic'
181	aktynowiec	Wielkopolska Biblioteka Cyfrowa	3824526	1999-06-09 00:00:00+00:00	1999-06-09 23:59:59+00:00	1	' dla psa \n24. <em>Aktynowiec</em> o 1. a. 247 \n25. Czerwony to pożar \nPODTWOJĄGWIAZDĄ \nU \n► \nBARAN 21.03 -19.04'
182	aktynowiec	Kujawsko-Pomorska Biblioteka Cyfrowa	747616	2003-01-01 00:00:00+00:00	2003-12-31 23:59:59+00:00	1	' \nspektroskopii atomów ziem rzadkich. w szczególności lantanowców i <em>aktynowców</em>, a więc \ntakich atomów, które'
183	aktynowiec	Bałtycka Biblioteka Cyfrowa	424751	1997-01-01 00:00:00+00:00	1997-12-31 23:59:59+00:00	1	' znanego czołgu z numerem 102,3. promieniotwórczy pierwiastek \nchemiczny z szeregu <em>aktynowców</em> lub planeta'
185	aktynowiec	Cyfrowy Dolny Śląsk	373581	1997-01-01 00:00:00+00:00	1997-12-31 23:59:59+00:00	1	') promieniotwórczy  \n<em>aktynowiec</em>; 35) pisarski lub drogowy; \n37) polcr, knecht na nabrzeżu; 38) \nfata morgana; 41'
186	aktynowiec	Cyfrowy Dolny Śląsk	371034	1995-01-01 00:00:00+00:00	1995-12-31 23:59:59+00:00	1	' stawy. \n2) <em>Aktynowiec</em>, dzielnica Warszawy, \nczęsto jankesem jest nazywany. \nDo wygrania kaseta'
187	aktynowiec	Tarnowska Biblioteka Cyfrowa	217058	1980-01-01 00:00:00+00:00	1980-12-31 23:59:59+00:00	1	' \n<em>aktynowców</em>. 16. wyrażenie charakterystyczne dla danego \njęzyka nie do przetłumaczenia w języku obcym, 17. w'
188	aktynowiec	Śląska Biblioteka Cyfrowa	882337	1998-01-01 00:00:00+00:00	1998-12-31 23:59:59+00:00	1	' powstania  \nlistopadowego, 6. przęśl, 7. utwór  \nmuzyczny, wprawka, 8. <em>aktynowiec</em> la. 103, \n14. nastęuje po'
189	aktynowiec	Tarnowska Biblioteka Cyfrowa	217060	1982-01-01 00:00:00+00:00	1982-12-31 23:59:59+00:00	1	'. \nz grupy <em>aktynowców</em>, 8ft> rolnik — fachowiec, 31) owadożerny \nnietoperz, lub człowiek — krwiopijca S2'
190	aktynowiec	Tarnowska Biblioteka Cyfrowa	217058	1980-01-01 00:00:00+00:00	1980-12-31 23:59:59+00:00	1	' Kanady, 8. prom. \npierwiastek chem. z grupy <em>aktynowców</em> \njubilerska ozdoba \ngłowy, 9. niedobrze gdy płoną'
191	aktynowiec	Chełmska Biblioteka Cyfrowa	1526828	1976-06-15 00:00:00+00:00	1976-06-15 23:59:59+00:00	1	' <em>aktynowiec</em>, pierwiastek \npromieniotwórczy, \n26. sportowy fason płaszcza \nalbo sukni, - \n28. punkt'
192	aktynowiec	Tarnowska Biblioteka Cyfrowa	217058	1980-01-01 00:00:00+00:00	1980-12-31 23:59:59+00:00	1	' jednolity układ, 17. pierw, \nchem. z rodziny <em>aktynowców</em>, 19. przepływa przez Londyn, 20. drzewo liściaste'
193	aktynowiec	Cyfrowy Dolny Śląsk	375289	1999-02-16 00:00:00+00:00	1999-02-16 23:59:59+00:00	1	' raczej jego pochodnymi. Tor jest pierwiastkiem promieniotworczym z szeregu <em>aktynowców</em>, który stosuje się'
194	aktynowiec	Małopolska Biblioteka Cyfrowa	760546	1993-01-01 00:00:00+00:00	1993-12-31 23:59:59+00:00	1	' amarylkowatych, 29) Bojowy gaz paraliżujący, \n30) Od niego <em>aktynowce</em>. \nRozwiązanie prosimy nadsyłać \npod adresem'
195	aktynowiec	Tarnowska Biblioteka Cyfrowa	217055	1977-01-01 00:00:00+00:00	1977-12-31 23:59:59+00:00	1	' \n<em>aktynowców</em>, 33) ażurowa obudowa z poręczą schodów lub balkonów, \nPIONOWO: 1) stragan, 2) rodzaj gry w \nkarty'
196	aktynowiec	Bałtycka Biblioteka Cyfrowa	399548	1984-01-01 00:00:00+00:00	1984-12-31 23:59:59+00:00	1	"' <em>aktynowców</em>; ""I) ogniwo, element; 8) pogrzebacz; 9) Czarny... Gąsienicowy; 10) znie  \ndołężniały starzec; 12'"
197	aktynowiec	Bałtycka Biblioteka Cyfrowa	425590	1991-01-01 00:00:00+00:00	1991-12-31 23:59:59+00:00	1	"'} autor ""Cola \nRienzi""; 12} duszek domowy; 13} \nrower dla dwóch; 14} pochrzyn; 16) \n<em>aktynowiec</em>; 17} obuwie'"
198	aktynowiec	"Zachodniopomorska Biblioteka Cyfrowa ""Pomerania"""	359063	1979-01-12 00:00:00+00:00	1979-01-12 23:59:59+00:00	1	"') Dtak \nl\' rodziny wlOJIłono«ich; 101 \nDromienlotw6rczY Dlerwlaat\nk \nch""mlczny l\' Dod.runv <em>aktynowców</em>; 12'"
199	aktynowiec	Śląska Biblioteka Cyfrowa	882262	1992-01-01 00:00:00+00:00	1992-12-31 23:59:59+00:00	1	'. pierwszy \npierwiastek z rodziny  \n<em>aktynowców</em>, 4. zastawa stołowa \nświni, 5. największy z  \nnietoperzy, 6'
200	aktynowiec	Małopolska Biblioteka Cyfrowa	684574	1984-01-01 00:00:00+00:00	1984-12-31 23:59:59+00:00	1	'. pier wiastka \na grupy <em>aktynowców</em> otrzymanego w \n1957 r. SS. \nagor” w powieści Jana \nW iktor a. 59'
201	aktynowiec	Śląska Biblioteka Cyfrowa	1628591	1974-01-01 00:00:00+00:00	1974-12-31 23:59:59+00:00	1	"' Słońl""a,\n29. pierwiastek promieniotwórczy z rodziny <em>aktynowców</em>. 30.\nmłody las. 32. wymierza'"
202	aktynowiec	Pomorska Biblioteka Cyfrowa	57022	1968-01-01 00:00:00+00:00	1968-12-31 23:59:59+00:00	1	'-chemią procesów ekstrakcj i soli metali przej ściowych, \n<em>aktynowców</em> i metali o dużym \nznaczeniu w'
203	aktynowiec	Bałtycka Biblioteka Cyfrowa	393691	1997-01-01 00:00:00+00:00	1997-12-31 23:59:59+00:00	1	""" \nsrebrzysty metal 7 grupy <em>aktynowców</em>, \nktórego izotop 235 jest rozszczepialny i \nwykorzyst)'wany w broni"""
204	aktynowiec	Śląska Biblioteka Cyfrowa	1622474	1992-01-01 00:00:00+00:00	1992-12-31 23:59:59+00:00	1	""" - daje początek <em>aktynowcom</em>. \n\\\\i srod czyteIJuków, Ittol'7Y w \nternume do 2J wrzesma br. nade lą"""
