	word	lname	iid	duration_start	duration_end	occurences	highlighting
53	amniopunkcja	Pomorska Biblioteka Cyfrowa	62614	2000-01-01 00:00:00+00:00	2000-12-31 23:59:59+00:00	5	""" \n  Ciąża. podczas której wykonywano <em>amniopunkcję</em> była najczęściej drugą lub trzecią \neiąż'l li badanej"""
59	amniopunkcja	Pomorska Biblioteka Cyfrowa	62614	2000-01-01 00:00:00+00:00	2000-12-31 23:59:59+00:00	3	' ośrodku stosOWano Zarówno wczcsm! jak i późm! \n<em>amniopunkcję</em>. przy czym najczęściej wykonywano tcn zabieg'
77	amniopunkcja	Pomorska Biblioteka Cyfrowa	62614	2000-01-01 00:00:00+00:00	2000-12-31 23:59:59+00:00	2	' stanowił wiek matki wynoszący co \nnajmniej 35 lat - wyłącznic z tego powodu <em>amniopunkcji</em> poddano 163'
80	amniopunkcja	Pomorska Biblioteka Cyfrowa	62614	2000-01-01 00:00:00+00:00	2000-12-31 23:59:59+00:00	3	' płodowe zazwyczaj uzyskuje sicr na drodze wczesnej lub późnej <em>amniopunkcji</em> \noraz biopsji trofobastu [2, 3'
85	amniopunkcja	Dziennik Ustaw Rzeczypospolitej Polskiej	1759787	1997-07-08 00:00:00+00:00	1997-07-08 23:59:59+00:00	1	' , \nwewnątrzlllaciczne leczenie wielowodzia (seryjne <em>amniopunkcje</em>). \nzakładanie shuntu pęcherzowo-owodniowego w przypadku'
86	amniopunkcja	Pomorska Biblioteka Cyfrowa	62614	2000-01-01 00:00:00+00:00	2000-12-31 23:59:59+00:00	3	' <em>amniopunkcja</em> s..! metodami bezpiecznymi. a ryzyko \nporonienia nie przekracza l l/ć> (2. 4. 5. 6]. Dane'
88	amniopunkcja	Repozytorium Cyfrowe Instytutów Naukowych	857024	1998-01-01 00:00:00+00:00	1998-12-31 23:59:59+00:00	2	""" składnikiem statków \nkosmicznych. Polit 1/1989. \n<em>amniopunkcja</em> specj. 'badanie pozwalające na wykrycie"""
89	amniopunkcja	Dolnośląska Biblioteka Cyfrowa	551252	1995-01-01 00:00:00+00:00	1995-12-31 23:59:59+00:00	2	' badawczymi takimi jak\nultrasonografia, <em>amniopunkcja</em> — amniocenteza6, fetoskopia, biopsje trofoblastu i'
94	amniopunkcja	Pomorska Biblioteka Cyfrowa	62614	2000-01-01 00:00:00+00:00	2000-12-31 23:59:59+00:00	1	'. Uzyskane wyniki wskazują. że <em>amniopunkcja</em> jest \nmetodą bezpieczną i badania prenatalne stanowią ważny'
103	amniopunkcja	Pomorska Biblioteka Cyfrowa	62614	2000-01-01 00:00:00+00:00	2000-12-31 23:59:59+00:00	1	' plodowych pobranych podczas <em>amniopunkcji</em> \nThc results of cytogenetic analysis of fetal cells obtained by'
112	amniopunkcja	Dolnośląska Biblioteka Cyfrowa	551252	1995-01-01 00:00:00+00:00	1995-12-31 23:59:59+00:00	1	' techniki badawcze jak: <em>amniopunkcja</em>, fetoskopia (badanie krwi i skóry płodu), biopsja kosmówki'
114	amniopunkcja	Dziennik Ustaw Rzeczypospolitej Polskiej	1758299	1998-11-02 00:00:00+00:00	1998-11-02 23:59:59+00:00	1	' owodniowego w małowodziu \n• wewnątrzmaciczne leczenie wielowodzia (seryjne <em>amniopunkcje</em>) \n• zakładanie shuntu'
117	amniopunkcja	Śląska Biblioteka Cyfrowa	913938	2002-01-01 00:00:00+00:00	2002-12-31 23:59:59+00:00	1	' Janusz: <em>Amniopunkcja</em>. \nRozm. Wiesława Uczkiewicz. Spr. i Ludzie R. \n4: 1985m30s.1,4,il. \nII Katedra i'
120	amniopunkcja	Śląska Biblioteka Cyfrowa	912187	1998-01-01 00:00:00+00:00	1998-12-31 23:59:59+00:00	2	' %, zaleznie od zastosowanej metody). Zwykle jest to \n<em>amniopunkcja</em> (wykonywana \nw 12-16 tygodniu ci zy), biop'
127	amniopunkcja	Podlaska Biblioteka Cyfrowa	253990	2003-01-01 00:00:00+00:00	2003-12-31 23:59:59+00:00	1	' amnioskopia i amniocenteza (<em>amniopunkcja</em>) oraz biopsja \nkosmówki. Amnioskopia jest to wzrokowe badanie wód'
136	amniopunkcja	Cyfrowy Dolny Śląsk	375263	2000-07-04 00:00:00+00:00	2000-07-04 23:59:59+00:00	1	""" \npobranego, drogą <em>amniopunkcji</em>. Nie ma dotychczas farmakologicznego leczenia lub \n  .. ' \n  I' \n- \n  \\  \n  a"""
137	amniopunkcja	Śląska Biblioteka Cyfrowa	901990	1987-01-01 00:00:00+00:00	1987-12-31 23:59:59+00:00	1	"'"". \nBadanie to zwane <em>amniopunkcją</em> \nlub amni.uoce\'!Ute.zI\\, i.nformuje 0 prawdopodobienstw:e urodzen  si'"
138	amniopunkcja	Śląska Biblioteka Cyfrowa	1626970	1987-01-01 00:00:00+00:00	1987-12-31 23:59:59+00:00	1	"'"". \nBadanie to zwane <em>amniopunkcją</em> \nlub amni.uoce\'!Ute.zI\\, i.nformuje 0 prawdopodobienstw:e urodzen  si'"
140	amniopunkcja	Śląska Biblioteka Cyfrowa	1626941	1987-01-01 00:00:00+00:00	1987-12-31 23:59:59+00:00	1	' \nwykonywanych W okresie prenatalnym, \nczyli przedurodzeniowym dziecka, naleiy zabieg <em>amniopunkcji</em> zW3ny - am'
142	amniopunkcja	Śląska Biblioteka Cyfrowa	902731	1999-01-01 00:00:00+00:00	1999-12-31 23:59:59+00:00	1	' wewnątrzmaciczne leczenie wielowodzia (seryjne <em>amniopunkcje</em>) \nłfI zaktadanie shuntu pęcherzowo-owodniowego w'
145	amniopunkcja	Archiwum czasopism dla niewidomych	3930194	1993-11-01 00:00:00+00:00	1993-11-30 23:59:59+00:00	2	X
146	amniopunkcja	Archiwum czasopism dla niewidomych	3930255	2003-10-01 00:00:00+00:00	2003-10-31 23:59:59+00:00	2	' planuje sposób przyjścia na świat.\n<em>Amniopunkcja</em>\nWykonuje się ją u ciężarnych po 35. roku życia lub w'
