	word	lname	iid	duration_start	duration_end	occurences	highlighting
68	antybiotykoterapia	Dolnośląska Biblioteka Cyfrowa	564611	2001-01-01 00:00:00+00:00	2001-12-31 23:59:59+00:00	2	'] Hryniewicz W.: <em>Antybiotykoterapia</em> wobec problemu narastającej oporności drobnoustrojów. Mikrobiologia'
85	antybiotykoterapia	Dolnośląska Biblioteka Cyfrowa	553759	2000-01-01 00:00:00+00:00	2000-12-31 23:59:59+00:00	3	""" <em>antybiotykoterapia</em>: spojrzenie mikrobiologa. Mikrobiologia Medycyna 1998, \n2,23-29. \n[2] Lambert H. P., O'Grady F. W"""
90	antybiotykoterapia	Pomorska Biblioteka Cyfrowa	62612	2002-01-01 00:00:00+00:00	2002-12-31 23:59:59+00:00	1	""") \nnicskuteczna <em>antybiotykoterapia</em> \n(inefficacy of antibiotic treatment) \nll uh.nie przedmiotowe powifk.'lOzenie"""
109	antybiotykoterapia	Pomorska Biblioteka Cyfrowa	62612	2002-01-01 00:00:00+00:00	2002-12-31 23:59:59+00:00	1	'. \\Vystępowanie gOTłłCzck. rozpoznawanie infekcji. <em>antybiotykoterapia</em> oraz skuteczność 3nlybiolykolerapii w'
125	antybiotykoterapia	Archiwum Przeglądu Powszechnego	1446802	1998-01-01 00:00:00+00:00	1998-12-31 23:59:59+00:00	1	' agresywna <em>antybiotykoterapia</em>. To wymyślają sami pacjenci, a z naszych ust chcą jedynie usłyszeć'
150	antybiotykoterapia	Kujawsko-Pomorska Biblioteka Cyfrowa	604333	2003-01-01 00:00:00+00:00	2003-12-31 23:59:59+00:00	1	' latach osiemdziesilltych udoskonalil post powanie diagnostyczne, \ntak jak <em>antybiotykoterapia</em> 2-3 dekady'
154	antybiotykoterapia	Kujawsko-Pomorska Biblioteka Cyfrowa	578312	2001-01-01 00:00:00+00:00	2001-12-31 23:59:59+00:00	1	' szczepionki błonicy. \nMedycyna w naszych czasach \n<em>Antybiotykoterapia</em> \nWizerunek Fleminga jest głęboko osadzony'
161	antybiotykoterapia	"Zachodniopomorska Biblioteka Cyfrowa ""Pomerania"""	350887	1995-01-01 00:00:00+00:00	1995-12-31 23:59:59+00:00	1	' <em>antybiotykoterapia</em>. \n  Katedra i Klinika Neurologii \n [. Badania kliniczne i neuropatologiczne w chorobach'
215	antybiotykoterapia	Dziennik Ustaw Rzeczypospolitej Polskiej	1777962	2003-10-29 00:00:00+00:00	2003-10-29 23:59:59+00:00	1	' chorób nowotworowych: przeszczep szpiku, <em>antybiotykoterapia</em> zaka- \n̋eƒ, nowoÊci w farmakoterapii (nowe'
221	antybiotykoterapia	Pomorska Biblioteka Cyfrowa	62610	1997-01-01 00:00:00+00:00	1997-12-31 23:59:59+00:00	1	', K. Witkiem). \n20. <em>Antybiotykoterapia</em> u położnic po cięciach cesarskich. [W:] Sympozjum ..Antybiotyki'
222	antybiotykoterapia	Pomorska Biblioteka Cyfrowa	54888	1994-01-01 00:00:00+00:00	1994-12-31 23:59:59+00:00	1	"' \nkonferencji ,,<em>Antybiotykoterapia</em> dziś"" która odbyła się w Gdańsku 22. II. \nW dniach 2S - 2711. odbył się kurs'"
226	antybiotykoterapia	Dziennik Ustaw Rzeczypospolitej Polskiej	1777962	2003-10-29 00:00:00+00:00	2003-10-29 23:59:59+00:00	1	', glikozydy nasercowe), \nc) Êrodki znieczulajàce miejscowo, \nd) sedacja na OITN, \ne) <em>antybiotykoterapia</em>, \nf'
230	antybiotykoterapia	Pomorska Biblioteka Cyfrowa	64310	1992-01-01 00:00:00+00:00	1992-12-31 23:59:59+00:00	1	' chemioterapeutykami i procesami immunologicznymi ustroju chorego. Zbyt \nagresywna <em>antybiotykoterapia</em>, stosowanie'
232	antybiotykoterapia	Dolnośląska Biblioteka Cyfrowa	564611	2001-01-01 00:00:00+00:00	2001-12-31 23:59:59+00:00	1	' pooperacyjnych. \nCelowana <em>antybiotykoterapia</em> umożliwia natomiast stosowanie wankomycyny i karbapenemów \ntylko w'
236	antybiotykoterapia	Pomorska Biblioteka Cyfrowa	55655	1996-01-01 00:00:00+00:00	1996-12-31 23:59:59+00:00	1	"' - alternatywne metody leczenia chirurgicznego"", ""Immuno i <em>antybiotykoterapia</em> na oddziale intensywnego leczenia'"
241	antybiotykoterapia	Pomorska Biblioteka Cyfrowa	55655	1996-01-01 00:00:00+00:00	1996-12-31 23:59:59+00:00	1	"' II odbyła się konferencja ,,<em>Antybiotykoterapia</em> 1995""; prof. dr Bolesław Rutkowski z Kliniki Chorób'"
243	antybiotykoterapia	Pomorska Biblioteka Cyfrowa	62611	1998-01-01 00:00:00+00:00	1998-12-31 23:59:59+00:00	1	"' konferencja .,<em>Antybiotykoterapia</em> praktyczna"" (organizatorzy- \nPTL i ..Polfa"" Tarchomin), podczas której dr'"
255	antybiotykoterapia	Łódzka Regionalna Biblioteka Cyfrowa	1573770	2000-01-01 00:00:00+00:00	2000-12-31 23:59:59+00:00	1	' <em>antybiotykoterapia</em> zakażeń grzybami. W: Antybiotyki : współczesny stan \nwiedzy / pod red. Zuzanny Kowszyk-Gindifer'
261	antybiotykoterapia	Audiofonologia	1723976	2002-01-01 00:00:00+00:00	2002-12-31 23:59:59+00:00	1	' ała od 14 do 17 dni. <em>Antybiotykoterapia</em> \nmiejscowa wspomagana była ogólną, jeżeli i stniały ku temu'
264	antybiotykoterapia	Dolnośląska Biblioteka Cyfrowa	563689	2001-01-01 00:00:00+00:00	2001-12-31 23:59:59+00:00	1	' kontrola zakażeń i racjonalna <em>antybiotykoterapia</em> być może ograniczą epidemiczne międzykrajowe i'
265	antybiotykoterapia	Dolnośląska Biblioteka Cyfrowa	551249	2002-01-01 00:00:00+00:00	2002-12-31 23:59:59+00:00	1	' przypadkach <em>antybiotykoterapia</em>. \nCz\nsto konieczne jest zastosowanie implantu 0 wlasciwosciach bakteriobojczych'
268	antybiotykoterapia	Pomorska Biblioteka Cyfrowa	41931	1997-01-01 00:00:00+00:00	1997-12-31 23:59:59+00:00	1	' jest racjonalna <em>antybiotykoterapia</em> oparta na dobrej znajomości \nczynników etiologicznych zakażeń w'
270	antybiotykoterapia	Kujawsko-Pomorska Biblioteka Cyfrowa	578316	1997-01-01 00:00:00+00:00	1997-12-31 23:59:59+00:00	1	' 1995. \n1209. <em>Antybiotykoterapia</em> wstępna nieswoistych zapaleń dolnych dróg oddechowych. IAut.! 1'
271	antybiotykoterapia	Audiofonologia	1723976	2002-01-01 00:00:00+00:00	2002-12-31 23:59:59+00:00	1	' jest <em>antybiotykoterapia</em> celowana [Rydzewski 1999]. Uzyskane wyniki \nw zakresie posiewów wskazują na'
273	antybiotykoterapia	Kujawsko-Pomorska Biblioteka Cyfrowa	557701	1997-11-01 00:00:00+00:00	1997-11-30 23:59:59+00:00	1	' oSkrzela, fizjoterapia), leczenie zakazeri bakteryjnych \n(intensywna <em>antybiotykoterapia</em>), leczenie'
278	antybiotykoterapia	Dolnośląska Biblioteka Cyfrowa	553759	2000-01-01 00:00:00+00:00	2000-12-31 23:59:59+00:00	1	' zakażeń enterokokowych. Nowa Medycyna 1997,4,26-33. \n[58] Hryniewicz W.: <em>Antybiotykoterapia</em> wobec problemu'
279	antybiotykoterapia	Kujawsko-Pomorska Biblioteka Cyfrowa	559203	1996-07-01 00:00:00+00:00	1996-07-31 23:59:59+00:00	1	' czy <em>antybiotykoterapia</em> stosowana \nczęsto w przypadku nieżytu górnych \ndróg oddechowych kosztuje np'
284	antybiotykoterapia	Kujawsko-Pomorska Biblioteka Cyfrowa	585481	2000-01-01 00:00:00+00:00	2000-12-31 23:59:59+00:00	1	' abstracts. [B.m., 1998] poz. 19. \n126 (19) Empiryczna <em>antybiotykoterapia</em> sekwencyjna u dzieci. [Aut'
292	antybiotykoterapia	Kujawsko-Pomorska Biblioteka Cyfrowa	585481	2000-01-01 00:00:00+00:00	2000-12-31 23:59:59+00:00	1	', poster abstracts. [B.m., 1998] poz. 19. \n(13) Empiryczna <em>antybiotykoterapia</em> sekwencyjna u dzieci. [Aut'
294	antybiotykoterapia	Krośnieńska Biblioteka Cyfrowa	3372504	1993-01-01 00:00:00+00:00	1993-12-31 23:59:59+00:00	1	' \n<em>antybiotykoterapia</em>, przewlekle stosowanie \nsulfoguanidyny, mtrucia i inne. Stany te jak \nwiOOomo mogll upoAledmc'
305	antybiotykoterapia	Śląska Biblioteka Cyfrowa	1624176	1995-01-01 00:00:00+00:00	1995-12-31 23:59:59+00:00	1	""", \nmoiliwose zastosowania lekow 0 szerokim spektrum \ndzialania, c sto celowana <em>antybiotykoterapia</em> powoduj'l, ie"""
310	antybiotykoterapia	Bałtycka Biblioteka Cyfrowa	421274	2003-02-08 00:00:00+00:00	2003-02-09 23:59:59+00:00	1	' światem farmakoterapii, w której dominują antybiotyki syntetyczne. Źle dobrana <em>antybiotykoterapia</em> sprzyja'
314	antybiotykoterapia	Bałtycka Biblioteka Cyfrowa	420054	2001-01-01 00:00:00+00:00	2001-12-31 23:59:59+00:00	1	"' nie tylko <em>antybiotykoterapia</em>. Wa::ne, aby :::aws:::e pamię- \n""tali o podawaniu lekń1r lec:::ących'"
315	antybiotykoterapia	Bałtycka Biblioteka Cyfrowa	391592	1999-01-01 00:00:00+00:00	1999-12-31 23:59:59+00:00	1	' zasadzie <em>antybiotykoterapia</em> po- kilka lat fimlY fannaceutyczne produwinna być poprzedzona wykonaniem kują'
