	word	lname	iid	duration_start	duration_end	occurences	highlighting
0	arabizacja	Kujawsko-Pomorska Biblioteka Cyfrowa	628745	1932-01-01 00:00:00+00:00	1932-12-31 23:59:59+00:00	2	' i kobiety stepów i pustyni.\nRównież, w miarę mniejszej <em>arabizacji</em> ludu, zanikają obligatoryjne'
1	arabizacja	Dolnośląska Biblioteka Cyfrowa	537206	1996-01-01 00:00:00+00:00	1996-12-31 23:59:59+00:00	1	' Algierii. \nZnakomitym przykładem <em>arabizacji</em> formalnej obiektu kultury  \nchrześcijańskiej jest budynek'
2	arabizacja	Repozytorium Cyfrowe Instytutów Naukowych	857328	1928-01-01 00:00:00+00:00	1928-12-31 23:59:59+00:00	1	', która ostateczny swój wyraz znalazła w powszechnej i głębokiej <em>arabizacji</em> całego orjentu.\nJęzykiem'
3	arabizacja	Małopolska Biblioteka Cyfrowa	609412	1983-02-28 00:00:00+00:00	1983-02-28 23:59:59+00:00	3	' · sanktuarium w Palestynie bylo poniekqd na r~k~ muzulmailSkiemu. wladcy. Proces <em>arabizacji</em> i islamizacji'
4	arabizacja	Kujawsko-Pomorska Biblioteka Cyfrowa	628745	1932-01-01 00:00:00+00:00	1932-12-31 23:59:59+00:00	1	' faktycznej\nlub przymusowej <em>arabizacji</em> wzigl. europeizacji.\nJest w tak pojmowanej filoarabskiej polityce'
5	arabizacja	Kujawsko-Pomorska Biblioteka Cyfrowa	628745	1932-01-01 00:00:00+00:00	1932-12-31 23:59:59+00:00	1	'\n<em>arabizację</em>, uświęcając przez protektorat swój położę- i\nnie kobiety. Francja uszanowała stan ten nawet w'
6	arabizacja	Kujawsko-Pomorska Biblioteka Cyfrowa	628745	1932-01-01 00:00:00+00:00	1932-12-31 23:59:59+00:00	1	' mniejszego stopnia <em>arabizacji</em> odnośnych lu-\n   \n '
7	arabizacja	Kujawsko-Pomorska Biblioteka Cyfrowa	3334941	1926-01-01 00:00:00+00:00	1926-12-31 23:59:59+00:00	1	' przyczynił się najwięcej do \n„<em>arabizacji</em>“ Berberów, podbiwszy i osadziwszy, plądrujących kraj Arabów, po'
8	arabizacja	Mazowiecka Biblioteka Cyfrowa	3384896	1927-01-01 00:00:00+00:00	1927-12-31 23:59:59+00:00	1	"' przyczynił się najwięcej do\n""<em>arabizacji</em>"" Berberów, podbiwszy i osadziwszy, plądrujących kraj Arabó-w, po'"
9	arabizacja	Małopolska Biblioteka Cyfrowa	765799	1977-01-01 00:00:00+00:00	1977-12-31 23:59:59+00:00	11	""" zapowiedzianej i \nrealizowanej pełnej <em>arabizacji</em> możliwości porozumienia się i t'Jddzialvwania spadni"""
10	arabizacja	Małopolska Biblioteka Cyfrowa	583822	1985-04-21 00:00:00+00:00	1985-04-21 23:59:59+00:00	6	' \nzałożeń rozpoczętej już przed laty <em>arabizacjI</em>. \nobejmującej wszystkie państwa Maghrebu. \nNIE BYLO TO TAKIE'
11	arabizacja	Bibliologiczna Biblioteka Cyfrowa	5591	1982-01-01 00:00:00+00:00	1982-12-31 23:59:59+00:00	1	' <em>arabizacją</em> można wspomnieć, \nże istnieją m.in. rękopisy polsko-białoruskie z XVII-XIX w.  \nsporządzone w'
12	arabizacja	Wielkopolska Biblioteka Cyfrowa	1229737	1936-01-01 00:00:00+00:00	1936-12-31 23:59:59+00:00	1	' polski staje na rozdrożu wobec dylematu; \nalbo hiszpanizacja i Sowiety, albo <em>arabizacja</em> i Wyzwolenie'
13	arabizacja	Bibliologiczna Biblioteka Cyfrowa	5591	1982-01-01 00:00:00+00:00	1982-12-31 23:59:59+00:00	1	', i analogicznie: <em>arabizację</em>, \ngrecyzację, hebraizację, japonizację itd. W związku z tym,, że w'
14	arabizacja	Armarium. dominikańska biblioteka cyfrowa	303232	2001-01-01 00:00:00+00:00	2001-12-31 23:59:59+00:00	1	' dojdzie z pewnością mimo <em>arabizacji</em>) w pasiastej ciężkiej dżelabie. Pedantycznie rozsznurowuje swoje'
16	arabizacja	Jagiellońska Biblioteka Cyfrowa	3869622	1935-04-01 00:00:00+00:00	1935-04-30 23:59:59+00:00	1	' ucieczki od roli \na tem samem do <em>arabizacji</em> rolnictwa. \nChcąc przekonać się o znaczeniu rolnictwa dla'
17	arabizacja	Biblioteka Cyfrowa Polskiego Instytutu Antropologii	295467	1969-01-01 00:00:00+00:00	1969-12-31 23:59:59+00:00	1	' jej <em>arabizacji</em> i islamizacji. \nW XIII w. zapoczątkowany został na terenie Sudanu nowy kierunek'
18	arabizacja	Biblioteka Cyfrowa Polskiego Instytutu Antropologii	295467	1969-01-01 00:00:00+00:00	1969-12-31 23:59:59+00:00	1	' <em>arabizacji</em> i islamizacji \ndotąd animistycznej ludności zachodniej i wschodniej części Sudanu północnego'
20	arabizacja	Małopolska Biblioteka Cyfrowa	645220	1972-02-29 00:00:00+00:00	1972-02-29 23:59:59+00:00	1	' ugruntowania lub\npogl~bienia tradycji muzulmatiskiej i <em>arabizacji</em>. Kilka miesi~cy p6zniej kr61 deklarowal'
22	arabizacja	Jagiellońska Biblioteka Cyfrowa	3888810	1933-12-01 00:00:00+00:00	1933-12-31 23:59:59+00:00	1	""". IV' sądzi, że to ułatwiło <em>arabizację</em> dzisiejszego Tunisu i Algeru. Dwa podobne języki semickie \nzlały"""
23	arabizacja	Małopolska Biblioteka Cyfrowa	734534	1981-08-31 00:00:00+00:00	1981-08-31 23:59:59+00:00	1	' niekt6rych rZlldów blisk owschodnich - narz~dziem wynaradawiania mniejszości kur dyj skich met od~ <em>arabizacji</em>'
24	arabizacja	Jagiellońska Biblioteka Cyfrowa	3869624	1935-02-01 00:00:00+00:00	1935-02-28 23:59:59+00:00	1	' chwili niebezpieczeństwo <em>arabizacji</em> kolonji żydowskiej. W niektórych bowiem osiedlach już obecnie'
25	arabizacja	Mazowieckie Czasopisma Regionalne	1710081	1996-01-01 00:00:00+00:00	1996-12-31 23:59:59+00:00	1	' arabski. Obecnie \nnastępuje <em>arabizacja</em> i z pewnością wkrótce język ojczysty wyprze francuski. \nNie można'
26	arabizacja	Biblioteka Cyfrowa Polskiego Instytutu Antropologii	295467	1969-01-01 00:00:00+00:00	1969-12-31 23:59:59+00:00	1	' to charakter wierzeń Fur, poddanych mniejszym wpływom <em>arabizacji</em> \ni silniej niż na wschodzie i'
29	arabizacja	Repozytorium Cyfrowe Instytutów Naukowych	840316	1995-01-01 00:00:00+00:00	1995-12-31 23:59:59+00:00	1	') /\nBurkina Faso\n\nAlgieria / Algeria\n4906. <em>Arabizacja</em> Algierii. Barbara Zaorska. Poznaj Świat 1987 35 nr 4 - s'
31	arabizacja	Podkarpacka Biblioteka Cyfrowa	1286827	1931-01-01 00:00:00+00:00	1931-12-31 23:59:59+00:00	1	""". Dopiero dwa wieki wojen krzyzowych dokonaly \n<em>arabizacji</em> Palestyny, a odbywala siC( ona w ci'tgu srogich"""
33	arabizacja	Biblioteka Cyfrowa Polskiego Instytutu Antropologii	297017	1996-01-01 00:00:00+00:00	1996-12-31 23:59:59+00:00	1	' roku) Isawijja długo opierała się islamizacji i <em>arabizacji</em>,\nkultywując rodzimc tradycje h. Każdy zakon'
35	arabizacja	Małopolska Biblioteka Cyfrowa	746744	1972-10-31 00:00:00+00:00	1972-10-31 23:59:59+00:00	1	' XIII wieku nastqpila ostateczna <em>arabizacja</em> ludności Li\xad\n\n '
36	arabizacja	Bibliologiczna Biblioteka Cyfrowa	5522	1964-01-01 00:00:00+00:00	1964-12-31 23:59:59+00:00	1	' mówić również o cyrylizacji, <em>arabizacji</em> itd. Tak więc każdą konwersję można \nscharakteryzować z tych dwu'
37	arabizacja	Bibliologiczna Biblioteka Cyfrowa	5562	1980-01-01 00:00:00+00:00	1980-12-31 23:59:59+00:00	1	' konwersji, mówi \nsię o latynizacji (romanization), cyrylizacji (cyrillization), <em>arabizacji</em> (arabization'
38	arabizacja	Bibliologiczna Biblioteka Cyfrowa	5562	1980-01-01 00:00:00+00:00	1980-12-31 23:59:59+00:00	1	' są np. próby cyrylizacji, japonizacji, <em>arabizacji</em>; napotykają zresztą duże trudności. \nZ kolei autor'
41	arabizacja	Jagiellońska Biblioteka Cyfrowa	3912100	1928-03-01 00:00:00+00:00	1928-03-01 23:59:59+00:00	1	'\nwłoskiego, <em>arabizacji</em>, romanizacji i t. p. Natomiast, Chiny, naród wybitnie nacjonalistyczny, nie\numiejący'
42	arabizacja	Biblioteka Cyfrowa Polskiego Instytutu Antropologii	297044	1993-01-01 00:00:00+00:00	1993-12-31 23:59:59+00:00	1	'. marahutów, lokalnych swiętych\nw Afryce połnocnej. W okresie <em>arabizacji</em> pełnili oni rolę mediatorów'
43	arabizacja	Biblioteka Cyfrowa Polskiego Instytutu Antropologii	296960	1999-01-01 00:00:00+00:00	1999-12-31 23:59:59+00:00	1	' islamizacji\ni <em>arabizacji</em> Afrykanów. a z drugicj. afrykanizacji Arabów. Interesujące okazuje się również i toiż'
44	arabizacja	Pomorska Biblioteka Cyfrowa	41796	1935-01-01 00:00:00+00:00	1935-12-31 23:59:59+00:00	1	'. Zdobyta w r. 429 \nprzez Wandalów, odebrana w r. 534 przez \nwojska bizantyjskie, uległa <em>arabizacji</em> i isla'
45	arabizacja	Świętokrzyska Biblioteka Cyfrowa	305069	1992-05-26 00:00:00+00:00	1992-05-26 23:59:59+00:00	1	' islamizacji i <em>arabizacji</em> ze strony władz w Chartumie. \n Rządząca od trzech lat junta \nwojskowa gen. Omara'
46	arabizacja	Małopolska Biblioteka Cyfrowa	590499	1969-12-07 00:00:00+00:00	1969-12-07 23:59:59+00:00	1	' polityczne. \nSens odpowiedzi jest jasny: <em>arabizacja</em> kraju, b dowanie jedności narodu arabskiego obejmuj cego'
47	arabizacja	"Zachodniopomorska Biblioteka Cyfrowa ""Pomerania"""	356041	1971-11-20 00:00:00+00:00	1971-11-20 23:59:59+00:00	2	""" do innt'go świata. \n<em>Arabizacja</em>. oz.nacz:'Jjąc,a pJwrót do j<;>zyka ar::bsl,iegospycha kraj w orbitę"""
48	arabizacja	Małopolska Biblioteka Cyfrowa	585034	1970-09-27 00:00:00+00:00	1970-09-27 23:59:59+00:00	1	"' djathid"". Prasa ukazuje sit: tu przewaznie w j zyku francuskim, mimo wysilkow <em>arabizacji</em>. \n24-stronicowy'"
49	arabizacja	Kujawsko-Pomorska Biblioteka Cyfrowa	565215	1953-01-01 00:00:00+00:00	1953-12-31 23:59:59+00:00	3	"' tnikow. \nBolf""slaw SzcLesnlak \n(Notre Dame, Ind.). \n  <em>ARABIZACJA</em> ""ANHELLEGO"" \n  Do redaktora ..\\\\-""ia'"
50	arabizacja	Śląska Biblioteka Cyfrowa	1626496	1979-01-01 00:00:00+00:00	1979-12-31 23:59:59+00:00	1	' chwili <em>arabizacji</em> prawa \njazdy (średnio trwa to 3 miesiące) oraz nauczenia się odczytywania przynajmniej'
51	arabizacja	Jagiellońska Biblioteka Cyfrowa	985230	1938-08-19 00:00:00+00:00	1938-08-19 23:59:59+00:00	1	' kapitalistyczny narodowej rewolucji panarabskiej. <em>Arabizacja</em> Kurdów \ni konflikt z Syryjczykami wykazuje wprost'
52	arabizacja	Tarnobrzeska Biblioteka Cyfrowa	6003	1981-01-01 00:00:00+00:00	1981-12-31 23:59:59+00:00	1	' na r.ach6d pail- \n.twa- Magrebu starannie odr6inlaj  od <em>arabizacji</em>, mozM spotka  si  niemal \nna'
54	arabizacja	Biblioteka Publiczna im. dr. Władysława Biegańskiego w Częstochowie	1420213	1968-01-01 00:00:00+00:00	1968-12-31 23:59:59+00:00	1	' aktualnymi potrzebami mia- \n  sta nie trzeba będzie poczekać \nHier-<em>arabizacja</em>, \nwzględy finansowe, tn są czyn'
55	arabizacja	Małopolska Biblioteka Cyfrowa	589185	1976-01-01 00:00:00+00:00	1976-12-31 23:59:59+00:00	1	""" \npnerywane oklaskami: Ceausescu - \nRPK. . Tempo <em>arabizacji</em> w Algierii \nu'zml!lI/1 się. Oficjalny dziennik EL"""
56	arabizacja	Jagiellońska Biblioteka Cyfrowa	947521	1925-06-04 00:00:00+00:00	1925-06-04 23:59:59+00:00	1	' wspólność religji.\nRif — nie uległ nigdy <em>arabizacji</em>, i\nzachował dotychczas swoją odrębność obyczajową i'
57	arabizacja	Jagiellońska Biblioteka Cyfrowa	988555	1931-10-22 00:00:00+00:00	1931-10-22 23:59:59+00:00	1	'“ w Kairze, — że w plamach Anglji leży stopniowa <em>arabizacja</em> Jerozolimy i najściślejsze współdziałanie'
58	arabizacja	Podkarpacka Biblioteka Cyfrowa	1287521	1966-09-30 00:00:00+00:00	1966-09-30 23:59:59+00:00	1	"' zachodnioeuropejskiego stylu życia, wskazał \nna konieczność ""<em>arabizacji</em>"" \nobyczajów młodego pokolenia, a nawet potępił'"
59	arabizacja	Podkarpacka Biblioteka Cyfrowa	1287492	1964-04-30 00:00:00+00:00	1964-04-30 23:59:59+00:00	1	' \nkoniecznoŚć przyśpieszenia \nprocesu <em>arabizacji</em> AlgierII. kilku wystąpień, domagających zię ustalenIa roU tego'
60	arabizacja	Jagiellońska Biblioteka Cyfrowa	3898069	1937-10-10 00:00:00+00:00	1937-10-10 23:59:59+00:00	1	'. Dokonała się też wśród nich pewna \n<em>arabizacja</em> kulturalna, która doprowadzić \nmoże do całkowitego zlania się'
61	arabizacja	Bałtycka Biblioteka Cyfrowa	425059	1991-01-01 00:00:00+00:00	1991-12-31 23:59:59+00:00	1	' Iraku. Oznacza to w \nperspektywie powolną likwidację autonomii i <em>arabizację</em> irackiego Kurdystanu. \nTa'
62	arabizacja	Podkarpacka Biblioteka Cyfrowa	1287532	1967-08-31 00:00:00+00:00	1967-08-31 23:59:59+00:00	1	"' ""<em>arabizacją</em>"" wszystkich za"" \ngranicznych przedsiębiorstw \nprzemysłowych, działających \nna terytorium krajów'"
63	arabizacja	"Zachodniopomorska Biblioteka Cyfrowa ""Pomerania"""	349302	1969-12-13 00:00:00+00:00	1969-12-13 23:59:59+00:00	1	' <em>arabizację</em> i demokratyzację. Zli- \nI kwid:>wano nawet alfabet łaciński i naukę angielskiego I \nI włoskiego w'
64	arabizacja	Małopolska Biblioteka Cyfrowa	644915	1964-10-22 00:00:00+00:00	1964-10-22 23:59:59+00:00	1	' <em>arabizacji</em> szkół. \nZ KRAJU \n\n\nLUlILIN. W czwartek rozpoczynają sio: \nW Lublinie jubileuszowe uroczystośd'
65	arabizacja	Małopolska Biblioteka Cyfrowa	774985	1977-01-01 00:00:00+00:00	1977-12-31 23:59:59+00:00	1	"', że .,<em>arabizacja</em>"" tego \nterenu skończyła się w xv wiekuje stulecia wspołżycia Arabów \ni Berberów'"
66	arabizacja	Zielonogórska Biblioteka Cyfrowa	238757	1944-08-16 00:00:00+00:00	1944-08-16 23:59:59+00:00	1	' \nchrzeseijanstwa. W Libanie muzulmanie stanowi&, silnfi. mniejszose. \nWplyw jl£zykowy, to <em>arabizacja</em>, pol\nczona z'
67	arabizacja	"Zachodniopomorska Biblioteka Cyfrowa ""Pomerania"""	351483	1966-09-17 00:00:00+00:00	1966-09-17 23:59:59+00:00	1	' ko LicznI dzlem11karze SWftICajll Europie i w. AZJI a wIe u czo .. i . L dk \nnieczność .,<em>arabizacji</em>'
68	arabizacja	Bałtycka Biblioteka Cyfrowa	393600	1987-01-01 00:00:00+00:00	1987-12-31 23:59:59+00:00	1	' . \nW iatBch 639--641 Egipt zostaje \npodbity przez Arabów, następuje \n<em>arabizacja</em> i islamizacja ludności'
69	arabizacja	Małopolska Biblioteka Cyfrowa	763953	1986-01-01 00:00:00+00:00	1986-12-31 23:59:59+00:00	1	"'""abizacji w szkołach ł urzędach \ntunezyjskich została przyhamowana. Clla \n<em>arabizacji</em> brakuje kadr, gdy kadry'"
71	arabizacja	Kujawsko-Pomorska Biblioteka Cyfrowa	615085	1972-01-01 00:00:00+00:00	1972-12-31 23:59:59+00:00	1	"' ""<em>arabizacji</em>"". Ta groźba jest \ntym większa że przyrost naturalny \nw Izraelu odpowiada norJllom świata'"
72	arabizacja	Radomska Biblioteka Cyfrowa	1548320	1965-04-15 00:00:00+00:00	1965-04-15 23:59:59+00:00	1	"' .......   \n:uJą j towarzystw. nu::\':::; dyapo- załóg praeu es j zenie ..<em>arabizacji</em>"" \nra e posladają(\'e nalte. \'d'"
73	arabizacja	Kujawsko-Pomorska Biblioteka Cyfrowa	614945	1971-01-01 00:00:00+00:00	1971-12-31 23:59:59+00:00	1	' SIę kultur  arabską, pnoszę barrdz.o: <em>arabizaCJa</em> nam nie grozI, Arabowie nie \nzjawią Się jUllro'
