	word	lname	iid	duration_start	duration_end	occurences	highlighting
7	audioteka	Biblioteka Cyfrowa - Regionalia Ziemi Łódzkiej	196628	1923-03-25 00:00:00+00:00	1923-03-25 23:59:59+00:00	0	""" <em>aUdjoteka</em> Dub.łez (Andrzeja 41\notwarta codziennie od 3-9 wiecz.\n'\n, powiedzenie się w tej sprawie.\nArchitekt"""
8	audioteka	Biblioteka Cyfrowa - Regionalia Ziemi Łódzkiej	196024	1923-02-02 00:00:00+00:00	1923-02-02 23:59:59+00:00	0	"' ..)\npościg\n\n,Szalony\n\nMiejska <em>aUdjoteka</em> ""obUcz (Andrzeja 14)\notwartaeodzięnnie\n\noda .....9 1IQiecz.\n\n-y'"
9	audioteka	Cyfrowy Dolny Śląsk	376539	1999-01-01 00:00:00+00:00	1999-12-31 23:59:59+00:00	1	' biblioteka i <em>audioteka</em>, sala audiowizualna,  \npracownia informatyczna i pełnowymiarowa sala gimnastyczna'
12	audioteka	Wojewódzka i Miejska Biblioteka Publiczna im. dr. Witolda Bełzy w Bydgoszczy	1518420	1931-09-20 00:00:00+00:00	1931-09-20 23:59:19+00:00	1	' się zaufanie w \nciagu minuty aby potem latami nie móc \n  <em>Audioteka</em> marynarka, funt szierlmeew \ni'
13	audioteka	Biblioteka Cyfrowa - Regionalia Ziemi Łódzkiej	196766	1923-05-16 00:00:00+00:00	1923-05-16 23:59:59+00:00	0	"'""\nSPÓłltlZIII Prac .. Państw. (SienkieWicza 40)\n\nKręgielnta śmiechu\n\nmllej~;ka <em>aUdjoteka</em> BubUcz (A.ndrzeja 14'"
14	audioteka	Śląska Biblioteka Cyfrowa	911401	1994-01-01 00:00:00+00:00	1994-12-31 23:59:59+00:00	2	' trudniejszych. \n  <em>Audioteka</em> \n  Taką propozycję przedstawiają od pewnego czasu zachodnie firmy fonograficzne'
15	audioteka	Bałtycka Biblioteka Cyfrowa	423632	1994-01-01 00:00:00+00:00	1994-12-31 23:59:59+00:00	1	' rozpoczęła działalność <em>audioteka</em> Wydawnictwa Naukowego \nPWN. Są to czytane przez znanych \naktorów dzieła'
