	word	lname	iid	duration_start	duration_end	occurences	highlighting
0	biokompleks	Urząd Patentowy RP	2548654	2002-01-31 00:00:00+00:00	2002-01-31 23:59:59+00:00	1	' \n<em>biokompleks</em> lniany \n- \n10,0 \nregulatory lepkości \n- \n2,5 \nkompozycja zapachowa \n- \n0,2 \nwoda \ndo 100,0 \nFazę'
2	biokompleks	Urząd Patentowy RP	2548654	2002-01-31 00:00:00+00:00	2002-01-31 23:59:59+00:00	6	' <em>biokompleks</em> lniany charakteryzują się szczególnie korzystnymi \nwłaściwościami wygładzającymi naskórek'
6	biokompleks	Urząd Patentowy RP	2548654	2002-01-31 00:00:00+00:00	2002-01-31 23:59:59+00:00	3	' <em>biokompleks</em> lniany, niezwykle korzystnie działający na strukturę skóry \ni włosów. \nOlej otrzymany z nasion lnu'
12	biokompleks	Świętokrzyska Biblioteka Cyfrowa	305869	1996-05-17 00:00:00+00:00	1996-05-19 23:59:59+00:00	1	', <em>biokompleks</em> w różowych\nkapsułkach. Aktywny, złożony\nz roślinnych ceramidów olej z pestek dzikiej róży'
