	word	lname	iid	duration_start	duration_end	occurences	highlighting
7	biomechaniczny	Wielkopolska Biblioteka Cyfrowa	734930	1999-01-01 00:00:00+00:00	1999-12-31 23:59:59+00:00	1	"' \n  Ireneusz Lenart \n""<em>Biomechaniczna</em> analiza techniki rzutu do kosza w koszyk6wce"" \nobrona: 4 lipca 1995 r'"
14	biomechaniczny	Podlaska Biblioteka Cyfrowa	275060	1938-01-01 00:00:00+00:00	1938-12-31 23:59:59+00:00	7	'1>70 \n  DWUMTESI CZNIK STOMATOLOGICZNY. \n   r. 5--6 \n  <em>Biomechaniczne</em> aparaty mogq. bye r6wniez'
17	biomechaniczny	Pomorska Biblioteka Cyfrowa	62613	2003-01-01 00:00:00+00:00	2003-12-31 23:59:59+00:00	3	'224 \n  M. Smoczyński i in. \n  MATERIAŁ \n  Badanie <em>biomechaniczne</em> przeprowadzono na 9 świeżych'
18	biomechaniczny	Dolnośląska Biblioteka Cyfrowa	537292	1997-01-01 00:00:00+00:00	1997-12-31 23:59:59+00:00	3	' rozciąganie między poszczególnymi grupami mięśni osiągają nawet 3-krotne różnice. \n\n\n3.5. <em>Biomechaniczne</em>'
20	biomechaniczny	Pomorska Biblioteka Cyfrowa	62613	2003-01-01 00:00:00+00:00	2003-12-31 23:59:59+00:00	3	' ŁUCZKIEWICZ, \nRAFAŁ PANKOWSKI \n  <em>BIOMECHANICZNE</em> BADANIE STABILIZACJI \nKRĘGOSŁUPA LĘDŹWIOWO-KRZYŻOWEGO Z'
32	biomechaniczny	Dolnośląska Biblioteka Cyfrowa	537292	1997-01-01 00:00:00+00:00	1997-12-31 23:59:59+00:00	1	'......................................................................................... \n9.5. Metoda mory w badaniach <em>biomechanicznych</em>'
41	biomechaniczny	Dolnośląska Biblioteka Cyfrowa	552950	1999-01-01 00:00:00+00:00	1999-12-31 23:59:59+00:00	3	'4\nPodsumowanie\nBadania <em>biomechaniczne</em>, wykorzystując wiedzę zarówno z nauk tech nicznych, jak i'
45	biomechaniczny	Dolnośląska Biblioteka Cyfrowa	537292	1997-01-01 00:00:00+00:00	1997-12-31 23:59:59+00:00	1	'6 \n\n\ncownikom z Zakładu Doświadczalnej Analizy Konstrukcji Inżynierskich i <em>Biomechanicznych</em> za'
47	biomechaniczny	Podlaska Biblioteka Cyfrowa	275060	1938-01-01 00:00:00+00:00	1938-12-31 23:59:59+00:00	3	' system em <em>biomechanicznym</em>, daje mozliwosc przeprowadzenia przebudowy tkanek zapomoc  sil mi sniowych, a'
48	biomechaniczny	Dolnośląska Biblioteka Cyfrowa	552950	1999-01-01 00:00:00+00:00	1999-12-31 23:59:59+00:00	2	' pierwszych badaczy\nwykorzystującego wiedzę neurofizjologiczną i metody <em>biomechaniczne</em> uważa s ię Bemsteina'
50	biomechaniczny	Wielkopolska Biblioteka Cyfrowa	734930	1999-01-01 00:00:00+00:00	1999-12-31 23:59:59+00:00	2	"' \nFinlandia - Jyvaskylii \nl8-25.03.1995 \npobyt studyjny połączony z wygłoszeniem wykładów nt.:""<em>Biomechaniczna</em>'"
64	biomechaniczny	Podlaska Biblioteka Cyfrowa	251585	2002-01-01 00:00:00+00:00	2002-12-31 23:59:59+00:00	1	' stabilizacji, zmniejszając przypadkowy wpływ systemu. Celem pracy jest \nbowiem <em>biomechaniczna</em> ocena'
67	biomechaniczny	Dolnośląska Biblioteka Cyfrowa	537292	1997-01-01 00:00:00+00:00	1997-12-31 23:59:59+00:00	1	' <em>biomechanicznymi</em> (np. wzajemne relacje sztywności trzpień-kość). \n\n\nJ \n\n\n\n\n \n'
71	biomechaniczny	Wielkopolska Biblioteka Cyfrowa	712846	1988-01-01 00:00:00+00:00	1988-12-31 23:59:59+00:00	2	' studiów stacjonarnych i \n  zaocznych. \n  Jest członkiem: Międzynarodowego Towarzystwa \n  <em>Biomechanicznego</em>'
73	biomechaniczny	Podlaska Biblioteka Cyfrowa	251585	2002-01-01 00:00:00+00:00	2002-12-31 23:59:59+00:00	2	', że brak ciągłości przedniej kolumny kręgosłupa nie \nwpływa na <em>biomechaniczną</em> jakość stabilizacji w'
77	biomechaniczny	Repozytorium Cyfrowe Instytutów Naukowych	851714	1962-01-01 00:00:00+00:00	1962-12-31 23:59:59+00:00	1	' analizy <em>biomechanicznej</em>.\n\n '
80	biomechaniczny	Pomorska Biblioteka Cyfrowa	62613	2003-01-01 00:00:00+00:00	2003-12-31 23:59:59+00:00	3	'. Podczas całego badania <em>biomechanicznego</em> slale nawilżano preparat w celu zahamowania procesów rozkładu i'
83	biomechaniczny	Podlaska Biblioteka Cyfrowa	275060	1938-01-01 00:00:00+00:00	1938-12-31 23:59:59+00:00	3	' ia. Aparat <em>biomechaniczny</em> do tego celu stano wi plytk  kauczukow , w kt6rej, w miejscu odpowiadaj cym'
87	biomechaniczny	Dolnośląska Biblioteka Cyfrowa	537292	1997-01-01 00:00:00+00:00	1997-12-31 23:59:59+00:00	2	' stosunki anatomicz- \\ \nno-<em>biomechaniczne</em> w obu stawach biodrowych (stosunek ramienia dźwigni do momen- ł'
92	biomechaniczny	Dolnośląska Biblioteka Cyfrowa	537292	1997-01-01 00:00:00+00:00	1997-12-31 23:59:59+00:00	1	' Inżynierskich i <em>Biomechanicznych</em> Politechniki Wrocławskiej z Kliniką Ortopedii Akademii Medycznej we Wrocławiu'
95	biomechaniczny	Pomorska Biblioteka Cyfrowa	42243	1983-01-01 00:00:00+00:00	1983-12-31 23:59:59+00:00	2	' gospodarki morskiej. H: <em>Biomechaniczna</em> analiza czynności prowadzących do powstania zespołów bólów związanych'
98	biomechaniczny	Repozytorium Cyfrowe Instytutów Naukowych	854743	1933-01-01 00:00:00+00:00	1933-12-31 23:59:59+00:00	2	'. ów.\nPrzedstawił E. Loth dn. 14 grudnia 1933 r.\n\nPodejście <em>biomechaniczne</em> do zagadnień ściśle'
99	biomechaniczny	Podlaska Biblioteka Cyfrowa	251399	2003-01-01 00:00:00+00:00	2003-12-31 23:59:59+00:00	2	'. „surowe dane” <em>biomechaniczne</em>. W celu dalszej obróbki matematycznej należy je poddać filtracji. Dopiero'
106	biomechaniczny	Wielkopolska Biblioteka Cyfrowa	734930	1999-01-01 00:00:00+00:00	1999-12-31 23:59:59+00:00	1	"' <em>Biomechaniczne</em>"" \nSzwecja - G5teborg \n20-24.04.1994 \nliczba osób uczesmiczących: 2 \n  ""32 Światowy.Kongres'"
110	biomechaniczny	Wielkopolska Biblioteka Cyfrowa	705300	1986-01-01 00:00:00+00:00	1986-12-31 23:59:59+00:00	2	"' \n  Europejskiego Towarzvstwa <em>Biomechanicznego</em> w Davos, wrzesień 84. \n  gdzie przedstawił pracę ""Tho devalopment ot'"
117	biomechaniczny	Podlaska Biblioteka Cyfrowa	251399	2003-01-01 00:00:00+00:00	2003-12-31 23:59:59+00:00	4	' obiektów i procesow <em>biomechanicznych</em> ma szczego ne znaczenie, gdyż własności dynamiczne układu ruchu'
122	biomechaniczny	Dolnośląska Biblioteka Cyfrowa	538055	1999-01-01 00:00:00+00:00	1999-12-31 23:59:59+00:00	2	' <em>biomechaniczne</em> (przyspieszenia, kąty ugięcia \nw stawach itd.). \nKinematyczna i dynamiczna ocena pojedynczych'
123	biomechaniczny	Dolnośląska Biblioteka Cyfrowa	538055	1999-01-01 00:00:00+00:00	1999-12-31 23:59:59+00:00	2	') <em>Biomechaniczne</em> kryteria skuteczności techniki sportowej, \nSport Wyczynowy, 9–10, 15–21 . \nBober T. (1982) O'
131	biomechaniczny	Dolnośląska Biblioteka Cyfrowa	537292	1997-01-01 00:00:00+00:00	1997-12-31 23:59:59+00:00	2	' niestabilność występuje nawet po \nbłahych urazach [128]. \nNieco inny model <em>biomechaniczny</em> kręgosłupa proponuje'
132	biomechaniczny	Dolnośląska Biblioteka Cyfrowa	537292	1997-01-01 00:00:00+00:00	1997-12-31 23:59:59+00:00	2	' nerwowego, czynników biologicznych i <em>biomechanicznych</em> zachodzących \nw układzie kostno-stawowym człowieka'
133	biomechaniczny	Dolnośląska Biblioteka Cyfrowa	542877	2001-01-01 00:00:00+00:00	2001-12-31 23:59:59+00:00	2	' <em>Biomechanicznych</em> na\nWydziale Mechanicznym pod przewodnictwem pana prof. dr hab.\ninż. Romualda Będzińskiego, który'
148	biomechaniczny	Urząd Patentowy RP	2542642	1999-06-30 00:00:00+00:00	1999-06-30 23:59:59+00:00	1	' <em>biomechanicznym</em>, a ponadto spełnia normę ECE. Ma ona jednak przede wszystkim bardzo dobre \nwłasności'
155	biomechaniczny	Dolnośląska Biblioteka Cyfrowa	537292	1997-01-01 00:00:00+00:00	1997-12-31 23:59:59+00:00	1	' opracował \nwiele <em>biomechanicznych</em> modeli elementów ciała człowieka, zwłaszcza kręgosłupa. Modele te zostały'
156	biomechaniczny	Dolnośląska Biblioteka Cyfrowa	537292	1997-01-01 00:00:00+00:00	1997-12-31 23:59:59+00:00	1	' mająjuż ustabilizowaną pozycję w badaniach <em>biomechanicznych</em>. \nW wielu ośrodkach naukowych na świecie w'
161	biomechaniczny	Dolnośląska Biblioteka Cyfrowa	538055	1999-01-01 00:00:00+00:00	1999-12-31 23:59:59+00:00	2	' odległości \nlub wysokości analizowane są <em>biomechaniczne</em> parametry ruchu. Dla stworzenia \nbanku danych o'
166	biomechaniczny	Dolnośląska Biblioteka Cyfrowa	537292	1997-01-01 00:00:00+00:00	1997-12-31 23:59:59+00:00	2	' holograficznej \nPrzedmiotem badań był kręg Ls w różnych sytuacjach <em>biomechanicznych</em> modelujących jego położenie'
169	biomechaniczny	Podlaska Biblioteka Cyfrowa	275060	1938-01-01 00:00:00+00:00	1938-12-31 23:59:59+00:00	2	"' funkcji fizjologicznej nast puje przemiana tkanek, stq,d powstala nazwa ""aparaty <em>biomechaniczne</em>"". Poza'"
174	biomechaniczny	Wielkopolska Biblioteka Cyfrowa	712846	1988-01-01 00:00:00+00:00	1988-12-31 23:59:59+00:00	1	' <em>biomechanicznych</em> k teri6w optymalizacji stanowiska \npracy, 31 Błaszak w.: Zmienność osi obrotu w połączeniach'
177	biomechaniczny	Pomorska Biblioteka Cyfrowa	42247	1977-01-01 00:00:00+00:00	1977-12-31 23:59:59+00:00	1	""". 9. 19'(4. WaraZHW/..l \n  1911  . )31 -'))8. \n  59]. DOŚWIADCZALNE <em>biomechaniczne</em> badaniu \n  nad"""
189	biomechaniczny	Dolnośląska Biblioteka Cyfrowa	562246	1999-01-01 00:00:00+00:00	1999-12-31 23:59:59+00:00	3	'\nKonstrukcji lnzynierskich i <em>Biomechanicznych</em>\nlnstytutu Konstrukcji i Eksploatacji Maszyn\n\n~~\n\nWydziat'
191	biomechaniczny	Dolnośląska Biblioteka Cyfrowa	552950	1999-01-01 00:00:00+00:00	1999-12-31 23:59:59+00:00	2	' obwodowego układu nerwowego. Ponadto badania\n<em>biomechaniczne</em> wychodzą z opis u fenomenologii ruchu i na tej'
209	biomechaniczny	Pomorska Biblioteka Cyfrowa	64285	1992-01-01 00:00:00+00:00	1992-12-31 23:59:59+00:00	1	'. \n  Wittmann Jarosław \n  559. Ocena kliniczna i rentgenologiczna symptomów zmian <em>biomechanicznych</em> zachodzących'
210	biomechaniczny	Wielkopolska Biblioteka Cyfrowa	705300	1986-01-01 00:00:00+00:00	1986-12-31 23:59:59+00:00	1	"' Studium Pedagogi:Zflcji. Pracuje nad \numo Um rozprawy dokt orekie j f ""<em>Biomechaniczna</em> optvmalizacja te'"
214	biomechaniczny	Wielkopolska Biblioteka Cyfrowa	1282413	1962-01-01 00:00:00+00:00	1962-12-31 23:59:59+00:00	1	' Towarzystwa Walki z Kalectwem. \n  Prace ogłoszone drukiem: \nDr A.Kabsch: <em>Biomechaniczna</em> analiza niektórych'
216	biomechaniczny	Dolnośląska Biblioteka Cyfrowa	537292	1997-01-01 00:00:00+00:00	1997-12-31 23:59:59+00:00	1	' alloplastyki stawu biodrowego (rys. 5.25) [231], brakjestjednak powiązania ich z kryteriami <em>biomechanicznymi</em>'
218	biomechaniczny	Wielkopolska Biblioteka Cyfrowa	1253448	1983-01-01 00:00:00+00:00	1983-12-31 23:59:59+00:00	1	"' akrobatyki sportowej w pojęciu ogólnym oraz jej .""ozwój w poszczególnych krajach świata. 2. <em>biomechaniczne</em>'"
219	biomechaniczny	Wielkopolska Biblioteka Cyfrowa	1253448	1983-01-01 00:00:00+00:00	1983-12-31 23:59:59+00:00	1	' <em>biomechanicznych</em> kręgosłupa i \njego napędów mięśniowych-. Pracował r6wnież w PW 10.7-02. w zadaniu MNaturalny trend'
222	biomechaniczny	Dolnośląska Biblioteka Cyfrowa	552950	1999-01-01 00:00:00+00:00	1999-12-31 23:59:59+00:00	2	' podczas trwania ruchu. W klasyfikacji <em>biomechanicznej</em> jest to klasa ruchów balistycznych. Natomiast w'
236	biomechaniczny	Dolnośląska Biblioteka Cyfrowa	561066	1995-01-01 00:00:00+00:00	1995-12-31 23:59:59+00:00	3	' <em>Biomechanicznych</em>. W ubiegłym roku, nasi koledzy\n\n,.\n\n,.\n\npo raz pierwszy bronili prac dyplomowych z zakresu'
238	biomechaniczny	Wielkopolska Biblioteka Cyfrowa	705300	1986-01-01 00:00:00+00:00	1986-12-31 23:59:59+00:00	1	' zakresu <em>biomechanicznej</em> optymalizacji ruchów \naportowych i utylitarnych. Rozpoczęto organizować'
247	biomechaniczny	Dolnośląska Biblioteka Cyfrowa	538490	2000-01-01 00:00:00+00:00	2000-12-31 23:59:59+00:00	1	' dyspozycji ujawnianych w badaniach antropometrycznych, wydolnościowych, <em>biomechanicznych</em> i psychologicznych'
250	biomechaniczny	Dolnośląska Biblioteka Cyfrowa	537292	1997-01-01 00:00:00+00:00	1997-12-31 23:59:59+00:00	1	' wywołane masą \nciała rozkładają się symetrycznie na oba stawy (rozdz. 6). W takiej sytuacji <em>biomechanicznej</em>'
251	biomechaniczny	Dolnośląska Biblioteka Cyfrowa	537292	1997-01-01 00:00:00+00:00	1997-12-31 23:59:59+00:00	1	' zastosowanie w badaniach <em>biomechanicznych</em>. \nW systemach pomiaru odkształceń mamy do czynienia z odczytem'
252	biomechaniczny	Dolnośląska Biblioteka Cyfrowa	537292	1997-01-01 00:00:00+00:00	1997-12-31 23:59:59+00:00	1	' ....................................... Q]) \n3.5. <em>Biomechaniczne</em> aspekty przeciążeń struktur kostno-stawowych człowieka.......... 45 \n3.5.1'
264	biomechaniczny	Dolnośląska Biblioteka Cyfrowa	537292	1997-01-01 00:00:00+00:00	1997-12-31 23:59:59+00:00	2	' <em>biomechaniczna</em> ocena wyników leczenia zewnętrznymI \nstabilizatorami kołowymi wg Ilizarova. Rozprawa habilitacyjna'
280	biomechaniczny	Wielkopolska Biblioteka Cyfrowa	1254670	1984-01-01 00:00:00+00:00	1984-12-31 23:59:59+00:00	1	"' \n""<em>Biomechaniczne</em> kryteria oceny pozycji roboczych ciała operatora"". \n  Krajowy Zjazd Polakiego Towarzystwa'"
283	biomechaniczny	Wielkopolska Biblioteka Cyfrowa	705300	1986-01-01 00:00:00+00:00	1986-12-31 23:59:59+00:00	1	"'.IX. w zadaniu ""Identyfikacja para- \nMetr6w <em>biomechanicznych</em> kręgoełupa-,gdzie dokonano szeregu'"
284	biomechaniczny	Wielkopolska Biblioteka Cyfrowa	742248	1990-01-01 00:00:00+00:00	1990-12-31 23:59:59+00:00	1	'/ metodologia badań <em>biomechanicznych</em>, c/ modelowanie techniki ruchu człowieka, \ndl biomechanika lokomocji'
287	biomechaniczny	Pedagogiczna Biblioteka Cyfrowa	9501	1992-01-01 00:00:00+00:00	1992-12-31 23:59:59+00:00	1	' właśnie sytuacja \n<em>biomechaniczna</em> występuje zwłaszcza u dzieci, kt6re przez \nkilka lat uczęszczają do'
294	biomechaniczny	Dolnośląska Biblioteka Cyfrowa	537292	1997-01-01 00:00:00+00:00	1997-12-31 23:59:59+00:00	1	' zaburzeniach <em>biomechanicznych</em> stawu, \n- zmiany w warstwie podchrzęstnej kości, \n- zaburznia hemodynamiczne'
295	biomechaniczny	Wielkopolska Biblioteka Cyfrowa	1253448	1983-01-01 00:00:00+00:00	1983-12-31 23:59:59+00:00	1	"' programowy: ""Wvrowadzenie do biomechaniki k.\'ęgosłupa 1 postawy ciała"" i ""<em>Biomechaniczne</em> podstawy \ndo założeń'"
296	biomechaniczny	Wielkopolska Biblioteka Cyfrowa	1253448	1983-01-01 00:00:00+00:00	1983-12-31 23:59:59+00:00	1	' dotyczy <em>biomechanicznych</em> metod \nanalizy techniki ruchu. Pełni funkcję skarbnika Oddziału Poznańskiego'
310	biomechaniczny	Repozytorium Cyfrowe Instytutów Naukowych	842081	1970-01-01 00:00:00+00:00	1970-12-31 23:59:59+00:00	1	' paleontologów\n\ntrudności\ngłowę\n\ni\n\nwzględu\n\n<em>biomechaniczne</em>,\nzmuszając\n\nwłaściwe\n\n—\n\ncechy płciowe,\n\nże stały\n\ndo'
314	biomechaniczny	Wielkopolska Biblioteka Cyfrowa	705300	1986-01-01 00:00:00+00:00	1986-12-31 23:59:59+00:00	1	' w schorzeniach narzędów ruchu. Ponadto wykładał <em>biomechaniczne</em> podstawy rehabilitacji na kursach'
315	biomechaniczny	Wielkopolska Biblioteka Cyfrowa	705300	1986-01-01 00:00:00+00:00	1986-12-31 23:59:59+00:00	0	' bezpośrednio przeprowadzał badania \nWYdolnościowe <em>biomechaniczno</em>-fizjologiczne na Basenowvm Testerze'
318	biomechaniczny	Podlaska Biblioteka Cyfrowa	251585	2002-01-01 00:00:00+00:00	2002-12-31 23:59:59+00:00	1	' programów opracowanych w Matlabie). \n Identyfikacja obiektów i procesów <em>biomechanicznych</em> ma szczególne'
321	biomechaniczny	Wielkopolska Biblioteka Cyfrowa	1275777	1969-01-01 00:00:00+00:00	1969-12-31 23:59:59+00:00	1	' dojrzałym na obozie narciarskim w ocenie <em>biomechanicznej</em>. \n   \n '
323	biomechaniczny	Wielkopolska Biblioteka Cyfrowa	734930	1999-01-01 00:00:00+00:00	1999-12-31 23:59:59+00:00	1	' reumatoida1ne zapalenie stawów \nBugajewska Hanna - <em>Biomechaniczna</em> interpretacja różnych technik odciążania'
335	biomechaniczny	Dolnośląska Biblioteka Cyfrowa	552950	1999-01-01 00:00:00+00:00	1999-12-31 23:59:59+00:00	2	'.\nKorneck i S. (I 986) Identyfikacja własności <em>biomechanicznych</em> procesu stabilizacji m i ęśn i owej. Studia'
337	biomechaniczny	Pomorska Biblioteka Cyfrowa	55713	1995-01-01 00:00:00+00:00	1995-12-31 23:59:59+00:00	2	' zewnętrmej stabilizacji trzonu kości piszczelowej. Badania \n<em>biomechaniczne</em> i wyniki kliniczne. - Rozprawa'
339	biomechaniczny	Urząd Patentowy RP	2452365	1976-05-31 00:00:00+00:00	1976-05-31 23:59:59+00:00	2	' zmniejsza zalety \n<em>biomechaniczne</em> szyby. Z tego powodu w drugim z wymienionych rozwiązań nie umieszcza się'
361	biomechaniczny	Dolnośląska Biblioteka Cyfrowa	537292	1997-01-01 00:00:00+00:00	1997-12-31 23:59:59+00:00	1	' najczęściej niekorzytne sytuacje <em>biomechaniczne</em>, \nzwykle związane z wykonywaniem zawodu, uprawianiem sportu'
369	biomechaniczny	Dolnośląska Biblioteka Cyfrowa	552950	1999-01-01 00:00:00+00:00	1999-12-31 23:59:59+00:00	1	' strony poznawać (przez badania <em>biomechaniczne</em>) zachowanie s ię ruchowe człowieka, uwzględniając przy tym'
370	biomechaniczny	Dolnośląska Biblioteka Cyfrowa	552950	1999-01-01 00:00:00+00:00	1999-12-31 23:59:59+00:00	1	' położeniu nawróconym w pracy stosuje się nazewnictwo anatomiczne i <em>biomechaniczne</em>.\n\nEksperyment I'
378	biomechaniczny	Urząd Patentowy RP	2391235	1952-10-31 00:00:00+00:00	1952-10-31 23:59:59+00:00	1	' \n<em>biomechanicznych</em> danego organizmu unerwionego. Do znanych metod pomiaru siły fizycznej \nnależy zaliczyć metodę'
384	biomechaniczny	Podlaska Biblioteka Cyfrowa	251585	2002-01-01 00:00:00+00:00	2002-12-31 23:59:59+00:00	1	' do filtrowania sygnałów <em>biomechanicznych</em>, szacowania chwilowej wartości mocy oraz do identyfikacji'
385	biomechaniczny	Biblioteka Cyfrowa Politechniki Warszawskiej	1525683	1983-01-01 00:00:00+00:00	1983-12-31 23:59:59+00:00	1	' o zrozumienie zjawisk mechanicznych i <em>biomechanicznych</em> zachodzących w trakcie skoku, oraz'
386	biomechaniczny	Biblioteka Cyfrowa Politechniki Warszawskiej	1525683	1983-01-01 00:00:00+00:00	1983-12-31 23:59:59+00:00	1	' <em>biomechaniczny</em>, \na w perspektywie — źródłem danych do treningu skoku o tyczce, \nZałącznik 1 \nPręt sprężysty o'
395	biomechaniczny	Dolnośląska Biblioteka Cyfrowa	537292	1997-01-01 00:00:00+00:00	1997-12-31 23:59:59+00:00	1	' znaczenia w badaniach <em>biomechanicznych</em> jest możliwość pełnej \nwizualizacji zjawisk optycznych w powiązaniu z'
400	biomechaniczny	Dolnośląska Biblioteka Cyfrowa	552950	1999-01-01 00:00:00+00:00	1999-12-31 23:59:59+00:00	2	' preparation. Expe rimental Brain Research, 79, 530- 538 .\nFidel us K. (196 1) N iektóre <em>biomechaniczne</em>'
420	biomechaniczny	Repozytorium Cyfrowe Instytutów Naukowych	842081	1970-01-01 00:00:00+00:00	1970-12-31 23:59:59+00:00	1	'\n\nSchindehipertrofii, przy\n\n<em>biomechaniczne</em>\n\n(np.\n\nczym\nutrudwody).\ncytowanym\n\nzwłaszcza kłów górnych\ni łukowato'
436	biomechaniczny	Pomorska Biblioteka Cyfrowa	55575	1973-01-01 00:00:00+00:00	1973-12-31 23:59:59+00:00	1	', 17, 62, \n63, 64). \nUszkodzenia porodowe w znacznym odsetku przypadków mają charakter <em>biomechaniczny</em>'
445	biomechaniczny	Wielkopolska Biblioteka Cyfrowa	1283828	1959-01-01 00:00:00+00:00	1959-12-31 23:59:59+00:00	1	' <em>biomechaniczna</em> wagi w zwisie tyłem na kółkach. \n18. Wojciechowska Stefania - Działalność Sokoła Wielkopolskiego w'
446	biomechaniczny	Wielkopolska Biblioteka Cyfrowa	1283828	1959-01-01 00:00:00+00:00	1959-12-31 23:59:59+00:00	2	'. 25, rys. 7, fot. 3. \nPraca poświęcona jest <em>biomechanicznej</em> analizie wagi w ZWISIe \ntyłem na kółkach'
463	biomechaniczny	Dolnośląska Biblioteka Cyfrowa	538394	2001-01-01 00:00:00+00:00	2001-12-31 23:59:59+00:00	1	' biodrowy.\nNa podobnych zasadach <em>biomechanicznych</em> pracują stopy.\nPodczas treningu nie należy zaniedbywać'
464	biomechaniczny	Dolnośląska Biblioteka Cyfrowa	538490	2000-01-01 00:00:00+00:00	2000-12-31 23:59:59+00:00	1	' – obejmujące podstawowe pomiary antropometryczne oraz skład ciała, czynniki <em>biomechaniczne</em> – obejmujące momenty'
470	biomechaniczny	Dolnośląska Biblioteka Cyfrowa	537292	1997-01-01 00:00:00+00:00	1997-12-31 23:59:59+00:00	1	' <em>biomechaniczne</em> mające na celu wyjaśnienie przyczyn, \nprzebiegu klinicznego powstałych chorób oraz opracowanie'
471	biomechaniczny	Dolnośląska Biblioteka Cyfrowa	537292	1997-01-01 00:00:00+00:00	1997-12-31 23:59:59+00:00	1	' międzykręgowym oraz więzadłami [44] \n\n\nZe względów <em>biomechanicznych</em> istotne znaczenie w pracy kręgosłupa mają'
472	biomechaniczny	Dolnośląska Biblioteka Cyfrowa	537292	1997-01-01 00:00:00+00:00	1997-12-31 23:59:59+00:00	1	' uszkodzenia elementów kręgosłupa, mimo wielu \nbadań radiologicznych, histopatologicznych oraz <em>biomechanicznych</em>'
473	biomechaniczny	Dolnośląska Biblioteka Cyfrowa	537292	1997-01-01 00:00:00+00:00	1997-12-31 23:59:59+00:00	1	') fragmentów \ntrzpienia. <em>Biomechaniczna</em> zgodność endoprotez i kości to zwykle dobry dobór relatywnych'
475	biomechaniczny	Śląska Biblioteka Cyfrowa	863860	1932-01-01 00:00:00+00:00	1932-12-31 23:59:59+00:00	1	' do <em>biomechanicznych</em>, \nprzechodzi przez szereg ciekawych etapów rozwoju, ściśle uzależnionych od'
481	biomechaniczny	Śląska Biblioteka Cyfrowa	928015	1999-01-01 00:00:00+00:00	1999-12-31 23:59:59+00:00	1	'. (Prędkość fali ultradźwiękowej i gęstość masy kostnej \na wlaściwości <em>biomechaniczne</em> kości beleczkowej'
492	biomechaniczny	Dziennik Ustaw Rzeczypospolitej Polskiej	1778482	2003-06-13 00:00:00+00:00	2003-06-13 23:59:59+00:00	2	' oksymioglobiny. \n8. Biomechanika \nParametry <em>biomechaniczne</em> míÊni, stawów \ni ∏aƒcuchów ruchowych. Sk∏adniki'
493	biomechaniczny	Dolnośląska Biblioteka Cyfrowa	562362	1997-01-01 00:00:00+00:00	1997-12-31 23:59:59+00:00	2	' uczestniczą po dwie szkoły wyższe. Ze\n<em>biomechanicznych</em>, analizy naprężeń i odkształceń\nkręgosłupa, kości'
504	biomechaniczny	Dolnośląska Biblioteka Cyfrowa	538055	1999-01-01 00:00:00+00:00	1999-12-31 23:59:59+00:00	1	' złoŜoności modelu uwzględniając np. mechanizmy psychiczne, energetyczne czy <em>biomechaniczne</em>. Ostateczna postać'
505	biomechaniczny	Dolnośląska Biblioteka Cyfrowa	538055	1999-01-01 00:00:00+00:00	1999-12-31 23:59:59+00:00	1	' \n(testowanie szybkości) z czasem biegu przez płotki. \n<em>Biomechaniczna</em> analiza techniki sportowej ma szerokie'
506	biomechaniczny	Dolnośląska Biblioteka Cyfrowa	538055	1999-01-01 00:00:00+00:00	1999-12-31 23:59:59+00:00	1	' <em>biomechanicznego</em> punktu widzenia szybkość uzaleŜniona jest od zawartości kwasu adenozynotrójfosforowego (ATP) w'
526	biomechaniczny	Bibliologiczna Biblioteka Cyfrowa	1583072	1986-01-01 00:00:00+00:00	1986-12-31 23:59:59+00:00	1	' Budownictwa Lądowego Politechniki Gdańskiej\nInformator / Muzeum Poczty i Telekomunikacji\n<em>Biomechaniczne</em>'
529	biomechaniczny	Wielkopolska Biblioteka Cyfrowa	733228	1997-01-01 00:00:00+00:00	1997-12-31 23:59:59+00:00	1	' ontogenezie dzieci i młodzieży \nwiellwmiejskiej populacji - inspiracje <em>biomechaniczne</em>), \nprof. drowi hab'
535	biomechaniczny	Urząd Patentowy RP	2463098	1978-02-28 00:00:00+00:00	1978-02-28 23:59:59+00:00	1	' określającego \n<em>biomechaniczny</em> układ sił, przy czym pomiar siły mięśniowej obejmuje dwojaką formę pracy mięśni'
536	biomechaniczny	Podlaska Biblioteka Cyfrowa	251585	2002-01-01 00:00:00+00:00	2002-12-31 23:59:59+00:00	1	""" autorów [3,'4]. \n Badania <em>biomechaniczne</em> wykonano na uniwersalnej maszynie wytrzymałościowej INSTRON, w"""
543	biomechaniczny	Kujawsko-Pomorska Biblioteka Cyfrowa	559749	1999-01-01 00:00:00+00:00	1999-12-31 23:59:59+00:00	1	' \nkilkuset milisekund. Z punktu widzenia pojęciowego i <em>biomechanicznego</em> najlepszym \nmodelem jest model szumu'
552	biomechaniczny	Wielkopolska Biblioteka Cyfrowa	734930	1999-01-01 00:00:00+00:00	1999-12-31 23:59:59+00:00	1	' zespołów mięśniowych w ontogenezie dzieci i młodzieży wiellwpolskiej populacji. Inspiracje <em>biomechaniczne</em>'
553	biomechaniczny	Śląska Biblioteka Cyfrowa	918538	1902-01-01 00:00:00+00:00	1902-12-31 23:59:59+00:00	1	' jeszcze ten kierunek \nnazwano <em>biomechaniczną</em> teorją poznania dla tego, że \nu podstawy zakładają się'
554	biomechaniczny	Dolnośląska Biblioteka Cyfrowa	537292	1997-01-01 00:00:00+00:00	1997-12-31 23:59:59+00:00	1	' ma natomiast znacznie gorsze wamnki \n<em>biomechaniczne</em> do pełnienia tych funkcji. \nBudowa kręgosłupa'
555	biomechaniczny	Dolnośląska Biblioteka Cyfrowa	537292	1997-01-01 00:00:00+00:00	1997-12-31 23:59:59+00:00	1	' wynikiem następujących sytuacji <em>biomechanicznych</em>: \n- zmniejszenia sił mięśniowych działających po stronie'
556	biomechaniczny	Dolnośląska Biblioteka Cyfrowa	537292	1997-01-01 00:00:00+00:00	1997-12-31 23:59:59+00:00	1	' czułość. W badaniach układów <em>biomechanicznych</em> jest jednak czasem jednocześnie jej wadą. W odniesieniu do'
557	biomechaniczny	Dolnośląska Biblioteka Cyfrowa	537292	1997-01-01 00:00:00+00:00	1997-12-31 23:59:59+00:00	1	'301 \n\n\n9.5. Metoda mory w badaniach <em>biomechanicznych</em> \n\n\n9.5.1. Wprowadzenie \n\n\nMetoda mory jest'
558	biomechaniczny	Kujawsko-Pomorska Biblioteka Cyfrowa	578312	2001-01-01 00:00:00+00:00	2001-12-31 23:59:59+00:00	1	' kształcenie \nstudentów w zakresie profilu dyplomowania - inżynieria <em>biomechaniczna</em>. \nW lutym br. utworzyliśmy'
565	biomechaniczny	Śląska Biblioteka Cyfrowa	867443	1909-01-01 00:00:00+00:00	1909-12-31 23:59:59+00:00	1	' podkreślać istniejące różnice, poniekąd \nzaciemniane lub pomijane przez szkolę <em>biomechaniczną</em>;. \nObie te'
566	biomechaniczny	"Zachodniopomorska Biblioteka Cyfrowa ""Pomerania"""	352627	1979-01-01 00:00:00+00:00	1979-12-31 23:59:59+00:00	1	' Dziecięcego, natomiast pracownię elektrofizjologiczną \ni <em>biomechaniczną</em> - w Zdunowie. \nNie zdołano mimo wielu'
584	biomechaniczny	Zielonogórska Biblioteka Cyfrowa	238448	2003-10-31 00:00:00+00:00	2003-10-31 23:59:59+00:00	2	' <em>biomechanicznego</em> oraz w sposob elastyczny \npozwala srodoperacyjnie budowac wymagany schorzeniem uklad'
587	biomechaniczny	Dolnośląska Biblioteka Cyfrowa	552950	1999-01-01 00:00:00+00:00	1999-12-31 23:59:59+00:00	1	' strukturami.\nGłówne kierunki badania procesów sterowania ruchów to kierunek <em>biomechaniczny</em> oraz kierunek'
593	biomechaniczny	Dolnośląska Biblioteka Cyfrowa	538055	1999-01-01 00:00:00+00:00	1999-12-31 23:59:59+00:00	1	' <em>biomechanicznego</em> punktu widzenia. Wielokrotne powtarzanie wysiłków szybkościowych, przedzielonych dłuŜszymi'
602	biomechaniczny	Repozytorium Cyfrowe Instytutów Naukowych	842081	1970-01-01 00:00:00+00:00	1970-12-31 23:59:59+00:00	1	' wydłużenia są jeszcze większe i w ogóle osiągnięta\nzostała maksymalna sprawność <em>biomechaniczna</em>. Pouczający'
607	biomechaniczny	Wielkopolska Biblioteka Cyfrowa	1216850	1901-01-01 00:00:00+00:00	1901-12-31 23:59:59+00:00	1	' zależności od tych <em>biomechanicznych</em> szeregów, ulegają temuż samemu podziałowi. Szereg niezależny, którego'
613	biomechaniczny	Wielkopolska Biblioteka Cyfrowa	699019	2003-01-01 00:00:00+00:00	2003-12-31 23:59:59+00:00	1	'; Analiza na \nprzykładzie Pucharu Świata USA 1994; Zastosowania badań <em>biomechanicznych</em> w \nlekkiej atletyce'
614	biomechaniczny	Wielkopolska Biblioteka Cyfrowa	699019	2003-01-01 00:00:00+00:00	2003-12-31 23:59:59+00:00	1	' ogólnokształcącej szkoły średniej \nRychwalski Witold - <em>Biomechaniczne</em> kryteria techniki wybranych ciosów i uderzeń w'
615	biomechaniczny	Wielkopolska Biblioteka Cyfrowa	699019	2003-01-01 00:00:00+00:00	2003-12-31 23:59:59+00:00	1	' \nSmoktunowicz Emanuel - Alternatywne sposoby siedzenia - analiza <em>biomechaniczna</em> \nobciążeń kręgosłupa'
622	biomechaniczny	Dolnośląska Biblioteka Cyfrowa	537292	1997-01-01 00:00:00+00:00	1997-12-31 23:59:59+00:00	1	' naukowych, przykładowo np. parametry antropometryczne, <em>biomechaniczne</em>, fizjologiczne i inne. \nZa'
623	biomechaniczny	Dolnośląska Biblioteka Cyfrowa	537292	1997-01-01 00:00:00+00:00	1997-12-31 23:59:59+00:00	1	' jednak stwierdzić, iż jednym z podstawowych czynników <em>biomechanicznych</em> wpływających na dobre warunki'
624	biomechaniczny	Dolnośląska Biblioteka Cyfrowa	537292	1997-01-01 00:00:00+00:00	1997-12-31 23:59:59+00:00	1	'-implant. W wyniku tych badań \npowstaje lepsza możliwość określenia warunków <em>biomechanicznych</em> stabilności'
625	biomechaniczny	Dolnośląska Biblioteka Cyfrowa	537292	1997-01-01 00:00:00+00:00	1997-12-31 23:59:59+00:00	1	' <em>biomechanicznej</em>, jaka powstaje po zabiegu osteotomii podkolanowej, wykonanej techniką Coventry. Stan przemieszczeń'
626	biomechaniczny	Dolnośląska Biblioteka Cyfrowa	537292	1997-01-01 00:00:00+00:00	1997-12-31 23:59:59+00:00	1	'195 \n\n\nOdłamy kostne podczas wydłużania stanowią złożone układy <em>biomechaniczne</em>, \nodmienne od tych'
627	biomechaniczny	Dolnośląska Biblioteka Cyfrowa	537292	1997-01-01 00:00:00+00:00	1997-12-31 23:59:59+00:00	1	' uzależnione od wielu czynników, m.in. [64]-[66], [78], [97], [187], [227]: \n- <em>biomechanicznych</em> i'
631	biomechaniczny	Podlaska Biblioteka Cyfrowa	251399	2003-01-01 00:00:00+00:00	2003-12-31 23:59:59+00:00	1	' zjawiskach hierarchicznych (np. ruch żywych \nłańcuchów <em>biomechanicznych</em> jest wywołany dynamiką ich struktur'
641	biomechaniczny	Świętokrzyska Biblioteka Cyfrowa	320484	1909-01-01 00:00:00+00:00	1909-12-31 23:59:59+00:00	1	' dziedziczności nie posiadamy. Przytoczę tu jedynie ważną hipotezę Weissmana, Naegelego i teoryę <em>biomechaniczną</em>'
644	biomechaniczny	Dolnośląska Biblioteka Cyfrowa	552950	1999-01-01 00:00:00+00:00	1999-12-31 23:59:59+00:00	1	' na podstawie anato micznej i <em>biomechanicznej</em> analizy współdziałania mięśni w ruchu. Wyniki\nbadań'
654	biomechaniczny	Repozytorium Cyfrowe Instytutów Naukowych	842081	1970-01-01 00:00:00+00:00	1970-12-31 23:59:59+00:00	1	' przedniej części ciała musiał stworzyć wspomniane już\ntrudności <em>biomechaniczne</em>. W związku z tym dalszy'
658	biomechaniczny	Pedagogiczna Biblioteka Cyfrowa	9349	1997-01-01 00:00:00+00:00	1997-12-31 23:59:59+00:00	1	' Drama Reviev t. 57; szczegółowy opis etiud <em>biomechanicznych</em> podaje: K. Braun. Wie/- \nIw Reforma Teatru w'
660	biomechaniczny	Urząd Patentowy RP	2428830	1972-04-29 00:00:00+00:00	1972-04-29 23:59:59+00:00	1	' przy dłuższym unieruchomieniu ciała żywego osobnika zjawisko <em>biomechaniczne</em> tak zwane „wychwianie'
661	biomechaniczny	Śląska Biblioteka Cyfrowa	906973	2001-01-01 00:00:00+00:00	2001-12-31 23:59:59+00:00	1	"' doprowadziło do powstania ""etiud <em>biomechanicznych</em>"", czyli ściśle określonych cyklów ruchów, powtarzanych przez'"
664	biomechaniczny	"Zachodniopomorska Biblioteka Cyfrowa ""Pomerania"""	350626	1986-01-01 00:00:00+00:00	1986-12-31 23:59:59+00:00	1	' tylko \nod wielkości i rodzaju siły uszkadzającej, lecz r6wntet od <em>biomechanicznej</em> wytrzYmałości'
665	biomechaniczny	Śląska Biblioteka Cyfrowa	918538	1902-01-01 00:00:00+00:00	1902-12-31 23:59:59+00:00	1	' <em>biomechanicznych</em>, wytworzonych przez autora. Ostatecznie chodzi o odczyszczenie doświadczenia od dodatków'
667	biomechaniczny	Dolnośląska Biblioteka Cyfrowa	537292	1997-01-01 00:00:00+00:00	1997-12-31 23:59:59+00:00	1	' A., DRAGAN S., Niektóre aspekty kliniczne i <em>biomechaniczne</em> alloplastyki bezcementowej stawu'
668	biomechaniczny	Kujawsko-Pomorska Biblioteka Cyfrowa	578312	2001-01-01 00:00:00+00:00	2001-12-31 23:59:59+00:00	1	'(25) Wpływ hipoterapii na wybrane wskaźniki <em>biomechaniczne</em> i wskaźniki rozwoju \npsychoruchowego u'
677	biomechaniczny	Urząd Patentowy RP	2412954	1969-02-26 00:00:00+00:00	1969-02-26 23:59:59+00:00	1	' przeznaczone do \nbadań <em>biomechanicznych</em>. \nZasada działania znanego urządzenia polega na \npomiarze, metodami'
678	biomechaniczny	Urząd Patentowy RP	2462574	1978-01-31 00:00:00+00:00	1978-01-31 23:59:59+00:00	1	' konstrukcji jak i właściwości <em>biomechanicznych</em>, a ich wykonanie jest trudne i pracochłonne. Dystraktory hakowe'
681	biomechaniczny	Dolnośląska Biblioteka Cyfrowa	552950	1999-01-01 00:00:00+00:00	1999-12-31 23:59:59+00:00	1	' <em>biomechanicznych</em> potwierdzono (Buchanan i in. 1996,\nZajac 1993), że klasyfikacja mięśni zaangażowanych w danym mchu'
682	biomechaniczny	Dolnośląska Biblioteka Cyfrowa	552950	1999-01-01 00:00:00+00:00	1999-12-31 23:59:59+00:00	1	' budowie makro-, j ak i mikroskopowej. Charakte rystyka <em>biomechaniczna</em> kończyny górnej, według Fidelusa (19'
690	biomechaniczny	Repozytorium Cyfrowe Instytutów Naukowych	832535	1976-01-01 00:00:00+00:00	1980-12-31 23:59:59+00:00	1	' ................................................................................................................................................. 423 \nLewandowski Л. A . <em>Biomechaniczna</em> analiza porównawcza ruchów lokomocyjnych kręgowców dwunożnych'
691	biomechaniczny	Pomorska Biblioteka Cyfrowa	62611	1998-01-01 00:00:00+00:00	1998-12-31 23:59:59+00:00	1	' children. Pol. \nMed. Sci. Hisl. Buli.. 1974. t5/2. 1. 76. \n27. Ocena warunków <em>biomechanicznych</em> panujących w'
698	biomechaniczny	Repozytorium Cyfrowe Instytutów Naukowych	854769	1931-01-01 00:00:00+00:00	1931-12-31 23:59:59+00:00	1	' właściwości morfologicznych\ni <em>biomechanicznych</em> skłania nas do zaliczenia przypadku tego\ndo grupy z ł o ś l i w'
702	biomechaniczny	Dolnośląska Biblioteka Cyfrowa	537292	1997-01-01 00:00:00+00:00	1997-12-31 23:59:59+00:00	1	'] rozpatruje dwie sytuacje <em>biomechaniczne</em> w stawie biodrowym: fazę \nobciążenia obunożnego (rys. 5.9) i fazę'
703	biomechaniczny	Dolnośląska Biblioteka Cyfrowa	537292	1997-01-01 00:00:00+00:00	1997-12-31 23:59:59+00:00	1	'). \nWyniki badań <em>biomechanicznych</em> w wamnkach klinicznych wykazały, żc powstający W m iejsc\nłamania regenerat'
704	biomechaniczny	Dolnośląska Biblioteka Cyfrowa	537292	1997-01-01 00:00:00+00:00	1997-12-31 23:59:59+00:00	1	'., WALL A., ZABłOCKI W., ZYDOROWICZ P., <em>Biomechaniczna</em> analiza mechanizmu przeciążenia układu kostnego'
709	biomechaniczny	Śląska Biblioteka Cyfrowa	867443	1909-01-01 00:00:00+00:00	1909-12-31 23:59:59+00:00	1	' przyrodniczych,.a jednak i szkoła <em>biomechaniczna</em> właśnie w imię jedności \nprzyrody wyklucza z zakresu swych badań'
710	biomechaniczny	Podlaska Biblioteka Cyfrowa	251399	2003-01-01 00:00:00+00:00	2003-12-31 23:59:59+00:00	1	' drugim końcu skali znajduje się ruch <em>biomechaniczny</em> dla którego istotny jest \nwzór: \n  (rwxexrwYe) \n  77'
711	biomechaniczny	Kujawsko-Pomorska Biblioteka Cyfrowa	558139	2003-11-01 00:00:00+00:00	2003-11-30 23:59:59+00:00	1	' stabilizatora ZESPOL, \njak wykazaly badania <em>biomechaniczne</em> i praktyka kliniczna, sila nacisków jest'
722	biomechaniczny	Pomorska Biblioteka Cyfrowa	56359	1997-01-01 00:00:00+00:00	1997-12-31 23:59:59+00:00	2	' \nprzeprowadziliśmy dogłębną analizę \n<em>biomechaniczną</em> wypadku, biorąc m.in. \npod uwagę protokól z sekcji zwlok'
726	biomechaniczny	Archiwum Miesięcznika Znak	1447441	1996-12-01 00:00:00+00:00	1996-12-31 23:59:19+00:00	1	', zgodnie z pozytywistycznym scjentyzmem , ujmowal jako <em>biomechaniczny</em> SplOI ruch6w, to czlowiekowi'
734	biomechaniczny	Śląska Biblioteka Cyfrowa	928886	1919-01-01 00:00:00+00:00	1919-12-31 23:59:59+00:00	1	' podtrzymywania procesu <em>biomechanicznego</em>, żyjących istot, - zaś woda ulegając \nelektrolizie, służy do uzyskania'
735	biomechaniczny	Śląska Biblioteka Cyfrowa	928886	1919-01-01 00:00:00+00:00	1919-12-31 23:59:59+00:00	1	' regeneratorów <em>biomechanicznych</em> \nprocesów, tej nierozerwalnej w mądrości wykąpanej, - tajemnice pozagrobowe'
736	biomechaniczny	Dolnośląska Biblioteka Cyfrowa	537292	1997-01-01 00:00:00+00:00	1997-12-31 23:59:59+00:00	1	' limbs, Proc. XIV \nCongress ofISB, Paris 1993, 170-171. \n[31] BĘDZIŃSKI R., i inni, <em>Biomechaniczna</em>'
737	biomechaniczny	Dolnośląska Biblioteka Cyfrowa	537292	1997-01-01 00:00:00+00:00	1997-12-31 23:59:59+00:00	1	' rehabilitacja, Warszawa 1983. \n[69] DIETRICH M., <em>Biomechaniczne</em> modelowanie układu kręgosłupa człowieka. [W'
738	biomechaniczny	Dolnośląska Biblioteka Cyfrowa	537292	1997-01-01 00:00:00+00:00	1997-12-31 23:59:59+00:00	1	' pamięć kształtu. Własności i kształtowanie dla \ncelów <em>biomechanicznych</em>. Praca magisterska, napisana pod'
739	biomechaniczny	Kujawsko-Pomorska Biblioteka Cyfrowa	578312	2001-01-01 00:00:00+00:00	2001-12-31 23:59:59+00:00	1	') Wpływ hipoterapii na wybrane wskażniki <em>biomechaniczne</em> i wskaźniki rozwoJu \npsychoruchowego u dzieci z'
742	biomechaniczny	"Zachodniopomorska Biblioteka Cyfrowa ""Pomerania"""	350623	1982-01-01 00:00:00+00:00	1982-12-31 23:59:59+00:00	1	"' promienista uszkadza również elementy nerwowe okolicy złamania. \n  30 Królewski J"" Jaremko J.: <em>Biomechaniczne</em>'"
747	biomechaniczny	Audiofonologia	1723749	1998-01-01 00:00:00+00:00	1998-12-31 23:59:59+00:00	1	' \nobecność istotnych różnic w zakresie parametrów odpowiedzi mięśniowych i <em>biomechanicznych</em> pomiędzy grupą'
748	biomechaniczny	Audiofonologia	1723782	1998-01-01 00:00:00+00:00	1998-12-31 23:59:59+00:00	1	' \nobecność istotnych różnic w zakresie parametrów odpowiedzi mięśniowych i <em>biomechanicznych</em> pomiędzy grupą'
754	biomechaniczny	Urząd Patentowy RP	2552068	2003-09-30 00:00:00+00:00	2003-09-30 23:59:59+00:00	1	' dawać wrażenie komfortu, w rzeczywistości takie miękkie wyłożenie neutralizuje <em>biomechaniczne</em> własności'
755	biomechaniczny	Biblioteka Cyfrowa Wojewódzkiej Biblioteki Publicznej im. Hieronima Łopacińskiego w Lublinie	1523838	2002-01-01 00:00:00+00:00	2002-12-31 23:59:59+00:00	1	' <em>biomechanicznych</em> wpływających na\nrozwój bliższej części kości udowej u dzieci leczonych operacyjnie z powodu'
761	biomechaniczny	Dolnośląska Biblioteka Cyfrowa	542877	2001-01-01 00:00:00+00:00	2001-12-31 23:59:59+00:00	1	' Do\x9cwiadczalnej Analizy Konstrukcji Inżynierskich i\n<em>Biomechanicznych</em>, Instytut Konstrukcji\ni'
763	biomechaniczny	Podlaska Biblioteka Cyfrowa	251399	2003-01-01 00:00:00+00:00	2003-12-31 23:59:59+00:00	1	' \n  kombinacjami Symbolicznögo wyrazu Sé- Przykłady rozwiązywania Zadań koop \ndynacji ruchów <em>biomechanicznych</em>'
770	biomechaniczny	Urząd Patentowy RP	2549514	2002-06-28 00:00:00+00:00	2002-06-28 23:59:59+00:00	1	' wynosząca 0,76 mm jest, na przykład, stosowana z przyczyn <em>biomechanicznych</em> w przypadku przednich szyb'
777	biomechaniczny	Dolnośląska Biblioteka Cyfrowa	542877	2001-01-01 00:00:00+00:00	2001-12-31 23:59:59+00:00	1	'. £ukasiewicza 7/9\n\nLaboratorium Do\x9cwiadczalnej Analizy Konstrukcji Inżynierskich i\n<em>Biomechanicznych</em>, Instytut'
782	biomechaniczny	Audiofonologia	1723749	1998-01-01 00:00:00+00:00	1998-12-31 23:59:59+00:00	1	' jako zmiennej warunkującej reakcje <em>biomechaniczne</em>. \nStosowanie posturografii dynamicznej jest jednak'
783	biomechaniczny	Audiofonologia	1723782	1998-01-01 00:00:00+00:00	1998-12-31 23:59:59+00:00	1	' jako zmiennej warunkującej reakcje <em>biomechaniczne</em>. \nStosowanie posturografii dynamicznej jest jednak'
791	biomechaniczny	Pomorska Biblioteka Cyfrowa	62612	2002-01-01 00:00:00+00:00	2002-12-31 23:59:59+00:00	1	' <em>biomechaniczna</em> ocena wgajania si  w ko!ić udow.t owcy aUlOgennych prze zczepów slosowanych w rekonslrukcji wi'
792	biomechaniczny	Urząd Patentowy RP	2547378	2001-07-31 00:00:00+00:00	2001-07-31 23:59:59+00:00	1	' powodować osteomalację, i \n5) problememjest <em>biomechaniczna</em> wytrzymałość kości po leczeniu związkami'
793	biomechaniczny	Urząd Patentowy RP	2548567	2002-01-31 00:00:00+00:00	2002-01-31 23:59:59+00:00	1	' strukturze zbitej i m a krytyczne znaczenie dla wytrzymałości <em>biomechanicznej</em> całej tej \nstruktury. W'
806	biomechaniczny	Zielonogórska Biblioteka Cyfrowa	234915	1999-01-01 00:00:00+00:00	1999-12-31 23:59:59+00:00	1	' \npracy, Zasl. Erg, 1993 nr 5 s, 85-89 \n1559, -, GÓRSKA E,: Elemety lizjologiczne i <em>biomechaniczne</em> w'
807	biomechaniczny	Dolnośląska Biblioteka Cyfrowa	552950	1999-01-01 00:00:00+00:00	1999-12-31 23:59:59+00:00	1	'.\nNowacki Z., Sobiech K. ( 199 1) Zmi an y wybran ych parametrów <em>biomechanicznych</em>, biochemiczn ych i fizj ol'
815	biomechaniczny	Urząd Patentowy RP	2549652	2002-06-28 00:00:00+00:00	2002-06-28 23:59:59+00:00	1	' wytrzymałości <em>biomechanicznej</em> całej tej struktury. W osteoporozie pomenopauzalnej przede wszystkim resorpcja'
816	biomechaniczny	Urząd Patentowy RP	2552068	2003-09-30 00:00:00+00:00	2003-09-30 23:59:59+00:00	1	' nie dzięki zwiększeniu nachylenia śródstopia, lecz dzięki <em>biomechanicznej</em> zmianie \nw nachyleniu kości'
819	biomechaniczny	Podlaska Biblioteka Cyfrowa	253664	1910-01-01 00:00:00+00:00	1910-12-31 23:59:59+00:00	1	' racyonalne podstawy <em>biomechaniczne</em>  to \nuznae musimy, ze pod wplywem ka,pieli napotnych powstajeJ, warunki'
833	biomechaniczny	"Zachodniopomorska Biblioteka Cyfrowa ""Pomerania"""	350626	1986-01-01 00:00:00+00:00	1986-12-31 23:59:59+00:00	1	'.: <em>Biomechaniczne</em> następstwa dyskopatii kręgosłupa lędźwiowego. Chir. Narz. Ruchu Ortop. Pol. 1981, 46, 2, 117'
834	biomechaniczny	Dolnośląska Biblioteka Cyfrowa	562424	1998-01-01 00:00:00+00:00	1998-12-31 23:59:59+00:00	1	' Konstrukcji Inzynierskich i <em>Biomechanicznych</em>.\nCelem wyjazdu bylo zwicdzenie fab1yki narz((dzi chimrgicznych'
837	biomechaniczny	Dolnośląska Biblioteka Cyfrowa	542857	2001-01-01 00:00:00+00:00	2001-12-31 23:59:59+00:00	1	'.\nJej organizatorami są Politechnika Wrocławska, Polskie Towarzystwo <em>Biomechaniczne</em> i SIMP, a'
839	biomechaniczny	Śląska Biblioteka Cyfrowa	928307	1968-01-01 00:00:00+00:00	1968-12-31 23:59:59+00:00	1	"' <em>biomechanicznej</em>. Rozpr. nauk. WSWF Wrocl. T. 3. \n1964 s. 61-112, ilustr., rys., tab., wykr"" \nbibliogr. s. 106-110'"
840	biomechaniczny	Podlaska Biblioteka Cyfrowa	251399	2003-01-01 00:00:00+00:00	2003-12-31 23:59:59+00:00	1	' \n<em>biomechanicznych</em>. II Sympozjum: Inżynieria Ortopedyczna i Protetyczna, \nIOP99, Białystok, 1999, 125-133. \n 6'
848	biomechaniczny	Pomorska Biblioteka Cyfrowa	41662	1999-01-01 00:00:00+00:00	1999-12-31 23:59:59+00:00	1	"' biodrowym. Tytuł przygotowywanej rozprawy habilitacyjnej brzmiał \n""Struktura kinetyczna oraz <em>biomechaniczna</em>'"
851	biomechaniczny	Dolnośląska Biblioteka Cyfrowa	561070	1994-01-01 00:00:00+00:00	1994-12-31 23:59:59+00:00	1	' modelowanie i badanie układów <em>biomechanicznych</em>. Konferencja pokazała, że\npolska biomechanika ma istotne'
854	biomechaniczny	Śląski Klub Fantastyki	2334026	2000-01-01 00:00:00+00:00	2000-12-31 23:59:59+00:00	1	' s1 brutalni \ni zdeterminowani. Nazywaj1 siê Grigari, s1 nanotechnicznymi, <em>biomechanicznymi</em> piratami i'
857	biomechaniczny	Dolnośląska Biblioteka Cyfrowa	562248	1999-01-01 00:00:00+00:00	1999-12-31 23:59:59+00:00	1	' i Systemów Transportowych, Doświadczalnej Analizy\nKonstrukcji Mechanicznych i <em>Biomechanicznych</em>'
858	biomechaniczny	Dolnośląska Biblioteka Cyfrowa	562364	1997-01-01 00:00:00+00:00	1997-12-31 23:59:59+00:00	1	' eksperymentalnej (doświadczalna analiza naprężeń i odkształceń)\noraz do badania struktur <em>biomechanicznych</em>\nczłowieka'
864	biomechaniczny	Cyfrowy Dolny Śląsk	377500	1999-01-01 00:00:00+00:00	1999-12-31 23:59:59+00:00	1	' żołnierzy szkolonych\nw bezwzgl ęd no~i, śl epo wykonujących rozkazy. Nowi <em>biomechaniczni</em> wojownicy sprawi ą'
865	biomechaniczny	Małopolska Biblioteka Cyfrowa	715609	1970-04-19 00:00:00+00:00	1970-04-19 23:59:59+00:00	2	' operacyjnych w chirurgii urazowo-ortopedycznej, dziE:ki wartoSciom <em>biomechanicznej</em> tkanki kostneJ'
866	biomechaniczny	Dolnośląska Biblioteka Cyfrowa	562238	2000-01-01 00:00:00+00:00	2000-12-31 23:59:59+00:00	1	' Inżynierskich\ni <em>Biomechanicznych</em>, którym kieruje prof.\ndr hab. inż. Romuald Będziński. Prowadzone są tu prace'
868	biomechaniczny	Pomorska Biblioteka Cyfrowa	56359	1997-01-01 00:00:00+00:00	1997-12-31 23:59:59+00:00	1	' \n<em>biomechanicznego</em> z AWF w Gdańsku. \nMedycyna Sądowa \n  Jednakże wspomaganie wiedzą przez \nabsolwentów AWF'
871	biomechaniczny	Komputer	3496933	1988-02-01 00:00:00+00:00	1988-02-29 23:59:59+00:00	1	' video do analizy <em>biomechanicznej</em> ruchu. Dzięki \nzastosowaniu specjalnych technik filmowania i'
872	biomechaniczny	Dolnośląska Biblioteka Cyfrowa	542885	2001-01-01 00:00:00+00:00	2001-12-31 23:59:59+00:00	1	' Mechatronicznych, Laboratorium Do\x9cwiadczalnej Analizy Konstrukcji\nInżynierskich i <em>Biomechanicznych</em>, Laboratorium'
876	biomechaniczny	Chełmska Biblioteka Cyfrowa	338833	1930-11-01 00:00:00+00:00	1930-11-30 23:59:59+00:00	1	"' nawet sceptycyzm w stosunku do nowej dziedziny zjawisk ""<em>biomechanicznych</em>"". \nMimo to, badania nad różdżką'"
877	biomechaniczny	Kujawsko-Pomorska Biblioteka Cyfrowa	604333	2003-01-01 00:00:00+00:00	2003-12-31 23:59:59+00:00	1	' obci zanie. Nowe cechy <em>biomechaniczne</em> zespolenia sprzyjaj  prawidlowemu przebiegowi procesow gojenia'
880	biomechaniczny	Repozytorium Cyfrowe Instytutów Naukowych	851523	1964-01-01 00:00:00+00:00	1964-12-31 23:59:59+00:00	1	' echaniką kręgosłupa\nI. <em>Biomechaniczna</em> charakterystyka krzywizny piersiowo-lęrtźwiowej\n[W ith 2 T ables, 22'
882	biomechaniczny	Pomorska Biblioteka Cyfrowa	42455	2003-01-01 00:00:00+00:00	2003-12-31 23:59:59+00:00	0	"' ogólnopolska konłerencja loko, \nmocji człowieka ""<em>Biomechaniczno</em>-techniczne aspekty wypadkowości drogowej'"
886	biomechaniczny	Dolnośląska Biblioteka Cyfrowa	562456	1999-01-01 00:00:00+00:00	1999-12-31 23:59:59+00:00	1	' naukowodydaktycznego w Zakladzie Doswiadczalnej Analizy Konstrukcji Inzynierskich i <em>Biomechanicznych</em> PWr.\nW ramach'
887	biomechaniczny	Bałtycka Biblioteka Cyfrowa	3793010	1994-01-29 00:00:00+00:00	1994-01-30 23:59:59+00:00	2	' \nparu ćwiczeniach. \n<em>Biomechaniczny</em> \naparat \nkorekcyjny \nKombinezon na pozór wygląda \nzwyczajnie'
888	biomechaniczny	Kujawsko-Pomorska Biblioteka Cyfrowa	560989	2000-10-01 00:00:00+00:00	2000-10-31 23:59:59+00:00	1	' dyplomowania - iniynieria <em>biomechaniczna</em>. \nW lutym bI. utworzylismy wspolnie \nz Wyzsz  Szkol  Zarz dzania i'
889	biomechaniczny	Dolnośląska Biblioteka Cyfrowa	542841	2000-01-01 00:00:00+00:00	2000-12-31 23:59:59+00:00	1	'\x9cwiadczalnej Konstrukcji Inżynierskich i <em>Biomechanicznych</em> Instytutu Konstrukcji i\nEksploatacji Maszyn pokaz'
895	biomechaniczny	Audiofonologia	1723666	1996-01-01 00:00:00+00:00	1996-12-31 23:59:59+00:00	1	' więc otwarcie pi erści enno -gardłowe \njest czynnością <em>biomechaniczną</em> . Rozpoczyna się ona zwiotczeniem'
897	biomechaniczny	Pomorska Biblioteka Cyfrowa	56360	1997-01-01 00:00:00+00:00	1997-12-31 23:59:59+00:00	1	""" mogl uczynic'. uderzyl pieszego \nśmierlelnle z boku ciala. Dogiębna analiza \n<em>biomechaniczną</em>"""
898	biomechaniczny	Małopolska Biblioteka Cyfrowa	719158	1992-02-09 00:00:00+00:00	1992-02-09 23:59:59+00:00	1	' manualnej, akupresury. masażu, igłorefleksoterapii (metodą chińską). 1aseropunktury. <em>biomechanicznej</em>'
899	biomechaniczny	Małopolska Biblioteka Cyfrowa	764661	1933-10-29 00:00:00+00:00	1933-10-29 23:59:59+00:00	2	' wychowanego systemem \n<em>biomechanicznym</em> są dokładne, wyraźne, \nrytmiczne. zorganizowane, celowe i ek'
900	biomechaniczny	Audiofonologia	1723666	1996-01-01 00:00:00+00:00	1996-12-31 23:59:59+00:00	1	' w sensie fizjologicznym i <em>biomechanicznym</em>. Na początku fazy gardłowej połykania kość gnykowa i krtań'
901	biomechaniczny	Małopolska Biblioteka Cyfrowa	771264	1992-03-08 00:00:00+00:00	1992-03-08 23:59:59+00:00	1	' <em>biomechaniczni</em> supermen1 z bliżej \nndeokreślonych światów. a prostaczek. o którego walcząto kilkunastOiletnd'
903	biomechaniczny	Bałtycka Biblioteka Cyfrowa	435434	1998-11-21 00:00:00+00:00	1998-11-22 23:59:59+00:00	1	' równa się porcji chemii. \nTymczasem osobom z problemami \n<em>biomechanicznymi</em> można skutecznie pomóc bez'
904	biomechaniczny	Chełmska Biblioteka Cyfrowa	341527	1933-10-29 00:00:00+00:00	1933-10-29 23:59:59+00:00	2	'. \nRuchy aktora wychowanego systemem \n<em>biomechanicznym</em> są dokładne, wyraźne, \nrytmiczne, zorganizowane'
905	biomechaniczny	Bałtycka Biblioteka Cyfrowa	420832	2003-05-16 00:00:00+00:00	2003-05-18 23:59:59+00:00	1	' ka!dej \nz protez. Zupełnie Inne możliwości stwarza proteza <em>biomechaniczna</em>. kt6rej końc6wkl pOdłącza'
906	biomechaniczny	Małopolska Biblioteka Cyfrowa	582324	1991-07-21 00:00:00+00:00	1991-07-21 23:59:59+00:00	1	' \nwkladki do ust na noc \noraz tzw. <em>biomechaniczne</em> aktywiza tory. \nOba te urz dzenia \nmają za zadanie'
908	biomechaniczny	Cyfrowy Dolny Śląsk	373423	1994-01-01 00:00:00+00:00	1994-12-31 23:59:59+00:00	1	' ukształtowanie się  \npostawy wadliwej. Szkielet ludzki \nstanowi zwarty łańcuch <em>biomechaniczny</em>. Zaburzenie'
909	biomechaniczny	Świętokrzyska Biblioteka Cyfrowa	303555	1994-03-07 00:00:00+00:00	1994-03-07 23:59:59+00:00	1	' sportu \nw San Cugat przeprowadzono badania \n<em>biomechaniczne</em> nad. . . strzałami stopera \nBarcelony Holendra'
911	biomechaniczny	Cyfrowy Dolny Śląsk	375690	2000-01-25 00:00:00+00:00	2000-01-25 23:59:59+00:00	1	', zgodnie z \nzasadami <em>biomechanicznymi</em>, umożliwia \nnatychmiastowe odtworzenie sprężystości \nzłamanej'
913	biomechaniczny	Biblioteka Publiczna im. dr. Władysława Biegańskiego w Częstochowie	1420888	1981-01-01 00:00:00+00:00	1981-12-31 23:59:59+00:00	1	'... \n - Teatr o jakim myślę. w \n teatr <em>biomechaniczny</em>. s raczej bioelektryczny Aktorstwo jest z natury rzeczy'
914	biomechaniczny	Małopolska Biblioteka Cyfrowa	750573	1929-07-21 00:00:00+00:00	1929-07-21 23:59:59+00:00	2	' \nwprowadzenia tej zasady w życie stworzył on metodę <em>biomechaniczną</em>, opartą na \nwysokiej kulturze fizycznej'
915	biomechaniczny	Jagiellońska Biblioteka Cyfrowa	3857468	1935-11-15 00:00:00+00:00	1935-11-15 23:59:59+00:00	1	' się akcja epizodów, \njakby na kinowym „pierwszym planie” . <em>Biomechaniczna</em> m etoda meyerholdowska'
916	biomechaniczny	"Zachodniopomorska Biblioteka Cyfrowa ""Pomerania"""	354511	1974-06-21 00:00:00+00:00	1974-06-21 23:59:59+00:00	1	""" danymi natury fizj lolic7nl'j, biochemicznej \nI <em>biomechanicznej</em> co do \n  przydatno'cI utytego materiału"""
917	biomechaniczny	Bałtycka Biblioteka Cyfrowa	3793012	1994-01-15 00:00:00+00:00	1994-01-16 23:59:59+00:00	1	', \ntrwającej normalnie 24 dni kuracji. \nKombinezon jest <em>biomechanicznym</em> aparatem korekcyjnym służącym — mówiąc'
918	biomechaniczny	Bałtycka Biblioteka Cyfrowa	424061	1994-01-01 00:00:00+00:00	1994-12-31 23:59:59+00:00	1	', opisujący wyniki metody rehabilitacji za pomocą kombinezonu, (metoda <em>biomechanicznego</em> proprioceptywnego'
919	biomechaniczny	Małopolska Biblioteka Cyfrowa	747197	1969-03-09 00:00:00+00:00	1969-03-09 23:59:59+00:00	1	"', czy to są stlJ  \ndenckie pomysły, czy ""język epoki"". \nAle gdy <em>biomechaniczne</em> sztuczki I \nadekwlłty'"
920	biomechaniczny	Małopolska Biblioteka Cyfrowa	636368	1972-05-27 00:00:00+00:00	1972-05-27 23:59:59+00:00	1	' <em>biomechaniczne</em> ublelów trakcyjnych krę..osłupa IzyJnego oraz udział \n wiczeń ruchowych w jego usprawnianiu'
921	biomechaniczny	Bałtycka Biblioteka Cyfrowa	391253	1997-01-01 00:00:00+00:00	1997-12-31 23:59:59+00:00	1	' \ntwarzy, tam gdzie inne materiały nie \nwytrzymują naprężeń <em>biomechanicznych</em>. Także do korekcji konturów'
922	biomechaniczny	Bałtycka Biblioteka Cyfrowa	392961	1997-01-01 00:00:00+00:00	1997-12-31 23:59:59+00:00	1	"""\\' - opracowanie modelu \nbadań fizjologicznych, psychologicznych \ni <em>biomechanicznych</em>, mających na celu \nocenę"""
923	biomechaniczny	Bałtycka Biblioteka Cyfrowa	392991	1997-01-01 00:00:00+00:00	1997-12-31 23:59:59+00:00	1	' wykazują, że kryteria <em>biomechaniczne</em> osób znajdujących \nsię w megane sprawiają, że przy zderzeniu z'
924	biomechaniczny	Małopolska Biblioteka Cyfrowa	625013	1961-01-18 00:00:00+00:00	1961-01-18 23:59:59+00:00	1	"'!"".S 1("",,;..., \n\n\nNr 15 \n\n\nSpotkania teatralne \n\n\nSiakuntala <em>biomechaniczna</em> \n\n\nJ estem ! natury zbyt'"
925	biomechaniczny	Bałtycka Biblioteka Cyfrowa	392729	1983-01-01 00:00:00+00:00	1983-12-31 23:59:59+00:00	1	' ciepl \nne, elektryczne i <em>biomechaniczne</em>. ;\\le również o skasowanie \npola tzw. wiecznej wUJCio'
926	biomechaniczny	Małopolska Biblioteka Cyfrowa	710491	1964-01-01 00:00:00+00:00	1964-12-31 23:59:59+00:00	1	' prqdów Irracjonalnych niewiele zostało z dawnego poj  \ncia natury ludzkiej: parę praw <em>biomechanicznych</em>'
927	biomechaniczny	Bałtycka Biblioteka Cyfrowa	419291	1990-01-01 00:00:00+00:00	1990-12-31 23:59:59+00:00	1	'-juniora. Dochodzenie zostało umOrzone na podstawie 27 ekspertyz, w tym \n<em>biomechanicznej</em>, która wykluczyła'
928	biomechaniczny	Bałtycka Biblioteka Cyfrowa	429923	1995-01-01 00:00:00+00:00	1995-12-31 23:59:59+00:00	1	' dostarczyć programy szkoleniowe, wyniki badań <em>biomechanicznych</em>, programy stosowania diet oraz planowania i'
930	biomechaniczny	Zielonogórska Biblioteka Cyfrowa	236836	1973-01-01 00:00:00+00:00	1973-12-31 23:59:59+00:00	1	""" tlcha('h osobników, \nuzyskan;rch metodami ściśle <em>biomechanicznymi</em> oraz poszukiwanie uzasadnień"""
934	biomechaniczny	Podkarpacka Biblioteka Cyfrowa	1289996	1974-10-31 00:00:00+00:00	1974-10-31 23:59:59+00:00	1	' \n<em>biomechanicznej</em> co do przydatności uzytep-o \nmaterialu. Wsp6lc7.esny chirurg - cho by \n wiatowej slawy - cz sto'
937	biomechaniczny	Podlaska Biblioteka Cyfrowa	3781151	1982-01-01 00:00:00+00:00	1982-12-31 23:59:59+00:00	1	"' <em>biomechaniczne</em> i ocena kliniczna"". \n (proca do wglądu w Bibliotece Naukowe] AMB) \n  Promotor: dóc. dr hab. Józef'"
951	biomechaniczny	Archiwum czasopism dla niewidomych	3930292	2003-01-01 00:00:00+00:00	2003-06-30 23:59:59+00:00	1	X
