	word	lname	iid	duration_start	duration_end	occurences	highlighting
0	blokers	Repozytorium Cyfrowe Instytutów Naukowych	829451	2001-01-01 00:00:00+00:00	2001-12-31 23:59:59+00:00	18	""" czekoladowy rzecz. 'czarny salceson'. \nSGS, 145. \n  <em>blokers</em> rzecz. \n1. 'przedstawiciel subkultury młodzieżowej"""
12	blokers	Archiwum Miesięcznika Znak	1447277	2002-06-01 00:00:00+00:00	2002-06-30 23:59:19+00:00	2	"' kapitalizmem. \nMi,dzy Oksfordem a ""<em>blokersami</em>"" \nJestescie elitq swojego pokolel1ia: studel1tami najlepszego'"
18	blokers	Archiwum Miesięcznika Znak	1447277	2002-06-01 00:00:00+00:00	2002-06-30 23:59:19+00:00	2	"' iyją takie moi koledzy-karierowicze, ""<em>blokersi</em>"" czy malo sympatyczni politycy. Mnie nie przeszkadza na'"
22	blokers	Biblioteka Cyfrowa UMCS	362855	2003-01-01 00:00:00+00:00	2003-12-31 23:59:59+00:00	2	'\ndzieci. A dorośli nazywają ich zaraz „<em>blokersami</em>”, piętnującym słowem, które pokrywa strach i odrazę. A'
27	blokers	Śląska Biblioteka Cyfrowa	1623568	2002-01-01 00:00:00+00:00	2002-12-31 23:59:59+00:00	2	""". ktory teraz\nm, tak sanlO niepokojący. \\ widzę przed sobą. Boimy się, bo\nM611'ia O sobie. <em>blokersi</em>"""
35	blokers	Śląska Biblioteka Cyfrowa	1623568	2002-01-01 00:00:00+00:00	2002-12-31 23:59:59+00:00	3	"' sportów? Pyta, czy widziałem .<em>Blokersów</em>"",\n""Tam jest pokazana taka tablica:\n»zubrania się zabaw«. Ma pan'"
40	blokers	Archiwum Miesięcznika Znak	1447277	2002-06-01 00:00:00+00:00	2002-06-30 23:59:19+00:00	1	"'?"" \nJak bye d umnym z Polski? \nZ ludimi z Zachodu z trudem, ale jakos sif dogadujecie - z ""<em>blokersami</em>'"
42	blokers	Gdańska Biblioteka Cyfrowa	1165569	2003-01-01 00:00:00+00:00	2003-12-31 23:59:59+00:00	1	' 3upanego \ndo przyk3adów wspó3czesnych, np. <em>blokersa</em>. \nW sumie kilkanaście zupe3nie różnych, wspania3ych'
44	blokers	Małopolska Biblioteka Cyfrowa	750446	2000-09-24 00:00:00+00:00	2000-09-24 23:59:59+00:00	1	' - odzwierciedlojące wszystkie cechy <em>blokersów</em>. \n  , . \n  . \n  .. \n  .... \n  .. . \n  .. w'
47	blokers	Repozytorium Cyfrowe Instytutów Naukowych	829452	2003-01-01 00:00:00+00:00	2003-12-31 23:59:59+00:00	2	' z tymi <em>blokersami</em> jest taki, że nawet sami \ntwórcy tego określenia mylą <em>blokersów</em> albo \nz młodzieżą'
49	blokers	Biblioteka Cyfrowa UMCS	362449	2002-01-01 00:00:00+00:00	2002-12-31 23:59:59+00:00	2	' bohaterki, można by uznać\nten tekst za hymn <em>blokersów</em>. <em>Blokersi</em> - dzieci\nurodzone i wychowywane przez'
59	blokers	Śląska Biblioteka Cyfrowa	1623808	2000-01-01 00:00:00+00:00	2000-12-31 23:59:59+00:00	2	"' Poniatowskiego w dzielnicy Piaski oraz drużyna \n""<em>Blokersów</em>"" ze Szkoły Podstawowej nr 2, która również \nmiała w'"
60	blokers	Archiwum Miesięcznika Znak	1447285	2003-02-01 00:00:00+00:00	2003-02-28 23:59:19+00:00	1	'. Andrzej Augustynski, zajnujący si~ <em>blokersami</em>; jui ich osiqgni~cia, wraz z innymi podobnyni, kt6re znam'
62	blokers	Pedagogiczna Biblioteka Cyfrowa	10161	1997-01-01 00:00:00+00:00	1997-12-31 23:59:59+00:00	1	'Lin-Schiau S.Y.. Day S.Y.. Fu W.M.. 1991. Use ofion channel <em>blokers</em> in studying \nthe regulation of'
63	blokers	Wielkopolska Biblioteka Cyfrowa	751417	1962-01-01 00:00:00+00:00	1962-12-31 23:59:59+00:00	1	""" mechów Deutsche <em>Blokersi</em> i bi~ \nbliotek uniwersyteckich w Berlinie i ' Greiiawaldzie oraz odbudowy"""
82	blokers	Małopolska Biblioteka Cyfrowa	4076637	2003-01-01 00:00:00+00:00	2003-12-31 23:59:59+00:00	2	"' \nto przywilej nie tylko <em>blokersów</em> \nParęsłów \n„ Ironia"", \nBaza Label \n/Pomaton EMI \nZ jednej strony'"
85	blokers	Biblioteka Cyfrowa UMCS	362449	2002-01-01 00:00:00+00:00	2002-12-31 23:59:59+00:00	1	': „Gezundhaj!” - Na zdrowie! ■\n<em>Blokersi</em> - dzieci urodzone i wychowywane przez kobiety tygrysice, duszące się w'
89	blokers	Śląska Biblioteka Cyfrowa	899213	2003-01-01 00:00:00+00:00	2003-12-31 23:59:59+00:00	2	' <em>blokersa</em> na Ust gończy \nWszystko zaczęło się na sosnowieckim \nblokowisku Zagorze gdzie kilku chłopaków'
104	blokers	Repozytorium Cyfrowe Instytutów Naukowych	829452	2003-01-01 00:00:00+00:00	2003-12-31 23:59:59+00:00	1	"""': <em>Blokersi</em> swoirrli dziewczynami \npomiatają, tak samo zapewne pomiatać będą \nżonamI. GW Wysokie Obcasy 3/1999"""
113	blokers	Zielonogórska Biblioteka Cyfrowa	240784	2003-01-01 00:00:00+00:00	2003-12-31 23:59:59+00:00	1	' \nprzetrwał. Język, który słyszę w rozmowach <em>blokersów</em>, nie jest mi tak całkiem obcy, kiedyś był przecież'
115	blokers	Śląska Biblioteka Cyfrowa	901134	2002-01-01 00:00:00+00:00	2002-12-31 23:59:59+00:00	1	"' \n""Eukaliptus"", Pawlem Kukizem .Wtorek"" cry Sylwestrem latkowsklm ""<em>Blokersi</em>"". \nprzeglCjdy filmów poprzedzi 2'"
121	blokers	Biblioteka Cyfrowa UMCS	364892	2001-01-01 00:00:00+00:00	2001-12-31 23:59:59+00:00	1	' inne dzieci, którymi straszy się\ndorosłych, nazywając ich „<em>blokersami</em>” albo,\no zgrozo! „satanistami'
122	blokers	Małopolska Biblioteka Cyfrowa	4076148	2001-01-01 00:00:00+00:00	2001-12-31 23:59:59+00:00	2	' ZIEMEK \n••• \n<em>BLOKERSI</em>. Średniej jakości dokument, powierzchownie i stereotypowo ukazujący rodzimą (sub'
123	blokers	Śląska Biblioteka Cyfrowa	1623789	2000-01-01 00:00:00+00:00	2000-12-31 23:59:59+00:00	1	' - \nMusiała, 1II miejsce - <em>Blokersi</em>, W kategorii szkół średnich \nzwycięzcami zostali, zajmując I miejsce'
129	blokers	Biblioteka Cyfrowa UMCS	362449	2002-01-01 00:00:00+00:00	2002-12-31 23:59:59+00:00	1	' pokolenia zbijających się w hordy <em>blokersów</em>. O coraz częstszym\nmarzeniu zakupienia choćby i zrujnowanej'
136	blokers	Biblioteka Cyfrowa Ośrodka Rozwoju Edukacji (BC ORE)	216458	2002-05-01 00:00:00+00:00	2002-05-01 23:59:59+00:00	1	' (objaœnianie znaczeñ neologizmów typu reklamówka, szalikowiec, <em>blokers</em> i kryj¹cych siê za nimi\nrealiów spo'
138	blokers	Bałtycka Biblioteka Cyfrowa	1564609	2001-01-12 00:00:00+00:00	2001-01-12 23:59:59+00:00	3	' Guinnessa \n20.30 <em>Blokersi</em> - serial anim. \n21 .00 Seks po polsku \n22.00 <em>Blokersi</em> - serial anim. \n22.30'
140	blokers	Cyfrowy Dolny Śląsk	368522	2002-01-01 00:00:00+00:00	2002-12-31 23:59:59+00:00	2	' - Gromy \n19.00 Lotnicy - Junior \n19.15 Osiedle- <em>Blokersi</em> \n19.30 Moszyce - Wasilewski \n19.45 Junior'
142	blokers	Repozytorium Cyfrowe Instytutów Naukowych	829452	2003-01-01 00:00:00+00:00	2003-12-31 23:59:59+00:00	1	"' mają wiedzę o ""szarakach, \n<em>blokersach</em> i debeściakach"", nie ""pomijają ich \nwstydliwie w swych'"
153	blokers	Jaskinie	6253353	1999-12-31 23:00:00+00:00	2000-12-31 22:59:59+00:00	1	""" \nBrzozowej ~ odkrycie Sali <em>Blokersów</em>. \n  ~ . „ , , › ic'iv \n;) 1. 13-th ! r i'm „: 'n . ! ”›,YW . \n  Skład"""
154	blokers	Bałtycka Biblioteka Cyfrowa	1564707	2001-01-05 00:00:00+00:00	2001-01-05 23:59:59+00:00	3	"',\' .-.: \n  ;. \n  ifjf\\"" "" \n    \n    : \n  19.00 Star Trek - serial \n19.45 Księga Rekordów Guinnessa \n20.30 <em>Blokersi</em>'"
156	blokers	Biblioteka Publiczna im. dr. Władysława Biegańskiego w Częstochowie	1418858	2003-01-01 00:00:00+00:00	2003-12-31 23:59:59+00:00	1	'∏ynna \n„Generacja Nic” Kuby Wandachowicza, \nktóra rozṕta∏a dyskusj́ o kibolach, \n<em>blokersach</em>, hip-hopie'
158	blokers	Małopolska Biblioteka Cyfrowa	746201	2003-10-31 00:00:00+00:00	2003-10-31 23:59:59+00:00	1	' rywalizacji, pierwsze miejsce wywalczyła drużyna FC Siata, wyprzedzając ekipy \n<em>Blokersów</em>, Dworu i Reszty; Pumy'
169	blokers	Śląska Biblioteka Cyfrowa	1623572	2002-01-01 00:00:00+00:00	2002-12-31 23:59:59+00:00	1	"' przyjaźnie. Słyszymy o <em>blokersach</em> - młodych\nagresywnych ludziach, dzieciach\n""niczyich"". To nieprawda, że tacy'"
172	blokers	Małopolska Biblioteka Cyfrowa	4076693	2003-01-01 00:00:00+00:00	2003-12-31 23:59:59+00:00	1	' organizują też <em>blokersi</em>, ale \nrobią to w ukrytych pomieszczeniach, \no których my nie wiemy - rozkłada ręce'
175	blokers	Śląska Biblioteka Cyfrowa	900739	2003-01-01 00:00:00+00:00	2003-12-31 23:59:59+00:00	1	"' płyt. ICh utwór znalazł się w albumie z muzyką \ndo filmu ""<em>Blokersi</em>"", w dużej mierze \npoświęconego Peji'"
182	blokers	Bałtycka Biblioteka Cyfrowa	391389	2001-01-01 00:00:00+00:00	2001-12-31 23:59:59+00:00	1	'. Jest to typowe środowisko <em>blokersów</em>, a ich ulubionym zajęciem (i chyba jedynym) jest wystawanie przed'
183	blokers	Śląska Biblioteka Cyfrowa	899213	2003-01-01 00:00:00+00:00	2003-12-31 23:59:59+00:00	1	' \n<em>blokersem</em>. Przed blokiem mamy ogrodek. Mieszkanie jest trzypokojowe, 60 \nmetrow kwadratowych, w Warszawie'
184	blokers	Śląska Biblioteka Cyfrowa	1623796	2001-01-01 00:00:00+00:00	2001-12-31 23:59:59+00:00	1	' \nśrodowiska np. <em>blokersów</em> czyli \nsfrustrowanych, słabo wykształconych, agresywnych grup dwudziesto'
185	blokers	Śląska Biblioteka Cyfrowa	1623568	2002-01-01 00:00:00+00:00	2002-12-31 23:59:59+00:00	1	"' to, co widziwie .<em>Blokersów</em>"" przyznają, że"" biania do represji. ""Dzisiejszej, my na ulicach'"
186	blokers	Śląska Biblioteka Cyfrowa	1623592	2002-01-01 00:00:00+00:00	2002-12-31 23:59:59+00:00	1	"'"", Błysk w oczach chłopaków z Załęża. Znają ten kawałek. Chociażby z filmowych\n""<em>Blokersów</em>"". Słuchają'"
190	blokers	Bałtycka Biblioteka Cyfrowa	1564563	2001-01-24 00:00:00+00:00	2001-01-24 23:59:59+00:00	2	' <em>Blokersi</em> - serial anim. \n21.00 Miłość, życie i takie tam - serial \n22.00 Trzecia planeta od Słońca serial'
191	blokers	Bałtycka Biblioteka Cyfrowa	1564579	2001-02-20 00:00:00+00:00	2001-02-20 23:59:59+00:00	2	' \n19.00 Star Trek - serial \n19.45 Księga Rekordów Guinnessa \n20.30 <em>Blokersi</em> - serial anim. \n21.00 Lunatycy'
192	blokers	Bałtycka Biblioteka Cyfrowa	1564675	2001-01-09 00:00:00+00:00	2001-01-09 23:59:59+00:00	2	' Rekordów Guinnessa \n20.30 <em>Blokersi</em> .- serial anim. \n21.00 Wszystko o Hollywood \n21.30 Ruby Wax L. - talk'
193	blokers	Bałtycka Biblioteka Cyfrowa	1564613	2001-01-10 00:00:00+00:00	2001-01-10 23:59:59+00:00	2	' - serial \n19.00 Star Trek - serial \n19.45 Księga Rekordów Guinnessa \n20.30 <em>Blokersi</em> - serial anim. \n21.00'
194	blokers	Bałtycka Biblioteka Cyfrowa	1565521	2001-03-27 00:00:00+00:00	2001-03-27 23:59:59+00:00	2	' robotów \n19.00 Sheena - serial \n19.45 Księga Rekordów Guinnessa \n20.35 <em>Blokersi</em> - serial anim. \n21.00'
195	blokers	Bałtycka Biblioteka Cyfrowa	1565191	2001-03-07 00:00:00+00:00	2001-03-07 23:59:59+00:00	2	' Księga Rekordów Guinnessa \n20.35 <em>Blokersi</em> - serial anim. \n21.00 Miłość, życie i takle tam - serial \n22.00'
196	blokers	Bałtycka Biblioteka Cyfrowa	1564531	2001-02-22 00:00:00+00:00	2001-02-22 23:59:59+00:00	2	' Star Trek - serial \n19.45 Księga Rekordów Guinnessa \n20.30 <em>Blokersi</em> - serial anim. \n21.00 Dobro kontra'
197	blokers	Bałtycka Biblioteka Cyfrowa	1564533	2001-02-23 00:00:00+00:00	2001-02-23 23:59:59+00:00	2	' Trek - serial \n19.45 Księga Rekordów Guinnessa \n  20.30 <em>Blokersi</em> - serial anim. \n21.00 Grecja bez'
198	blokers	Cyfrowy Dolny Śląsk	367013	2003-08-26 00:00:00+00:00	2003-08-26 23:59:59+00:00	2	' Górze najbardziej widoczni są \n<em>blokersi</em>, grupy nUdzącej i wałęsającej się młodzieży, która wymyśla sobie'
201	blokers	Śląska Biblioteka Cyfrowa	899213	2003-01-01 00:00:00+00:00	2003-12-31 23:59:59+00:00	1	' chuligańskie. \nŻadnych <em>blokersów</em>, zorganizowanych grup \nprzestępczych. \n  u \n  Mama spanikowała \nO tym, że na'
203	blokers	Śląska Biblioteka Cyfrowa	866315	2003-01-01 00:00:00+00:00	2003-12-31 23:59:59+00:00	1	"' narkotyki i rz dy \nmafii, obrzydliwi ""<em>blokersi</em>"", ""dresiarze"" i skini wal saj cy si  po betonowych dzunglach'"
206	blokers	Śląska Biblioteka Cyfrowa	902238	2001-01-01 00:00:00+00:00	2001-12-31 23:59:59+00:00	2	' science \nfiction USA., 19.45 Księga RekordówGuinnessa - prog. rozrywkowy, \n20.35 <em>Blokersi</em> - serial'
207	blokers	Bałtycka Biblioteka Cyfrowa	419597	2001-01-01 00:00:00+00:00	2001-12-31 23:59:59+00:00	2	' Rekordów Guinnessaprogram rozryw. \n20.30 <em>Blokersi</em> - serial anim. \n21.00 Niesamowite historie z archiwum'
208	blokers	Bałtycka Biblioteka Cyfrowa	419625	2001-01-01 00:00:00+00:00	2001-12-31 23:59:59+00:00	2	' <em>Blokersi</em> (1) - serial anim. \n21.00 Seks na biurku - program dok. \n22.00 Strefa komedii. Ellen (84,85'
209	blokers	Bałtycka Biblioteka Cyfrowa	1565189	2001-03-08 00:00:00+00:00	2001-03-08 23:59:59+00:00	2	' - serial \n19.45 Księga Rekordów Guinnessa \n20.35 <em>Blokersi</em> - serial anim. \n21.00 Dobro kontra zło - serial'
210	blokers	Bałtycka Biblioteka Cyfrowa	1565177	2001-03-06 00:00:00+00:00	2001-03-06 23:59:59+00:00	2	' Trek - serial \n19.45 Księga Rekordów Guinnessa \n20.35 <em>Blokersi</em> - serial anim. \n21.00 Lunatycy - serial'
211	blokers	Śląska Biblioteka Cyfrowa	899713	2001-01-01 00:00:00+00:00	2001-12-31 23:59:59+00:00	2	' Glunnessa. 20.30 <em>Blokersi</em> - ser. aniOl., \n21.00 Mlłosc, życie i takie tam ser. obycz., 22.00 Strefa komedii'
212	blokers	Śląska Biblioteka Cyfrowa	899673	2001-01-01 00:00:00+00:00	2001-12-31 23:59:59+00:00	2	' - serial sf. USA, \n19.45 Księga Rekordów GUinnessa, \n20.30 <em>Blokersi</em> - ser. anim., 21.00 \nKrolestwo'
213	blokers	Śląska Biblioteka Cyfrowa	899669	2001-01-01 00:00:00+00:00	2001-12-31 23:59:59+00:00	2	'. rozrywkowy, 20.30 <em>Blokersi</em> - ser., 22.00 Strefa komedii: \nMagazyn sportowy - ser., 22.30 \nWieczny kawaler'
214	blokers	Śląska Biblioteka Cyfrowa	899701	2001-01-01 00:00:00+00:00	2001-12-31 23:59:59+00:00	2	'. rozrywkowy, \n20.35 <em>Blokersi</em> - serial animowany, \n21.00 Nigdy w to nie uwierzycie! \nNiesamowite historie z'
215	blokers	Śląska Biblioteka Cyfrowa	899663	2001-01-01 00:00:00+00:00	2001-12-31 23:59:59+00:00	2	' Rekordów Giunnessa, \n20.30 <em>Blokersi</em> - ser. anlm.. 21.00 \nMiłość. życie i takle tam - ser. \nobycz., 22.00'
216	blokers	Śląska Biblioteka Cyfrowa	899683	2001-01-01 00:00:00+00:00	2001-12-31 23:59:59+00:00	2	', 20.35 <em>Blokersi</em>, \n11.00 Simon - serial komediowy gram rozrywkowy polorujne (powt.), 12.55 Toruń - cyjny'
217	blokers	Śląska Biblioteka Cyfrowa	899727	2001-01-01 00:00:00+00:00	2001-12-31 23:59:59+00:00	2	' Star Trek. 19.45 Księga Rekordow Guinnessa. 20.30 <em>Blokersi</em> . \n21.00 Miłość. życie i takie tam. \n22.00'
218	blokers	Śląska Biblioteka Cyfrowa	899684	2001-01-01 00:00:00+00:00	2001-12-31 23:59:59+00:00	2	' st. USA, 19.45 \nKsięga Rekordow Guinnessa - program rozrywkowy. 20.30 <em>Blokersi</em> ser. ani m., 21.00'
219	blokers	Śląska Biblioteka Cyfrowa	902644	2001-01-01 00:00:00+00:00	2001-12-31 23:59:59+00:00	2	"': \n  \n  \\. \n\\ \n  \\ \n. \n\\ \n  "" \n... t1.\'t \'\\ \\. \n  <em>Blokersi</em> \nFilm w reżyserii Sylwestra Latkowskiego o polskiej kulturze hip hopowej'"
220	blokers	Bałtycka Biblioteka Cyfrowa	419631	2001-01-01 00:00:00+00:00	2001-12-31 23:59:59+00:00	2	' Rekordów Guinnessa program rozryw. \n20.30 <em>Blokersi</em> - serial anim. \n21.00 Miłość, życie i takie tam - serial'
221	blokers	Bałtycka Biblioteka Cyfrowa	419594	2001-01-01 00:00:00+00:00	2001-12-31 23:59:59+00:00	2	' Guinnessaprogram rozryw. \n20.30 <em>Blokersi</em> (3) - serial anim. \n21.00 Rozdanie Złotych Globów skrót transmisji \n23.00'
222	blokers	Bałtycka Biblioteka Cyfrowa	419614	2001-01-01 00:00:00+00:00	2001-12-31 23:59:59+00:00	2	' Guinnessa \n- program rozryw. \n20.30 <em>Blokersi</em> - serial anim. \n21.00 Dobro kontra zło - serial \n22.00 Strefa'
223	blokers	Bałtycka Biblioteka Cyfrowa	419630	2001-01-01 00:00:00+00:00	2001-12-31 23:59:59+00:00	2	' - serial \n19.45 Księga Rekordów Guinnessa \n- program rozryw. \n20.30 <em>Blokersi</em> - serial anim.dla dorosłych'
224	blokers	Śląska Biblioteka Cyfrowa	866372	2003-01-01 00:00:00+00:00	2003-12-31 23:59:59+00:00	1	' Brooklynie, ta teraz mieszka \nw Mlawie, gdzie slllchają go <em>blokersi</em> z podstawowki. \nMAREK SWIERCZ \n  OPOLE'
227	blokers	Śląska Biblioteka Cyfrowa	901484	1999-01-01 00:00:00+00:00	1999-12-31 23:59:59+00:00	1	"'. ""<em>Blokersi</em>"" opowiadają o środowisku hip-ł1opowcow, ""Swięta \nwojna"" film przedstawia subkulturę \nkibicow'"
228	blokers	Śląska Biblioteka Cyfrowa	1623568	2002-01-01 00:00:00+00:00	2002-12-31 23:59:59+00:00	1	'\nByliśmy przy tym\n<em>Blokersi</em> ante portas str.13-15\nPowiedzieli nam\nJak dwa tysiące lat\ntemu w Jerozolimie'
233	blokers	Bałtycka Biblioteka Cyfrowa	419617	2001-01-01 00:00:00+00:00	2001-12-31 23:59:59+00:00	2	' program rozryw. \n20.30 <em>Blokersi</em> - serial anim. \n21.00 Niesamowite historie z archiwum Ripleya - program'
234	blokers	Bałtycka Biblioteka Cyfrowa	1565523	2001-03-28 00:00:00+00:00	2001-03-28 23:59:59+00:00	2	"'.., \n: >:\\\'"" \n    , . \n  ... ..""-. \n<l\\  \n  :,   \n. .ł"".  \n  19.00 Sheena - serial \n19.45 Księga Rekordów Guinnessa \n20.35 <em>Blokersi</em>'"
235	blokers	Bałtycka Biblioteka Cyfrowa	1564559	2001-02-27 00:00:00+00:00	2001-02-27 23:59:59+00:00	2	' \n18.15 Wojny robotów \n  19.00 Star Trek - serial \n19.45 Księga Rekordów Guinnessa \n20.35 <em>Blokersi</em>'
236	blokers	Bałtycka Biblioteka Cyfrowa	1564565	2001-01-25 00:00:00+00:00	2001-01-25 23:59:59+00:00	2	' Rekordów Guinnessa \n20.30 <em>Blokersi</em> - serial anim. \n21.00 Dobro kontra zło - serial \n22.00 Niegrzeczni'
237	blokers	Bałtycka Biblioteka Cyfrowa	1564567	2001-02-05 00:00:00+00:00	2001-02-05 23:59:59+00:00	2	""" <em>Blokersi</em> - serial anim. \n21.00 Nigdy w to nie uwierzycie! Nie': \nsamowite historie z archiwum Ripleya"""
238	blokers	Bałtycka Biblioteka Cyfrowa	1564573	2001-02-06 00:00:00+00:00	2001-02-06 23:59:59+00:00	2	' Księga Rekordów Guinnessa \n20.30 <em>Blokersi</em> - serial anim. \n21.00 Willa \n22.00 Para nie do pary - serial'
239	blokers	Bałtycka Biblioteka Cyfrowa	1564577	2001-02-21 00:00:00+00:00	2001-02-21 23:59:59+00:00	2	' \n20.30 <em>Blokersi</em> - serial anim. \n21.00 Miłość, życie I takie tam - serial \n22.00 Trzecia planeta od Słońca'
240	blokers	Bałtycka Biblioteka Cyfrowa	1564587	2001-02-09 00:00:00+00:00	2001-02-09 23:59:59+00:00	2	' - serial \n19.00 Star Trek - serial \n19.45 Księga Rekordów Guinnessa \n20.30 <em>Blokersi</em> - serial anim. \n21.00'
241	blokers	Bałtycka Biblioteka Cyfrowa	1564589	2001-02-15 00:00:00+00:00	2001-02-15 23:59:59+00:00	2	' - serial \n19.45 Księga Rekordów Guinnessa \n20.30 <em>Blokersi</em> - serial anim. \n21.00 Dobro kontra zło - serial'
242	blokers	Bałtycka Biblioteka Cyfrowa	1564593	2001-02-13 00:00:00+00:00	2001-02-13 23:59:59+00:00	2	' \n20.30 <em>Blokersi</em> - serial anim. \n21.00 Lunatycy - serial \n22.00 Para nie do pary - serial \n22.30 Końskie'
243	blokers	Bałtycka Biblioteka Cyfrowa	1564595	2001-02-14 00:00:00+00:00	2001-02-14 23:59:59+00:00	2	' <em>Blokersi</em> - serial anim. \n21.00 Miłość, życie i takie tam - serial \n22.00 Zakochani - komedia romant. pol'
244	blokers	Bałtycka Biblioteka Cyfrowa	1564597	2001-02-01 00:00:00+00:00	2001-02-01 23:59:59+00:00	2	' \n18.30 Wojny robotów \n19.00 Star Trek - serial \n19.45 Księga rekordów Guinnessa \n20.30 <em>Blokersi</em> - serial'
245	blokers	Bałtycka Biblioteka Cyfrowa	1564601	2001-01-30 00:00:00+00:00	2001-01-30 23:59:59+00:00	2	' <em>Blokersi</em> - serial anim. \n21.00 Lunatycy - serial \n22.00 Para nie do pary - serial \n22.30 Końskie zaloty'
246	blokers	Bałtycka Biblioteka Cyfrowa	1564605	2001-01-15 00:00:00+00:00	2001-01-15 23:59:59+00:00	2	' \n18.30 Wojny robotów \n19.00 Star Trek - serial \n19.45 Księga Rekordów Guinnessa \n20.30 <em>Blokersi</em> - serial'
247	blokers	Bałtycka Biblioteka Cyfrowa	1564617	2001-01-23 00:00:00+00:00	2001-01-23 23:59:59+00:00	2	' Wojny robotów \n19.00 Star Trek - serial \n19.45 Księga Rekordów Guinnessa \n20.30 <em>Blokersi</em> - serial anim'
248	blokers	Bałtycka Biblioteka Cyfrowa	1564583	2001-02-12 00:00:00+00:00	2001-02-12 23:59:59+00:00	2	' - serial \n18.15 Wojny robotów \n19.00 Star Trek - serial \n  19.45 Księga Rekordów Guinnessa \n20.30 <em>Blokersi</em>'
249	blokers	Bałtycka Biblioteka Cyfrowa	1564585	2001-02-08 00:00:00+00:00	2001-02-08 23:59:59+00:00	2	' Guinnessa \n20.30 <em>Blokersi</em> - serial anim. \n21.00 Dobro kontra zło - serial \n22.00 Odlotowi faceci - serial'
250	blokers	Bałtycka Biblioteka Cyfrowa	1564591	2001-02-16 00:00:00+00:00	2001-02-16 23:59:59+00:00	2	' Wojny robotów \n19.00 Star Trek - serial \n19.45 Księga Rekordów Guinnessa \n20.30 <em>Blokersi</em> - serial anim'
251	blokers	Bałtycka Biblioteka Cyfrowa	1564629	2001-01-16 00:00:00+00:00	2001-01-16 23:59:59+00:00	2	' Guinnessa \n20.30 <em>Blokersi</em> - serial anim. \n21.00 Ruby Wax L.. - talk show \n21.30 Szołbiz Info \n22.00 Para nie'
252	blokers	Bałtycka Biblioteka Cyfrowa	1564639	2001-01-19 00:00:00+00:00	2001-01-19 23:59:59+00:00	2	' Happiness - komedia USA \n( 1999) \n1.20 Jerry Springer - bez cenzury \ntalk show \n2.00 <em>Blokersi</em> - serial anim'
253	blokers	Bałtycka Biblioteka Cyfrowa	1564641	2001-01-18 00:00:00+00:00	2001-01-18 23:59:59+00:00	2	""" \n  ,  \n  ',. \n  .. . \n  ..,  ..: \n  19.45 Księga Rekordów Guinnessa \n20.30 <em>Blokersi</em> - serial anim. \n21.00 Dobro kontra zło - serial \n22.00"""
254	blokers	Bałtycka Biblioteka Cyfrowa	1565075	2000-08-25 00:00:00+00:00	2000-08-25 23:59:59+00:00	2	' - serial anim. \n  19.00 Star Trek - serial \n20.00 Nie do wiary \n21.00 Trust \n22.00 Strefa komedii: <em>Blokersi</em>'
255	blokers	Bałtycka Biblioteka Cyfrowa	1564199	2001-01-03 00:00:00+00:00	2001-01-03 23:59:59+00:00	2	' dochod2l do prawd2lwej \n  19.45 Księga Rekordów Guinnessa \n20.30 <em>Blokersi</em> - serial anim. \n 21.00 Królestwo'
256	blokers	Bałtycka Biblioteka Cyfrowa	1564973	2000-09-01 00:00:00+00:00	2000-09-01 23:59:59+00:00	2	' - serial \n20.00 Nie do wiary \n21.00 Willa \n22.00 Strefa komedii: <em>Blokersi</em> serial anim. \n22.30 Strefa'
257	blokers	Bałtycka Biblioteka Cyfrowa	1564701	2001-01-04 00:00:00+00:00	2001-01-04 23:59:59+00:00	2	' Księga Rekordów Guinnessa \n20.30 <em>Blokersi</em> - serial anim. \n21.00 Królestwo Gormenghast - serial \n22.00'
258	blokers	Bałtycka Biblioteka Cyfrowa	1564673	2001-01-08 00:00:00+00:00	2001-01-08 23:59:59+00:00	2	', 90210 - serial \n19.00 Star Trek - serial \n19.45 Księga Rekordów Guinnessa \n20.30 <em>Blokersi</em> - serial anim'
259	blokers	Bałtycka Biblioteka Cyfrowa	1564611	2001-01-11 00:00:00+00:00	2001-01-11 23:59:59+00:00	2	' - serial \n19.45 Księga Rekordów Guinnessa \n20.30 <em>Blokersi</em> - serial anim. \n21.00 Dobro kontra zło - serial'
260	blokers	Bałtycka Biblioteka Cyfrowa	1564621	2001-01-29 00:00:00+00:00	2001-01-29 23:59:59+00:00	2	' robotów \n19.00 Star Trek - serial \n19.45 Księga Rekordów Guinnessa \n20.30 <em>Blokersi</em> - serial anim. \n21.00'
261	blokers	Bałtycka Biblioteka Cyfrowa	1564615	2001-01-17 00:00:00+00:00	2001-01-17 23:59:59+00:00	2	' robotów \n19.00 Star Trek - serial \n  19.45 Księga Rekordów Guinnessa \n20.30 <em>Blokersi</em> - serial anim. \n21.00'
262	blokers	Bałtycka Biblioteka Cyfrowa	1565543	2001-03-21 00:00:00+00:00	2001-03-21 23:59:59+00:00	2	' Księga Rekordów Guinnessa \n20.35 <em>Blokersi</em> - serial anim. \n21.00 Miłość, życie i takie tam - serial \n22.00'
263	blokers	Bałtycka Biblioteka Cyfrowa	1565545	2001-03-20 00:00:00+00:00	2001-03-20 23:59:59+00:00	2	' robotów \n19.00 Star Trek - serial \n19.45 Księga Rekordów Guinnessa \n20.35 <em>Blokersi</em> - serial anim. \n21.00'
264	blokers	Bałtycka Biblioteka Cyfrowa	1565099	2000-08-04 00:00:00+00:00	2000-08-04 23:59:59+00:00	2	' komedii: <em>Blokersi</em> - serial \nanim. \n  20.00 RTL 7 \nŚCIGANA \nAnna wybiera się w długą podróż \nsamochodem na'
265	blokers	Bałtycka Biblioteka Cyfrowa	1565187	2001-03-09 00:00:00+00:00	2001-03-09 23:59:59+00:00	2	' <em>Blokersi</em> - serial anim. \n21.00 Grecja bez spodni \n22.00 Jaja na oślep \n22.30 Miasteczko South Park - serial'
266	blokers	Bałtycka Biblioteka Cyfrowa	1565179	2001-03-05 00:00:00+00:00	2001-03-05 23:59:59+00:00	2	' - reportaż \n0.30 Monitor Wiadomości \n1.00-6.00 Powtórki \n  19.45 Księga Rekordów Guinnessa \n20.35 <em>Blokersi</em>'
267	blokers	Bałtycka Biblioteka Cyfrowa	1564525	2001-02-19 00:00:00+00:00	2001-02-19 23:59:59+00:00	2	' - serial \n18.15 Wojny robotów \n  19.00 Star Trek - serial \n19.45 Księga Rekordów Guinnessa \n20.35 <em>Blokersi</em>'
268	blokers	Bałtycka Biblioteka Cyfrowa	419595	2001-01-01 00:00:00+00:00	2001-12-31 23:59:59+00:00	2	') - serial SF USA \n45min. \n19.45 Księga Rekordów Guinnessa \n( 1 7) - program rozr. \n20.30 <em>Blokersi</em> (2'
269	blokers	Bałtycka Biblioteka Cyfrowa	419550	2000-01-01 00:00:00+00:00	2000-12-31 23:59:59+00:00	2	' wiary (3) - program \n21.00 Trust (I) - serial \n22.00 Strefa komedii: <em>Blokersi</em> - serial anim. \n22.30'
270	blokers	Bałtycka Biblioteka Cyfrowa	419714	2001-01-01 00:00:00+00:00	2001-12-31 23:59:59+00:00	2	'. \n20.30 <em>Blokersi</em> - serial anim. dla dorosłych \n21.00 Nigdy w to nie uwierzycie! \nNiesamowite historie z'
272	blokers	Radomska Biblioteka Cyfrowa	82595	2002-01-01 00:00:00+00:00	2002-12-31 23:59:59+00:00	1	', bezrobocie, seks, <em>blokersi</em> to rodzajowość wprowadzana do tekstów na zasadzie tematów dyżurnych. Owa rodzajow'
275	blokers	Cyfrowy Dolny Śląsk	3829091	1999-01-01 00:00:00+00:00	1999-12-31 23:59:59+00:00	1	', SP Czeszów n , SP Czeszów I. \nTurniej „Trio Basket” \nszkół podstawowych \nGrupa młodsza: 1. <em>Blokersi</em>'
278	blokers	Sejm	3572442	1999-12-15 00:00:00+00:00	1999-12-15 23:59:59+00:00	1	' subkulturami np. kibiców, <em>blokersów</em>, punków, skinów, dresiarzy, techno oraz środowiskami kryminogennymi.\nJednak'
281	blokers	Bałtycka Biblioteka Cyfrowa	420085	2001-01-01 00:00:00+00:00	2001-12-31 23:59:59+00:00	2	' Guinnessaprogram rozryw. \n20.30 <em>Blokersi</em> - serial anim. \n21.00 Miłość, życie i takie tam - ser. \n22.00 Strefa'
282	blokers	Bałtycka Biblioteka Cyfrowa	419621	2001-01-01 00:00:00+00:00	2001-12-31 23:59:59+00:00	2	' \n19.45 Księga Rekordów Guinnessa program rozryw. \n20.30 <em>Blokersi</em> (4) - serial anim. \n21.00 Miłość, życie'
283	blokers	Bałtycka Biblioteka Cyfrowa	419025	2002-06-25 00:00:00+00:00	2002-06-25 23:59:59+00:00	2	"'::::..;.:«:::::.:::::::.:::;:""::  :: :;:  -:...-;.:;;.: \n  1. \n     *:.:.. x.,.rt>:J.s1: : \nrt  t: ,;   \n. ;;:\':  \n  <em>Blokersi</em> \nFilm dokumentalny Sylwestra'"
285	blokers	Bałtycka Biblioteka Cyfrowa	1565429	2001-03-12 00:00:00+00:00	2001-03-12 23:59:59+00:00	2	' \n19.45 Księga Rekordów Guinnessa \n20.35 <em>Blokersi</em> - serial anim. \n21.00 Nigdy w to nie uwierzycie'
286	blokers	Bałtycka Biblioteka Cyfrowa	1565533	2001-03-14 00:00:00+00:00	2001-03-14 23:59:59+00:00	2	' <em>Blokersi</em> - serial anim. \n21.00 Miłość, życie i takie tam - serial \n22.00 Trzecia planeta od Słońca serial'
287	blokers	Bałtycka Biblioteka Cyfrowa	1564557	2001-02-28 00:00:00+00:00	2001-02-28 23:59:59+00:00	2	' Trek - serial \n19.45 Księga Rekordów Guinnessa \n20.35 <em>Blokersi</em> - serial anim. \n21.00 Miłość, życie i'
288	blokers	Bałtycka Biblioteka Cyfrowa	1564575	2001-01-31 00:00:00+00:00	2001-01-31 23:59:59+00:00	2	' - serial \n19.45 Księga Rekordów Guinnessa \n20.30 <em>Blokersi</em> - serial anim. \n21.00 Miłość, życie i takie tam'
289	blokers	Bałtycka Biblioteka Cyfrowa	1564619	2001-01-22 00:00:00+00:00	2001-01-22 23:59:59+00:00	2	' <em>Blokersi</em> - serial anim. \n  21.00 Nigdy wto nie uwierzycie! Niesamowite historie z archiwum Ripleya - serial'
290	blokers	Bałtycka Biblioteka Cyfrowa	1565537	2001-03-16 00:00:00+00:00	2001-03-16 23:59:59+00:00	2	' Star Trek - serial \n19.45 Księga Rekordów Guinnessa \n20.35 <em>Blokersi</em> - serial anim. \n21.00 Grecja bez'
291	blokers	Bałtycka Biblioteka Cyfrowa	1565547	2001-03-23 00:00:00+00:00	2001-03-23 23:59:59+00:00	2	' Guinnessa \n20.35 <em>Blokersi</em> - serial anim. \n21.00 Grecja bez spodni \n22.00 Jaja na oślep \n22.30 Miasteczko'
292	blokers	Bałtycka Biblioteka Cyfrowa	1565549	2001-03-22 00:00:00+00:00	2001-03-22 23:59:59+00:00	2	' <em>Blokersi</em> - serial anim. \n21.00 Dobro kontra zło - serial \n22.00 Odlotowi faceci - serial \n22.30 Zapasy na'
293	blokers	Bałtycka Biblioteka Cyfrowa	1565185	2001-03-01 00:00:00+00:00	2001-03-01 23:59:59+00:00	2	' robotów \n19.00 Star Trek - serial \n19.45 Księga Rekordów Guinnessa \n20.30 <em>Blokersi</em> - serial anim. \n21.00'
294	blokers	Bałtycka Biblioteka Cyfrowa	1565307	2001-03-13 00:00:00+00:00	2001-03-13 23:59:59+00:00	2	' - serial \n19.45 Księga Rekordów Guinnessa \n20.35 <em>Blokersi</em> - serial anim. \n21.00 Lunatycy - serial \n22.00'
295	blokers	Bałtycka Biblioteka Cyfrowa	1564529	2001-02-26 00:00:00+00:00	2001-02-26 23:59:59+00:00	2	' - serial \n19.45 Księga Rekordów Guinnessa \n20.35 <em>Blokersi</em> - serial anim. \n21.00 Nigdy w to nie- uwierzycie'
298	blokers	Śląska Biblioteka Cyfrowa	882834	2002-01-01 00:00:00+00:00	2002-12-31 23:59:59+00:00	1	"' mieszka nieco ponad \n2000 os6b. ""<em>Blokersom</em>"" wS1:jstko \njedno: - Jak ch  s  rozl\'lczac to \nich problem. Jak'"
299	blokers	Śląska Biblioteka Cyfrowa	882400	2003-01-01 00:00:00+00:00	2003-12-31 23:59:59+00:00	1	'. \nKontrowersyjna opowieść o <em>blokersach</em> od początku była  \nfaworytem. Publiczność w Cieszynie i Czeskim Cieszynie'
305	blokers	Cyfrowy Dolny Śląsk	367074	2003-01-01 00:00:00+00:00	2003-12-31 23:59:59+00:00	1	'. Bols, 6. Zemsta, 7. \n<em>Blokersi</em>, 8. Wymiatacze. \nTrzy najlepsze drużyny każdej \nkategorii zostały'
307	blokers	Cyfrowy Dolny Śląsk	376398	2001-01-01 00:00:00+00:00	2001-12-31 23:59:59+00:00	1	'. Panorama, Śrubokręciki, \nOrczyki, <em>Blokersy</em>, Cyborgi,  \nMazgaje, Nietoperki, Gnojaki. Zagrały one \nw 7'
310	blokers	Śląska Biblioteka Cyfrowa	1623575	2002-01-01 00:00:00+00:00	2002-12-31 23:59:59+00:00	1	' Panorama \n22.35 Wiecz6r filmowy: Kocham Kino: \n<em>Blokersi</em> \n0.00 Wiecz6r artystyczny - Malta 2002 \n  POLSAT'
313	blokers	Śląska Biblioteka Cyfrowa	899191	2002-01-01 00:00:00+00:00	2002-12-31 23:59:59+00:00	1	"' jaks ma- \n1oIat. ktoremu   placi za t1jcie <em>blokersem</em>. . MAK \nPezet-Noon ""Muzyka \nklasyczna\'; Pomaton'"
314	blokers	Bałtycka Biblioteka Cyfrowa	1303791	2002-06-01 00:00:00+00:00	2002-06-02 23:59:59+00:00	1	"'. takich filmów jak ""<em>Blokersi</em>"", ""Th my, \nrugbiści"" i ""Pllb 700"", przyzwyczaił już opinię publiczną do tego'"
316	blokers	Śląska Biblioteka Cyfrowa	899596	2002-01-01 00:00:00+00:00	2002-12-31 23:59:59+00:00	1	""": ,Aberdeen' \n(18.15), <em>Blokersi</em> (20.30) i Kariera Nikosia [)yzmy \n(22.15), a w niedziel : ,Cisza' (18.15). ,A"""
317	blokers	Cyfrowy Dolny Śląsk	375179	2000-01-01 00:00:00+00:00	2000-12-31 23:59:59+00:00	1	'. <em>Blokersi</em> 2 3 9-8 \n3.BoysBlue 2 0 6-1 \ngrupa B \n1. Deportivo La Skłodowska \n2 4 5-4 \n2. Brutale z Masarni 2'
321	blokers	Śląska Biblioteka Cyfrowa	899577	2002-01-01 00:00:00+00:00	2002-12-31 23:59:59+00:00	1	"' marca: godz. 18.15 - ""Aberdeen"", godz. 20,30 - ""<em>Blokersi</em>"", goeIz. 22,15 \n- ""Kariera Nikosia  m(. \n17'"
323	blokers	Śląska Biblioteka Cyfrowa	901683	1999-01-01 00:00:00+00:00	1999-12-31 23:59:59+00:00	1	' \n  przykładem dla innych osob z gangow. \n- Może tfleba się lająć <em>blokersami</em>? \n- Kataf/.yna i Ewa ohgrY7a.i'
332	blokers	Śląska Biblioteka Cyfrowa	902310	2001-01-01 00:00:00+00:00	2001-12-31 23:59:59+00:00	1	') - wt.: \nTomb Raider (15 USA 16.30) \nBraterstwo wilków (15 fr. \n20.00) <em>Blokersi</em> (15 pol. \n18.30'
336	blokers	Śląska Biblioteka Cyfrowa	882400	2003-01-01 00:00:00+00:00	2003-12-31 23:59:59+00:00	1	' akcja  \nrozgrywa się na klatce schodowej i \ntraktuje o tzw. <em>blokersach</em>. \nPustkę w swoim życiu próbują'
337	blokers	Śląska Biblioteka Cyfrowa	902648	2001-01-01 00:00:00+00:00	2001-12-31 23:59:59+00:00	1	'. 227-32-46) - Psy i koty \n(b.a. USA 17.30) Jurassic Park 3 \n(12 USA 15.45 19.15) <em>Blokersi</em> \n(15 pol'
338	blokers	Śląska Biblioteka Cyfrowa	1623680	1999-01-01 00:00:00+00:00	1999-12-31 23:59:59+00:00	1	"' -\n""<em>blokersi</em>"". Trzeba ich otoczyć\nopieką. Zwracam się nie tylko\ndo duszpasterzy, ale do samorządów lokalnych'"
340	blokers	Bałtycka Biblioteka Cyfrowa	421289	2003-02-18 00:00:00+00:00	2003-02-18 23:59:59+00:00	1	' \n<em>blokersów</em>. - Oskarżeni niewiele \nrobili sobie z norm wspólżycia \nspołecznego, całymi dniami włócZąc się po'
342	blokers	Bałtycka Biblioteka Cyfrowa	1565031	2000-09-22 00:00:00+00:00	2000-09-22 23:59:59+00:00	1	' \n22.00 Strefa komedii: <em>Blokersi</em> - serial anim. \n22.30 Strefa komedii: Wieczny kawaler - serial \n23.00 Bez'
343	blokers	Bałtycka Biblioteka Cyfrowa	1564355	2000-11-17 00:00:00+00:00	2000-11-17 23:59:59+00:00	1	'. \n21.00 Nowy serial: Dobro kontra \nzło - serial \n22.00 Strefa komedii: <em>Blokersi</em> - serial anim. \n22.30'
344	blokers	Cyfrowy Dolny Śląsk	366861	2003-03-04 00:00:00+00:00	2003-03-04 23:59:59+00:00	1	' przez prymitywnych <em>blokersów</em>. Na wniosek jeleniogórskiej prokuratury okręgowej sąd aresztował \ndwu'
346	blokers	Śląska Biblioteka Cyfrowa	902649	2001-01-01 00:00:00+00:00	2001-12-31 23:59:59+00:00	1	' Park 3 \n(12 USA 15.45 19.15) <em>Blokersi</em> \n(15 pol. 20.45 22.15); \nUSTROŃ \n.Zdrój (ul. Sanatoryjna 7, 033'
347	blokers	Śląska Biblioteka Cyfrowa	901117	2002-01-01 00:00:00+00:00	2002-12-31 23:59:59+00:00	1	' 20.00) <em>Blokersi</em> (15 \npol. 18.30); \n.Klnoteatr Battyk (ul. Katowlcka 4, tel. 281-39-96) - Atlantyda (ho'
348	blokers	Śląska Biblioteka Cyfrowa	909639	2000-01-01 00:00:00+00:00	2000-12-31 23:59:59+00:00	1	' panowie serial komediowy, 22.30 <em>Blokersi</em> - serial \nanimowany, 23.00 Nowy serial: Pcin Dolny: \nKierunek'
351	blokers	Śląska Biblioteka Cyfrowa	899670	2001-01-01 00:00:00+00:00	2001-12-31 23:59:59+00:00	1	' Niegrzeczni panowie - senal kom. Wlk Brytania, \n22.30 <em>Blokersi</em> - serial animowany \nUSA, 23.00 PCIrI Dolny. Zmr'
352	blokers	Śląska Biblioteka Cyfrowa	899726	2001-01-01 00:00:00+00:00	2001-12-31 23:59:59+00:00	1	' Księgp RekordówGumnessa - program rozrywkov.y, \n20.30 <em>Blokersi</em> - serial, 21.00 Lunatyr:y - serial science'
353	blokers	Bałtycka Biblioteka Cyfrowa	1564627	2001-01-26 00:00:00+00:00	2001-01-26 23:59:59+00:00	1	' \n18.30 Wojny robotów \n19.00 Star Trek - serial \n19.45 Księga Rekordów Guinnessa \n20.30 <em>Blokersi</em> - serial'
354	blokers	Bałtycka Biblioteka Cyfrowa	1564991	2000-09-09 00:00:00+00:00	2000-09-10 23:59:59+00:00	1	' - serial \n20.30 Dilbert - serial anim. \n21.00 Willa \n22.00 <em>Blokersi</em> - serial anim. \n22.30 Wieczny kawaler'
355	blokers	Bałtycka Biblioteka Cyfrowa	1564993	2000-09-08 00:00:00+00:00	2000-09-08 23:59:59+00:00	1	' - serial \n20.30 Dilbert - serial anim. \n21.00 Willa \n22.00 <em>Blokersi</em> - serial anim. \n22.30 Wieczny kawaler'
356	blokers	Cyfrowy Dolny Śląsk	375269	2000-08-29 00:00:00+00:00	2000-08-29 23:59:59+00:00	1	' w \nJeleniej Górze obwinieni o ciężkie przestępstwa \nmożna by ich uznać za typowych <em>blokersów</em>'
357	blokers	Śląska Biblioteka Cyfrowa	909629	2000-01-01 00:00:00+00:00	2000-12-31 23:59:59+00:00	1	""" - senal komedio- \nW)', 22.30 <em>Blokersi</em> - serial animowany, \n23.00 Nowy serial: Pcin Dolny: Bestia z Pclna"""
358	blokers	Śląska Biblioteka Cyfrowa	909677	2000-01-01 00:00:00+00:00	2000-12-31 23:59:59+00:00	1	""" Niegrzeczni panowie: Tchorzostwo - serial komediO'hY. 22.30 <em>Blokersi</em> - serial animowany, 23.00 Świeża dostawa"""
359	blokers	Śląska Biblioteka Cyfrowa	909635	2000-01-01 00:00:00+00:00	2000-12-31 23:59:59+00:00	1	', \n22.00 Niegrzeczni panowie: Sauna domowej roboty - serial komediowy, 22.30 <em>Blokersi</em> - serial animowany'
360	blokers	Śląska Biblioteka Cyfrowa	909668	2000-01-01 00:00:00+00:00	2000-12-31 23:59:59+00:00	1	' komediowy, 22.30 <em>Blokersi</em> - serial animowany, \n23.00 Nowy serial: Pcin Dolny: Koszmar \nw Pcmie Dolnym - ser'
361	blokers	Śląska Biblioteka Cyfrowa	899716	2001-01-01 00:00:00+00:00	2001-12-31 23:59:59+00:00	1	' \npanowie - ser., 22.30 <em>Blokersi</em> ser., 23.00 pcin Dolny - ser., 23.30 \nSzpiegowska misja matołów - kom'
362	blokers	Śląska Biblioteka Cyfrowa	899728	2001-01-01 00:00:00+00:00	2001-12-31 23:59:59+00:00	2	' Springer - bez \ncenzury talk show, 0.15 <em>Blokersi</em>. \n0.45 Beavls I Butthead. 1.05 Zapasy na smlerć i życie'
363	blokers	Bałtycka Biblioteka Cyfrowa	419599	2001-01-01 00:00:00+00:00	2001-12-31 23:59:59+00:00	1	' rozryw. \n19.00 Star Trek (71) - serial \n19.45 Księga Rekordów Guinnessaprogram rozryw. \n20.30 <em>Blokersi</em> (6'
364	blokers	Śląska Biblioteka Cyfrowa	909912	2000-01-01 00:00:00+00:00	2000-12-31 23:59:59+00:00	1	' <em>Blokersi</em> - ser. \nanim., 22.30 Odlotowi faceci - serial komediowy, 23.00 Europa bez spodni, 23.30 \nZambie'
365	blokers	Śląska Biblioteka Cyfrowa	899678	2001-01-01 00:00:00+00:00	2001-12-31 23:59:59+00:00	2	' Księga Re \nkorclow GUinnessa, 20.30 <em>Blokersi</em> , \n21.00 Ruby Wax i... , 22.00 Strefa \nkomedii: Para Ole do'
366	blokers	Śląska Biblioteka Cyfrowa	899714	2001-01-01 00:00:00+00:00	2001-12-31 23:59:59+00:00	2	' - serial anim., 23.30 Jerry \nSpringer - bez cenzury talk show. \n0.15 <em>Blokersi</em> - ser. anim.. 0.40 BeaVls i'
367	blokers	Bałtycka Biblioteka Cyfrowa	419720	2001-01-01 00:00:00+00:00	2001-12-31 23:59:59+00:00	1	' Rekordów Guinnessa program rozryw. \n20.30 <em>Blokersi</em> (11) - serial anim. \n21.00 Co się stało z Haroidem'
368	blokers	Bałtycka Biblioteka Cyfrowa	427656	1999-01-01 00:00:00+00:00	1999-12-31 23:59:59+00:00	1	' Seks w wielkim mieście - serial \n22.00 <em>Blokersi</em> - serial anim. \n22.30 Końskie zaloty - prog. rozryw'
369	blokers	Bałtycka Biblioteka Cyfrowa	420064	2000-01-01 00:00:00+00:00	2000-12-31 23:59:59+00:00	1	' - serial anim. \n21.00 Dobro kontra zło - serial \n22.00 Strefa komedii. <em>Blokersi</em> (I) serial anim. \n22.30'
370	blokers	Małopolska Biblioteka Cyfrowa	1293276	1999-08-18 00:00:00+00:00	1999-08-18 23:59:59+00:00	1	"' nadmiar, ale jak \nbędzie padał deszcz to co wtedy? I \nmnożą nam się ""<em>Blokersi</em>"" i różne grupy nieformalne'"
371	blokers	Bałtycka Biblioteka Cyfrowa	1564969	2002-06-25 00:00:00+00:00	2002-06-25 23:59:59+00:00	1	' \n22.00 Panorama \n22.20 Sport-telegram \n22.28 Pogoda \n22.45 Wieczór filmowy Kocham \nKino: <em>Blokersi</em> - film'
372	blokers	Bałtycka Biblioteka Cyfrowa	1565141	2000-08-18 00:00:00+00:00	2000-08-18 23:59:59+00:00	2	"""/' \n  0.30 Życie Hollywood \n1.00 Historie o duchach - serial \ndok. \n1.30 <em>Blokersi</em> - serial anim. \n2.00"""
373	blokers	Wielkopolska Biblioteka Cyfrowa	760063	1938-07-21 00:00:00+00:00	1938-07-21 23:59:59+00:00	1	', Konarzewo, pow. Poznań, lózein Hutton-Czapskiego, Modrze. pow. Poznań l \nbarona Willem <em>Blokers</em>. U1823- POW'
374	blokers	Śląska Biblioteka Cyfrowa	909981	2000-01-01 00:00:00+00:00	2000-12-31 23:59:59+00:00	1	' Niegrzeczni panowie - serial komediowy, 22.30 <em>Blokersi</em> - serial animowany., 23.00 Paskudny program Penna i'
375	blokers	Śląska Biblioteka Cyfrowa	910029	2000-01-01 00:00:00+00:00	2000-12-31 23:59:59+00:00	1	' Niegrzeczni \npanowie- serial komediowy, 22.30 \n<em>Blokersi</em> - serial animowany, 23.00 Bez \nograniczeń - ser'
376	blokers	Śląska Biblioteka Cyfrowa	909937	2000-01-01 00:00:00+00:00	2000-12-31 23:59:59+00:00	1	', 20.00 Nie do wiary - program \ndokumentalny, 21.00 Lunatycy - serial \nscience fiction. 22.00 <em>Blokersi</em>'
377	blokers	Śląska Biblioteka Cyfrowa	909965	2000-01-01 00:00:00+00:00	2000-12-31 23:59:59+00:00	1	' rozrywkowy, 22.00 Niegrzeczni \npanowie - serial komediowy, 22.30 <em>Blokersi</em> - serial animowany., 23.00 Paskudny'
378	blokers	Śląska Biblioteka Cyfrowa	909649	2000-01-01 00:00:00+00:00	2000-12-31 23:59:59+00:00	1	' <em>Blokersi</em> - serial \ndnimowany., 22.30 Wlcczny kawaler - ser. kom.. 23.00 200 paplerosow komedia USA, 0.40'
379	blokers	Śląska Biblioteka Cyfrowa	910221	2000-01-01 00:00:00+00:00	2000-12-31 23:59:59+00:00	1	' - program \ndokumentalny, 21.00 lunatycy- serial \nscience fiction, 22.00 <em>Blokersi</em> - serial \nanimowany. 22.30'
380	blokers	Śląska Biblioteka Cyfrowa	899677	2001-01-01 00:00:00+00:00	2001-12-31 23:59:59+00:00	2	', \n20.30 <em>Blokersi</em> - ser. ani m., 21.00 \nMiłośc. życie i takie tam - ser. \nobycz., 22.00 Strefa komedII'
381	blokers	Śląska Biblioteka Cyfrowa	899705	2001-01-01 00:00:00+00:00	2001-12-31 23:59:59+00:00	1	' Ameryka bez \nspodm. 23.30 jerry Springer - bez \ncenzury talk show, 0.15 <em>Blokersi</em> ser. anim., 0.40 Beavis i'
382	blokers	Śląska Biblioteka Cyfrowa	901169	2002-01-01 00:00:00+00:00	2002-12-31 23:59:59+00:00	1	' (pol. 15) Moulin Rouge \n(19.30), nledz. <em>Blokersi</em> (pol. 15 \n17.30), Pocalune.k smoka (19.30), \nMoulin'
383	blokers	Śląska Biblioteka Cyfrowa	902213	2001-01-01 00:00:00+00:00	2001-12-31 23:59:59+00:00	2	' 90210, \n19.00 Star Trek - ser., 19.45 Księga Rekordow Guinnessa, 20.30 \n<em>Blokersi</em> - ser., 21.00 Miłosc'
384	blokers	Śląska Biblioteka Cyfrowa	910007	2000-01-01 00:00:00+00:00	2000-12-31 23:59:59+00:00	1	' komediowy, 22.30 <em>Blokersi</em> - serial animowany., \n23.00 Bez ograniczeń - ser. obycz., 23.30 \nCybernator - sf'
385	blokers	Śląska Biblioteka Cyfrowa	910203	2000-01-01 00:00:00+00:00	2000-12-31 23:59:59+00:00	1	', 21.00 Lunatycy - serial \nscience fiction. 22.00 <em>Blokersi</em> - serial animowany, 22,30 Odlotowi faceci'
386	blokers	Śląska Biblioteka Cyfrowa	899699	2001-01-01 00:00:00+00:00	2001-12-31 23:59:59+00:00	2	' - prog. \nrozrywkov.y, 20.30 <em>Blokersi</em> - serial, \n21.00 Nigdy w to nie uwierzycie! Niesamowite historie z'
387	blokers	Śląska Biblioteka Cyfrowa	902247	2001-01-01 00:00:00+00:00	2001-12-31 23:59:59+00:00	2	' Guinnessa, 20.30 <em>Blokersi</em>. \n21.00 Milość. życie i takie tam. \n22.00 Zakochani ~ komedia, 23.45 \nGadjo Dilo'
388	blokers	Śląska Biblioteka Cyfrowa	910188	2000-01-01 00:00:00+00:00	2000-12-31 23:59:59+00:00	1	' Lunatycy - serial \nscience fiction, 22.00 <em>Blokersi</em> - serial \nanimowany, 22.30 Odlotowi faceci - serial'
389	blokers	Śląska Biblioteka Cyfrowa	902240	2001-01-01 00:00:00+00:00	2001-12-31 23:59:59+00:00	1	'. 22.30 <em>Blokersi</em> - serial animowany USA, 23.00 Pcin Dolny serial komediowy Wlk. Brytania, \n23.30 Igor i'
390	blokers	Śląska Biblioteka Cyfrowa	899700	2001-01-01 00:00:00+00:00	2001-12-31 23:59:59+00:00	2	' cenzury \ntalk show, 0.15 <em>Blokersi</em>, 0.40 Beavis I Butthead - ser., 1.05 Zapasy \nna śmierć i życie,1.30'
391	blokers	Śląska Biblioteka Cyfrowa	899704	2001-01-01 00:00:00+00:00	2001-12-31 23:59:59+00:00	2	', 23.00 Szo/blz mfo, 23.30 jerry \nSprmger, 0.15 <em>Blokersi</em>, 0.40 Beavis i Butthead, 1.05 Zapasy na \nśmierc i'
392	blokers	Śląska Biblioteka Cyfrowa	909955	2000-01-01 00:00:00+00:00	2000-12-31 23:59:59+00:00	1	' \nNiegrzeczni panowie: Przewodnik po knajpach - serial komedioy,y, 22.30 <em>Blokersi</em> serial animowany, 23.00 Pcin'
393	blokers	Śląska Biblioteka Cyfrowa	909975	2000-01-01 00:00:00+00:00	2000-12-31 23:59:59+00:00	1	""" rozrywkowy, 22.00 Niegrzeczni panowie - serial komedioVvj', 22.30 <em>Blokersi</em> \n- serial animowany., 23.00"""
394	blokers	Bałtycka Biblioteka Cyfrowa	420066	2000-01-01 00:00:00+00:00	2000-12-31 23:59:59+00:00	1	' - talk show \n21.00 Królestwo Gormenghast - seri    \n22.00 Strefa komedii. <em>Blokersi</em> - serial anim. \n22.30'
395	blokers	Śląska Biblioteka Cyfrowa	910018	2000-01-01 00:00:00+00:00	2000-12-31 23:59:59+00:00	1	' <em>Blokersi</em> - serial \nanimowany, 23.00 Bez ograniczeń - serial \nobyczajowy, 23.30 Masakra na wyspie \nZombie'
396	blokers	Śląska Biblioteka Cyfrowa	910182	2000-01-01 00:00:00+00:00	2000-12-31 23:59:59+00:00	1	' - program \ndok., 21.00 Lunatycy - serial science fiction, 22.00 <em>Blokersi</em> - ser. anim., 22.30 \nOdlotowi'
397	blokers	Cyfrowy Dolny Śląsk	368024	2001-04-03 00:00:00+00:00	2001-04-03 23:59:59+00:00	1	' Studio Dariusz Kosicki (93) i Daniel \nBrzozowski (90 pkt). W meczu o trzecie miejsce <em>Blokersi</em> wygrali z'
398	blokers	Śląska Biblioteka Cyfrowa	909996	2000-01-01 00:00:00+00:00	2000-12-31 23:59:59+00:00	1	' Wiliaprogram rozrywkowy, 22.00 Niegrzeczni \npanowie - serial komediowy, 22.30 <em>Blokersi</em> - serial animowany'
399	blokers	Bałtycka Biblioteka Cyfrowa	1564190	2000-12-29 00:00:00+00:00	2000-12-29 23:59:59+00:00	1	' talk show \n 21 .00 Ibiza bez spodni \n 22.00 <em>Blokersi</em> ~ serial anim. \n 22.30 Wieczny kawaler ~ serial'
400	blokers	Bałtycka Biblioteka Cyfrowa	419581	2000-01-01 00:00:00+00:00	2000-12-31 23:59:59+00:00	1	') - serial anim. \n21.00 Willa (6) - program rozryw. \n22.00 Strefa komedii: <em>Blokersi</em> - serial anim. \n22.30'
401	blokers	Bałtycka Biblioteka Cyfrowa	429433	1999-01-01 00:00:00+00:00	1999-12-31 23:59:59+00:00	1	' \n  LITERATURA \nSTAROPOLSKA \n., \n  . \n  W ciągu kilkudziesięciu minut obserwujemy dobę z życia <em>blokersów</em>'
402	blokers	Krośnieńska Biblioteka Cyfrowa	3373567	2002-01-01 00:00:00+00:00	2002-12-31 23:59:59+00:00	1	' Kocham Kino \n- <em>Blokersi</em> \n00:00 Wieczor artystyczny \n  ..........R \n  KROSNO 104,50 FM A \nJAROSLAW 98,20'
403	blokers	Krośnieńska Biblioteka Cyfrowa	3373497	2002-01-01 00:00:00+00:00	2002-12-31 23:59:59+00:00	1	""" \ngorszej. A przeciei chlop potmqjest i basta, jak pisal Stanislaw Wyspianski. W por6wnaniu z ''<em>blokersami</em>"""
404	blokers	Bałtycka Biblioteka Cyfrowa	427604	1999-01-01 00:00:00+00:00	1999-12-31 23:59:59+00:00	1	' Seks w wielkim mieście - serial \n22.00 <em>Blokersi</em> - serial anim. \n22.30 Końskie zaloty - prog. rozryw'
406	blokers	Bałtycka Biblioteka Cyfrowa	1565019	2000-09-29 00:00:00+00:00	2000-09-29 23:59:59+00:00	1	' Willa \n22.00 Strefa komedii: <em>Blokersi</em> - serial anim. \n22.30 Strefa komedii: Wieczny kawaler - serial'
407	blokers	Bałtycka Biblioteka Cyfrowa	1564599	2001-02-02 00:00:00+00:00	2001-02-02 23:59:59+00:00	1	' \n20.30 <em>Blokersi</em> - serial anim. \n21 .00 Co się stało z Haroidem \nSmithem? - komedia USA-ang. \n(1 999'
408	blokers	Bałtycka Biblioteka Cyfrowa	1565051	2000-07-28 00:00:00+00:00	2000-07-28 23:59:59+00:00	1	' - serial \n21.00 Seks w wielkim mieście - serial \n22.00 Strefa komedii: <em>Blokersi</em> - serial anim. \n22.30'
409	blokers	Bałtycka Biblioteka Cyfrowa	1564297	2000-11-24 00:00:00+00:00	2000-11-24 23:59:59+00:00	1	': <em>Blokersi</em> - serial anim. \n  22.30 Strefa komedii: Wieczny kawaler - serial \n23.00 Nowy serial: Ameryka bez'
410	blokers	Bałtycka Biblioteka Cyfrowa	1564303	2000-10-13 00:00:00+00:00	2000-10-13 23:59:59+00:00	1	' \n22.00 Strefa komedii: <em>Blokersi</em> - serial anim. \n22.30 Strefa komedii: Wieczny kawaler - serial \n23.00'
411	blokers	Bałtycka Biblioteka Cyfrowa	1564313	2000-10-20 00:00:00+00:00	2000-10-20 23:59:59+00:00	1	' \n22.00 Strefa komedii: <em>Blokersi</em> - serial anim. \n22.30 Strefa komedii: Wieczny kawaler - serial \n23.00'
412	blokers	Bałtycka Biblioteka Cyfrowa	1564213	2000-12-22 00:00:00+00:00	2000-12-22 23:59:59+00:00	1	' Królestwo Gormenghast serial \n 22.00 <em>Blokersi</em> - serial anim. \n22.30 Wieczny kawaler - serial \n23.00 Zabójcze'
413	blokers	Bałtycka Biblioteka Cyfrowa	1564279	2000-11-03 00:00:00+00:00	2000-11-03 23:59:59+00:00	1	' serial: Dobro kontra \nzło - serial \n 22.00 Strefa komedii: <em>Blokersi</em>- serial anim. \n  pertensproblem'
414	blokers	Bałtycka Biblioteka Cyfrowa	1564237	2000-12-08 00:00:00+00:00	2000-12-08 23:59:59+00:00	1	' kontra zło - serial \n22.00 <em>Blokersi</em> - serial anim. \n  chcący uruchamiają alarm i muszą \nuciekać'
415	blokers	Bałtycka Biblioteka Cyfrowa	1564257	2000-12-15 00:00:00+00:00	2000-12-15 23:59:59+00:00	1	"' _ \n""Akçjá\'flimu\'IfQŻgrywä\' ę wrr-oku \n  ....__ \n  21 .20 W sieci \n  #i . :-:-~: \n§1:. .„ \n  wu \n  22.00 <em>Blokersi</em> - serial'"
416	blokers	Bałtycka Biblioteka Cyfrowa	1564263	2000-10-27 00:00:00+00:00	2000-10-27 23:59:59+00:00	1	' kontra zło - serial \n22.00 Strefa komedii: <em>Blokersi</em> - serial anim. \n22.30 Strefa komedii: Wieczny kawaler'
417	blokers	Śląska Biblioteka Cyfrowa	909953	2000-01-01 00:00:00+00:00	2000-12-31 23:59:59+00:00	1	' \nNiegrzeczni panowie - serial komediowy, \n22.30 <em>Blokersi</em> - serial animowany.. 23.00 \nPcin Dolny - senal'
418	blokers	Śląska Biblioteka Cyfrowa	902233	2001-01-01 00:00:00+00:00	2001-12-31 23:59:59+00:00	1	', \n0.15 <em>Blokersi</em>, 0.40 Amvls I Butthe- \n,Id., 1.05 ZapiJsy na smlerc I zycie, \n1.30 KsII;ga Rekordow'
419	blokers	Śląska Biblioteka Cyfrowa	902249	2001-01-01 00:00:00+00:00	2001-12-31 23:59:59+00:00	2	' Springer - bez \ncenzury talk show, 0.15 <em>Blokersi</em> ser. ani m., 0.40 Beavis i Butthead ser. anim., 1.05'
420	blokers	Śląska Biblioteka Cyfrowa	910011	2000-01-01 00:00:00+00:00	2000-12-31 23:59:59+00:00	1	' - program \nrozrywkDwy. 22.00 Niegrzeczni panowieserial komediowy. 22.30 <em>Blokersi</em> - serial \nanimowany., 23.00'
421	blokers	Śląska Biblioteka Cyfrowa	902239	2001-01-01 00:00:00+00:00	2001-12-31 23:59:59+00:00	2	""" \nMagazyn sporto\\\\oj', 23.00 Ameryka \nbez spodni - prog. dok.. 23.30 Jerry \nSpringer. 0.15 <em>Blokersi</em>, 0.40"""
422	blokers	Śląska Biblioteka Cyfrowa	910000	2000-01-01 00:00:00+00:00	2000-12-31 23:59:59+00:00	1	', 22.00 Niegrzeczm panowie serial komediowy, 22.30 <em>Blokersi</em> - serial \nanimowany.. 23.00 Bez ograniczen'
423	blokers	Śląska Biblioteka Cyfrowa	902232	2001-01-01 00:00:00+00:00	2001-12-31 23:59:59+00:00	2	', 23.00 Ameryka \nbez spodni - prog. dok.. 23.30 Jerry \nSpringer - bez cenzury talk show, \n0.15 <em>Blokersi</em>'
424	blokers	Cyfrowy Dolny Śląsk	367831	2002-03-05 00:00:00+00:00	2002-03-05 23:59:59+00:00	1	"' FBI. \n""<em>Blokersi</em>"" - Polska, 2001, reż. Sylwester \nLatkowski, dokumentalny. \nFilm o polskiej kulturze'"
425	blokers	Bałtycka Biblioteka Cyfrowa	398802	2003-01-01 00:00:00+00:00	2003-12-31 23:59:59+00:00	1	"' popularnych ""blokowisk"". \nWiąże się zwykle z występowaniem \nzjawiska tzw. ""<em>blokersów</em>"" czyli \n  młodzieży'"
427	blokers	Śląska Biblioteka Cyfrowa	909960	2000-01-01 00:00:00+00:00	2000-12-31 23:59:59+00:00	1	', 22.30 <em>Blokersi</em> - serial animowany., 23.00 Pcin Dolnyserial kOmedioy,y, 23.30 Blondynki wolą PIstolety'
428	blokers	Bałtycka Biblioteka Cyfrowa	419600	2001-01-01 00:00:00+00:00	2001-12-31 23:59:59+00:00	1	' Księga Rekordów Guinnessa program rozryw. \n20.30 <em>Blokersi</em> (5) - serial anim. \n2 I .00 Dobro kontra zło'
429	blokers	Bałtycka Biblioteka Cyfrowa	428044	1999-01-01 00:00:00+00:00	1999-12-31 23:59:59+00:00	1	' Cheers - serial \n21.00 Spaść do góry - serial \n21.30 Sex w wielkim mieście - serial \n22.00 <em>Blokersi</em>'
430	blokers	Bałtycka Biblioteka Cyfrowa	1564981	2000-09-15 00:00:00+00:00	2000-09-15 23:59:59+00:00	1	"' \n20.30 Dilbert - serial anim. \n    , ,: . .  . ».; "". \n  21.00 Willa \n22.00 Strefa komedii: <em>Blokersi</em>'"
431	blokers	Śląska Biblioteka Cyfrowa	899624	2002-01-01 00:00:00+00:00	2002-12-31 23:59:59+00:00	2	'. \n22:40 <em>Blokersi</em> - film \ndokumentalny Polska 2001 \n00:00 Malta 2002 program artystyczny 60mrn. \n00:00'
432	blokers	Bałtycka Biblioteka Cyfrowa	418983	2000-01-01 00:00:00+00:00	2000-12-31 23:59:59+00:00	1	""" - serial \n22.00 <em>Blokersi</em> - serial anim. \n22.30 Komedie Hale'a i Pace' a \n23.00 Potyczki Jerry'ego Springera"""
433	blokers	Bałtycka Biblioteka Cyfrowa	427551	1999-01-01 00:00:00+00:00	1999-12-31 23:59:59+00:00	1	' — <em>blokersi</em>? Książka ta jest \npróbą odpowiedzi na te pytania. Po \nraz pierwszy na początku roku zadał \nje na'
434	blokers	Bałtycka Biblioteka Cyfrowa	419698	2001-01-01 00:00:00+00:00	2001-12-31 23:59:59+00:00	1	"' biegunie są \nsfrustrowani ""<em>blokersi</em> "", z rozbitych rodzin, często wychowywani przez ulicę, Z obcych języków'"
436	blokers	Bałtycka Biblioteka Cyfrowa	427652	1999-01-01 00:00:00+00:00	1999-12-31 23:59:59+00:00	1	' \n21.30 Seks w wielkim mieście - serial \n22.00 <em>Blokersi</em> - serial anim. \n22.30 Końskie zaloty - prog'
437	blokers	Małopolska Biblioteka Cyfrowa	761305	2002-02-08 00:00:00+00:00	2002-02-08 23:59:59+00:00	1	'- <em>Blokersi</em> - ZSM-E Olkusz. \nW tumieju wystartowalo 29 druZyn. \n5. TurnieJ szachowy - open: I m \n- Czamota'
438	blokers	Bałtycka Biblioteka Cyfrowa	419010	2000-01-01 00:00:00+00:00	2000-12-31 23:59:59+00:00	1	' - serial \n21.00 Spaść do góry - serial \n21.30 Kobietki i kokietki - serial \n22.00 <em>Blokersi</em> - serial anim'
441	blokers	Archiwum czasopism dla niewidomych	3930235	2002-01-01 00:00:00+00:00	2002-01-31 23:59:59+00:00	3	X
442	blokers	Archiwum czasopism dla niewidomych	3930257	2003-12-01 00:00:00+00:00	2003-12-31 23:59:59+00:00	2	X
443	blokers	Archiwum czasopism dla niewidomych	3930256	2003-11-01 00:00:00+00:00	2003-11-30 23:59:59+00:00	1	', dresiarzy, <em>blokersów</em>, urzędujących na przystankach PKS-u młodzieży z byłych PGR-ów? Czy taki obraz pokolenia'
