	word	lname	iid	duration_start	duration_end	occurences	highlighting
62	coaching	Bialska Biblioteka Cyfrowa	12590	2001-04-01 00:00:00+00:00	2001-04-30 23:59:59+00:00	5	'_l_ \n  I. Z BIEŻĄCYCH PRAC WYDZIAŁU EDUKACJI \n  1- <em>COACHING</em> W AWANSIE ZAWODOWYM NAUCZYCIELA'
94	coaching	Jagiellońska Biblioteka Cyfrowa	990332	1928-05-14 00:00:00+00:00	1928-05-14 23:59:59+00:00	1	'  zaniedbują  tradyeyj  i  rokrocznie  otwierają  uroczyście  t.  zw.  „<em>coaching</em>  season“,  który  to  sport'
126	coaching	Śląska Biblioteka Cyfrowa	908532	2002-01-01 00:00:00+00:00	2002-12-31 23:59:59+00:00	1	'232\nBibliografia\nZgud J.: Sukces (nie) gwarantowany (2). 0 zaletach i wadach <em>coachingu</em> raz jeszcze'
154	coaching	Bialska Biblioteka Cyfrowa	12590	2001-04-01 00:00:00+00:00	2001-04-30 23:59:59+00:00	3	' okres stażu. Dlatego kluczowym \npojęciem w <em>coachingu</em> jest standard. \n Standard jest to przyjęty poziom'
163	coaching	Bialska Biblioteka Cyfrowa	12590	2001-04-01 00:00:00+00:00	2001-04-30 23:59:59+00:00	1	'sms TREŚCI \n  Strona \nl. Z bieżących prac Wydzialu Edukacji \n  l. <em>Coaching</em> w awansie \n zawodowym'
228	coaching	Jagiellońska Biblioteka Cyfrowa	3844545	1928-04-01 00:00:00+00:00	1928-04-30 23:59:59+00:00	6	"'54 \nPrzegląd strzelecki i łuczniczy. \nZeszyt 4 \nzw. „<em>coaching</em>"", co w języku angielskim znaczy'"
323	coaching	Śląska Biblioteka Cyfrowa	908532	2002-01-01 00:00:00+00:00	2002-12-31 23:59:59+00:00	3	', <em>coachingu</em>, konsultacji\npo rotacje stanowisk) na podstawie rozroznienia technik indywidualnych\ni grupowych'
330	coaching	Pomorska Biblioteka Cyfrowa	55463	2003-01-01 00:00:00+00:00	2003-12-31 23:59:59+00:00	1	' ATHLETIC DISCIPLINES \nSummary \nDecreasing reality of the job of <em>coaching</em> require much and much accurate'
331	coaching	Biblioteka Cyfrowa Ośrodka Rozwoju Edukacji (BC ORE)	216777	2000-01-01 00:00:00+00:00	2000-12-31 23:59:59+00:00	2	' jej wykonaniem) w rolę coachera. (Ang. <em>coaching</em> - prowadzenie, towarzyszenie). Sens <em>coachingu</em> polega'
345	coaching	Śląska Biblioteka Cyfrowa	908532	2002-01-01 00:00:00+00:00	2002-12-31 23:59:59+00:00	1	'.\nUmiejetnosc stymulowania rozwoju podwladnych <em>coaching</em>\nx\n5.\nUrniejetnosc oceny podwladnych\nx\n6.\nUmiejetnosc'
365	coaching	Śląska Biblioteka Cyfrowa	908532	2002-01-01 00:00:00+00:00	2002-12-31 23:59:59+00:00	2	"' mlodszym kolegom \'?"", W Polsce przeprowadzanie specjalistycznych szkolen z zakresu <em>coachingu</em> czy mentoringu'"
368	coaching	Wielkopolska Biblioteka Cyfrowa	3277926	1933-06-18 00:00:00+00:00	1933-06-18 23:59:59+00:00	1	'Nr. 25 \n  LECHITA \n  Angłja pielęgnuje dawne tradycje \nLondyński <em>Coaching</em> Club urządza rok rocznie'
398	coaching	Bibliologiczna Biblioteka Cyfrowa	5015	1990-01-01 00:00:00+00:00	1990-12-31 23:59:59+00:00	1	' Evaluation; <em>Coaching</em> for Tests; Selection and Evaluation of Evaluators. \nERIC Clearinghouse on Science'
408	coaching	Śląska Biblioteka Cyfrowa	908532	2002-01-01 00:00:00+00:00	2002-12-31 23:59:59+00:00	1	' stymulowania rozwoju\npodwladnych (<em>coaching</em>)\nA\nUmiejetnosc oceny podwladnych\nAlB\n4 dni\nUmiejetnosc stawiania'
409	coaching	Podlaska Biblioteka Cyfrowa	282827	1929-01-01 00:00:00+00:00	1929-12-31 23:59:59+00:00	1	""" hmmnnimująpfçh 55x11,' ..i \nñçakżch i roąyjçkioh. Na Izhkgl. (immo Ao gadala-aj! \nna' _pł-gynau poetów <em>coachingu</em>"""
491	coaching	Muzem Lotnictwa Polskiego	1522744	1939-01-01 00:00:00+00:00	1939-12-31 23:59:59+00:00	1	""" special <em>coaching</em> in ahip recogni- ' \ntion ~ an absolutely new field ror them ~ in order to complete \nthe"""
528	coaching	Bialska Biblioteka Cyfrowa	12590	2001-04-01 00:00:00+00:00	2001-04-30 23:59:59+00:00	1	' opadną emocje. \nSuperwizjajest narzędziem wykorzystywanym w <em>coachingu</em> na etapie \nanalizy. Polega na'
530	coaching	Pedagogiczna Biblioteka Cyfrowa	9708	1992-01-01 00:00:00+00:00	1992-12-31 23:59:59+00:00	1	"'., Interaction <em>coaching</em> for high-risk if""!fants and their \nparents. Prevention in Human Services 1982 nr l. 5.5'"
596	coaching	ZHP Okręg Kanada	1692287	1996-09-01 00:00:00+00:00	1996-09-30 23:59:19+00:00	1	"' 40 harcerek wedrowniczek i \ninstruktorek z naszego szczepu wzięto udział w prywaniu \n""<em>coaching</em>"" i'"
642	coaching	Bibliologiczna Biblioteka Cyfrowa	1583056	1999-01-01 00:00:00+00:00	1999-12-31 23:59:59+00:00	1	' innovator; the Organizer a <em>Coaching</em> leader, the developer an analytical changer, and the intermediator a'
681	coaching	Wielkopolska Biblioteka Cyfrowa	1236054	1937-01-01 00:00:00+00:00	1937-12-31 23:59:59+00:00	1	' częstym, skoro na kongresie o nich wiele mówiono, a w Anglii istnieje nawet osobny termin (the <em>coaching</em>'
827	coaching	Podkarpacka Biblioteka Cyfrowa	1285615	2001-01-01 00:00:00+00:00	2001-12-31 23:59:59+00:00	1	' participate in peer <em>coaching</em>. \nFrom 1972-1982, when Rada Edukacyjna was in effect and operated, the \n  323 \n   \n \n'
828	coaching	Śląska Biblioteka Cyfrowa	908532	2002-01-01 00:00:00+00:00	2002-12-31 23:59:59+00:00	1	' takze przeszkolony w zakresie\n<em>coachingu</em>.\nUkierunkowywanie dalszych losow pracownika juz po okresie jego'
841	coaching	Dziennik Ustaw Rzeczypospolitej Polskiej	1728975	1925-01-01 00:00:00+00:00	1925-12-31 23:59:59+00:00	1	', bąggage and goods, \nand also vessels, <em>coaching</em> and \n~oods stock, and other męans of \n, \n> \n\n \n'
846	coaching	Wielkopolska Biblioteka Cyfrowa	771615	1934-07-03 00:00:00+00:00	1934-07-03 23:59:59+00:00	1	' \nm Il \nllhçgtĄmkh hk. Il \n!ununtu wspólnik v. ?udaniu \n  Hindenburg annaa Ingun-c <em>coachingu</em>: \n  Bulin'
878	coaching	Wielkopolska Biblioteka Cyfrowa	1216329	1927-07-01 00:00:00+00:00	1927-07-31 23:59:59+00:00	1	' t h. Psychology of <em>coaching</em>. NI/w York (C. Scribner.s \nSons) 1926, str. 208. \nJ. J o t e y k o'
885	coaching	Bałtycka Biblioteka Cyfrowa	420287	2003-06-30 00:00:00+00:00	2003-06-30 23:59:59+00:00	2	' zachowaniach. \nW praktyce <em>coaching</em> przyjmuje \npostać regularnych spotkań \ni rozmów menedżera z podwładnym'
899	coaching	Śląska Biblioteka Cyfrowa	861487	1932-01-01 00:00:00+00:00	1932-12-31 23:59:59+00:00	1	"'. <em>Coaching</em>"". Ojcem prywatnego przewozu poczty i pasażerów (dyliżanse) w N. AngIji - jest Levi Pease, który'"
916	coaching	Jagiellońska Biblioteka Cyfrowa	3844545	1928-04-01 00:00:00+00:00	1928-04-30 23:59:59+00:00	1	'. \nRedaktor: K. Kierzkowski. \n„<em>Coaching</em>“ i luneta \nSą to dwa środki pomocnicze, \nstosowane przy prawie'
925	coaching	Podlaska Biblioteka Cyfrowa	272203	1855-01-01 00:00:00+00:00	1855-12-31 23:59:59+00:00	1	"""', Jesus fonia, deus immorhlis, miseœre nobis. \nIls se <em>coaching</em> @belgium contre terre et hnisaient ainsi"""
931	coaching	Małopolska Biblioteka Cyfrowa	754699	1947-01-01 00:00:00+00:00	1947-12-31 23:59:59+00:00	1	"' Clinker\'a ""<em>Coaching</em> of the \nwill a \\ Bumpus. l..ondon. 1897; \nprzekład polski Konstantego Fr3nboli pL'"
942	coaching	Jagiellońska Biblioteka Cyfrowa	3844545	1928-04-01 00:00:00+00:00	1928-04-30 23:59:59+00:00	1	' odczuł, że \nDo art. „<em>Coaching</em> i lunet.a‘‘. \nkurek „już leci“ . \nOtóż zanim ta \nświadomość dojdzie do jego'
946	coaching	Jagiellońska Biblioteka Cyfrowa	3844558	1928-01-01 00:00:00+00:00	1928-01-31 23:59:59+00:00	1	""" wyszkoleniu strzeleckiem \n40 \n„<em>Coaching</em>' i luneta — por. J. Podoskiego \n. \n. \n. \n33 \nLuneta na broni"""
952	coaching	Cyfrowy Dolny Śląsk	370184	1998-01-01 00:00:00+00:00	1998-12-31 23:59:59+00:00	1	' Przemysłowo-Handlową <em>Coaching</em> Program. W jego ramach do zainteresowanych przedsiębiorstw z Dolnego Śląska'
960	coaching	Mazowiecka Biblioteka Cyfrowa	3788241	1945-01-01 00:00:00+00:00	1945-12-31 23:59:59+00:00	1	' \nChurch \nbenefit, \ndirecting the players, \nseeing \nto the props, \n<em>coaching</em> \nthe \nmusreianssupervising \nthe'
968	coaching	Wielkopolska Biblioteka Cyfrowa	768917	1931-03-16 00:00:00+00:00	1931-03-16 23:59:59+00:00	1	' flu-qiorum., nmam nou kln Olany oo \nKanon ?<em>coachingu</em> pod uw t8361 \n  n. Ż na m. n \n  A: powninnam unno'
989	coaching	Bałtycka Biblioteka Cyfrowa	429891	1995-01-01 00:00:00+00:00	1995-12-31 23:59:59+00:00	3	"' Koszalinie gościli przedstawiciele ""<em>COACHING</em> PRO- \nGRAM""   przedsięw\'zięcia, w ramach którego specjaliści z'"
990	coaching	Dziennik Ustaw Rzeczypospolitej Polskiej	1728975	1925-01-01 00:00:00+00:00	1925-12-31 23:59:59+00:00	1	' vessels, <em>coaching</em> Or goods stock or \nother means ot transport. \nIn order to ensure the application of the'
1004	coaching	Świętokrzyska Biblioteka Cyfrowa	306035	1996-04-16 00:00:00+00:00	1996-04-16 23:59:59+00:00	2	"' Exbudu \nw Kielcach odbylo się ogólnopolskie seminarium . <em>COaching</em> Program dla Izb"" zorganizowane przez'"
1005	coaching	Bałtycka Biblioteka Cyfrowa	391770	2001-01-01 00:00:00+00:00	2001-12-31 23:59:59+00:00	2	"' w \nramach ""<em>coachingu</em>"", czyli po \npolsku zwykłego szkolenia. \nSiedzimy w piętnastu w kółku'"
1007	coaching	Małopolska Biblioteka Cyfrowa	620098	1998-01-01 00:00:00+00:00	1998-12-31 23:59:59+00:00	1	' \nHandlowych w Bielsku-Białej, a firmą \nVolkswagen <em>Coaching</em> AG z Wolfsburgal \nRokrocznie, od siedmiu już lat'
1009	coaching	Wielkopolska Biblioteka Cyfrowa	3254671	1933-11-20 00:00:00+00:00	1933-11-20 23:59:59+00:00	1	"' Pairbairn w artykule p. t. ""<em>Coaching</em>"" (zaprawa) \npisze: ""praca wiosła w wodzie staje się naczelną zasadą \ni'"
1019	coaching	Małopolska Biblioteka Cyfrowa	610828	1999-08-19 00:00:00+00:00	1999-08-19 23:59:59+00:00	1	' Pracowniczej Koncernu Volkswagen <em>Coaching</em> AG, współorganizatora imprezy. \nNa wszystkich uczestników dnia'
1022	coaching	Dziennik Ustaw Rzeczypospolitej Polskiej	1729710	1924-01-01 00:00:00+00:00	1924-12-31 23:59:59+00:00	1	"' of tbis Rrticle"" persons, \nbaggage and . goods and ,81so vessels, <em>coaching</em> and \ngoods stotk, and'"
1032	coaching	Wirtualna Czytelnia Bibuły	1698791	1987-01-01 00:00:00+00:00	1987-12-31 23:59:59+00:00	1	"""-en to gain <em>coaching</em> loro \n  ll \n  . lania 'e \nc! \n  unulc naaiqputwu ': ;iurluń'. Przed rc- \n ”kiem"""
1037	coaching	Bałtycka Biblioteka Cyfrowa	429903	1995-01-01 00:00:00+00:00	1995-12-31 23:59:59+00:00	2	"'... \n  ANDRZEJ RADZ/K \n  W Koszalinie gościli niedawno przedstawiciele \n""<em>COACHING</em> PRO- \nGRAM"" - przedsięwzięcia'"
1038	coaching	Bałtycka Biblioteka Cyfrowa	393182	1996-01-01 00:00:00+00:00	1996-12-31 23:59:59+00:00	2	' nas zwrócić po poradę. \nZanim rozpoczęło się seminarium w Kołobrzegu przedstawiciele <em>COACHING</em> PROGRAM'
1039	coaching	A Polish-Canadian press	3478098	1972-05-16 00:00:00+00:00	1972-05-16 23:59:59+00:00	1	"'-. <em>Coaching</em>- Pr gramme..Appl1catlons to . _ f...”.f\'m\' 11 w m..,”"""".„_\'._""_.""\'. ""\'m'"
1040	coaching	Małopolska Biblioteka Cyfrowa	620146	1939-07-27 00:00:00+00:00	1939-07-27 23:59:59+00:00	1	"'. \nIstnieją nawet w Anglji „<em>coaching</em> club y , których członkowie jeżdżą własnemi staromo nemi \n„ koczami"" na'"
1042	coaching	Inowrocławska Biblioteka Cyfrowa	229176	1895-01-01 00:00:00+00:00	1895-12-31 23:59:59+00:00	1	"'., ""\' ““”""\'* \n  ll. <em>coachingu</em> w POE/lmn, nne... smrrme_;„;.„„z.i,„.„„„„„...„z, ..\'..m*ir..rz\'ämaź \n  zin.. (Honl'"
1045	coaching	Dziennik Ustaw Rzeczypospolitej Polskiej	1729710	1924-01-01 00:00:00+00:00	1924-12-31 23:59:59+00:00	1	""" goods or of \nvessels , <em>coaching</em> ar' goods stock ar other means of \ntransport. The Contracting Parties"""
1055	coaching	Österreichische Nationalbibliothek	1693878	1830-05-28 00:00:00+00:00	1830-05-28 23:59:19+00:00	1	"'\' \naaacaania Depntacya maącey qoonić „N- ""gui \nlc chic Izby pàgacac <em>coaching</em> droga! ?Pw \nJogo prcybycia. o'"
1075	coaching	Wielkopolska Biblioteka Cyfrowa	816743	1934-10-03 00:00:00+00:00	1934-10-03 23:59:59+00:00	1	'... \nwielkoduszna” zapin ip. łaköba Iar. ?<em>coachingu</em> \n  mi. w nczeaólnoici z trolli:: i rakiem l \n  zarada dobri'
1080	coaching	Wirtualna Czytelnia Bibuły	1699685	1981-01-01 00:00:00+00:00	1981-12-31 23:59:59+00:00	1	' ~ sq ctmktum-i : cmd. dni-- \n,mu. przy-<em>coachingu</em> i nowiny być \n«nu-occi- mobudomc. Dotyczy to'
1082	coaching	Biblioteka Cyfrowa Ośrodka KARTA	204059	1985-01-01 00:00:00+00:00	1985-12-31 23:59:59+00:00	1	' kwestiach a poglądaai Jaruzelakiago jaet <em>coaching</em> \nustanawiająca. Grecja jednak lazy od Polaki doić'
1083	coaching	Bałtycka Biblioteka Cyfrowa	436326	1996-11-19 00:00:00+00:00	1996-11-19 23:59:59+00:00	1	' Uniwersytet Gdański, natomiast \nKrzysztof Pacyna legitymuje się dyplomem ukończenia <em>Coaching</em> Programm, czyli'
1087	coaching	Wirtualna Czytelnia Bibuły	1699594	1981-01-01 00:00:00+00:00	1981-12-31 23:59:59+00:00	1	' & \n  : „<em>coachingu</em>-unam: nuno—sa) hie- › \n  Bir @ ora „noski-go. ›lośnn jedn-k eqmcrąoy ludzie oemyli: oooou WMN'
1100	coaching	Wielkopolska Biblioteka Cyfrowa	770849	1930-08-15 00:00:00+00:00	1930-08-15 23:59:59+00:00	1	"') \n  Ninlejuen . \nkowanie ea eo \ntowanie innie. o \nNi. do egzaminu \n<em>coaching</em>. kl \nbrym dn. 22 \n  3,"" e \n  w rondo'"
1101	coaching	Biblioteka Cyfrowa Uniwersytetu Łódzkiego	1564828	1918-01-01 00:00:00+00:00	1923-12-31 23:59:59+00:00	1	'.—, ilboóenabonnement \nbuta: motu: Bleib LZS. Ginselprels I. galant: Enaminy. zo Greim, <em>Coaching</em>. \n50 Grawena'
1107	coaching	Bałtycka Biblioteka Cyfrowa	432848	1999-12-11 00:00:00+00:00	1999-12-12 23:59:59+00:00	1	'-szkoleniowego \n<em>Coaching</em> Program, finansowanego przez rząd niemiecki, a organ i zowanego przez izby. gospodarcze'
1110	coaching	e-Kolekcja Czasopism Polskich	1436853	1929-01-01 00:00:00+00:00	1929-12-31 23:59:59+00:00	1	'. poza nbarwlcnhrn skóry. zadnel czameI plamy na llście królów ringu. nie był rowniez <em>coaching</em> lei nadwo'
1111	coaching	Wojewódzka i Miejska Biblioteka Publiczna im. dr. Witolda Bełzy w Bydgoszczy	1518896	1933-04-23 00:00:00+00:00	1933-04-23 23:59:19+00:00	1	' Powalowakt \nwnosi na odroczenie sprawy. gdyż wskutek \n  meety pachna <em>coaching</em> \n  mewmśeeoeśmeeaeśee ocenom'
1113	coaching	Bałtycka Biblioteka Cyfrowa	424319	1994-01-01 00:00:00+00:00	1994-12-31 23:59:59+00:00	1	"' ""<em>Coaching</em> Program"". Celem programu jest podwyższenie poziomu rentowności i konkurencyjności polskich finn na'"
1114	coaching	Cyfrowy Dolny Śląsk	375500	1996-04-30 00:00:00+00:00	1996-04-30 23:59:59+00:00	1	' przed rokiem przez Jeleniogórską Izbę Przemysłowo-Handlową <em>Coaching</em> Program. W ramach programu do'
1115	coaching	Wielkopolska Biblioteka Cyfrowa	771511	1934-07-15 00:00:00+00:00	1934-07-15 23:59:59+00:00	1	' MYĆ !ich macank <em>coachingu</em> gatunku œń- „cow podyktowanych mni; o vy- , pugnax; n~ \njnklnu nowynm'
1116	coaching	Wielkopolska Biblioteka Cyfrowa	771511	1934-07-15 00:00:00+00:00	1934-07-15 23:59:59+00:00	1	' MYĆ !ich macank <em>coachingu</em> gatunku œń- „cow podyktowanych mni; o vy- , pugnax; n~ \njnklnu nowynm'
1132	coaching	Bałtycka Biblioteka Cyfrowa	390549	1995-01-01 00:00:00+00:00	1995-12-31 23:59:59+00:00	1	"' powodu likwidacji stanowiska pracy. \n  liC DORADCY Z ""<em>COACHING</em> \nPROGRAM"" współpracują już z \nkilkoma'"
1138	coaching	Bałtycka Biblioteka Cyfrowa	429763	1995-01-01 00:00:00+00:00	1995-12-31 23:59:59+00:00	1	"' nam udział w programie ""<em>Coaching</em>"" opracowanym z myślą o potrzebach biznesmenów przystosowujących się'"
1142	coaching	Wielkopolska Biblioteka Cyfrowa	770779	1930-11-13 00:00:00+00:00	1930-11-13 23:59:59+00:00	1	"' \n  <em>coaching</em>. iana \nwiednio ubierano aio. uzdatnia \n  la i \n nio c la nz trzytnaaiopow \n ""linkin czynnikiem'"
1143	coaching	Śląska Biblioteka Cyfrowa	907823	1996-01-01 00:00:00+00:00	1996-12-31 23:59:59+00:00	1	' przedsiębiorców \nw Polsce. \nMinister D. HUbner pozytywnie oceniła realizację tzw. \n<em>Coaching</em>-Programm, tj'
1144	coaching	A Polish-Canadian press	3476229	1947-08-17 00:00:00+00:00	1947-08-17 23:59:59+00:00	1	"' under the. \nCapable <em>coaching</em>” of Alex Po-\' \ntcpinko, have come. up"" With \n-a\' hus\'tlin\'g, .sctappy'"
1157	coaching	Mazowiecka Biblioteka Cyfrowa	3383032	1938-01-01 00:00:00+00:00	1938-12-31 23:59:59+00:00	1	' been eve- Space hmltahons prevent furflcel s as a fI aud to al all1 mlJhons es o out any <em>coaching</em> fI om'
