	word	lname	iid	duration_start	duration_end	occurences	highlighting
3	defragmentować	Biblioteka Cyfrowa Instytutu Łączności	939	2002-01-01 00:00:00+00:00	2002-12-31 23:59:59+00:00	1	'Protokół IP wersja 6\n\nPiotr Jankowski\n\nfragmentu danych w stosunku do początku <em>defragmentowanego</em>'
5	defragmentować	Urząd Patentowy RP	2546172	2000-12-29 00:00:00+00:00	2000-12-29 23:59:59+00:00	2	' defiragmentacji całego \ndysku stałego 31, w etapie 1094, przy użyciu narzędzi <em>defragmentujących</em>. Zatem, procedura'
13	defragmentować	Urząd Patentowy RP	2546443	2001-01-31 00:00:00+00:00	2001-01-31 23:59:59+00:00	1	' narzędzi <em>defragmentujących</em>. Zatem, \nprocedura powraca, w trakcie 1088, aby rozpocząć od nowa część'
15	defragmentować	Cyfrowy Dolny Śląsk	374677	1999-01-01 00:00:00+00:00	1999-12-31 23:59:59+00:00	1	', tylko go <em>defragmentuje</em> \nFoto-pstryk \nMiędzy nami dziewczynami... \n3-6 grudnia 1999 \nPanorama Oleśnicka'
