	word	lname	iid	duration_start	duration_end	occurences	highlighting
1	diskdżokej	Śląska Biblioteka Cyfrowa	909943	2000-01-01 00:00:00+00:00	2000-12-31 23:59:59+00:00	1	' w mlodoscl prezenter radjoy,  a na- \n  , \ngrac \n  lO \n   - \n  , \n  - \n  I \n  - . \n  wet <em>diskdżokej</em>'
2	diskdżokej	Cyfrowy Dolny Śląsk	371954	1995-09-12 00:00:00+00:00	1995-09-12 23:59:59+00:00	1	' zagląda i wychodzi, panienki piszczą, tubalny śmiech stałych bywalców. <em>Diskdżokej</em> zawodzi zza konsolety'
4	diskdżokej	Śląska Biblioteka Cyfrowa	902829	1998-01-01 00:00:00+00:00	1998-12-31 23:59:59+00:00	1	' i mupet, lancz i lunch, \nslamsy i slumsy, pank i punk, \nłącznie pisać <em>diskdżokej</em> i disc \njockey'
