	word	lname	iid	duration_start	duration_end	occurences	highlighting
1	drzwiczkowy	Urząd Patentowy RP	2389307	1948-03-31 00:00:00+00:00	1948-03-31 23:59:59+00:00	1	'. Bęben według zastrz. 1 i 2, znamienny \ntym, że jego otwór <em>drzwiczkowy</em> zaopatrzony jest w ramową'
2	drzwiczkowy	Urząd Patentowy RP	2466902	1978-11-30 00:00:00+00:00	1978-11-30 23:59:59+00:00	2	' <em>drzwiczkowy</em> 9 i jeden lub więcej \n!otworów palnikowych 10 na olej lub gaz oraz \notwory wyczystkowe 11 i'
3	drzwiczkowy	Urząd Patentowy RP	2390788	1952-02-28 00:00:00+00:00	1952-02-28 23:59:59+00:00	1	' oparcie dla nałożonej na nim \ntylnej krawędzi osłony 6. Otwór <em>drzwiczkowy</em> \n12 w ścianie 3 posiada'
4	drzwiczkowy	Bałtycka Biblioteka Cyfrowa	394534	1947-01-01 00:00:00+00:00	1947-12-31 23:59:59+00:00	1	' i w odciek spod niego. \nDrzwiczki paleniska i otwór <em>drzwiczkowy</em> są prosfokąke \nz zaokrąglonymi'
6	drzwiczkowy	Bałtycka Biblioteka Cyfrowa	394534	1947-01-01 00:00:00+00:00	1947-12-31 23:59:59+00:00	1	' łopatą przez otwór <em>drzwiczkowy</em>, czy zwalenie do \npopielnika przez zdjęte częściowo rlJsztowiny, a przy'
7	drzwiczkowy	Urząd Patentowy RP	2472613	1980-01-31 00:00:00+00:00	1980-01-31 23:59:59+00:00	1	' żebrową umieszczony jest otwór \n<em>drzwiczkowy</em> i jeden lub więcej otworów palnikowych na olej lub gaz oraz'
10	drzwiczkowy	Jagiellońska Biblioteka Cyfrowa	3911350	1933-01-01 00:00:00+00:00	1933-01-31 23:59:59+00:00	1	'  komory,  doprowadzające  wtórne  powietrze,  chłodzące  również  pierścień  <em>drzwiczkowy</em>. Popielnik  ma  2'
11	drzwiczkowy	Urząd Patentowy RP	2366041	1932-04-30 00:00:00+00:00	1932-04-30 23:59:59+00:00	1	' skrzynkę tę można wyciągać \nz pieca przez boczny otwór <em>drzwiczkowy</em> (o). \n7. Piec według zastrz. 2—6'
12	drzwiczkowy	Urząd Patentowy RP	2389307	1948-03-31 00:00:00+00:00	1948-03-31 23:59:59+00:00	1	' brzegi przylegają do \nsiebie, tworząc naroża (fig. 4). Bok bębna, \nposiadający otwór <em>drzwiczkowy</em>, jest'
13	drzwiczkowy	Jagiellońska Biblioteka Cyfrowa	3911322	1936-04-01 00:00:00+00:00	1936-04-30 23:59:59+00:00	1	',  że  po zamknięciu  drzwiczek  paleniskowych  serwomotor  <em>drzwiczkowy</em>  opada  nie¬ zwłocznie'
14	drzwiczkowy	Urząd Patentowy RP	2370459	1933-04-29 00:00:00+00:00	1933-04-29 23:59:59+00:00	1	' <em>drzwiczkowy</em> 124. Pompa posiada rurę odprowadzającą 156 oraz dodatkowy \nprzewód 157, prowadzący z rury'
16	drzwiczkowy	Jagiellońska Biblioteka Cyfrowa	3911321	1936-03-01 00:00:00+00:00	1936-03-31 23:59:59+00:00	1	' połączenie  runki  nad  P  z  rurką  D,  a  więc  odcina  serwomotor  <em>drzwiczkowy</em>  Z od  zbiornika'
18	drzwiczkowy	Jagiellońska Biblioteka Cyfrowa	3894104	1939-05-01 00:00:00+00:00	1939-05-31 23:59:59+00:00	1	'. specjaliści od wozów typu \npopularnego, gdzie ten sam kluczyk zapłonowy i <em>drzwiczkowy</em> służy do całej gromady'
19	drzwiczkowy	Jagiellońska Biblioteka Cyfrowa	3894108	1939-01-01 00:00:00+00:00	1939-12-31 23:59:59+00:00	1	'. specjaliści od wozów typu \npopularnego, gdzie ten sam kluczyk zapłonowy i <em>drzwiczkowy</em> służy do całej gromady'
20	drzwiczkowy	Dolnośląska Biblioteka Cyfrowa	554691	1938-10-25 00:00:00+00:00	1938-10-25 23:59:59+00:00	1	' patrz odnośne przepisy); rury (patrz VI); \nwieniec paleniskowy i <em>drzwiczkowy</em>; płaskowniki i'
22	drzwiczkowy	Śląska Biblioteka Cyfrowa	861331	1932-01-01 00:00:00+00:00	1932-12-31 23:59:59+00:00	1	' \nformierską dna kopulaka. Po ukończeniu tych robót \notwór <em>drzwiczkowy</em> zakłada się kawałkami koksu \n  kantem'
23	drzwiczkowy	e-biblioteka Uniwersytetu Warszawskiego	550295	1935-01-01 00:00:00+00:00	1935-12-31 23:59:59+00:00	1	' <em>drzwiczkowy</em>, bądź też bezpośrednio \nprzez wycięty w kaflach otwór do kanału \npiecowego. \nTego rodzaju'
24	drzwiczkowy	e-biblioteka Uniwersytetu Warszawskiego	4193624	1901-01-01 00:00:00+00:00	1901-12-31 23:59:59+00:00	1	'. Leszno 2 mlesz. 13. \n13156 \nOkazja, tanio. Kredens dębowy pięu \ndo <em>drzwiczkowy</em> do sprzedania z \npowodu'
