	word	lname	iid	duration_start	duration_end	occurences	highlighting
0	enerdowo	Repozytorium Cyfrowe Instytutów Naukowych	829452	2003-01-01 00:00:00+00:00	2003-12-31 23:59:59+00:00	2	"""/2002, 35 [tekst satyryczny]. \n  <em>enerdowo</em> I <em>Enerdowo</em> rzecz. 'lekceważąco: była NRD': Wkrótce potem"""
3	enerdowo	Wirtualna Czytelnia Bibuły	1699529	1989-01-01 00:00:00+00:00	1989-12-31 23:59:59+00:00	1	', CzecnosłuwaCJc. <em>Enerdowo</em>) w Bloku. \n I choć przecież, to nie perspektywa przeJĘCia władzy i demontażu komunizmu'
4	enerdowo	Cyfrowy Dolny Śląsk	373123	1993-12-21 00:00:00+00:00	1993-12-21 23:59:59+00:00	1	"' z robotników wystarczy zamienić słowa ""polska"" zwrotem \n""byłe <em>enerdowo</em>"". \nRzeczywiście, ""Prefabet'"
