	word	lname	iid	duration_start	duration_end	occurences	highlighting
1	eurobiurokrata	Mazowieckie Czasopisma Regionalne	1706276	1998-01-01 00:00:00+00:00	1998-12-31 23:59:59+00:00	1	' celów grup (<em>eurobiurokratów</em> i paradoksalnie - nacjonalistów) oraz całych systemów gospodarczych. Ciężar'
2	eurobiurokrata	Sejm	3642329	2002-03-14 00:00:00+00:00	2002-03-14 23:59:59+00:00	1	' wszechmocnego ingerowania w życie narodu polskiego <em>eurobiurokratów</em> Unii Europejskiej, przez nikogo'
4	eurobiurokrata	Armarium. dominikańska biblioteka cyfrowa	303222	2001-01-01 00:00:00+00:00	2001-12-31 23:59:59+00:00	1	' <em>eurobiurokraci</em> kombinują na wszystkie sposoby, ile ma być języków oficjalnych w Unii Europejskiej, byle tylko nie'
6	eurobiurokrata	Małopolska Biblioteka Cyfrowa	646065	2002-03-31 00:00:00+00:00	2002-03-31 23:59:59+00:00	1	' (curoarmia. eurobarometr, curobiurokracja, <em>eurobiurokrata</em>, eurodebil. eurofob, eurodcjJutowdny, eurogwarancje'
8	eurobiurokrata	Sejm	3518080	1997-05-09 00:00:00+00:00	1997-05-09 23:59:59+00:00	1	' części naszego społeczeństwa bezwolnym klientem stojącym u klamki zachodnich <em>eurobiurokratów</em>.\nDroga do'
9	eurobiurokrata	Cyfrowy Dolny Śląsk	367100	2003-01-01 00:00:00+00:00	2003-12-31 23:59:59+00:00	1	' \noczywiście zarządzać będą <em>eurobiurokraci</em>. Skoro \nna Anschluss straci Polska, skoro tracimy my \nobywatele, to'
11	eurobiurokrata	Cyfrowy Dolny Śląsk	368456	2002-01-01 00:00:00+00:00	2002-12-31 23:59:59+00:00	1	"' zostanie wkrótce ogłoszony \n„kult św. Spokoju"" (też spokojnie, <em>eurobiurokrata</em> za \nCiebie to zrobi). Dobrze'"
12	eurobiurokrata	Bałtycka Biblioteka Cyfrowa	391387	2001-01-01 00:00:00+00:00	2001-12-31 23:59:59+00:00	1	' - tak twierdzą \n<em>eurobiurokraci</em> - kraj ten obrasta dziś sadełkiem \ndostatku. Ponoć rudzi fałszywi są, ale'
13	eurobiurokrata	Bałtycka Biblioteka Cyfrowa	413020	2002-10-11 00:00:00+00:00	2002-10-13 23:59:59+00:00	1	"' \nim do  wietnie prosperujących <em>eurobiurokratów</em>. . \n""Polski tygrys"" traci atuty \nMaciej Płażyński'"
