	word	lname	iid	duration_start	duration_end	occurences	highlighting
463	grypserski	Repozytorium Cyfrowe Instytutów Naukowych	856272	1992-01-01 00:00:00+00:00	1992-12-31 23:59:59+00:00	1	"' gorsecie, nadając słowu \n""węszysz"" <em>grypserskie</em> nieobraźliwe znaczenie. \n- Sprawdzam, Plewe. \nCzłowiekiem w'"
470	grypserski	Małopolska Biblioteka Cyfrowa	774113	1972-09-30 00:00:00+00:00	1972-09-30 23:59:59+00:00	1	"' zwyczajów ""<em>grypserskich</em>"" zawierających elementy ideologii oraz magii. Przeci~tny\nrozm6wca rna wyksztalcenie'"
473	grypserski	Bałtycka Biblioteka Cyfrowa	398732	2003-01-01 00:00:00+00:00	2003-12-31 23:59:59+00:00	1	""",t'oliły jednak na jego opanowanie. \n- Czy zna pan język migowy i gwarę \n<em>grypserską</em>? \n- Osobiście nie znam"""
474	grypserski	Krośnieńska Biblioteka Cyfrowa	287262	1972-01-01 00:00:00+00:00	1972-12-31 23:59:59+00:00	1	'. \nPrzynależność do <em>grypserskiej</em> pod- \n  kultury zaznacza się równiez za \npomocą kotwiczek tatuowanych \nmiędzy'
475	grypserski	Śląska Biblioteka Cyfrowa	882337	1998-01-01 00:00:00+00:00	1998-12-31 23:59:59+00:00	1	"'. Jurek Owsiak używa zwrotu ""sie ma"", co \njest typowym <em>grypserskim</em> przywitaniem. Bardzo powszechne jest'"
476	grypserski	Bałtycka Biblioteka Cyfrowa	436215	1996-08-03 00:00:00+00:00	1996-08-04 23:59:59+00:00	1	' zawędrowałeś \nw hierarchii <em>grypserskiej</em>? \n- Mam majora. \n- Długo na to pracowałeś? \n- Półtora roku. W każdej'
477	grypserski	Bałtycka Biblioteka Cyfrowa	399726	1987-01-01 00:00:00+00:00	1987-12-31 23:59:59+00:00	1	' jada \nna sedesie. \nMożna by dużo pisać o <em>grypserskich</em> normach i języku. \nSpróbujcie zrozumieć o czym'
478	grypserski	Bałtycka Biblioteka Cyfrowa	418699	2000-01-01 00:00:00+00:00	2000-12-31 23:59:59+00:00	1	"'. W <em>grypserskiej</em> hierarchii doszedł do stopnia ""majora"" i do... drugiej grupy inwalidzkiej. \n- Przez'"
479	grypserski	Bałtycka Biblioteka Cyfrowa	399728	1987-01-01 00:00:00+00:00	1987-12-31 23:59:59+00:00	1	' <em>grypserskich</em> jesteśmy szczególnie uczuleni. Uznajemy grypslijących za przeciwników, których trzeba zwalczać'
480	grypserski	Małopolska Biblioteka Cyfrowa	571919	1982-04-18 00:00:00+00:00	1982-04-18 23:59:59+00:00	1	'. Jest jednym z przywódców \ngrypsery. Podobno żadna decyzja <em>grypserska</em> nie może bez niego był: podjęta'
481	grypserski	Bałtycka Biblioteka Cyfrowa	400000	1989-01-01 00:00:00+00:00	1989-12-31 23:59:59+00:00	1	' norm <em>grypserskich</em>. dla której \noficjalne regulaminy nie są żadną \nkonkurencją. Życie w zakładzie'
