	word	lname	iid	duration_start	duration_end	occurences	highlighting
0	kaszlak	Repozytorium Cyfrowe Instytutów Naukowych	857023	1999-01-01 00:00:00+00:00	1999-12-31 23:59:59+00:00	1	' \n<em>KASZLAK</em> \nKASZLANIE \nKASZLA W AC \nKASZLA WICA \nKASZLA WY \nKASZLĄCY \nKASZLEĆ \nKASZLENIE \nKASZLIĆ \nKASZLISKO'
1	kaszlak	Wielkopolska Biblioteka Cyfrowa	777577	1968-01-01 00:00:00+00:00	1968-12-31 23:59:59+00:00	1	' sublime... \n pospyeszana \n Acceleretur opus... \n <em>kaszlak</em> \nhic mellior hedulus adsit... \nszyedlysko \nTempus'
2	kaszlak	Wielkopolska Biblioteka Cyfrowa	782317	1968-01-01 00:00:00+00:00	1968-12-31 23:59:59+00:00	1	' \nTollitur in sublime... \npospyeszaaza \nAcceleretur opus... \n<em>kaszlak</em> \nhic mellior hedulus adsit... \n  ›~;.ś.r'
3	kaszlak	Repozytorium Cyfrowe Instytutów Naukowych	853904	1992-01-01 00:00:00+00:00	1992-12-31 23:59:59+00:00	1	' sulak \nIX 419 sabadylak \nVII 330 motylak \nIX 409 <em>kaszlak</em> \nX 497 duszlak \nX 499 druszlak \nX 497, 499'
4	kaszlak	Repozytorium Cyfrowe Instytutów Naukowych	853904	1992-01-01 00:00:00+00:00	1992-12-31 23:59:59+00:00	1	' \nkaszlać 408; IX 40 \n<em>kaszlak</em> 409 \nkaszlący IX 43 \nkaszleć 408; IX 39-43 \n..kaszliwy IX 43 \nkaszniak 224; V'
6	kaszlak	Wielkopolska Biblioteka Cyfrowa	3814686	1987-01-01 00:00:00+00:00	1987-12-31 23:59:59+00:00	1	""" na'skraź % ykopu <em>kaszlak</em> i wypiuwai : siebie mokrcść, &- potem, \n _uspokojouy. przymykał oczy, jakby"""
7	kaszlak	Kujawsko-Pomorska Biblioteka Cyfrowa	582319	1974-01-01 00:00:00+00:00	1974-12-31 23:59:59+00:00	1	"' 11.45 czasu strefowego (w Polsce już 17.45), gdy oddajemy z beczki cumę dziobową. ""<em>Kaszlak</em>"" rozgadał się'"
8	kaszlak	Wielkopolska Biblioteka Cyfrowa	808239	1903-08-19 00:00:00+00:00	1903-08-19 23:59:59+00:00	1	', \n  deum?” \n  ul Piotr. nr. \n<em>kaszlak</em> \npruownlk \nSunu | \n  Chillmlu \n  \n \n'
9	kaszlak	Wirtualna Czytelnia Bibuły	1702076	1987-01-01 00:00:00+00:00	1987-12-31 23:59:59+00:00	1	'= <em>kaszlak</em> : aan-tuo. Ducha—xen-tuo \nuyc:arpalo sue). mozliwośc: za pontvfikatu Bonodyvta XIV (1700—1758'
10	kaszlak	Wirtualna Czytelnia Bibuły	1695343	1989-01-01 00:00:00+00:00	1989-12-31 23:59:59+00:00	1	' gorzkich <em>kaszlak</em> i wiemz : milczeniu, \nwś ersz, który w tamtym czasie bardzo dokładnie. cdćzwał treść'
12	kaszlak	Podlaska Biblioteka Cyfrowa	246482	1909-01-01 00:00:00+00:00	1909-12-31 23:59:59+00:00	1	""" 1702, Dnńkoxvioacln, marszałek tryb. koi'. \n~ 7. 10. 1691-4. 10. 1692, chorąży przemyski 1709, <em>kaszlak</em>"""
13	kaszlak	Bałtycka Biblioteka Cyfrowa	424983	1997-01-01 00:00:00+00:00	1997-12-31 23:59:59+00:00	4	' (G. <em>Kaszlak</em> - 3, T. Kupczyk, T. \nBakalarek i P. Tomaszewicz - po 2 oraz \nM. Knapik - l), {;wardia'
14	kaszlak	Wojewódzka i Miejska Biblioteka Publiczna im. dr. Witolda Bełzy w Bydgoszczy	1513831	1915-11-10 00:00:00+00:00	1915-11-10 23:59:19+00:00	1	"'. .<em>kaszlak</em>- _um \nw! mi"".- \n  Djämk., 1,3m., 1,75m. \nPrag 6 parach 10 bm. \n  n.\\ raus taniej. \nPuur. 2: kg'"
15	kaszlak	Bałtycka Biblioteka Cyfrowa	419358	2000-01-01 00:00:00+00:00	2000-12-31 23:59:59+00:00	1	"' środka na cały regulator waliła \ndyskotekowa muiyka. Aż dziw. że \nten ""<em>kaszlak</em>"" się nie rozpadł, bo'"
16	kaszlak	Wojewódzka i Miejska Biblioteka Publiczna im. dr. Witolda Bełzy w Bydgoszczy	1517394	1927-12-07 00:00:00+00:00	1927-12-07 23:59:19+00:00	1	""" cie go SOŁHC \niami Sporządzić. Oslami kurs trwa 14 dm pn \n? godz dziennie 1' <em>kaszlak</em>? 55531? 551"""
17	kaszlak	Miesięcznik Morze	1448283	1966-01-01 00:00:00+00:00	1966-12-31 23:59:59+00:00	1	"' słynny „kasziak"". z którym zawsze \nbyło tyle kłopotu? \n  — ..<em>Kaszlak</em>"" idzie na emeryturę. Na jego'"
18	kaszlak	Biblioteka Cyfrowa Uniwersytetu Wrocławskiego	197643	1905-01-13 00:00:00+00:00	1905-01-13 23:59:59+00:00	1	' maszyn rolniczych itd. \n  Wlasny <em>kaszlak</em> in wykonywania malak. \n  Czyste wykonanie przy umiarkowanych'
19	kaszlak	Podlaska Biblioteka Cyfrowa	282979	1935-01-01 00:00:00+00:00	1935-12-31 23:59:59+00:00	1	"' j_ \n""3: "" Puk ( „ ,„„ ~ m. madmunu. \n  lfuxzłuk-pol „„ - 3\' \nInaił) .u <em>kaszlak</em> ` \nuuijsañ \nKutłum'"
20	kaszlak	Wielkopolska Biblioteka Cyfrowa	790819	1873-12-13 00:00:00+00:00	1873-12-13 23:59:59+00:00	1	"""... pochodząca zapewne z som baiońs kich. Nagle \n ż.:k słz rfk-tia: gmach poz'iet-zpy zes <em>kaszlak</em> fm \nnm ikak"""
21	kaszlak	Świętokrzyska Biblioteka Cyfrowa	301616	1990-12-17 00:00:00+00:00	1990-12-17 23:59:59+00:00	1	' lokalnych oraz \nwobec ostatecznego <em>kaszlak</em> \ntu ustawy o iinansowzniu \ngmin, wynając ie w opinii \nskierowane'
22	kaszlak	Repozytorium Cyfrowe Instytutów Naukowych	853381	1989-01-01 00:00:00+00:00	1989-12-31 23:59:59+00:00	1	' rak \n  dychrawa \n  dychrawiec \n  dych ran \n  kaszlacz \n  <em>kaszlak</em> \n  Wrocławska Drokarnia Naukowa'
24	kaszlak	Jagiellońska Biblioteka Cyfrowa	1098966	1925-04-01 00:00:00+00:00	1925-04-01 23:59:59+00:00	1	' Bartkowskich. \nL. dz. 2666/11/25. <em>Kaszlak</em> Grzegosz, ur 1883. \nw Wisioku dolnym pow. Sanok, tamze przed wojnq'
25	kaszlak	Wojewódzka i Miejska Biblioteka Publiczna im. dr. Witolda Bełzy w Bydgoszczy	1513295	1913-12-16 00:00:00+00:00	1913-12-16 23:59:19+00:00	1	""" \n ` bakieguima dzieci. ' ' 'kiej hnuleknyi. „ \n  .„ `j !za gali \n. „ :gtamę: !fe-slika; = \n' -. @Składzie <em>kaszlak</em>"""
26	kaszlak	Biblioteka Publiczna im. dr. Władysława Biegańskiego w Częstochowie	1425090	1921-01-01 00:00:00+00:00	1921-12-31 23:59:59+00:00	1	"' \n  Inuozyelsi \ngimnazjum (<em>kaszlak</em> \nposzukuję przy r041\'nle umeblowanego F"" \nkoin mole być ibi! \nmebli cen mni'"
27	kaszlak	Jagiellońska Biblioteka Cyfrowa	972083	1925-12-20 00:00:00+00:00	1925-12-20 23:59:59+00:00	1	'. <em>Kaszlak</em>: D. O. K. X VI \nPmemyślu wevwano do przysIania metryki śmiorci. \nToż samo. - P. Pałat. S. Socha'
28	kaszlak	Świętokrzyska Biblioteka Cyfrowa	301763	1990-07-03 00:00:00+00:00	1990-07-03 23:59:59+00:00	1	""" \n<em>kaszlak</em> b:. łączna watloáć towarów wyekspotowanych z. tych 3 wojev \nwwšdáw do K@ wynhah \n57 nld don't?: w"""
29	kaszlak	Bałtycka Biblioteka Cyfrowa	412740	2002-09-26 00:00:00+00:00	2002-09-26 23:59:59+00:00	1	' byli: Michalak - 3, \n<em>Kaszlak</em> - 2 oraz Stępień i Sylwesiuk \n- po 1. (SUW) \n  Glos Pomorza 15 \n    @ !  g'
30	kaszlak	Wirtualna Czytelnia Bibuły	1700471	1981-01-01 00:00:00+00:00	1981-12-31 23:59:59+00:00	1	"'.-„, "".th \'Z z::mdnxaniou-MĘOEAIaE 2111qu \n  Mam <em>kaszlak</em> 9333-11?” Stun-nu ""& PMG,”: \n  «i. rwsajonntór'"
31	kaszlak	Podlaska Biblioteka Cyfrowa	248735	1931-01-01 00:00:00+00:00	1931-12-31 23:59:59+00:00	1	"' dn* ""a810 296260 gorączkować \n °5° WYSORO, 1 <em>kaszlak</em>? krótkim, krtaniovrygn, ochrypłym kaszlem i'"
32	kaszlak	Wielkopolska Biblioteka Cyfrowa	775368	1939-04-09 00:00:00+00:00	1939-04-09 23:59:59+00:00	1	'. \n  WAŻNlElSZiŁ TELEFUNY: \nORBIS - icieiuu 140 \nKOMJSARI P «aiston 52. \nposi-o; v k i: - !elefon 222. \n<em>kaszlak</em> A A'
33	kaszlak	Małopolska Biblioteka Cyfrowa	630043	1990-12-10 00:00:00+00:00	1990-12-10 23:59:59+00:00	1	"'"". \n  60.771.012) zł. \n  Wróćmy icdnoh do stolnłykl Dzień mocy ""rmy <em>kaszlak</em>: \nWpęc w cprctoch wiolonlcznvch prawie'"
34	kaszlak	Świętokrzyska Biblioteka Cyfrowa	301597	1990-11-14 00:00:00+00:00	1990-11-14 23:59:59+00:00	1	"' nmndurovccjlimfa oraz połysku i <em>kaszlak</em> \ncic dasda:. \n  - Pnszpurtv x “ity \n(Jvrtfln daje do Z1`0}\'.\':Kiii""nia, że'"
35	kaszlak	Wielkopolska Biblioteka Cyfrowa	1170132	1938-07-16 00:00:00+00:00	1938-07-16 23:59:59+00:00	1	""":—;|. |_| _ _ \nCz ęzary ' duch \n. \n  i \n...... i), \n  ||Ie malą obelążyć <em>kaszlak</em> ulrżyminla \n  wolwaownni"""
36	kaszlak	Kujawsko-Pomorska Biblioteka Cyfrowa	1532671	1925-01-01 00:00:00+00:00	1925-12-31 23:59:59+00:00	1	""". '<em>kaszlak</em> ale \nwszystko to na nic sie nie zdalo.. \nmusial wiec szarpaniem za reke \nśpiacego obudzić. Porwał"""
37	kaszlak	Wojewódzka i Miejska Biblioteka Publiczna im. dr. Witolda Bełzy w Bydgoszczy	1516770	1925-10-04 00:00:00+00:00	1925-10-04 23:59:19+00:00	1	"""' <em>kaszlak</em>-ih w sposób 11'1111 [zony \npracownikow. \n 1ieluce,11l.uile111je rolni.~ ze i l-tśne k :111'11"""
38	kaszlak	Kujawsko-Pomorska Biblioteka Cyfrowa	574521	1927-06-22 00:00:00+00:00	1927-06-22 23:59:59+00:00	1	' po_ wołany J:ostał ze swego stanowi&<em>kaszlak</em> i hipotezy akcji sabotażowej do- Gadzinowe fundusze'
39	kaszlak	Wielkopolska Biblioteka Cyfrowa	764930	1937-11-21 00:00:00+00:00	1937-11-21 23:59:59+00:00	1	' aiirezknin w Pnkllulllul: \n Mcelianili-orioneile walerlnn i <em>kaszlak</em> i aia- \n::aulinka Bmninlana Nltálklinlll'
40	kaszlak	Wielkopolska Biblioteka Cyfrowa	1180463	1901-07-09 00:00:00+00:00	1901-07-09 23:59:59+00:00	1	' \n. |||r|›d|›wegu stanowisk:. glanie mi <em>kaszlak</em>! inhryka ulnnlninln okniu \nwoo robotników i im ników w ten'
41	kaszlak	Małopolska Biblioteka Cyfrowa	626539	1858-04-30 00:00:00+00:00	1858-04-30 23:59:59+00:00	1	"'.| \nby. \n  \'o |w|k|| !. matoł lkcyi|e wy|o| |i|6. 051 \n1\'3333. „<em>kaszlak</em>-m ""~Olga; [fugi.-:x «|..ng'"
42	kaszlak	Inowrocławska Biblioteka Cyfrowa	229330	1894-01-01 00:00:00+00:00	1894-12-31 23:59:59+00:00	1	', \naaaoapa, <em>kaszlak</em> mls Smuniu Ih Iłyaxy, gdy Polacy, \nkici-zyl posiadaja bogaclwo wlasnych wyrazow, a nuh'
43	kaszlak	Bałtycka Biblioteka Cyfrowa	430481	1995-01-01 00:00:00+00:00	1995-12-31 23:59:59+00:00	1	"'. Tę ""stawkę"" aut marki ""<em>kaszlak</em>"" z usteckimi tablicami rejestracyjnymi zauważyliśmy w lesie między'"
44	kaszlak	Małopolska Biblioteka Cyfrowa	638349	1931-03-09 00:00:00+00:00	1931-03-09 23:59:59+00:00	1	' znakiem dla wtajemnicw \nnych. że w gabinecie przygotowam extra <em>kaszlak</em> \ni czarną kawę po turecku'
45	kaszlak	Wielkopolska Biblioteka Cyfrowa	1169664	1937-09-14 00:00:00+00:00	1937-09-14 23:59:59+00:00	1	'. nroiekiowoą- inkin. \n  w nie nia <em>kaszlak</em>. norm-im ludzie od \n  do iyoh mnw. Mam mniemania. lrnhce \n  trochę'
46	kaszlak	A Polish-Canadian press	3476504	1953-08-02 00:00:00+00:00	1953-08-02 23:59:59+00:00	1	""" potrzebuje \nkogoś pewnego.?- 1111331101 - ta \nidzie” '—~'—~. <em>kaszlak</em>-” ' ' › \n  cem. Ożenił się z Niemką"""
47	kaszlak	Wielkopolska Biblioteka Cyfrowa	1177571	1939-05-31 00:00:00+00:00	1939-05-31 23:59:59+00:00	1	' uwnrzv nl. Bu kiowska \n  Wielka <em>kaszlak</em> zboiowa : Belgią \n m wulaoolniiomcy w Gdańsku przedstawi)?” de'
48	kaszlak	Podlaska Biblioteka Cyfrowa	3778545	1986-01-01 00:00:00+00:00	1986-12-31 23:59:59+00:00	1	""" głową, przykładał ręce do piersi, <em>kaszlak</em>. Nie można było zro— \n  owce , „„ „';. ciętych od świata. Po"""
49	kaszlak	Jagiellońska Biblioteka Cyfrowa	1057925	1912-09-07 00:00:00+00:00	1912-09-07 23:59:59+00:00	1	', przygc.towuje da sprzedaje SIC; w. maj tk  <em>Kaszlak</em>  \nwszyst. klas. Oferty list.: Michalow odlegl} m od kolel 0 5'
50	kaszlak	Podlaska Biblioteka Cyfrowa	3778807	1986-01-01 00:00:00+00:00	1986-12-31 23:59:59+00:00	1	'! porządną inwenta- \n  Aciu podjął \n  4| DYKTERYJKI z LAMUSA ] \n  mogłem spać, bo Me .kropnie <em>kaszlak</em>'
51	kaszlak	Jagiellońska Biblioteka Cyfrowa	3886466	1903-01-01 00:00:00+00:00	1903-12-31 23:59:59+00:00	1	"'. ib.) <em>kaszlak</em>; —, err.: \nixiiiiio— kliilszlau\' (""/.(;ill, kuszląc- mlrlm \n\'. . ,t ul —— krwi'"
52	kaszlak	Jagiellońska Biblioteka Cyfrowa	1003318	1891-07-31 00:00:00+00:00	1891-07-31 23:59:59+00:00	1	' ta  daje si , nic nie widÛab \ni nie slyszala, trzymlia tylko chusteezk  pny \nustach i ci!!gle <em>kaszlak</em>'
