	word	lname	iid	duration_start	duration_end	occurences	highlighting
3	koalicjantka	Małopolska Biblioteka Cyfrowa	780568	1994-03-31 00:00:00+00:00	1994-03-31 23:59:59+00:00	1	'., także nie ma derywatu żeńskiego, Unia Demokratyczna to nie \n*<em>koalicjantka</em>, lecz koalicjant. Znamienne'
5	koalicjantka	Małopolska Biblioteka Cyfrowa	633455	1997-12-14 00:00:00+00:00	1997-12-14 23:59:59+00:00	1	') · <em>koalicjantka</em> kija \n(9) · slimaka spos6b na tarcie (4) · tailcu... \nje z frairk  (7). lizana przez sluzalca (5'
6	koalicjantka	Małopolska Biblioteka Cyfrowa	586539	2000-07-02 00:00:00+00:00	2000-07-02 23:59:59+00:00	0	' <em>koalicjantką</em> Falczakową, \nale mimo to o rozpadzie ich koalicji \nw ogóle nie ma mowy. \n\n\nSzmatex i kajzerki'
7	koalicjantka	Małopolska Biblioteka Cyfrowa	767077	1993-01-01 00:00:00+00:00	1993-12-31 23:59:59+00:00	1	'... \nCIELESNA <em>KOALICJANTKA</em> \nKoalicja — rzec z wspaniała, \nI w tej sprawie jam gotowa \nOddać każdy kąsek ciała'
