	word	lname	iid	duration_start	duration_end	occurences	highlighting
15	kohabitować	Cyfrowy Dolny Śląsk	368499	2002-01-01 00:00:00+00:00	2002-12-31 23:59:59+00:00	1	'. Dlatego też będzie \non musiał umiejętnie <em>kohabitować</em> \n(współpracować) z radą, jeśli będą \nz różnych obozów'
16	kohabitować	Sejm	3638206	2002-07-19 00:00:00+00:00	2002-07-19 23:59:59+00:00	0	' dziećmi lub bez dzieci oraz rodzin niepełnych pojawiły się rodziny tworzone przez pary <em>kohabitujące</em>, z'
17	kohabitować	Bałtycka Biblioteka Cyfrowa	419831	2002-02-26 00:00:00+00:00	2002-02-26 23:59:59+00:00	0	'. - Istnieje \nrównież szereg opracowań naukowych dotyczących związków <em>kohabitujących</em>. Nie widzę więc sensu'
19	kohabitować	Śląska Biblioteka Cyfrowa	1621749	1997-01-01 00:00:00+00:00	1997-12-31 23:59:59+00:00	1	' <em>kohabitować</em> z Wałęsą - bronił się \nOleksy. \nBiznesmeni usiłowali też wybadać, z kim SLD będzie się łączyć. Bo'
