	word	lname	iid	duration_start	duration_end	occurences	highlighting
0	kompromisowiec	Jagiellońska Biblioteka Cyfrowa	3843491	1923-01-01 00:00:00+00:00	1923-12-31 23:59:59+00:00	1	' \ni dużo niebezpieczniejsi <em>kompromisowcy</em>, wyzyskujący wielkoprzemyskie aspiracje w celu przyłączenia'
1	kompromisowiec	Repozytorium Cyfrowe Instytutów Naukowych	848219	1933-01-01 00:00:00+00:00	1933-12-31 23:59:59+00:00	2	'RADAU, JAKO PRZEDSTAWICIEL <em>KOMPROMISOWCÓW</em>\t195Mowa mądra, odpowiadająca wymaganiom rozumu, nie jest'
2	kompromisowiec	Jagiellońska Biblioteka Cyfrowa	3846984	1938-10-15 00:00:00+00:00	1938-10-15 23:59:59+00:00	1	' prowincjonalnego. Baczyński jest dobrym taktykiem <em>kompromisowcem</em>, dr Parkany, b. wysoki urzędnik kancelarii'
3	kompromisowiec	Kujawsko-Pomorska Biblioteka Cyfrowa	3326988	1933-01-01 00:00:00+00:00	1933-12-31 23:59:59+00:00	1	', protektorów, <em>kompromisowców</em>. Są tacy wśród pisarzy, dziennikarzy, lekarzy, \nprawników itd. a nawet wśród'
4	kompromisowiec	Wielkopolska Biblioteka Cyfrowa	1217336	1923-01-01 00:00:00+00:00	1923-12-31 23:59:59+00:00	1	' w Pradze trybun Rzymu wobec Karola IV, człowieka \nnajbardziej trzeźwego, <em>kompromisowca</em>, unikającego'
5	kompromisowiec	Wielkopolska Biblioteka Cyfrowa	1220434	1921-01-01 00:00:00+00:00	1921-12-31 23:59:59+00:00	1	' zdarzeń. W SZCzegolności stracą niezawodnie podczas wyborow na blasku dawniejszym wszyscy <em>kompromisowcy</em>'
6	kompromisowiec	Małopolska Biblioteka Cyfrowa	684933	1913-01-01 00:00:00+00:00	1913-12-31 23:59:59+00:00	1	' zdaniem, na wsteczników i <em>kompromisowców</em>. ) duchowienstwo by!o. podminowane. Proboszcze abonowali EncykJ'
7	kompromisowiec	Śląska Biblioteka Cyfrowa	919412	1922-01-01 00:00:00+00:00	1922-12-31 23:59:59+00:00	1	' galeryjka <em>kompromisowców</em> o podwójnej moralności, dusząLych się pod jednym \ndachem, wybuchających co chwilę'
8	kompromisowiec	Wielkopolska Biblioteka Cyfrowa	1219571	1910-01-01 00:00:00+00:00	1910-12-31 23:59:59+00:00	1	' w sprawie żydowskiej \nuznaję za obłudne, pragnę zdemaskować <em>kompromisowców</em>, \npartyjników etc'
9	kompromisowiec	Jagiellońska Biblioteka Cyfrowa	3854041	1934-01-01 00:00:00+00:00	1934-12-31 23:59:59+00:00	1	'. \nRozwodzić się nad tern zbyteczna. Nie <em>kompromisowców</em> \nbojaźliwych i ustępliwych nam potrzeba, lecz'
10	kompromisowiec	Wielkopolska Biblioteka Cyfrowa	805601	1926-02-01 00:00:00+00:00	1926-02-28 23:59:59+00:00	1	'. \n Ustępliwi <em>kompromisowcy</em>, nawet wśród katolików, mówią \njuż @ możności obronienia tylko minimum naszego prawa'
11	kompromisowiec	Wielkopolska Biblioteka Cyfrowa	789619	1918-01-01 00:00:00+00:00	1918-12-31 23:59:59+00:00	1	' \nepitetów. Nawet Kautsky jest „socjalista-zdrajcą” \n(social-predatiel), <em>kompromisowcem</em>, judlaszem, jak'
12	kompromisowiec	Wielkopolska Biblioteka Cyfrowa	766209	1937-08-01 00:00:00+00:00	1937-08-31 23:59:59+00:00	1	' Leon XIII obłudnycli <em>kompromisowców</em> katolic ic . \n  Przedstawiliśmy naukę Leona XIII o prawach i'
14	kompromisowiec	Podkarpacka Biblioteka Cyfrowa	1287853	1909-01-01 00:00:00+00:00	1909-12-31 23:59:59+00:00	1	', kt6ra nie b dzie jaka,s sdezyn  \ndrepc cych obok gosdnca reakcji <em>kompromisowców</em>, ale droga, wyrabiaja'
15	kompromisowiec	Czytelnia Wirtualna Katolickiego Uniwersytetu Lubelskiego Jana Pawła II	4089637	1947-01-01 00:00:00+00:00	1947-12-31 23:59:59+00:00	1	' genialną wprost intuicją,\nwreszcie - szlaczcie. Drugi - naukowiecbadacz. myśliciel, <em>kompromisowiec</em> i'
16	kompromisowiec	Wielkopolska Biblioteka Cyfrowa	756210	1917-01-01 00:00:00+00:00	1917-12-31 23:59:59+00:00	2	' starego <em>kompromisowca</em> (po r. 1871). A. Wr o tn owskiego w jego »Aspiracyach porozbiorowych‹< wykazując'
17	kompromisowiec	Kujawsko-Pomorska Biblioteka Cyfrowa	3340165	1922-01-01 00:00:00+00:00	1939-12-31 23:59:59+00:00	1	' wogóle jestem <em>kompromisowcem</em> i toleruję wielorakość poczynań hodowlanych, odsuwając termin \nustalenia'
19	kompromisowiec	Śląska Biblioteka Cyfrowa	863297	1917-01-01 00:00:00+00:00	1917-12-31 23:59:59+00:00	2	' hasłami starego <em>kompromisowca</em> (po r. 1871). A. Wrotnowski ego w jego »Aspiracyach porozbiorowych'
20	kompromisowiec	Jagiellońska Biblioteka Cyfrowa	1151444	1910-10-17 00:00:00+00:00	1910-10-17 23:59:59+00:00	1	' rozbudzon j już m sy m że. p<?w tać to uczucie, że ci <em>kompromisowcy</em>, \nci szybujący drogę umwrkowama prz zylI'
21	kompromisowiec	Jagiellońska Biblioteka Cyfrowa	1151417	1910-01-01 00:00:00+00:00	1910-12-31 23:59:59+00:00	1	' rozbudzon j już m sy m że. p<?w tać to uczucie, że ci <em>kompromisowcy</em>, \nci szybujący drogę umwrkowama prz zylI'
22	kompromisowiec	Jagiellońska Biblioteka Cyfrowa	3908839	1937-06-01 00:00:00+00:00	1937-06-30 23:59:59+00:00	1	' rządzącymi robi ich <em>kompromisowcami</em>. To są już nie tylko dzikie, ale \ntakże śliskie ścieżki. Moda i blaga'
23	kompromisowiec	Śląska Biblioteka Cyfrowa	906794	1935-01-01 00:00:00+00:00	1935-12-31 23:59:59+00:00	2	' <em>kompromisowcem</em> i. przyjechał na kilka dni \nzagranic , by oddziałać na swych \nwspółwyznawców. by nie atakowali'
24	kompromisowiec	Jagiellońska Biblioteka Cyfrowa	3852935	1935-04-14 00:00:00+00:00	1935-04-14 23:59:59+00:00	1	' zadanie jest szczególnie niewygodne dla oportunistów i <em>kompromisowców</em> \nkatolickich, którzy uciekają do'
25	kompromisowiec	Biblioteka Cyfrowa - Regionalia Ziemi Łódzkiej	1591878	1931-04-16 00:00:00+00:00	1931-04-16 23:59:59+00:00	2	' blnatorem, <em>kompromisowcem</em>, płytkim \ncy ,.Niepotrzebnego Człowieka•• p. t.: \nrzenie z hurtowego sprzedawcy'
26	kompromisowiec	Bialska Biblioteka Cyfrowa	12495	1931-05-24 00:00:00+00:00	1931-05-24 23:59:59+00:00	1	' wyrafinowanego <em>kompromisowca</em>, barana, którym można kierować \nna wszystkie strony, a nawet \nw zwykłego tchórza'
27	kompromisowiec	Chełmska Biblioteka Cyfrowa	341822	1936-10-01 00:00:00+00:00	1936-10-31 23:59:59+00:00	1	' ich i lewej stronie stoją rozmaite grupy, frakcje, półideologje, <em>kompromisowcy</em> różnego autoramentu'
28	kompromisowiec	Śląska Biblioteka Cyfrowa	895790	1936-01-01 00:00:00+00:00	1936-12-31 23:59:59+00:00	2	"'\' i tc.resuje - regjd.n lizme;"" Slqleryzm. rz:)dzl przy pomoey statego sta- <em>kompromisowcy</em>, znajduj'"
29	kompromisowiec	Małopolska Biblioteka Cyfrowa	766937	1888-12-06 00:00:00+00:00	1888-12-06 23:59:59+00:00	1	' <em>kompromisowców</em> w Poznaniu. \n  cha winnych, żeby -was wyzyskać. Do tego \nwam musimy dodać, że nie tylko będziecie'
30	kompromisowiec	Wielkopolska Biblioteka Cyfrowa	1189710	1934-01-01 00:00:00+00:00	1934-12-31 23:59:59+00:00	1	' <em>kompromisowiec</em>, \narrivista i in summo gradu, na spokojnie i chłodno, ale żarłocznie i zachłannie. \nPoświęciło mu'
31	kompromisowiec	Jagiellońska Biblioteka Cyfrowa	1039520	1936-06-04 00:00:00+00:00	1936-06-04 23:59:59+00:00	1	""" (poslt powców), marksistów (rewolucjonislúw) i <em>kompromisowców</em> \n,\\spúldz.ì3Iaj  c'ycb z Po1akami). \n'Tý/h"""
32	kompromisowiec	Wielkopolska Biblioteka Cyfrowa	1195337	1931-01-01 00:00:00+00:00	1931-12-31 23:59:59+00:00	1	' krytycznej, \nale jest w całem tych słów systemem znaczeniu: ugodowcem, \nkombinatorem i <em>kompromisowcem</em>, o tyle'
33	kompromisowiec	Śląska Biblioteka Cyfrowa	864754	1928-01-01 00:00:00+00:00	1928-12-31 23:59:59+00:00	1	' stronnictw urodzonych <em>kompromisowców</em>, którzy do \npracy się nie kwapią, nie wiadomo, kogo reprezentują, ale'
34	kompromisowiec	Śląska Biblioteka Cyfrowa	865423	1934-01-01 00:00:00+00:00	1934-12-31 23:59:59+00:00	1	'  \ndrażliwszej kwestji zaujęli stanowisko zasadnicze/ \ni nie dwuznaczne. Jest, jako <em>kompromisowiec</em>, znany jako'
35	kompromisowiec	Wielkopolska Biblioteka Cyfrowa	755055	1932-07-08 00:00:00+00:00	1932-07-08 23:59:59+00:00	1	' kredyty. Co się zaś \ntyczy bolszewików wojujących w typie Woroszyłowa, bolszewicy -- <em>kompromisowcy</em>'
36	kompromisowiec	Jagiellońska Biblioteka Cyfrowa	3904423	1935-02-17 00:00:00+00:00	1935-02-17 23:59:59+00:00	1	'■HE \nPOLSKA D LA POLAKOW \n<em>Kompromisowcy</em> \nPrzebrzmiała już w prasie polemika z prof. Grabskim w'
37	kompromisowiec	Śląska Biblioteka Cyfrowa	866173	1935-01-01 00:00:00+00:00	1935-12-31 23:59:59+00:00	1	"' wprowadzenia raz \nwreszcie „sanacji"" na Śląsku! Precz z <em>kompromisowcami</em>, precz z kombinatorami, precz z'"
38	kompromisowiec	Śląska Biblioteka Cyfrowa	921211	1913-01-01 00:00:00+00:00	1913-12-31 23:59:59+00:00	1	"' <em>kompromisowcy</em>! \n„Leci liście z drzewa""... 5 strof krwawej \npieśni, obraz z dni klęsk i burzy, z kraju łez \ni'"
39	kompromisowiec	Jagiellońska Biblioteka Cyfrowa	961941	1930-10-29 00:00:00+00:00	1930-10-29 23:59:59+00:00	1	"' „gorszycielami"",\n^zgniłymi <em>kompromisowcami</em>“ i t. p.\nkapłanów, którzy są — jak mi osobiście wiadomo — najlepszemi'"
40	kompromisowiec	Śląska Biblioteka Cyfrowa	865830	1926-01-01 00:00:00+00:00	1926-12-31 23:59:59+00:00	1	'. Oficyalna partya socyalno-demokratyczna traci 9 mandatów, a to: 4 na rzecz <em>kompromisowców</em> ..starej socyalnej'
41	kompromisowiec	Śląska Biblioteka Cyfrowa	866154	1937-01-01 00:00:00+00:00	1937-12-31 23:59:59+00:00	1	' Robespierrowi w odwagę najtchórzliwszych <em>kompromisowców</em>  \nKonwentu? \nPrzyszłość da na to odpowiedź. W \nkażdym'
42	kompromisowiec	Śląska Biblioteka Cyfrowa	865831	1927-01-01 00:00:00+00:00	1927-12-31 23:59:59+00:00	1	' przywódcy soc. dem-, tylko prowadzili \npolitykę kompromisu. Liebknecht, Jaures byli \n<em>kompromisowcami</em>'
43	kompromisowiec	Jagiellońska Biblioteka Cyfrowa	1054350	1937-10-10 00:00:00+00:00	1937-10-10 23:59:59+00:00	1	', ii sq sprawy. w \nktórych k.alolilwwi nie wolno byé <em>kompromisowcem</em>. Niech 0 tym wiedlq cl \n1V. zyscy'
44	kompromisowiec	Biblioteka Cyfrowa Uniwersytetu Łódzkiego	1555712	1919-11-29 00:00:00+00:00	1919-11-29 23:59:59+00:00	1	'. \n  <em>Kompromisowiec</em> z natury, wybral \nChłopicki pośrednią: wszedł na drogę pak— \ntowań ipertraktacji, które mialy'
45	kompromisowiec	Wojewódzka i Miejska Biblioteka Publiczna im. dr. Witolda Bełzy w Bydgoszczy	1518402	1931-08-30 00:00:00+00:00	1931-08-30 23:59:19+00:00	1	' drapieżnym despoto, gdzie \nmial połomu silę, względnie przegnllym \n<em>kompromisowcem</em>, gdy ratowal bodaj \npozory'
46	kompromisowiec	Śląska Biblioteka Cyfrowa	883080	1931-01-01 00:00:00+00:00	1931-12-31 23:59:59+00:00	1	', centrowca dra \nWirtha. kt6ry z zagorzafe o republikanina stal sif; dosyc b]adym i chwiejnym <em>kompromisowcem</em>'
47	kompromisowiec	Jagiellońska Biblioteka Cyfrowa	1006748	1899-01-25 00:00:00+00:00	1899-01-25 23:59:59+00:00	1	""" <em>kompromisowcom</em> w Role polskiem w stylu  adeyskieh i \nRntowskich. Z tym komunikatem ma si  rzecz \nl'odoblùe, jak z"""
48	kompromisowiec	Wielkopolska Biblioteka Cyfrowa	1254058	1927-04-12 00:00:00+00:00	1927-04-12 23:59:59+00:00	1	', <em>kompromisowiec</em>, brak odpór* \nżywym odbiły się echem w sercach mło- ności życiowej, inteligencja wrodzona, \ndych'
49	kompromisowiec	Jagiellońska Biblioteka Cyfrowa	1145660	1929-08-23 00:00:00+00:00	1929-08-23 23:59:59+00:00	1	' konferencji haskiej jest \nzdaniem prasy sowieckiej - jasny i \nprosty: Niemieckim <em>kompromisowcom</em> \ndano'
50	kompromisowiec	Wielkopolska Biblioteka Cyfrowa	3288024	1929-10-26 00:00:00+00:00	1929-10-26 23:59:59+00:00	1	"', którzy proponują rehabilitację rozumu, uważani są właśnie za ""tchórzliwych <em>kompromisowców</em> \ni ukrytych'"
51	kompromisowiec	Śląska Biblioteka Cyfrowa	906153	1934-01-01 00:00:00+00:00	1934-12-31 23:59:59+00:00	1	' dzisiejszyeh. Liczbatch6rzów, kompromituj,!cych si  <em>kompromisowców</em>, ludzi slabych, niezdolnych do wyznawania'
52	kompromisowiec	Jagiellońska Biblioteka Cyfrowa	1016101	1924-10-18 00:00:00+00:00	1924-10-18 23:59:59+00:00	1	' s::t- jednosgd ambitne, wzdychaj ce choéby da cienia \nwladzy; sq, tam tat <em>kompromisowcy</em> myßl1lcy \no'
53	kompromisowiec	Podkarpacka Biblioteka Cyfrowa	1287625	1956-11-30 00:00:00+00:00	1956-11-30 23:59:59+00:00	1	' narodu, wskutek kon \n<em>kompromisowiec</em>, nie posiada- !>ekwentnego stanowiska w \nlący żadnych efektownych 0'
54	kompromisowiec	Wielkopolska Biblioteka Cyfrowa	1255213	1928-06-12 00:00:00+00:00	1928-06-12 23:59:59+00:00	1	"' \nstycznem"" właśnie nikogo nie przekony- zgniłym <em>kompromisowcem</em>!?! \nwał, bo socjalizm był przez krótki'"
55	kompromisowiec	Małopolska Biblioteka Cyfrowa	737854	1936-06-04 00:00:00+00:00	1936-06-04 23:59:59+00:00	1	'), syjonistów (postępowców), marksistów (rewolucjonistów) i <em>kompromisowców</em> (współdziałających z Polakami'
56	kompromisowiec	Jagiellońska Biblioteka Cyfrowa	3929018	1929-11-21 00:00:00+00:00	1929-11-21 23:59:59+00:00	1	' \nrozumu, uważani są właśnie za „tchórzliwych \n<em>kompromisowców</em> i ukrytych agentów strony \nprzeciwnej'
57	kompromisowiec	Małopolska Biblioteka Cyfrowa	650859	1934-06-11 00:00:00+00:00	1934-06-11 23:59:59+00:00	1	' \nprzeciwników i <em>kompromisowców</em> a wkońcu uniwersalistów, z których jedni fanatycznic zwalczają romantyzm a drudzy'
58	kompromisowiec	Śląska Biblioteka Cyfrowa	865925	1929-01-01 00:00:00+00:00	1929-12-31 23:59:59+00:00	1	' \nrozumu, uważani są właśnie za „tchórzliwych \n<em>kompromisowców</em> i ukrytych agentów strony \nprzeciwnej'
59	kompromisowiec	Wielkopolska Biblioteka Cyfrowa	705553	1925-11-27 00:00:00+00:00	1925-11-27 23:59:59+00:00	1	"' <em>kompromisowca</em> i lawiranta"". Co więcej: ""jednostka dążąca konsekwentnie do udoskonalenia moralnego nie może być'"
60	kompromisowiec	e-biblioteka Uniwersytetu Warszawskiego	450536	1935-01-01 00:00:00+00:00	1935-12-31 23:59:59+00:00	1	"' tchórzliwych dojutrków, \nniedołężnych „ugodowców"" i „<em>kompromisowców</em>"" — to wszystko strzela płomieniem jasnym'"
61	kompromisowiec	e-biblioteka Uniwersytetu Warszawskiego	449876	1936-01-01 00:00:00+00:00	1936-12-31 23:59:59+00:00	1	"' \n„<em>kompromisowców</em>"" zawiodły, Żydzi \nLwów, w grudniubowiem po drugiej poufnej naradzie \npodtrzymali swe'"
62	kompromisowiec	Jagiellońska Biblioteka Cyfrowa	1151617	1930-09-20 00:00:00+00:00	1930-09-20 23:59:59+00:00	1	' Rządem o  \nportunistów i <em>kompromisowców</em>, \nzbaczających z wytkniętej drogi dla \nuzyskania plusów, które'
63	kompromisowiec	Jagiellońska Biblioteka Cyfrowa	968246	1937-07-04 00:00:00+00:00	1937-07-04 23:59:59+00:00	1	' „przegrupowały się“\njak wiadomo i wszelkich łączników,\n<em>kompromisowców</em> i komersantów,\nchwilowo odstawiono do trenu'
64	kompromisowiec	Śląska Biblioteka Cyfrowa	920678	1909-01-01 00:00:00+00:00	1909-12-31 23:59:59+00:00	1	' <em>kompromisowców</em>. My z naszej strony przestrzegamy komitet przed ti,l polityki,l lekcewa:ienia sil polskich, przed'
65	kompromisowiec	Radomska Biblioteka Cyfrowa	85772	1929-10-29 00:00:00+00:00	1929-10-29 23:59:59+00:00	1	' .tchórzliwych \n<em>kompromisowców</em> i ukrytych agentów strony \nprzeciwnej-o Nastąpił cichy, jakoby podświadomy układ'
66	kompromisowiec	Jagiellońska Biblioteka Cyfrowa	1063552	1901-09-03 00:00:00+00:00	1901-09-03 23:59:59+00:00	1	"' a. 0 0 innyc an- z tatwowiernych i wyszydzali ""<em>kompromisowców</em>.. \ntja konserwat)wna, osmiela si'"
67	kompromisowiec	Biblioteka Publiczna im. dr. Władysława Biegańskiego w Częstochowie	1426979	1932-01-01 00:00:00+00:00	1932-12-31 23:59:59+00:00	1	' wojujących w typie Woroszylowa, bolszewicy <em>kompromisowcy</em> zapewniają ich, że na odstąpionych Pol: \nsce'
68	kompromisowiec	Wielkopolska Biblioteka Cyfrowa	3273651	1932-07-12 00:00:00+00:00	1932-07-12 23:59:59+00:00	1	""". . .. . \n. . t'l 1't . J' r' szewlcy - <em>kompromIsowcy</em> zapeWnIają Ich \nno':,eJ rJe aCJ o l yczneJ. , ez l ?fJ e k n"""
69	kompromisowiec	Jagiellońska Biblioteka Cyfrowa	980397	1922-02-11 00:00:00+00:00	1922-02-11 23:59:59+00:00	1	' autonomii terytorialnej,\nstraszący Anglję, jak też i dużo niebezpieczniejsi <em>kompromisowcy</em>. wy^skujący'
70	kompromisowiec	Jagiellońska Biblioteka Cyfrowa	996151	1908-05-31 00:00:00+00:00	1908-05-31 23:59:59+00:00	1	' lub Czecha. Dlatego też o nich\nnikt nie mówi.\nTak zapewne sądzą i nasi ugodowcy, <em>kompromisowcy</em> i t. p'
71	kompromisowiec	Małopolska Biblioteka Cyfrowa	591107	1931-04-10 00:00:00+00:00	1931-04-10 23:59:59+00:00	1	'.\nRozprawia się gen. Gomer Castaing w swej\nznakomitej broszurze z różnymi <em>kompromisowcami</em>, ofiarowującymi'
72	kompromisowiec	Jagiellońska Biblioteka Cyfrowa	1011458	1922-12-08 00:00:00+00:00	1922-12-08 23:59:59+00:00	1	' <em>kompromisowcem</em>. slç z niepowodzeniem. \nAle wla l1ie na takie stanowisko. jakiem jest prezy- WczQrajsze narady P'
73	kompromisowiec	Biblioteka Cyfrowa - Regionalia Ziemi Łódzkiej	94397	1929-08-22 00:00:00+00:00	1929-08-22 23:59:59+00:00	1	' przy\nstąpić do operacji wojennych przed\ndrugą połową wrześniamieckim <em>kompromisowcom</em> dano olbrzyr\nTrzeba'
74	kompromisowiec	Pomorska Biblioteka Cyfrowa	61509	1921-09-23 00:00:00+00:00	1921-09-23 23:59:59+00:00	1	' niemieckiej i urodzonego <em>kompromisowca</em> Scheidemanna. Scheidemann umiał w czasie wojny razem z cesarzem'
75	kompromisowiec	Biblioteka Cyfrowa - Regionalia Ziemi Łódzkiej	94920	1935-11-21 00:00:00+00:00	1935-11-21 23:59:59+00:00	1	' posiadaJążywe kontakty z piłsudczykami. Przedsawia typ <em>kompromisowca</em> Pooczas])Osiedzenia rady naczelue.f P. P. S'
76	kompromisowiec	Wielkopolska Biblioteka Cyfrowa	1237328	1922-02-03 00:00:00+00:00	1922-02-03 23:59:59+00:00	1	""". Aneddes Briaad, przyjaciel Lloyd George'a, wybitny <em>kompromisowiec</em>, giętki dyplomata, \nktóry mógł łatwo w"""
77	kompromisowiec	Jagiellońska Biblioteka Cyfrowa	1685679	1936-11-30 00:00:00+00:00	1936-11-30 23:59:59+00:00	1	'.\n<em>Kompromisowiec</em>, wrzędzie dotychczas się wślizgujący adw.\nChełmoński . zdobył głosów 489,\nzaś kandydat K.A.R.P-ia'
78	kompromisowiec	Śląska Biblioteka Cyfrowa	895356	1937-01-01 00:00:00+00:00	1937-12-31 23:59:59+00:00	1	"' \nsi<: na pozycji IIprzywilejowane,i. W imil: \ndobra pOWSZI.("")1I1I\'go tyeh <em>kompromisowców</em> trz(\'ba'"
79	kompromisowiec	Wielkopolska Biblioteka Cyfrowa	826707	1921-09-10 00:00:00+00:00	1921-09-10 23:59:59+00:00	1	' <em>kompromisowcy</em> przechodzą na \nlewa. a inni nie opuszczają knmpromlsowego \nsmnoniska Wiec przybywa Kościotowi'
80	kompromisowiec	e-biblioteka Uniwersytetu Warszawskiego	532502	1938-01-01 00:00:00+00:00	1938-12-31 23:59:59+00:00	1	"', producencik jednego \ndziecka dziś neurastenik, tchórz, \n<em>kompromisowiec</em>, „urzędnik"", \nmusi wówczas nolens'"
81	kompromisowiec	e-biblioteka Uniwersytetu Warszawskiego	449631	1937-01-01 00:00:00+00:00	1937-12-31 23:59:59+00:00	1	"' \nnie wolno być <em>kompromisowcem</em>. \nNiech o tym wiedzą ci wszytcy, którzy \nchętnie lubią „przymykać oczy"" i'"
82	kompromisowiec	Śląska Biblioteka Cyfrowa	895750	1930-01-01 00:00:00+00:00	1930-12-31 23:59:59+00:00	1	' iednobrzmillce pOlvszechne (poza sanacil{) zdllmienie. Nawet \nnaiwit;.ksi ugodowcy j <em>kompromisowcy</em> \nprzekonali'
83	kompromisowiec	Małopolska Biblioteka Cyfrowa	636413	1962-01-01 00:00:00+00:00	1962-12-31 23:59:59+00:00	1	""" małostkową skrupulatnością? \nA wres 'cie Cycero, lawirujący \n<em>kompromisowiec</em>; Ani napr,,:ód nie \npostępuje"""
84	kompromisowiec	Jagiellońska Biblioteka Cyfrowa	3864457	1934-12-10 00:00:00+00:00	1934-12-10 23:59:59+00:00	1	', <em>kompromisowca</em> \nzasprzedanego tajnymi siłom, nastraja \nprzeciw niemu opinję, dc której ma łatwiejszy dostęp niż'
85	kompromisowiec	Jagiellońska Biblioteka Cyfrowa	1024003	1916-07-07 00:00:00+00:00	1916-07-07 23:59:59+00:00	1	"' handlowej. Nawet w dniu z&wierani, \nmiędz.y ""<em>kompromisowców</em>."", a ;,antykompromisow- szeregach wojska'"
86	kompromisowiec	Jagiellońska Biblioteka Cyfrowa	1124299	1901-01-01 00:00:00+00:00	1901-12-31 23:59:59+00:00	1	' zdecydowanych przeciwni- wewn trznego i zdobycia rynków zewn lrznychków projektu, a moìe jedynego <em>kompromisowca</em>'
87	kompromisowiec	Małopolska Biblioteka Cyfrowa	568077	1931-03-29 00:00:00+00:00	1931-03-29 23:59:59+00:00	1	' krytycznej, ale jest w całem tych \nsłów znaczeniu: ugodowcem, kombinatorem i <em>kompromisowcem</em>, o tyle'
88	kompromisowiec	Jagiellońska Biblioteka Cyfrowa	1673981	1929-08-23 00:00:00+00:00	1929-08-23 23:59:59+00:00	1	' <em>kompromisowcom</em>\ndano olbrzymie ulgi w spłacie długów wojennych, lecz ewakuację\nNadrenji przeprowadzają francuscy\ni'
89	kompromisowiec	Jagiellońska Biblioteka Cyfrowa	971459	1907-07-11 00:00:00+00:00	1907-07-11 23:59:59+00:00	1	' kompromis z komitetem Polskiego Stronnictwa Demokratycznego. I ci <em>kompromisowcy</em> zwyciężyli, — bez frakcyi'
90	kompromisowiec	Małopolska Biblioteka Cyfrowa	665764	1928-01-01 00:00:00+00:00	1928-01-01 23:59:59+00:00	1	' potrzeb i spraw, przez siebie załatwianych, <em>kompromisowca</em>, załatwiającego najgorliwiej swe ..obowiązki'
91	kompromisowiec	Jagiellońska Biblioteka Cyfrowa	3920303	1889-04-03 00:00:00+00:00	1889-04-03 23:59:59+00:00	1	' ono już się właściwie składa z dwóch frakcyj:\nprzy Windthorscie zostali nieugięci, a <em>kompromisowcy</em>'
92	kompromisowiec	Kujawsko-Pomorska Biblioteka Cyfrowa	559335	1969-01-01 00:00:00+00:00	1969-12-31 23:59:59+00:00	1	"' pl1Zemilcza:ny lub \nte  n1c-d\'OCcmany przez wielu <em>kompromisowców</em>.. . \n  Publis""od by .. Wi.domości"". \n67 Gro., Ru'"
93	kompromisowiec	Jagiellońska Biblioteka Cyfrowa	1125601	1879-06-14 00:00:00+00:00	1879-06-14 23:59:59+00:00	1	' <em>kompromisowcy</em> przystawali, SI datę ,z Wledma d. 8.  m. - zwołuJe. kram- brz , ,że JI\\ z wdzlęczam całkiem'
