	word	lname	iid	duration_start	duration_end	occurences	highlighting
0	konspiratorski	Mazowiecka Biblioteka Cyfrowa	3384495	1916-01-01 00:00:00+00:00	1916-12-31 23:59:59+00:00	2	' Królestwa, opierającego się\no pracę <em>konspiratorską</em> tutaj, jako też nowoczesna\ntechnika wojenna'
1	konspiratorski	Wielkopolska Biblioteka Cyfrowa	1214895	1914-01-01 00:00:00+00:00	1914-12-31 23:59:59+00:00	1	"', \nnatrafi1em na ślad pracy, że tak powiem, ""<em>konspiratorsko</em>-emisarjuszowskiej"", czterech poetów polskich'"
2	konspiratorski	Kujawsko-Pomorska Biblioteka Cyfrowa	569271	1931-01-01 00:00:00+00:00	1931-12-31 23:59:59+00:00	2	', należał do <em>konspiratorskich</em> zrzeszeń młodzieży, siedział we więzieniu, walczył za Polskę na \npolach bitew'
3	konspiratorski	Kujawsko-Pomorska Biblioteka Cyfrowa	560323	1907-01-01 00:00:00+00:00	1907-12-31 23:59:59+00:00	1	', kolego, tego pana? \n— \nNie. \n— \nBo ja — mówił dalej Tomasz tajemniczym, \n<em>konspiratorskim</em> tonem — mam'
4	konspiratorski	e-biblioteka Uniwersytetu Warszawskiego	533728	1875-01-01 00:00:00+00:00	1875-12-31 23:59:59+00:00	2	' zastosowany środek,, wiodący \ndo <em>konspiratorskiego</em> i rewolucyjnego dzieła. \nWielogłowski mógł, znać lepiej niż'
5	konspiratorski	Kujawsko-Pomorska Biblioteka Cyfrowa	569271	1931-01-01 00:00:00+00:00	1931-12-31 23:59:59+00:00	2	' <em>konspiratorską</em>. co zresztą w owych czasach \nbyło nic niezwykłego Osiedlił się wówczas w Poznańskiem w swych'
6	konspiratorski	Wielkopolska Biblioteka Cyfrowa	1209810	1928-01-01 00:00:00+00:00	1928-12-31 23:59:59+00:00	1	' Sewer wraca do Warszawy \ni do swej pracy <em>konspiratorskiej</em>. \nWarszawa, 1794 r. w powieści Reymonta, to'
7	konspiratorski	Zielonogórska Biblioteka Cyfrowa	236897	1905-01-01 00:00:00+00:00	1905-12-31 23:59:59+00:00	1	' myślał o tym obchodzie dnia 29 listo, \npada. kiedy pisał do matki pelen <em>konspiratorskiej</em> \nostrożności'
8	konspiratorski	Śląska Biblioteka Cyfrowa	929111	1869-01-01 00:00:00+00:00	1869-12-31 23:59:59+00:00	1	' \nupatrywali mądrość patljotyczną, zręczność <em>konspiratorską</em> i umiejętność rewolucyjną; byli i tacy \nco błędy'
9	konspiratorski	Kujawsko-Pomorska Biblioteka Cyfrowa	3297809	1919-01-01 00:00:00+00:00	1919-12-31 23:59:59+00:00	1	' Kiedla,\nKoszczyc zażądał przysięgi »na wierność służbie narodowej«. Był to efekt <em>konspiratorski</em>'
10	konspiratorski	Wielkopolska Biblioteka Cyfrowa	1230910	1862-01-01 00:00:00+00:00	1862-12-31 23:59:59+00:00	1	""" zawód \npisarski i <em>konspiratorski</em>; temperamentem z pocz tku, \nkonst'(;:wencj  później sprowadzone prz"""
11	konspiratorski	Elbląska Biblioteka Cyfrowa	649392	1908-01-01 00:00:00+00:00	1908-12-31 23:59:59+00:00	1	"' dotąd pielęgnują tradycye <em>konspiratorskie</em>. ,,Polska od morza do morza"", ,,za \nnaszą i waszą wolność"" i t'"
12	konspiratorski	Wielkopolska Biblioteka Cyfrowa	812676	1939-01-01 00:00:00+00:00	1939-12-31 23:59:59+00:00	1	' rozwinął sieć <em>konspiratorską</em>, po porozumieniu się z żołnierzami-Polakami zwołał w dniu 12 listopada 1918'
13	konspiratorski	Jagiellońska Biblioteka Cyfrowa	1020507	1908-01-01 00:00:00+00:00	1908-12-31 23:59:59+00:00	1	' \n<em>konspiratorska</em>. Wiesiolowskiego. \nZeznania sumaryczne zlozone w dniu 26, marca 1846: \n   \n '
14	konspiratorski	Śląska Biblioteka Cyfrowa	864238	1903-01-01 00:00:00+00:00	1903-12-31 23:59:59+00:00	1	' Obmurowicz. \n  XIV. \n  <em>Konspiratorskie</em> prace przygotowawcze do \npowstania r. 1863 znalazły chętnych wśród'
15	konspiratorski	Śląska Biblioteka Cyfrowa	864430	1907-01-01 00:00:00+00:00	1907-12-31 23:59:59+00:00	1	'. 1861, wziąl urlop, przy- \n.był do Paryża i chwycii się gorliwie prac <em>konspiratorskich</em>. Z kolei byl'
16	konspiratorski	Śląska Biblioteka Cyfrowa	859956	1894-01-01 00:00:00+00:00	1894-12-31 23:59:59+00:00	1	"' bie ącego \n ti""stulecIa, wowczas kiedy na zIemiach dawneJ PolskI <em>konspiratorskie</em> prace celem'"
17	konspiratorski	Elbląska Biblioteka Cyfrowa	665889	1922-01-01 00:00:00+00:00	1922-12-31 23:59:59+00:00	1	"' i <em>konspiratorskich</em> zamysłów, które się bardzo wcześnie zaczęły \nw nim objawiać"" znajdując'"
18	konspiratorski	Śląska Biblioteka Cyfrowa	878061	1928-01-01 00:00:00+00:00	1928-12-31 23:59:59+00:00	1	' \ngrecko-katolickie było jednem z naigłówniejszych \nognisk <em>konspiratorskich</em> i patrjotycznych polskichprzeto'
20	konspiratorski	Śląska Biblioteka Cyfrowa	1621919	1917-01-01 00:00:00+00:00	1917-12-31 23:59:59+00:00	1	', której nad wyraz szkodliwy wpływ częściowo tylko równoważyło kółko <em>konspiratorskie</em>. Nie mogli oni na wzór'
22	konspiratorski	Kujawsko-Pomorska Biblioteka Cyfrowa	597857	1913-01-01 00:00:00+00:00	1913-12-31 23:59:59+00:00	1	' politycznych galicyjskich dla \nemigrantów, którzy jeszcze nie mieli czasu roz winąć \n<em>konspiratorskiej</em>'
23	konspiratorski	Wielkopolska Biblioteka Cyfrowa	1200847	1907-01-01 00:00:00+00:00	1907-12-31 23:59:59+00:00	1	'Usposobienie młodzieży polskiej jest <em>konspiratorskie</em>; \nmłodzież lubi swoje zamiary, plany, prace'
24	konspiratorski	Wielkopolska Biblioteka Cyfrowa	1239987	1915-01-01 00:00:00+00:00	1915-12-31 23:59:59+00:00	1	' miernot <em>konspiratorskich</em>, ogłupionych nagłą \nzmianą warunków, co je na mężów stanu wyniosła. \nZ drugiej'
25	konspiratorski	Elbląska Biblioteka Cyfrowa	665889	1922-01-01 00:00:00+00:00	1922-12-31 23:59:59+00:00	1	' zaraz rozpoczął życie. <em>konspiratorskie</em>, przystępując do związku W o l n y c h P o l a k ów, \nale radość'
26	konspiratorski	Elbląska Biblioteka Cyfrowa	665889	1922-01-01 00:00:00+00:00	1922-12-31 23:59:59+00:00	1	'. Ale i jego duch <em>konspiratorski</em> znalazł \nrównież i wtedy dla siebie pole do działania. Kiedy po \nbitwie'
27	konspiratorski	Elbląska Biblioteka Cyfrowa	665889	1922-01-01 00:00:00+00:00	1922-12-31 23:59:59+00:00	1	""" kilkoletnią praktykę <em>konspiratorską</em> i poznał wzdłuż i wsze'rz \nGalicję. Ale GoszczYliski nil,( mógł zaraz"""
28	konspiratorski	Kujawsko-Pomorska Biblioteka Cyfrowa	3327167	1935-01-01 00:00:00+00:00	1935-12-31 23:59:59+00:00	1	' tem, jak we \nwszystkiem, od wielkiego swojego poprzednika, <em>konspiratorska</em> polityka królewska'
29	konspiratorski	Śląska Biblioteka Cyfrowa	884063	1909-01-01 00:00:00+00:00	1909-12-31 23:59:59+00:00	1	' <em>konspiratorski</em> duch dawnego akademika rzymskiego. Pomimo znacznie zmienionych stosunków towarzyskich, mimo'
31	konspiratorski	Wielkopolska Biblioteka Cyfrowa	1211863	1901-01-01 00:00:00+00:00	1901-12-31 23:59:59+00:00	1	"' się nieraz ku rzeźbiarzowi, mówiąc ze stosownym \nprzyciskiem: „adleonesf"" — na co \non z <em>konspiratorską</em>'"
32	konspiratorski	Podkarpacka Biblioteka Cyfrowa	1290373	1894-01-01 00:00:00+00:00	1894-12-31 23:59:59+00:00	1	""" bie;.cego \n  SlulecIa' Wowczas kledy na zlemlach dawneJ Polski <em>konspiratorskie</em> prace celem"""
33	konspiratorski	Biblioteka Cyfrowa UMCS	363742	1905-01-01 00:00:00+00:00	1905-12-31 23:59:59+00:00	1	"' lIlz""se en sc/ne <em>konspiratorską</em>, \nwszak i on za temi kulisami niegdyś przebywał, wszak \ni jemu się'"
34	konspiratorski	Jagiellońska Biblioteka Cyfrowa	3844984	1928-10-01 00:00:00+00:00	1928-10-01 23:59:59+00:00	1	' była właściwie tajna, <em>konspiratorska</em>. \nZałożyciele instytucji społecznej, nazwanej Muzeum R zemiosł i'
35	konspiratorski	Mazowiecka Biblioteka Cyfrowa	3384495	1916-01-01 00:00:00+00:00	1916-12-31 23:59:59+00:00	1	'174 -\nI rozpoczęła się na nowo robota <em>konspiratorska</em>, robota, zwracająca się już nie przeciwko'
36	konspiratorski	Repozytorium Cyfrowe Instytutów Naukowych	840159	1911-01-01 00:00:00+00:00	1911-12-31 23:59:59+00:00	1	' zajął przygotowaniami do wybuchu. Nie przeszedszy jednak szkoły <em>konspiratorskiej</em>, za wiele rachując na'
37	konspiratorski	Śląska Biblioteka Cyfrowa	929851	1896-01-01 00:00:00+00:00	1896-12-31 23:59:59+00:00	1	'. Podobnie wybujała \nfantazya cechowała tez <em>konspiratorską</em> działalność Daniłowicza, \nktóry wIekiem najstarszy'
38	konspiratorski	Biblioteka Cyfrowa UMCS	365907	1903-01-01 00:00:00+00:00	1903-12-31 23:59:59+00:00	1	' w nienawiści do !>zlacbty, czy \ntei krańcowej chłopomanii. Był to mistrz w sztuce <em>konspiratorskiej</em>'
39	konspiratorski	Podkarpacka Biblioteka Cyfrowa	1290922	1933-01-01 00:00:00+00:00	1933-12-31 23:59:59+00:00	1	' roine organizacje na <em>konspiratorskie</em> narady. To tei, gdy wyszly przepi..y, zatwierdzone \nprzez cesarz a'
40	konspiratorski	e-biblioteka Uniwersytetu Warszawskiego	541032	1900-01-01 00:00:00+00:00	1900-12-31 23:59:59+00:00	1	' — pracujmy, róbmy!... \n— Prawda, poświadczył dyrektor, oglądając się z  \nprzyzwyczajenia <em>konspiratorskiego</em>'
41	konspiratorski	Mazowiecka Biblioteka Cyfrowa	1539391	1929-01-01 00:00:00+00:00	1929-12-31 23:59:59+00:00	1	' na wyrobienie w młodzieży poczucia szkodliwości\ntego rodzaju akcyj <em>konspiratorskich</em> w państwie, gdzie'
42	konspiratorski	Kujawsko-Pomorska Biblioteka Cyfrowa	597853	1914-01-01 00:00:00+00:00	1914-12-31 23:59:59+00:00	1	""" marzycielskie teorye i zabiegi <em>konspiratorskie</em> emigracyi. To wszystko były \\\\'ęzły, \nbard zo ściśle \\viążące"""
43	konspiratorski	Jagiellońska Biblioteka Cyfrowa	1020507	1908-01-01 00:00:00+00:00	1908-12-31 23:59:59+00:00	1	'. <em>konspiratorska</em>. \nWisniowskiego w vvschodniej Galicyi a propagandaw Galicyi zachodniej. W wyìszym jeszcze stopniu'
44	konspiratorski	Biblioteka Cyfrowa UMCS	363742	1905-01-01 00:00:00+00:00	1905-12-31 23:59:59+00:00	1	"', \nznał on dokładnie mechanizm <em>konspiratorski</em>, który gdy \nsię do niego przyłoży jeden palec, ""ynet całego'"
45	konspiratorski	Wielkopolska Biblioteka Cyfrowa	760622	1938-01-01 00:00:00+00:00	1938-12-31 23:59:59+00:00	1	' powstańczej oddał wielkie \nmalagi. Jednocześnie z podziemnym ruchem <em>konspiratorskim</em> w mieście prowadzono'
46	konspiratorski	Śląska Biblioteka Cyfrowa	864262	1909-01-01 00:00:00+00:00	1909-12-31 23:59:59+00:00	1	' zamierzała odtworzyć całokształt ruchów <em>konspiratorskich</em> i dotrzeć do źródła, które zrodziło wypadki'
47	konspiratorski	Śląska Biblioteka Cyfrowa	864262	1909-01-01 00:00:00+00:00	1909-12-31 23:59:59+00:00	1	' propagandy <em>konspiratorskiej</em>, zataczającej naj szersze \nkręgi, nie jest w możności pomimo najintenzywniejszej'
48	konspiratorski	Jagiellońska Biblioteka Cyfrowa	1024409	1907-01-01 00:00:00+00:00	1907-12-31 23:59:59+00:00	1	"' odslonié akcy  \n""<em>konspiratorska</em>., która w nast pstwie swem zrodzié musiala wypadki Narajowskie. Tej'"
49	konspiratorski	Dolnośląska Biblioteka Cyfrowa	552922	1935-01-01 00:00:00+00:00	1935-12-31 23:59:59+00:00	1	' <em>konspiratorskich</em> w państwie, gdzie wolność osobista \ni wolność sumienia jest konstytucyjnie zagwarantowana'
50	konspiratorski	Kujawsko-Pomorska Biblioteka Cyfrowa	626789	1907-01-01 00:00:00+00:00	1907-12-31 23:59:59+00:00	1	' polską, narodową organizacyą <em>konspiratorską</em>. »Przyjaciele Moskale«, do których Mickiewicz zwraca się w'
51	konspiratorski	Kujawsko-Pomorska Biblioteka Cyfrowa	596941	1917-01-01 00:00:00+00:00	1917-12-31 23:59:59+00:00	1	' silną pobudką do dalszej, tajnej pracy <em>konspiratorskiej</em>, dla której szkołą przygotowawczą były związki'
52	konspiratorski	Pomorska Biblioteka Cyfrowa	41886	1923-01-01 00:00:00+00:00	1923-12-31 23:59:59+00:00	1	' zbawienia narodu może dokonać \ntylko jakaś bohaterska jednostka przez podziemną pracę <em>konspiratorską</em>, \ngdzie'
53	konspiratorski	Pomorska Biblioteka Cyfrowa	45439	1888-01-01 00:00:00+00:00	1888-12-31 23:59:59+00:00	1	', który protokó \nlarniu zaznaczy odrębność zdania swego na wyroku. \nNieszczęśliwa epidemia <em>konspiratorska</em>'
54	konspiratorski	Pomorska Biblioteka Cyfrowa	49819	1903-01-01 00:00:00+00:00	1903-12-31 23:59:59+00:00	1	""" \nkonspektowy -a-e \nkonspiracj a-ej i-ej e \n-('ji \nkonspirator -a-rzy \n-ró\\v \n<em>konspiratorski</em> -a \n-le"""
55	konspiratorski	Wielkopolska Biblioteka Cyfrowa	1215094	1892-01-01 00:00:00+00:00	1892-12-31 23:59:59+00:00	1	'; zdolnościom jego <em>konspiratorskim</em> oddał pochwalę \nprokurator :Morawski, charakteryzując go przy rozprawie'
56	konspiratorski	Wielkopolska Biblioteka Cyfrowa	1215094	1892-01-01 00:00:00+00:00	1892-12-31 23:59:59+00:00	1	"'196 - \n  <em>konspiratorskich</em>"" oietylko mieli rewolwery pod ręką, ale meraz \nsklady wybuchowych materyj'"
57	konspiratorski	Jagiellońska Biblioteka Cyfrowa	1034916	1890-01-01 00:00:00+00:00	1890-12-31 23:59:59+00:00	1	""", nie dała się porwać na drogę \n<em>konspiratorsko</em>-rew olucyjną. \nPrzejdźmy jednak do historyi. \nVV r. t'S62"""
61	konspiratorski	Kujawsko-Pomorska Biblioteka Cyfrowa	597853	1914-01-01 00:00:00+00:00	1914-12-31 23:59:59+00:00	1	'-patryotycznym, ale i jako z tynl, który miał \nkilkoletnie doświadczenie <em>konspiratorskie</em> i poznał wzdłuż \ni'
62	konspiratorski	Repozytorium Cyfrowe Instytutów Naukowych	858469	1917-01-01 00:00:00+00:00	1917-12-31 23:59:59+00:00	1	"' <em>konspiratorskiej</em>. Dnia\n1 maja 1821 roku powstało z jego inicyatywy „Towarzystwo Patryotyczne"" o charakterze'"
63	konspiratorski	Archiwum Przeglądu Powszechnego	1446555	1892-01-01 00:00:00+00:00	1892-12-31 23:59:59+00:00	1	"' w swych „kryjówkach \n<em>konspiratorskich</em>"" nietylko mieli rewolwery pod ręką, ale nieraz \nskłady'"
64	konspiratorski	Śląska Biblioteka Cyfrowa	864262	1909-01-01 00:00:00+00:00	1909-12-31 23:59:59+00:00	1	' pozostały bez wpływu na ukształtowanie stosunków politycznych w Galicyi. Ruch <em>konspiratorski</em>, dążący do'
65	konspiratorski	ChronoPress	3426652	1947-01-05 00:00:00+00:00	1947-01-05 23:59:59+00:00	1	' fakty otoczenie domowe, makiety <em>konspiratorskich</em> lokali, towarzysze pracy, podróż, życie w kraju czy na'
66	konspiratorski	Wielkopolska Biblioteka Cyfrowa	816061	1911-01-01 00:00:00+00:00	1911-12-31 23:59:59+00:00	1	' rozdrażnioneg-o przez poprzednią barbarzyńską politykę rosyjską społeczeństwa, <em>konspiratorska</em> działalność'
67	konspiratorski	Wielkopolska Biblioteka Cyfrowa	818881	1891-01-01 00:00:00+00:00	1891-12-31 23:59:59+00:00	1	' Marcinkowskiego. Czy \nMarcinkowski sam tylko pokutował za ten pierwszy i ostatni <em>konspiratorski</em> poryw swego życia'
68	konspiratorski	Śląska Biblioteka Cyfrowa	863705	1930-01-01 00:00:00+00:00	1930-12-31 23:59:59+00:00	1	"', gdy mu grupa zagroziła usunięciem z ""Nabatu"". \nNaogół Turski wolał działalność <em>konspiratorską</em> od'"
69	konspiratorski	Kujawsko-Pomorska Biblioteka Cyfrowa	569271	1931-01-01 00:00:00+00:00	1931-12-31 23:59:59+00:00	1	' 1845 r. \nI tu zawrzało. W rok po założeniu uczelni trzech jej uczniów z koła <em>konspiratorskiego</em>'
70	konspiratorski	Wielkopolska Biblioteka Cyfrowa	776958	1863-01-01 00:00:00+00:00	1863-12-31 23:59:59+00:00	2	' kończył się \nperiod robot <em>konspiratorskich</em>, a zaczynała się jawna praca obywateli około mnożenia dobra'
71	konspiratorski	Jagiellońska Biblioteka Cyfrowa	3900640	1887-01-01 00:00:00+00:00	1887-12-31 23:59:59+00:00	2	' do głównej kwatery <em>konspiratorskiej</em>, i aresztował trzech\nczłonków komitetu centralnego w osobach'
72	konspiratorski	Jagiellońska Biblioteka Cyfrowa	3900675	1888-11-01 00:00:00+00:00	1888-11-01 23:59:59+00:00	2	' głównej kwatery <em>konspiratorskiej</em>, i aresztował trzech\nczłonków komitetu centralnego w osobach Walerjana'
73	konspiratorski	Bałtycka Biblioteka Cyfrowa	417319	1998-01-01 00:00:00+00:00	1998-12-31 23:59:59+00:00	1	' Laskach (które poznał już wcześniej), a następnie w Warszawie. angażując się w działalność <em>konspiratorską</em>'
74	konspiratorski	Wielkopolska Biblioteka Cyfrowa	1215094	1892-01-01 00:00:00+00:00	1892-12-31 23:59:59+00:00	1	'152 \n  słowach me bez teatralnego efektu: aż 00 ostatniej chwili drapował się w <em>konspiratorską</em>'
75	konspiratorski	Wielkopolska Biblioteka Cyfrowa	1215094	1892-01-01 00:00:00+00:00	1892-12-31 23:59:59+00:00	1	"' <em>konspiratorskiej</em> akcyi; slusznie \nnazwano ją 71 nieocenioną"". Po udanyro zamachu 1/13 marca radzono jej, aby'"
76	konspiratorski	Wielkopolska Biblioteka Cyfrowa	1215094	1892-01-01 00:00:00+00:00	1892-12-31 23:59:59+00:00	1	' <em>konspiratorską</em> kryjówką przy ul. Teleżnaja, \ngdzie odbywaly się schadzki komit. tu wykonawczego. Nazajutrz \npo'
77	konspiratorski	Wielkopolska Biblioteka Cyfrowa	1215094	1892-01-01 00:00:00+00:00	1892-12-31 23:59:59+00:00	1	"' talentem wynajdywania niedostępnych dla oka \npolicyi  kryjówek <em>konspiratorskich</em>"". \nO Ry s a k o w i e'"
78	konspiratorski	Wielkopolska Biblioteka Cyfrowa	1215094	1892-01-01 00:00:00+00:00	1892-12-31 23:59:59+00:00	1	' mieszkaniu swego wuja _kryjówkę \n<em>konspiratorską</em> lL i agitowała zawzięcie. Dalsze szczegóły i wynik \nprocesu'
79	konspiratorski	Zielonogórska Biblioteka Cyfrowa	239340	1982-01-01 00:00:00+00:00	1982-12-31 23:59:59+00:00	1	' spoglądały apatycznie. bez u miechu... \nNie mogłem na to patrzeć i wbrew przepisom <em>konspiratorskim</em> \nudałem'
80	konspiratorski	e-biblioteka Uniwersytetu Warszawskiego	533728	1875-01-01 00:00:00+00:00	1875-12-31 23:59:59+00:00	1	' odmawiając udziału. Znał on bowiem \nten mechanizm <em>konspiratorski</em>, który gdy się do niego  \nprzyłoży jeden'
81	konspiratorski	e-biblioteka Uniwersytetu Warszawskiego	533916	1877-01-01 00:00:00+00:00	1877-12-31 23:59:59+00:00	1	' <em>konspiratorskie</em>; są to \ntajne układy i zmowy, których przedmiotu nie łatwo odgadnąć, \nchoć cel zaboru znany. W'
82	konspiratorski	Podkarpacka Biblioteka Cyfrowa	1288456	1913-01-01 00:00:00+00:00	1913-12-31 23:59:59+00:00	1	'ETYKA ZYDA W STOSUNKU DO GO JA. 1503 \n  dow iydowskich i wszelkie formy <em>konspiratorskiego</em> wyzyski'
85	konspiratorski	e-biblioteka Uniwersytetu Warszawskiego	533913	1877-01-01 00:00:00+00:00	1877-12-31 23:59:59+00:00	1	""" Włoch \nnam się dostały po raz pierwszy przed czternastu laty, i z Włoch \ntakże'sztuka <em>konspiratorska</em>, do"""
86	konspiratorski	Kujawsko-Pomorska Biblioteka Cyfrowa	571289	1908-01-01 00:00:00+00:00	1908-12-31 23:59:59+00:00	1	' nie \nprzepomniał) i o Syberyi (jenerała Kopecia); o zabiegach dyplomatycznych i <em>konspiratorskich</em>'
87	konspiratorski	Wielkopolska Biblioteka Cyfrowa	1217239	1923-01-01 00:00:00+00:00	1923-12-31 23:59:59+00:00	1	' przedstawiciel kierunku <em>konspiratorsko</em>-rewolucyjnego, generał Ludwik Mierosławski nie miał \nopinji człowieka'
88	konspiratorski	Wielkopolska Biblioteka Cyfrowa	1235761	1909-01-01 00:00:00+00:00	1909-12-31 23:59:59+00:00	1	' późniejszym bohaterze. Na widownię wysuwa się on dopiero w r. 1860, poświęcając się pracy \n<em>konspiratorskiej</em> w'
89	konspiratorski	e-biblioteka Uniwersytetu Warszawskiego	541598	1877-01-01 00:00:00+00:00	1877-12-31 23:59:59+00:00	1	' Kalkstein, mimo wszelkich wadliwości i ułomności swej akcyi <em>konspiratorsko</em>-politycznej, bardzo'
90	konspiratorski	Podkarpacka Biblioteka Cyfrowa	1286912	1910-01-01 00:00:00+00:00	1910-12-31 23:59:59+00:00	1	' KuU..a, zrodzony \nw cpocc <em>konspiratorskiej</em>. doehowal si<t w calości p. n. ..GI6wnc warunki, pod'
92	konspiratorski	Bałtycka Biblioteka Cyfrowa	400224	1980-01-01 00:00:00+00:00	1980-12-31 23:59:59+00:00	1	' <em>konspiratorską</em>. Pracował w ramach Frontu Odrodzenia Polski. czynnie uczestniczył w akcjach ratowania Żydów, od'
93	konspiratorski	Kujawsko-Pomorska Biblioteka Cyfrowa	569271	1931-01-01 00:00:00+00:00	1931-12-31 23:59:59+00:00	1	' następnego \npowstania Marjan Langiewicz, który stał wówczas na czele \ntrzemeszeńskiego <em>konspiratorskiego</em> koła'
94	konspiratorski	Kujawsko-Pomorska Biblioteka Cyfrowa	569271	1931-01-01 00:00:00+00:00	1931-12-31 23:59:59+00:00	1	"' Śremię tak sil\'nemi węzły złączonem z Pomorzem, <em>konspiratorska</em> organizacja uczniowska ""Towarzystwa'"
95	konspiratorski	e-biblioteka Uniwersytetu Warszawskiego	533690	1875-01-01 00:00:00+00:00	1875-12-31 23:59:59+00:00	1	'», źe tracimy jedną z  \nnajwyższych powag w kraju naszym, tak ubogim w-powagi, że <em>konspiratorska</em>'
96	konspiratorski	Jagiellońska Biblioteka Cyfrowa	1044902	1928-03-24 00:00:00+00:00	1928-03-24 23:59:59+00:00	1	""" <em>konspiratorskich</em> \nw panstwie, gdzie wolnos6 nsobish i \\'!0Ínos': sU11licnia jest k01ì.. \nstytucyjnie zagwarantowana"""
97	konspiratorski	e-biblioteka Uniwersytetu Warszawskiego	534611	1871-01-01 00:00:00+00:00	1871-12-31 23:59:59+00:00	1	' opozycyjnych, i dążności <em>konspiratorskich</em>. Gazeta  \nNarodowa nie śmie wypowiedzieć, coby to była za unia bez'
98	konspiratorski	Małopolska Biblioteka Cyfrowa	640985	1937-01-01 00:00:00+00:00	1937-12-31 23:59:59+00:00	1	' razem ciemny lud i sfanatyzowany kler. Za jego plecami działa jednak <em>konspiratorska</em> mafia gen'
99	konspiratorski	Wielkopolska Biblioteka Cyfrowa	777795	1888-01-01 00:00:00+00:00	1888-12-31 23:59:59+00:00	1	' niedoświadczenie polowe, \nmimochcąc z emigracyi zapowietrzył wszystkie następne pokolenia <em>konspiratorskie</em> głośną te'
100	konspiratorski	Pomorska Biblioteka Cyfrowa	41767	1924-01-01 00:00:00+00:00	1924-12-31 23:59:59+00:00	1	"'---198--- \nMarsowi, mówiąo ze stosownym przyciskiem: ""ad leonesl"" --a na co on z <em>konspiratorską</em>'"
101	konspiratorski	Jagiellońska Biblioteka Cyfrowa	951864	1919-01-01 00:00:00+00:00	1919-01-31 23:59:59+00:00	1	' bowiem najmniejszej\nwiadomości. Prócz tego nie zaprzestał też i dalszej pracy <em>konspiratorskiej</em> w swToim'
102	konspiratorski	Jagiellońska Biblioteka Cyfrowa	951864	1919-01-01 00:00:00+00:00	1919-01-31 23:59:59+00:00	1	' podchorążych zawiązanego. Równocześnie bowiem\nzupełnie niezależnie od <em>konspiratorskich</em> działań Zaliwskiego'
103	konspiratorski	Jagiellońska Biblioteka Cyfrowa	951864	1919-01-01 00:00:00+00:00	1919-01-31 23:59:59+00:00	1	' <em>konspiratorskich</em>, to\nna oweni posiedzeniu w Marymoncie 23-go sierpnia kiedy relacya\nzdana z pertraktacyi z wodzami'
104	konspiratorski	Biblioteka Cyfrowa Uniwersytetu Łódzkiego	1302480	1928-02-20 00:00:00+00:00	1928-02-20 23:59:59+00:00	1	' <em>konspiratorskich</em> w państwie, gdzie wolność osobista \ni wolność sumienia jest konstytucyjnie zagwarantowana'
105	konspiratorski	Kujawsko-Pomorska Biblioteka Cyfrowa	601781	1923-01-01 00:00:00+00:00	1923-12-31 23:59:59+00:00	1	"'- \n\'"" bawką stała by si  i ofiarą tego ducha <em>konspiratorskiego</em>, który w krew i kość Polski wszedł, cechuje'"
106	konspiratorski	Podkarpacka Biblioteka Cyfrowa	1287791	1907-01-01 00:00:00+00:00	1907-12-31 23:59:59+00:00	1	' absolu... \ntnie nie rozumie, ze zachodzi przepasc r6inic pomi dzy meto.. \nd  jawnego a <em>konspiratorskiego</em>'
107	konspiratorski	Archiwum Przeglądu Powszechnego	1446744	1937-01-01 00:00:00+00:00	1937-12-31 23:59:59+00:00	1	' razem ciemny lud i sfanatyzowany kler. Za jego plecami działa jednak <em>konspiratorska</em> mafia gen'
108	konspiratorski	Śląska Biblioteka Cyfrowa	915510	1895-01-01 00:00:00+00:00	1895-12-31 23:59:59+00:00	1	' akademickiej zrobila się  riązka \n<em>konspiratorska</em>, krzykliwa, zarozumiala, butna, która rzuciwszy się w ręce'
109	konspiratorski	Małopolska Biblioteka Cyfrowa	579828	1978-10-31 00:00:00+00:00	1978-10-31 23:59:59+00:00	1	'~ mlodzieZ wysuwala\nsi~ w dzialaniach <em>konspiratorskich</em> na pierwszy plan.\nZ oSrodków miejskich nici szly na'
110	konspiratorski	Podkarpacka Biblioteka Cyfrowa	1286912	1910-01-01 00:00:00+00:00	1910-12-31 23:59:59+00:00	1	', aby rozniecie iskrlt nowego powstania \nw r. 1843, tu tworzy si<t witzel prac <em>konspiratorskich</em> w r. 46'
111	konspiratorski	Jagiellońska Biblioteka Cyfrowa	3844984	1928-10-01 00:00:00+00:00	1928-10-01 23:59:59+00:00	1	' rozwija, \nMuzeum już może, zaprzestawszy swej <em>konspiratorskiej</em> działalności, podążać z otw artą przyłbicą'
113	konspiratorski	Jagiellońska Biblioteka Cyfrowa	3925201	1929-01-01 00:00:00+00:00	1929-12-31 23:59:59+00:00	1	' Błociszewskim, który brał czynny \nudział w <em>konspiratorskie</em>.\\ akcji 1846 roku, a potem przebywał \nna emigracji w'
114	konspiratorski	e-biblioteka Uniwersytetu Warszawskiego	533729	1876-01-01 00:00:00+00:00	1876-12-31 23:59:59+00:00	1	' porywów lwowskich patryotów i zezwoliła na to, aby Polska \nrewolucyjna i <em>konspiratorska</em> wystąpiła tak'
115	konspiratorski	Śląska Biblioteka Cyfrowa	864731	1908-01-01 00:00:00+00:00	1908-12-31 23:59:59+00:00	1	' sieć <em>konspiratorską</em> i używała do tego celu całego legionu emisaryuszy. \nW Wiedniu wczas spostrzeżono'
116	konspiratorski	Śląska Biblioteka Cyfrowa	873383	1934-01-01 00:00:00+00:00	1934-12-31 23:59:59+00:00	1	' nie mogła być zupełnie legalna. Nie byliśmy mówcami, ale \nmieliśmy wcale dobry spryt <em>konspiratorski</em>'
117	konspiratorski	Śląska Biblioteka Cyfrowa	861695	1938-01-01 00:00:00+00:00	1938-12-31 23:59:59+00:00	1	""" Warszawy robotniczej - rewolucyjnej i <em>konspiratorskiej</em> w czasacb poprzedzającycb' wybucb wielkiej 'Wojny"""
118	konspiratorski	Śląska Biblioteka Cyfrowa	925789	1892-01-01 00:00:00+00:00	1892-12-31 23:59:59+00:00	1	' rozczulony, stanął pod \nchorągwią krzyża uzbrojony w swój dawny <em>konspiratorski</em> sztylet; zmienił proporzec, a'
119	konspiratorski	Śląska Biblioteka Cyfrowa	919519	1937-01-01 00:00:00+00:00	1937-12-31 23:59:59+00:00	1	' przeciw monarchii, to jednak wypadek \nten - wobecjego charakteru <em>konspiratorskiego</em> - nie jest wykluczony'
120	konspiratorski	Repozytorium Cyfrowe Instytutów Naukowych	847576	1899-01-01 00:00:00+00:00	1899-12-31 23:59:59+00:00	1	' późno w noc\ngłośnemi echami o posępne mury pałaców rzymskich, pamiętających\ntyle <em>konspiratorskich</em>'
121	konspiratorski	e-biblioteka Uniwersytetu Warszawskiego	533715	1874-01-01 00:00:00+00:00	1874-12-31 23:59:59+00:00	1	' \nczyją pomocą mistrz konspiracyi Napoleon HI doszedł do tronu i  \nprowadził dalej swoją <em>konspiratorską</em>'
122	konspiratorski	Wielkopolska Biblioteka Cyfrowa	796809	1882-01-01 00:00:00+00:00	1882-12-31 23:59:59+00:00	1	' zrobiła się wiazka <em>konspiratorska</em>, krzykliwa, zarozumiała, butna, która rzuciwszy \nSię W ręce'
123	konspiratorski	Wielkopolska Biblioteka Cyfrowa	789835	1903-01-01 00:00:00+00:00	1903-12-31 23:59:59+00:00	1	' konspiracyą, jest ”politykowaniem. Owa potajemna nauka wytwarza atmosferę <em>konspiratorską</em> i nie zdadzą się na'
124	konspiratorski	Biblioteka Cyfrowa Ośrodka KARTA	191528	1981-11-09 00:00:00+00:00	1981-11-09 23:59:59+00:00	1	"' <em>konspiratorskiej</em>. W marcu i904 roku Piłsudski usiłując \nutworzyć ""koalicję wszystkich przeciwników caratu'"
125	konspiratorski	Śląska Biblioteka Cyfrowa	861433	1934-01-01 00:00:00+00:00	1934-12-31 23:59:59+00:00	1	' działalności <em>konspiratorskiej</em> występował jako orędownik oświaty ludu przez zaprowadzanie szkółek \ni'
126	konspiratorski	Jagiellońska Biblioteka Cyfrowa	3909633	1877-01-01 00:00:00+00:00	1877-12-31 23:59:59+00:00	1	' ostrożności, że jest do pewnego stopnia <em>konspiratorską</em> a że będąc \nnią, pociąga za sobą pewne zwykłe swe'
127	konspiratorski	Podlaska Biblioteka Cyfrowa	3780460	1928-01-01 00:00:00+00:00	1928-12-31 23:59:59+00:00	1	' młodzieży poczucia szkodliwościtego rodzaju \n  ,akcyj <em>konspiratorskich</em> w panstwie, gdzie wolność osobista'
128	konspiratorski	Biblioteka Cyfrowa UMCS	365358	1990-01-01 00:00:00+00:00	1990-12-31 23:59:59+00:00	1	' doświadczenia <em>konspiratorskiego</em> organizatorów i ich młodzeńczą lekkomyślność. Zachował więc wobec Konfederacji'
129	konspiratorski	Biblioteka Cyfrowa Ośrodka KARTA	214262	1981-01-01 00:00:00+00:00	1981-12-31 23:59:59+00:00	1	' w działalność Piłsudskiego. \nTalent, energia i zdolności <em>konspiratorsko</em> - organizacyjne \nkreują go'
130	konspiratorski	Kujawsko-Pomorska Biblioteka Cyfrowa	685982	1931-01-01 00:00:00+00:00	1931-12-31 23:59:59+00:00	1	'. Nie miałem nigdy zdolności agitacyjno-<em>konspiratorskich</em>, więc przychodziło mi to z trudnością, tern'
131	konspiratorski	Jagiellońska Biblioteka Cyfrowa	3922191	1870-01-01 00:00:00+00:00	1870-12-31 23:59:59+00:00	1	' elektryzował zmartwiałe, jak ongi porywał za sobą nawet zapaleńców , na polu <em>konspiratorskiej</em> pracy i w czasie'
132	konspiratorski	Śląska Biblioteka Cyfrowa	864731	1908-01-01 00:00:00+00:00	1908-12-31 23:59:59+00:00	1	' spoczywal z natury rzeczy \nw Polsce; tutaj też akcya ich <em>konspiratorska</em> rozstawila najliczniejsze sieci. W'
133	konspiratorski	Biblioteka Cyfrowa UMCS	365851	1936-01-01 00:00:00+00:00	1936-12-31 23:59:59+00:00	1	' <em>konspiratorskiej</em> \nz towarzyszem Wiktorem - józefem Piłsudskim. Organizowanie masówek \nrobotniczych. zdobywanie i'
134	konspiratorski	Małopolska Biblioteka Cyfrowa	574763	1898-01-01 00:00:00+00:00	1898-12-31 23:59:59+00:00	1	"' wszczynali, według ordynacyi z r. 1646 artykułu 15"". \nDucha <em>konspiratorskiego</em>, który opanował cech cały'"
135	konspiratorski	Wielkopolska Biblioteka Cyfrowa	3815211	1989-01-01 00:00:00+00:00	1989-12-31 23:59:59+00:00	1	', destrukcyjny, <em>konspiratorski</em>, terrorystycmy, \nchciał zmienić społeczeństwo przez ekspropriację polityczną'
136	konspiratorski	e-biblioteka Uniwersytetu Warszawskiego	533895	1877-01-01 00:00:00+00:00	1877-12-31 23:59:59+00:00	1	' <em>konspiratorska</em>, miotając się we wszystkich kierunkach, nie znając granic \nw potwarzy, chwytając się każdej'
137	konspiratorski	Wielkopolska Biblioteka Cyfrowa	792939	1908-01-01 00:00:00+00:00	1908-12-31 23:59:59+00:00	1	' <em>konspiratorskie</em> działanie centralizacyi nie było zdrożnem \nw zasadzie, lecz wtem, że nie było kierowane żadna'
138	konspiratorski	Wielkopolska Biblioteka Cyfrowa	1190978	1933-01-01 00:00:00+00:00	1933-12-31 23:59:59+00:00	1	'Nie wymaga się też po Was narażania się na ryzykowne, a niepewne \nszanse gier <em>konspiratorskich</em>'
139	konspiratorski	Zielonogórska Biblioteka Cyfrowa	235300	1981-01-01 00:00:00+00:00	1981-12-31 23:59:59+00:00	1	' roku uoieka ze Bzpitala 1 dalej \nDOdaje się pracy <em>konspiratorskiej</em>. W aaarcu i9.o4. roJtu Piłsudski'
140	konspiratorski	Wielkopolska Biblioteka Cyfrowa	776980	1913-01-01 00:00:00+00:00	1913-12-31 23:59:59+00:00	1	' przeszedłszy jednak szkoły \n<em>konspiratorskiej</em>, za Wiele rachując na pozorną \nobojętnośêrządu pruskiego, nie'
141	konspiratorski	Jagiellońska Biblioteka Cyfrowa	1015180	1918-01-01 00:00:00+00:00	1918-12-31 23:59:59+00:00	1	"' ""literatury i sztuki r). \n  1) N, p, poslugiwanie sifo: w ce]ach <em>konspiratorskich</em> wytworamtJhatury'"
142	konspiratorski	Kujawsko-Pomorska Biblioteka Cyfrowa	685982	1931-01-01 00:00:00+00:00	1931-12-31 23:59:59+00:00	1	' <em>konspiratorskich</em>, gorący demokrata z odcieniem rewolucjonisty, czynny, ruchliwy, odważny, zdradzał bardzo \nwiele z'
143	konspiratorski	Śląska Biblioteka Cyfrowa	916945	1893-01-01 00:00:00+00:00	1893-12-31 23:59:59+00:00	1	', obserwowali <em>konspiratorski</em> obyczaj; o tem, co się \n  1) Nawet liczba poległych podczas starć ulicznych w'
145	konspiratorski	Biblioteka Cyfrowa - Regionalia Ziemi Łódzkiej	102138	1937-05-30 00:00:00+00:00	1937-05-30 23:59:59+00:00	1	"', <em>konspiratorską</em>. Powszechnym hasł e m ""przez oświatę do potęgi"" wiążą się zwaśnione odłamy społeczne. Poidzie na'"
146	konspiratorski	e-biblioteka Uniwersytetu Warszawskiego	509193	1876-01-01 00:00:00+00:00	1876-12-31 23:59:59+00:00	1	' ostrożności, że jest do pewnego stopnia <em>konspiratorską</em> a że \nbędąc nią, pociąga za sobą pewne zwykłe swe'
147	konspiratorski	Biblioteka Cyfrowa Uniwersytetu Łódzkiego	1563068	1930-01-01 00:00:00+00:00	1930-12-31 23:59:59+00:00	1	' ucieczkę z więzienia dyktatora Langiewicza. Działalność <em>konspiratorska</em> ś.p. Dybowskiego spowodowała Jego'
148	konspiratorski	Wielkopolska Biblioteka Cyfrowa	777903	1900-01-01 00:00:00+00:00	1900-12-31 23:59:59+00:00	1	' dawnej Polski. W schadzce <em>konspiratorskiej</em> w lasku Bielańskim dnia 3 maja 182l roku i w procesie toczącym'
149	konspiratorski	Wielkopolska Biblioteka Cyfrowa	776934	1900-01-01 00:00:00+00:00	1900-12-31 23:59:59+00:00	1	' polską pod zaborem rosyjskim, tamże kontynuując nieszczęsną politykę \n<em>konspiratorską</em> i rewolucyjną, która'
150	konspiratorski	Wielkopolska Biblioteka Cyfrowa	746872	1867-01-01 00:00:00+00:00	1867-12-31 23:59:59+00:00	1	' życia samodzielnego \nzawołany, przygotowywał się i zdążał do obozu sposobami <em>konspiratorskiemi</em>, jakie'
151	konspiratorski	Wielkopolska Biblioteka Cyfrowa	1219097	1876-01-01 00:00:00+00:00	1876-12-31 23:59:59+00:00	1	' ostrożności, że jest do pewnego stopnia <em>konspiratorską</em>. a że \nbędąc nią, pocią.ga za sobą pewne zwykłe swe'
152	konspiratorski	e-biblioteka Uniwersytetu Warszawskiego	545396	1917-01-01 00:00:00+00:00	1917-12-31 23:59:59+00:00	1	' jednak działalności <em>konspiratorskiej</em>. Dnia \n1 maja 1821 roku powstało z jego inicyatywy „Towarzystwo'
153	konspiratorski	Elbląska Biblioteka Cyfrowa	639819	1928-01-01 00:00:00+00:00	1928-12-31 23:59:59+00:00	1	' <em>konspiratorski</em> zacierania śladów przed rosyjską policją szpiegowską. \nMam tu na myśli dzieło p. t . \n„Prołog'
154	konspiratorski	Mazowiecka Biblioteka Cyfrowa	3787203	1900-01-01 00:00:00+00:00	1900-12-31 23:59:59+00:00	1	' do wybuchu. Nie przeszedłszy jednak\nszkoły <em>konspiratorskiej</em>, za wiele rachując na pozorną obojętność'
155	konspiratorski	Wielkopolska Biblioteka Cyfrowa	777257	1879-01-01 00:00:00+00:00	1879-12-31 23:59:59+00:00	1	' skupiało się życie publiczne, i W <em>konspiratorskich</em> schadzkach żadnego nie brał udziału. \n  \n \n'
156	konspiratorski	Jagiellońska Biblioteka Cyfrowa	3870606	1900-01-01 00:00:00+00:00	1900-12-31 23:59:59+00:00	1	'. Nie przeszedłszy jednak \nszkoły <em>konspiratorskiej</em>, za wiele rachując na pozorną obojętność rządu'
157	konspiratorski	Podlaska Biblioteka Cyfrowa	252711	1933-01-01 00:00:00+00:00	1933-12-31 23:59:59+00:00	1	' organizacje na <em>konspiratorskie</em> narady. To też, gdy wyszły przepisy, zatwierdzone \nprzez cesarza 22 listopada'
158	konspiratorski	Archiwum Miesięcznika Znak	1447561	1989-12-01 00:00:00+00:00	1989-12-31 23:59:19+00:00	1	', <em>konspiratorskiej</em> i utanskiej . \nWzorzec mlod oSci egzaltowanej. (...) Powiedzmy sobie otwarci e, i:e wedlug \nowego'
159	konspiratorski	Wielkopolska Biblioteka Cyfrowa	1187242	1933-01-01 00:00:00+00:00	1933-12-31 23:59:59+00:00	1	' się współpracowników naznaczało piętnem \nwspólności idei i <em>konspiratorskiej</em> solidarności. Bodźcem do'
160	konspiratorski	Wielkopolska Biblioteka Cyfrowa	746872	1867-01-01 00:00:00+00:00	1867-12-31 23:59:59+00:00	1	' wstięęt <em>konspiratorski</em>, tego charażàštlnçeldodejmie; każdy bowiem jak i autor w obec \nwistości wystepować'
162	konspiratorski	Jagiellońska Biblioteka Cyfrowa	3929393	1906-12-16 00:00:00+00:00	1906-12-16 23:59:59+00:00	1	' w maskaradzie <em>konspiratorskiej</em>, \nszamotającego się w usiłowaniach bezharmonijnych. Dla Mickiewicza'
163	konspiratorski	Jagiellońska Biblioteka Cyfrowa	3893223	1925-11-22 00:00:00+00:00	1925-11-22 23:59:59+00:00	3	' rzeczywistych większą ilość \nerzatzów składających się z <em>konspiratorskich</em> \npuhaczy nocnych, z gęsi a nawet z'
164	konspiratorski	Śląska Biblioteka Cyfrowa	1623535	1926-01-01 00:00:00+00:00	1926-12-31 23:59:59+00:00	1	' zabrał się do „roboty11 patrjotycznej, która \nwtedy z konieczności musiała mieć charakter <em>konspiratorski</em>'
165	konspiratorski	Wielkopolska Biblioteka Cyfrowa	1233231	1936-01-01 00:00:00+00:00	1936-12-31 23:59:59+00:00	1	' kozakami, poprzez niebezpieczną pracę <em>konspiratorską</em>, poprzez kazamaty \nrosyjskie i legendarny już dziś'
166	konspiratorski	Jagiellońska Biblioteka Cyfrowa	1040774	1907-08-10 00:00:00+00:00	1907-08-10 23:59:59+00:00	1	' pracy <em>konspiratorskiej</em>. Powołują go do komitetu Centralnego Narodowego, następnie do składu Rządu'
167	konspiratorski	Tarnowsko-Galicyjska Biblioteka Cyfrowa	38009	1998-01-01 00:00:00+00:00	1998-12-31 23:59:59+00:00	1	' <em>konspiratorskiej</em>. Zwykle cichy i milcz !cy, ze spuszczonelni oczalni, \nktóre zakrywały okulary, o długich blond'
168	konspiratorski	Wielkopolska Biblioteka Cyfrowa	777833	1880-01-01 00:00:00+00:00	1880-12-31 23:59:59+00:00	1	' <em>konspiratorskiej</em> schadzce w lasku Bielańskim d. 3 Maja 1821. Później, W pro~ \ncesie toczącym się przed sądem'
169	konspiratorski	Wielkopolska Biblioteka Cyfrowa	3815422	1985-01-01 00:00:00+00:00	1985-12-31 23:59:59+00:00	1	', talentem <em>konspiratorskim</em>. Potrafił też zdobyć sobię wplyw \nna mlodzież, głównie dzięki prowadzonej przez'
170	konspiratorski	Zielonogórska Biblioteka Cyfrowa	239901	1982-01-01 00:00:00+00:00	1982-12-31 23:59:59+00:00	1	"' ""<em>konspiratorskie</em>"" wiersze Te Jota. bąłU ot.o we \'lIiktora Woroszylskiego. \nZ kobi taka postawa ujawnia się również'"
171	konspiratorski	Wielkopolska Biblioteka Cyfrowa	1212168	1936-01-01 00:00:00+00:00	1936-12-31 23:59:59+00:00	1	', \ni do tego wielkiego dzieła w żmudnej pracy <em>konspiratorskiej</em> się zabrał. Od powstania r. 1863'
172	konspiratorski	Wielkopolska Biblioteka Cyfrowa	1222644	1929-01-01 00:00:00+00:00	1929-12-31 23:59:59+00:00	1	' główną uwagę \nna przeszłe prace polityczne. Dość du a swoboda w odkrywaniu swej <em>konspiratorskiej</em>'
173	konspiratorski	Cyfrowa Biblioteka Narodowa Polona	1363872	1937-01-24 00:00:00+00:00	1937-01-24 23:59:59+00:00	1	' postać Lanigana \ni bardzo bawarskiego Woskowskiego. Damięcki jest jak wiadomo w <em>konspiratorsko</em>'
174	konspiratorski	Bałtycka Biblioteka Cyfrowa	3793556	1932-01-01 00:00:00+00:00	1932-12-31 23:59:59+00:00	1	' wSpółzałożycielami liibawskiego \n<em>konspiratorskiego</em> towarzystwa gimnazjalnego byli dzisiejszy lekarz \nw Gdansku dr'
175	konspiratorski	Radomska Biblioteka Cyfrowa	96363	1933-01-01 00:00:00+00:00	1933-12-31 23:59:59+00:00	1	' często różne organizacje na <em>konspiratorskie</em> narady. To też, gdy wyszły przepisy, zatwierdzone \nprzez ces'
177	konspiratorski	Kolbuszowska Biblioteka Cyfrowa	273830	1965-01-01 00:00:00+00:00	1965-12-31 23:59:59+00:00	1	' Kolbuszowej/ „prawą ręką Tyszkiewiczów w\nsprawach <em>konspiratorskich</em>”41/ dokonał ewakuacji magazynu broni z'
178	konspiratorski	Bialska Biblioteka Cyfrowa	3939622	1929-01-01 00:00:00+00:00	1929-12-31 23:59:59+00:00	1	""" poczucia szkodliwości \n1ego rodzaju akcyi <em>konspiratorskich</em> w państwie, gdzie wolność osobista \n': wolność"""
181	konspiratorski	Jagiellońska Biblioteka Cyfrowa	1122064	1928-03-25 00:00:00+00:00	1928-03-25 23:59:59+00:00	1	' poswi ca si  \npracy rewolucyjnej. Wydaje <em>konspiratorskie</em> pismo \nRobotnlk w I. 1894 -1900, oddz.ialuillce'
182	konspiratorski	Wielkopolska Biblioteka Cyfrowa	776689	1937-01-01 00:00:00+00:00	1937-12-31 23:59:59+00:00	1	' \nniezależnie od towarzystwa Tomasza Zana <em>konspiratorska</em> organizacja, mająca na celu ujednostajnienie i'
183	konspiratorski	Jagiellońska Biblioteka Cyfrowa	1040763	1907-03-02 00:00:00+00:00	1907-03-02 23:59:59+00:00	1	' lat działalD;o- . \nści <em>konspiratorskiej</em> ukrywał sie Dmowski z kOD1 - . \nczności, że nie dziw, iż'
184	konspiratorski	e-biblioteka Uniwersytetu Warszawskiego	448851	1913-01-01 00:00:00+00:00	1913-12-31 23:59:59+00:00	1	"' <em>konspiratorskiej</em> działalności. \nMoże „harciarstwo"", czyli „skauting"" potrafi wyrobić \nz młodzieży naszej człowieka'"
185	konspiratorski	Podlaska Biblioteka Cyfrowa	255339	1921-01-01 00:00:00+00:00	1921-12-31 23:59:59+00:00	1	' czynnikiem jest tutaj\n„ryzykanctwo— ponieważ jest ono nałogowym nakazem m ózgów <em>konspiratorskich</em>,\nnakazem'
186	konspiratorski	Mazowiecka Biblioteka Cyfrowa	31310	1938-01-31 00:00:00+00:00	1938-01-31 23:59:59+00:00	1	' Ipsyche <em>konspiratorską</em> ludzi podziemnych\nwniosła akcja. Kwaśnieli konspiratorzy w sporach i doktrynach, aż'
187	konspiratorski	Jagiellońska Biblioteka Cyfrowa	942928	1925-08-06 00:00:00+00:00	1925-08-06 23:59:59+00:00	1	' zapełnia więzienia i obozy jeńców, prowadzi robotę <em>konspiratorską</em>, tworząc P. O. W., i gotuje się do nowych'
188	konspiratorski	Jagiellońska Biblioteka Cyfrowa	3893208	1926-02-14 00:00:00+00:00	1926-02-14 23:59:59+00:00	2	' niepowołanych nie wszeeł do łoży, nadawała się jako \no środek wszelkich <em>konspiratorskich</em> poczynań. i tak'
189	konspiratorski	Chełmska Biblioteka Cyfrowa	1527259	1921-01-01 00:00:00+00:00	1921-12-31 23:59:59+00:00	1	' zabiegach dyplomatycznych i <em>konspiratorskich</em> (znakomite pamiętniki podskarbiego \nOgińskiego o robotach na'
190	konspiratorski	Chełmska Biblioteka Cyfrowa	338681	1937-01-24 00:00:00+00:00	1937-01-24 23:59:59+00:00	1	' postae Lanigal1a \ni bardzo bawarskiego W oskowskiego. Dami cki jest jak wiadomo w <em>konspiratorsko</em>'
191	konspiratorski	Podlaska Biblioteka Cyfrowa	263315	1932-01-01 00:00:00+00:00	1932-12-31 23:59:59+00:00	1	' drukarnie: słowem wszystko, co było potrzebne do pracy <em>konspiratorskiej</em>, szlo przez ręce Sulkiewicza. Tego'
192	konspiratorski	Podlaska Biblioteka Cyfrowa	254743	1875-01-01 00:00:00+00:00	1875-12-31 23:59:59+00:00	1	' \nten mechanizm <em>konspiratorski</em>, który gdy się do niego przyłoży jeden palec, całego wnet człowieka'
193	konspiratorski	Chełmska Biblioteka Cyfrowa	338823	1938-01-01 00:00:00+00:00	1938-12-31 23:59:59+00:00	1	' <em>konspiratorskiej</em> w czasach poprzed ających wybuch wielkiej wojny. Pierwsza scena powieści dzieje się l maja 1901 r'
194	konspiratorski	Małopolska Biblioteka Cyfrowa	595679	1934-03-19 00:00:00+00:00	1934-03-19 23:59:59+00:00	1	""" \n lbogata powieść. \n Działalność <em>konspiratorska</em> \n'Józet'a Piłsudskiego przed za- \nWieruchą dziejowa, odbiła"""
195	konspiratorski	Radomska Biblioteka Cyfrowa	82344	1907-01-01 00:00:00+00:00	1907-12-31 23:59:59+00:00	1	' ly na niekorzyM, to wlasciwych przyczyn 1-0 w <em>konspiratorskiej</em> naturze naszej roboty, 2-0 w sposobie'
196	konspiratorski	Wielkopolska Biblioteka Cyfrowa	777871	1883-01-01 00:00:00+00:00	1883-12-31 23:59:59+00:00	1	""" <em>konspiratorsko</em>-politycznćj bard7o przeszk d ' b ?mij \n, . . ' ' 4 ~ a ZaJąCą 1 mewygodną figurą. Ĺ jednéj strony"""
197	konspiratorski	Radomska Biblioteka Cyfrowa	99680	1981-01-01 00:00:00+00:00	1981-12-31 23:59:59+00:00	1	""" <em>konspiratorsko</em> - organizacyjne \nkr  ,  ') ns przywódcę Polskiej Partu. Socjalistycznej. Wywarł \nna jej program"""
198	konspiratorski	Jagiellońska Biblioteka Cyfrowa	3852068	1936-11-01 00:00:00+00:00	1936-11-30 23:59:59+00:00	1	' służbę obowiązku narodowego, przodując \nw tajnych,, <em>konspiratorskich</em> pracach organ zacyjnych wśród'
200	konspiratorski	Podkarpacka Biblioteka Cyfrowa	1286567	1912-01-01 00:00:00+00:00	1912-12-31 23:59:59+00:00	1	' pomija on w przedstawieniu \nwypadków z r. 1846 te momenta (pr6cz idei <em>konspiratorskich</em>) kt6re do za'
201	konspiratorski	Jagiellońska Biblioteka Cyfrowa	3900967	1875-01-01 00:00:00+00:00	1875-12-31 23:59:59+00:00	1	' postaraliśmy,sję przedstawićtylko artykuł poświęcony rocznicy powstania, bez żazamiarów <em>konspiratorskich</em>'
202	konspiratorski	e-biblioteka Uniwersytetu Warszawskiego	1642493	1907-01-01 00:00:00+00:00	1907-12-31 23:59:59+00:00	1	"' pracy, że tak powiem, „<em>konspiratorsko</em>-emisarjuszowskiej"", \nczterech poetów polskich: Kyszarda'"
203	konspiratorski	Śląska Biblioteka Cyfrowa	864011	1916-01-01 00:00:00+00:00	1916-12-31 23:59:59+00:00	1	"' <em>konspiratorskim</em> w ruchu robotniczym, całą duszą pracował nad ""unarodowieniem"" socyalizmu polskiego \njeszcze w t'"
204	konspiratorski	Śląska Biblioteka Cyfrowa	860299	1939-01-01 00:00:00+00:00	1939-12-31 23:59:59+00:00	1	'-<em>konspiratorskich</em>. Praca \nprzygotowawcza musiała być zachowana w tajemnicy, \nbo władze niemieckie nie miały zamiaru'
205	konspiratorski	Śląska Biblioteka Cyfrowa	921119	1928-01-01 00:00:00+00:00	1928-12-31 23:59:59+00:00	1	' poważniej od powyższych organizacji aczkolwiek z pewną pozą <em>konspiratorską</em>, brało ideje ubojowienia'
206	konspiratorski	Jagiellońska Biblioteka Cyfrowa	997892	1925-12-13 00:00:00+00:00	1925-12-13 23:59:59+00:00	1	' wycofania si  z zycia \n<em>konspiratorskiego</em>. 0 sprawie tej jednak \ndowiedziala si  prokuratorja i wytoczyla'
207	konspiratorski	Jagiellońska Biblioteka Cyfrowa	3857025	1898-01-10 00:00:00+00:00	1898-01-10 23:59:59+00:00	1	""" który zahaczały się <em>konspiratorskie</em> nici, łączące tajemnie młodzież różnych uniwersytetów' ze sobą, i"""
208	konspiratorski	Śląska Biblioteka Cyfrowa	921117	1925-01-01 00:00:00+00:00	1925-12-31 23:59:59+00:00	1	"' fenomenalnym zdolnościom <em>konspiratorskim</em> \nw ruchu robotniczym, .całą duszą pracował nad ""unarodowieniem'"
209	konspiratorski	Śląska Biblioteka Cyfrowa	921130	1927-01-01 00:00:00+00:00	1927-12-31 23:59:59+00:00	1	' <em>konspiratorskich</em> i patrjotycznych polskich, \nprzeto rząd ówczesny utworzył we Wiedniu osobne \nseminarjum duchowne'
210	konspiratorski	Jagiellońska Biblioteka Cyfrowa	3833577	1926-09-11 00:00:00+00:00	1926-09-11 23:59:59+00:00	1	"'"" \n— \nhistorja książki i jej \nznaczenie w kwestji samokształcenia. Także drukarstwo <em>konspiratorskie</em> w Rosji'"
211	konspiratorski	Wielkopolska Biblioteka Cyfrowa	776549	1875-01-01 00:00:00+00:00	1875-12-31 23:59:59+00:00	1	' <em>konspiratorskiej</em> polityce i zaprzedania braci Wielkopolskiej \nDzienilcowa I/Varszazoskienzui I/Viudomościom Peter'
212	konspiratorski	Jagiellońska Biblioteka Cyfrowa	944986	1930-09-07 00:00:00+00:00	1930-09-07 23:59:59+00:00	1	' przez cały czas»\npowszechny podziw.\nProces tarnopolski był niejako zamknięciem tajnej, <em>konspiratorskiej</em>'
213	konspiratorski	Mazowiecka Biblioteka Cyfrowa	32337	1988-01-01 00:00:00+00:00	1988-12-31 23:59:59+00:00	1	'  <em>konspiratOrskie</em>  działania  przyjął  na  \nprzećnowanie  \nod  niezńajomego  mężczyzny.  Gdy  właściciel  walizy'
214	konspiratorski	Jagiellońska Biblioteka Cyfrowa	3870864	1931-01-01 00:00:00+00:00	1931-01-31 23:59:59+00:00	1	'/ynarodawńajifjy wpłyyv \nApuehtinowskiej szkoły. Jak dalece praca <em>konspiratorska</em> i porozumienie wśród młodzieży'
215	konspiratorski	e-biblioteka Uniwersytetu Warszawskiego	1642526	1907-01-01 00:00:00+00:00	1907-12-31 23:59:59+00:00	1	' obawy chłopców i ten <em>konspiratorski</em> sposób formowania niewinnych lekcji języka ojczystego i historji'
216	konspiratorski	Małopolska Biblioteka Cyfrowa	721327	1870-01-15 00:00:00+00:00	1870-01-15 23:59:59+00:00	1	' \n  ministrami. Ale nie widzieliśmy nigdzie i \ngdy walki wytaczanej na <em>konspiratorskiej</em>, \ntak się wyrazimy, kolei'
217	konspiratorski	Śląska Biblioteka Cyfrowa	861197	1928-01-01 00:00:00+00:00	1928-12-31 23:59:59+00:00	1	' również i cechy <em>konspiratorskie</em> wykazał przybyły w lutym 1862 do Warszawy \nJarosław Dąbrowski. Margrabia'
218	konspiratorski	Śląska Biblioteka Cyfrowa	920957	1877-01-01 00:00:00+00:00	1877-12-31 23:59:59+00:00	1	' potwarzy na polską ludność  \nkrólestwa polskiego. Potwarze rzucane na polonizm, za niby \n<em>konspiratorskie</em>'
219	konspiratorski	Cyfrowa Biblioteka Narodowa Polona	1321984	1886-01-01 00:00:00+00:00	1886-12-31 23:59:59+00:00	1	' pozostawały te same, ale wyraz ich zmienił się zupełnie. Zadziwiło go to. \n— \nPosiadasz rysy <em>konspiratorskie</em>'
220	konspiratorski	Tarnowsko-Galicyjska Biblioteka Cyfrowa	38180	1995-01-01 00:00:00+00:00	1995-12-31 23:59:59+00:00	1	"""<; \n<em>konspiratorską</em> w Słu;'bic Zwycięstwu Polski, pr/cnlia nowa ncj \nw styc7niu 1940 r. na Zwią/ck Walki Zbrojncj, d w"""
221	konspiratorski	Jagiellońska Biblioteka Cyfrowa	3916527	1894-10-01 00:00:00+00:00	1894-10-01 23:59:59+00:00	1	', że jest owocem czasów <em>konspiratorskich</em> z przed r. 18oi, i niejako wypływem jego stosunków do sfer'
222	konspiratorski	Jagiellońska Biblioteka Cyfrowa	987890	1904-04-15 00:00:00+00:00	1904-04-15 23:59:59+00:00	2	' własną rękę, po <em>konspiratorsku</em>\ndrugą politykę w interesie rządu i w inyśl wskazówek rządowych, ile razy'
224	konspiratorski	Jagiellońska Biblioteka Cyfrowa	934279	1928-03-15 00:00:00+00:00	1928-03-15 23:59:59+00:00	1	' <em>konspiratorskich</em> w Państwie,\ngdzie wolność osobista i wolność sumienia\njest konstytucygnie zagwarantowana.\nNASZ'
225	konspiratorski	Chełmska Biblioteka Cyfrowa	339928	1936-01-01 00:00:00+00:00	1936-12-31 23:59:59+00:00	1	' ulicznej \nz kozakami, poprzez niebezpieczną pracę <em>konspiratorską</em>; poprzez kazamaty \nrosyjskie i legendarny'
226	konspiratorski	e-biblioteka Uniwersytetu Warszawskiego	446980	1912-01-01 00:00:00+00:00	1912-12-31 23:59:59+00:00	3	', albo nawet przeciwko całej akcyi? Słowem, baron \nHeinold posługiwał się tutaj metodą <em>konspiratorską</em>'
227	konspiratorski	Kujawsko-Pomorska Biblioteka Cyfrowa	558561	1924-01-27 00:00:00+00:00	1924-01-27 23:59:59+00:00	2	' przeprowadzenia sanacji skarbu. co chwila niepokoję opinję pubUcznł wiadomości o \ndziałaniach <em>konspiratorskich</em>. To'
228	konspiratorski	Jagiellońska Biblioteka Cyfrowa	1032697	1895-07-14 00:00:00+00:00	1895-07-14 23:59:59+00:00	2	', niestety, \nw obec naporu podziemnej powodzi <em>konspiratorskich</em> knowań, które nurtowały wówczas \nEuropę i nie'
229	konspiratorski	Jagiellońska Biblioteka Cyfrowa	943824	1929-08-07 00:00:00+00:00	1929-08-07 23:59:59+00:00	1	' \npracy  <em>konspiratorskiej</em>  i  przygotowawczej. \nA  kiedy  tworzyły  sie  Legjony  i  trzeba  było \nw'
230	konspiratorski	Cyfrowa Biblioteka Narodowa Polona	1364861	1924-08-23 00:00:00+00:00	1924-08-23 23:59:59+00:00	1	' poświęcenia, najwyższe maxima wydajności \npracy nawskroś <em>konspiratorskiej</em> w w arunkach istotnie najcięższych'
231	konspiratorski	Jagiellońska Biblioteka Cyfrowa	3893194	1926-06-06 00:00:00+00:00	1926-06-06 23:59:59+00:00	1	' niepodległości będziemy m u sieli nowe pokolenie wychowywać całkiem \ninaczej, gdyż robota <em>konspiratorska</em> całkiem'
232	konspiratorski	Jagiellońska Biblioteka Cyfrowa	939937	1922-05-02 00:00:00+00:00	1922-05-02 23:59:59+00:00	1	'\nogólno - narodowej organlzacyi <em>konspiratorskiej</em>.\nKonspiratorsk® organizacyą była bowiem\n.JConfedefraciya'
233	konspiratorski	Jagiellońska Biblioteka Cyfrowa	3890761	1901-07-05 00:00:00+00:00	1901-07-05 23:59:59+00:00	1	' niewdzięczne. O ile w Królestwie \nmłodzież tego autoramentu może prowadzić \njakąś robotę <em>konspiratorską</em>'
234	konspiratorski	Jagiellońska Biblioteka Cyfrowa	3893351	1929-03-31 00:00:00+00:00	1929-03-31 23:59:59+00:00	1	' wyeliminować jeszcze uwydatnianie się \nczynnika <em>konspiratorskiego</em>, wówczas rząd osią \ngnałby bardzo wiele. W'
235	konspiratorski	Jagiellońska Biblioteka Cyfrowa	940711	1922-10-24 00:00:00+00:00	1922-10-24 23:59:59+00:00	1	' wykwitem planower, konspiracyjnej akcyi części młodzieży ukr. Obraz\ntej <em>konspiratorskiej</em> działalności'
236	konspiratorski	Biblioteka Cyfrowa Ośrodka KARTA	202550	1984-01-01 00:00:00+00:00	1984-12-31 23:59:59+00:00	1	' <em>konspiratorska</em>, przejawians na każdym kroku przez reżym radziecki. Gęsta mgła tajemnicy, \nktórą szczelnie otoczył'
237	konspiratorski	e-biblioteka Uniwersytetu Warszawskiego	535194	1893-01-01 00:00:00+00:00	1893-12-31 23:59:59+00:00	1	'  \ngłuche, niczem niezakłócone milczenie. \nTrójka <em>konspiratorska</em> rozumowała: — Nie. \nTego już było za wiele'
238	konspiratorski	Mazowiecka Biblioteka Cyfrowa	32845	1978-01-01 00:00:00+00:00	1978-12-31 23:59:59+00:00	1	'  zagadnieniem  nonsensu  <em>konspiratorsko</em>-wojskowego.  Dla  mnie  jest  ona  w  pewnym  sensie  konsekwencją'
239	konspiratorski	Mazowiecka Biblioteka Cyfrowa	32453	1986-01-01 00:00:00+00:00	1986-12-31 23:59:59+00:00	1	"',  \nskładających  się  z  dziesięciu  ""setek"")  \nWaszkowski  dalej  rozwłja  swoje  umiejętności  <em>konspiratorskie</em>'"
240	konspiratorski	Biblioteka Cyfrowa Uniwersytetu Wrocławskiego	197472	1905-03-19 00:00:00+00:00	1905-03-19 23:59:59+00:00	1	' <em>konspiratorska</em> snać więc na \nlepszych oparta jest podstawach, niżli \nnawet płatna instytucya policyi śledczej'
241	konspiratorski	Wielkopolska Biblioteka Cyfrowa	694484	1900-08-12 00:00:00+00:00	1900-08-12 23:59:59+00:00	1	' wszystb \nbyło tylko wymysłem, <em>konspiratorską</em> sztuczką, mającą na eh \nwykradzenie jeńca z niewoli. \n(Ciąg'
242	konspiratorski	Jagiellońska Biblioteka Cyfrowa	986725	1930-11-30 00:00:00+00:00	1930-11-30 23:59:59+00:00	1	' <em>konspiratorską</em> — czyny tych, których nazwiska snają tylko wtajemniczeni, którzy kryć się muszą nieraz i przed'
243	konspiratorski	Jagiellońska Biblioteka Cyfrowa	3927650	1900-02-09 00:00:00+00:00	1900-02-09 23:59:59+00:00	1	' tylko <em>konspiratorską</em> sztuczką, której\noelem: wmówienie w ogół, że tajna organizacja naprawdę istnieje'
244	konspiratorski	Jagiellońska Biblioteka Cyfrowa	3893217	1925-10-11 00:00:00+00:00	1925-10-11 23:59:59+00:00	1	' w P a ryżu, \nWobec tego francuscy masoni by skazani \nna <em>konspiratorski</em> żywot i na tajne schadzki \nw'
245	konspiratorski	Cyfrowa Biblioteka Narodowa Polona	1363185	1916-12-02 00:00:00+00:00	1916-12-02 23:59:59+00:00	1	' pałacem \nUjazdowskim, taką samą rezolutnością <em>konspiratorską</em> tryska „fajfer” Kuba, niewidzialnemu \nnićmi'
246	konspiratorski	Krośnieńska Biblioteka Cyfrowa	290890	1977-01-01 00:00:00+00:00	1977-12-31 23:59:59+00:00	1	' oczywiście, funkcjonowały komórki KPP. Do pracy <em>konspiratorskiej</em> przystępuje Adam \nPolak w 17 roku życia'
247	konspiratorski	Jagiellońska Biblioteka Cyfrowa	958144	1916-02-10 00:00:00+00:00	1916-02-10 23:59:59+00:00	1	', <em>konspiratorskiej</em> skrzętności zawdzięczał jeden mimo wszystkiego sukces:\noto udało mu się rzucić w świat znaną'
248	konspiratorski	Biblioteka Cyfrowa - Regionalia Ziemi Łódzkiej	180097	1926-06-28 00:00:00+00:00	1926-06-28 23:59:59+00:00	1	"';::\n· czki <em>konspiratorskie</em>..\n\nrząd\n\nWłochy\n\nII\nnowoczesnena.rod·zieniema tak wiełkiej,\nkości l1DJl""OOU i jego'"
249	konspiratorski	Jagiellońska Biblioteka Cyfrowa	3925562	1905-06-11 00:00:00+00:00	1905-06-11 23:59:59+00:00	1	' bezpośrednie realizowanie pojęć nabytych przez młodzież, brak <em>konspiratorskiego</em> — tak właści¬\n\n \n'
250	konspiratorski	e-biblioteka Uniwersytetu Warszawskiego	523926	1851-01-01 00:00:00+00:00	1851-12-31 23:59:59+00:00	1	' wojownicy mający rozwinąć oriflamę, gdzie jest jego Wandeaf \nCzyż ruch <em>konspiratorski</em> bardziej czuć się daje'
251	konspiratorski	Śląska Biblioteka Cyfrowa	921214	1914-01-01 00:00:00+00:00	1914-12-31 23:59:59+00:00	1	' \nupale bez jedzenia, napoju i tytoniu. W mieście panowało ogólne oburzenie, a trójka \n<em>konspiratorska</em> ani'
252	konspiratorski	Kujawsko-Pomorska Biblioteka Cyfrowa	610665	1981-01-01 00:00:00+00:00	1981-01-31 23:59:59+00:00	1	'. \nBrygadierowi urodziły  i  trojaczki. \n- Jesli taka okazja, to trzeba. \nZdrowie trojaczków! \n<em>Konspiratorski</em>'
253	konspiratorski	Jagiellońska Biblioteka Cyfrowa	989234	1931-06-26 00:00:00+00:00	1931-06-26 23:59:59+00:00	1	"' pięknych\noczach „kuzynki"", karcące spojrzenie przyjaciela i <em>konspiratorską</em> minę wyrozumiałego Patricka'"
254	konspiratorski	Jagiellońska Biblioteka Cyfrowa	954690	1913-11-16 00:00:00+00:00	1913-11-16 23:59:59+00:00	2	"' odegrania roli\noswobodzicielki"" braci Bułgaiów.\nW pracy rewolucyjno-<em>konspiratorskiej</em> budzącej się Bułgaryi'"
255	konspiratorski	Małopolska Biblioteka Cyfrowa	707269	1937-11-29 00:00:00+00:00	1937-11-29 23:59:59+00:00	1	' 1900- 1914 pro— \nwadzą <em>konspiratorską</em> robotę niepodległościowa na terenie Warszawy i Synów. którzy w'
256	konspiratorski	Wielkopolska Biblioteka Cyfrowa	718665	1918-07-30 00:00:00+00:00	1918-07-30 23:59:59+00:00	1	"' <em>konspiratorskim</em>. \n  Według ..Kijowska Myśl"" zapadł 25. lipca wyrok W. \n«prawie Dobryego: Skazani zostali'"
257	konspiratorski	Jagiellońska Biblioteka Cyfrowa	947792	1921-08-13 00:00:00+00:00	1921-08-13 23:59:59+00:00	1	', był\noddawna w zmowie z członkami sekty niezadowolonej z działalności <em>konspiratorskiej</em> Babpy. Jeden z'
258	konspiratorski	Wojewódzka i Miejska Biblioteka Publiczna im. dr. Witolda Bełzy w Bydgoszczy	1518458	1931-11-06 00:00:00+00:00	1931-11-06 23:59:19+00:00	1	"' oczach ,kuzynki"", karcacc \nspojrzenie p|\'7._j jaciclu i <em>konspiratorską</em> \nminę narożumiułego P mirka. Jego'"
259	konspiratorski	Jagiellońska Biblioteka Cyfrowa	3893202	1926-04-18 00:00:00+00:00	1926-04-18 23:59:59+00:00	1	' \n<em>konspiratorska</em> deprawuje charaktery a pewna cześć jego otoczenia jest doszczętnie \nzdeprawowana co widzimy choćby'
260	konspiratorski	Jagiellońska Biblioteka Cyfrowa	961953	1930-11-06 00:00:00+00:00	1930-11-06 23:59:59+00:00	1	' „społecznikostwa“ atmosfery.\nCzy odchodzące powoli z życia pokolenie inteligencji romantycznej, <em>konspiratorskiej</em>'
261	konspiratorski	Jagiellońska Biblioteka Cyfrowa	3893343	1928-09-16 00:00:00+00:00	1928-09-16 23:59:59+00:00	1	"' antypaństwowe i <em>konspiratorskie</em>, wówczas gdyby \nktóry z „braci"" chciał oponować takiej robocie z powołaniem się'"
262	konspiratorski	Jagiellońska Biblioteka Cyfrowa	939294	1921-05-30 00:00:00+00:00	1921-05-30 23:59:59+00:00	1	' <em>konspiratorska</em>, a potem ckliwość erotjczna i prostacki\nakt mordu, mającj rzekomo uzmjsławiać pierwotność natury'
263	konspiratorski	Jagiellońska Biblioteka Cyfrowa	1101897	1928-09-21 00:00:00+00:00	1928-09-21 23:59:59+00:00	1	"' sanator6w. Niekt6rzy zaczf;1i juz zawracaé z drogi, inni <em>konspiratorsko</em> usposobieni \nzaprzysif;gaé"" sobie w'"
264	konspiratorski	e-biblioteka Uniwersytetu Warszawskiego	4163687	1936-01-01 00:00:00+00:00	1936-12-31 23:59:59+00:00	1	' <em>konspiratorski</em> I \nOtóż bardzo żałuję, że nie zapisałem w swoim czasie opowiadania \nnieboszczyka generała Piotra'
265	konspiratorski	Wielkopolska Biblioteka Cyfrowa	3283359	1938-01-11 00:00:00+00:00	1938-01-11 23:59:59+00:00	2	' wszystkiego, \nco polskie. To kontynuacja ideałów młodości, dalszej pracy <em>konspiratorskiej</em> i wychowawczej. \nN'
266	konspiratorski	Małopolska Biblioteka Cyfrowa	720001	1921-04-08 00:00:00+00:00	1921-04-08 23:59:59+00:00	1	' przygody, w najzuchwalsze \nczyny gardzącego śmiercią junactwa i pomysłowości <em>konspiratorskiej</em>, która'
267	konspiratorski	Pomorska Biblioteka Cyfrowa	64325	1923-04-29 00:00:00+00:00	1923-04-29 23:59:59+00:00	1	' \nwne rozstrzygnięcie nad tern, czy barba- <em>konspiratorskiej</em> budowali wiarą niezrórzyńska pięść'
268	konspiratorski	Małopolska Biblioteka Cyfrowa	767694	1927-03-06 00:00:00+00:00	1927-03-06 23:59:59+00:00	1	' systemem <em>konspiratorskim</em>, wytwarzając dokoła siebie atmosferę zatrutą miaizimatami_ nieufności, podejrzeń'
269	konspiratorski	Wielkopolska Biblioteka Cyfrowa	1284394	1882-03-31 00:00:00+00:00	1882-03-31 23:59:59+00:00	1	"'\' ,,(.nego czasu"" p r o w o KUj ą c e m i odezwami l <em>konspiratorskiemi</em> fabrykatami na to \nwab i l i ludzi z'"
270	konspiratorski	Małopolska Biblioteka Cyfrowa	776616	1915-08-07 00:00:00+00:00	1915-08-07 23:59:59+00:00	1	', dzięki <em>konspiratorskiej</em> rewolucyjnej agitacyi, zręcznie taffl \nprowadzonej. Wychodzący tam dziennik'
271	konspiratorski	Jagiellońska Biblioteka Cyfrowa	1156327	1924-03-26 00:00:00+00:00	1924-03-26 23:59:59+00:00	1	""" wpnvwne \noko, wy'\\Vtbione przez długi okres iycia (<em>konspiratorskiego</em> zapewne). \npoza tern same rzucania"""
272	konspiratorski	Wielkopolska Biblioteka Cyfrowa	1283491	1926-06-13 00:00:00+00:00	1926-06-13 23:59:59+00:00	1	' \nkomuniści nie zasypiają, stale organizując w Polsce <em>konspiratorskie</em> komitety znajdujemy przyczynę do obaw'
273	konspiratorski	e-biblioteka Uniwersytetu Warszawskiego	513580	1886-01-01 00:00:00+00:00	1886-12-31 23:59:59+00:00	1	' Azji jest niebezpieczniejszym, niż w \nEuropie. Panuje tutaj ogólny podziw dla <em>konspiratorskiego</em>'
274	konspiratorski	Śląska Biblioteka Cyfrowa	864153	1915-01-01 00:00:00+00:00	1915-12-31 23:59:59+00:00	1	' pieuiądze na pomoc dla leglonów- od :Moskali. t>ą to \nzresztą sztuczki <em>konspiratorSkie</em>, mające 1I1taloną'
275	konspiratorski	Śląska Biblioteka Cyfrowa	921167	1911-01-01 00:00:00+00:00	1911-12-31 23:59:59+00:00	1	', że śledztwo miało wogole wykryć wszystkie sprężyny <em>konspiratorskie</em> w \ncałym kraju. \nŚledztwo przeciw'
276	konspiratorski	Jagiellońska Biblioteka Cyfrowa	1067338	1911-07-30 00:00:00+00:00	1911-07-30 23:59:59+00:00	1	' wykryé wszystkie \nprzez s!!d skazany. na karr: pir:cioJetniego wir:- spr zy.ny <em>konspiratorskie</em> w calym'
277	konspiratorski	Jagiellońska Biblioteka Cyfrowa	959200	1900-10-04 00:00:00+00:00	1900-10-04 23:59:59+00:00	1	'!..-\n — \tPrawda  —  poświadczył  dyrektor,  oglądając \nsię  z  przyzwyczajenia  <em>konspiratorskiego</em>.  —  Pięć'
278	konspiratorski	Jagiellońska Biblioteka Cyfrowa	1064740	1904-12-25 00:00:00+00:00	1904-12-25 23:59:59+00:00	1	' nauczylo. Dlatego td Donkiszoci, którzyby nawrócit chcieli do <em>konspiratorskich</em> \ntradycyj roku 1863, znaleát'
279	konspiratorski	Wielkopolska Biblioteka Cyfrowa	3266228	1922-07-25 00:00:00+00:00	1922-07-25 23:59:59+00:00	1	"' cele wybitnie <em>konspiratorsko</em>-bojówkowe, ogłasza stale swoje komunikaty \nw ""Robotniku na naczelnem'"
280	konspiratorski	e-biblioteka Uniwersytetu Warszawskiego	513594	1886-01-01 00:00:00+00:00	1886-12-31 23:59:59+00:00	1	' uwierzytelnionym, tem bardziej, źe, jak się pokazuje, spryt <em>konspiratorski</em> popchnął twórców zamachu stanu do dzieła'
281	konspiratorski	Wielkopolska Biblioteka Cyfrowa	719361	1929-08-28 00:00:00+00:00	1929-08-28 23:59:59+00:00	1	'. \n  (23 \n  nych przecIw osobie Jacku, oraz ich \n<em>konspiratorskie</em> aniny, więcej denerwowały Morrisa, niż'
282	konspiratorski	Wielkopolska Biblioteka Cyfrowa	3266560	1924-10-15 00:00:00+00:00	1924-10-15 23:59:59+00:00	1	' do jakiejś \ntajemniczej organizacji <em>konspiratorskiej</em>, która powzięła \nsobie za zadanie zamordować b'
283	konspiratorski	Jagiellońska Biblioteka Cyfrowa	1019794	1907-09-10 00:00:00+00:00	1907-09-10 23:59:59+00:00	1	', <em>konspiratorskie</em> zebrania i t. p. . \nTak n. p. nieda wno obiegla pras  niemieek  rozgloszona przez berliIískie'
284	konspiratorski	Wielkopolska Biblioteka Cyfrowa	1283542	1926-05-30 00:00:00+00:00	1926-05-30 23:59:59+00:00	1	' w nim najlepiej wyjawia korpusu lub też całej armji. \nPiłsudski swoją nałogową <em>konspiratorską</em> robo'
285	konspiratorski	Małopolska Biblioteka Cyfrowa	746148	1974-08-04 00:00:00+00:00	1974-08-04 23:59:59+00:00	1	' postawny oficer, choć \nw cywilu, poznać w nim od razu \nwojaka. Bez żadnych <em>konspiratorskich</em> wstępów'
286	konspiratorski	Jagiellońska Biblioteka Cyfrowa	973104	1926-11-06 00:00:00+00:00	1926-11-06 23:59:59+00:00	1	' Warszawska Poranna14 pisze :\nNaiwny dotóryneryzm <em>konspiratorski</em>, wychodząc ż oderwanych za\nłożeń, nie rozumie'
287	konspiratorski	Kujawsko-Pomorska Biblioteka Cyfrowa	3808971	1908-01-01 00:00:00+00:00	1939-12-31 23:59:59+00:00	1	' pragnąłby mieć. \n  Do czego te rewolucje, \nen <em>konspiratorski</em> gest, \ngdy na te pragnienia i chuci \ntak proste'
288	konspiratorski	Wielkopolska Biblioteka Cyfrowa	3261444	1926-06-22 00:00:00+00:00	1926-06-22 23:59:59+00:00	1	' nałogi <em>konspiratorskie</em>, których nigdy się nie pozbędzie, bo one \nzbyt głęboko wkorzeniły się w jego'
289	konspiratorski	Wojewódzka i Miejska Biblioteka Publiczna im. dr. Witolda Bełzy w Bydgoszczy	1515567	1921-09-21 00:00:00+00:00	1921-09-21 23:59:19+00:00	1	""" partyjnictwo, tylko w innej _. nle_ \nScjprop'ei w postaci To _samo <em>konspiratorskie</em> narzuca? \n  'i \n7 \n  \n \n"""
290	konspiratorski	Wielkopolska Biblioteka Cyfrowa	1596809	1923-05-31 00:00:00+00:00	1923-05-31 23:59:59+00:00	1	"' <em>konspiratorskim</em> ""Strzelcu"", z którego \nrekrutował sobie oficerów. Całe to wychowanie zdążało do spajania żołnierza'"
291	konspiratorski	e-biblioteka Uniwersytetu Warszawskiego	1640591	1864-01-01 00:00:00+00:00	1864-12-31 23:59:59+00:00	1	""" toku śledztwa; tymczasem cała ta' sprawa redukuje się do owych igraszek <em>konspiratorskich</em> młodzieży"""
292	konspiratorski	Śląska Biblioteka Cyfrowa	921349	1923-01-01 00:00:00+00:00	1923-12-31 23:59:59+00:00	1	'!), sądząc w swej <em>konspiratorskiej</em> głowie, \nże Polska, to jakiś socyalistyczny konwentykiel, w którym'
293	konspiratorski	Jagiellońska Biblioteka Cyfrowa	3904482	1931-10-25 00:00:00+00:00	1931-10-25 23:59:59+00:00	1	' \nne do <em>konspiratorskiej</em> i separatystycznej \ndziałalności, świadczy o tem urywek z wynurzeń ósmej'
294	konspiratorski	Jagiellońska Biblioteka Cyfrowa	3904683	1930-05-18 00:00:00+00:00	1930-05-18 23:59:59+00:00	1	', albo uświadamianej \nprzez niepowołane czynniki w podstępny i t. zw. <em>konspiratorski</em> sposób. \nDlatego'
295	konspiratorski	Jagiellońska Biblioteka Cyfrowa	1063781	1900-01-27 00:00:00+00:00	1900-01-27 23:59:59+00:00	1	' cych po Królestwie Kongresowem <em>konspiratorskie</em> wydawnictwa, \nlecz tylko wobec tych, co wiedzeni zapalem'
296	konspiratorski	e-biblioteka Uniwersytetu Warszawskiego	501561	1879-01-01 00:00:00+00:00	1879-12-31 23:59:59+00:00	1	' młodzi Indzie \nzrobili tedy miny bardzo <em>konspiratorskie</em> dla swoich \nprzyjaciół, a melancholiczue dla'
297	konspiratorski	Jagiellońska Biblioteka Cyfrowa	1019526	1907-12-31 00:00:00+00:00	1907-12-31 23:59:59+00:00	1	"""<tdzié \nj  znOWll w podziemial <em>konspiratorskie</em>, i korzystaj e z tego zv\\'ycifistwa, odwazyl si  na pami"""
298	konspiratorski	Pomorska Biblioteka Cyfrowa	64255	1923-04-07 00:00:00+00:00	1923-04-07 23:59:59+00:00	1	' dokumentów, ookarżanie o prow Berlinie, Romanowicza w Gdańsku, wadzenie roboty <em>konspiratorskiej</em> itd., a'
299	konspiratorski	e-biblioteka Uniwersytetu Warszawskiego	1645776	1891-01-01 00:00:00+00:00	1891-12-31 23:59:59+00:00	1	' przeznaczony na \nprzeciwdziałanie <em>konspiratorskim</em> agitacyom byłego króla hanowerskiego Jerzego, obrócony został'
300	konspiratorski	Śląska Biblioteka Cyfrowa	924720	1924-01-01 00:00:00+00:00	1924-12-31 23:59:59+00:00	1	""" po <em>konspiratorsku</em>. bez uzyskania zgo- licędy odpowiednich czynnikóvl, władz miej- \\Y poczuciu' tej"""
301	konspiratorski	Małopolska Biblioteka Cyfrowa	730391	1937-03-22 00:00:00+00:00	1937-03-22 23:59:59+00:00	1	' \npochodzi z okresu <em>konspiratorskiej</em> działalności Goszczyńskiego w kraju (1821— \n1838), większość z czasów'
302	konspiratorski	Jagiellońska Biblioteka Cyfrowa	987845	1904-03-02 00:00:00+00:00	1904-03-02 23:59:59+00:00	1	' wyraźnej uchwale Koła.\nI ci przez trzy miesiące luzem chadzający zwolennicy metody <em>konspiratorskiej</em> będą za'
303	konspiratorski	Jagiellońska Biblioteka Cyfrowa	980237	1922-08-30 00:00:00+00:00	1922-08-30 23:59:59+00:00	1	' przeciwieństwie organizacji <em>konspiratorskiej</em> — dawało swojemu oficerowi.\nBłędów w tej, ustawie jest tak wiele, że'
304	konspiratorski	Jagiellońska Biblioteka Cyfrowa	1146611	1919-03-06 00:00:00+00:00	1919-03-06 23:59:59+00:00	1	', czynność <em>konspiratorska</em> bywała często pożądu , 8 pociągała \nniehezpiep.zeństw m snrf\\{)l  h1h terRtwa. \n   \n '
305	konspiratorski	Małopolska Biblioteka Cyfrowa	731418	1937-09-19 00:00:00+00:00	1937-09-19 23:59:59+00:00	1	' domu i <em>konspiratorską</em> naukę w\njęzyku polskim na\npensji w pobliżu ogrodu Saskiego, uprawianą pod'
306	konspiratorski	Jagiellońska Biblioteka Cyfrowa	960399	1923-07-11 00:00:00+00:00	1923-07-11 23:59:59+00:00	1	'  kliką  <em>konspiratorską</em>. \nKonspiratorstwo  to  nałóg.  Konspirator  jako  czynnik  państwowotwórczy  jest'
307	konspiratorski	Jagiellońska Biblioteka Cyfrowa	975237	1908-04-24 00:00:00+00:00	1908-04-24 23:59:59+00:00	1	'  spuszczał  z  oka  i  pracował  wytrwale,  raz  po  raz  próbując \nszczęścia  na  niwie  <em>konspiratorskiej</em>'
308	konspiratorski	Jagiellońska Biblioteka Cyfrowa	957165	1927-07-28 00:00:00+00:00	1927-07-28 23:59:59+00:00	1	' i tam utworzył <em>konspiratorskie</em> kółko\nze studentów Uniwersytetu i innej młodzieży.\n„Z końcem 186Ó'
309	konspiratorski	Jagiellońska Biblioteka Cyfrowa	969585	1907-08-22 00:00:00+00:00	1907-08-22 23:59:59+00:00	1	'. „Polnische Post“, który służy jedynie <em>konspiratorskim</em> celom polskości “ itd. Warto\nzwrócić uwagę na te obawy'
310	konspiratorski	Jagiellońska Biblioteka Cyfrowa	971882	1926-05-16 00:00:00+00:00	1926-05-16 23:59:59+00:00	1	' niewątpliwie ujawn* śledztwo władz policyjnych, które tę <em>konspiratorską</em> działalność zdemaskowały.\nSport.\n(p'
311	konspiratorski	Wielkopolska Biblioteka Cyfrowa	1178328	1902-04-12 00:00:00+00:00	1902-04-12 23:59:59+00:00	1	""" zbawienia w ta'nych robotach. (› za \nniedojrzała młodzież nie ostaiy się u nas to te \nzy <em>konspiratorskie</em> a i"""
312	konspiratorski	Jagiellońska Biblioteka Cyfrowa	969695	1907-07-15 00:00:00+00:00	1907-07-15 23:59:59+00:00	1	"', słowem wszelkie przypadki i cuda żywota <em>konspiratorskiego</em>\ndzisiejszych „bojowników"". Nie odbierze to'"
313	konspiratorski	Kujawsko-Pomorska Biblioteka Cyfrowa	606895	1877-01-01 00:00:00+00:00	1877-12-31 23:59:59+00:00	1	' <em>konspiratorskie</em> usposobienie, a to w tym \nwył cznie celu. aby podtrzymywać sztucznie namiętną nienawiść Rosyan'
314	konspiratorski	Jagiellońska Biblioteka Cyfrowa	996144	1908-07-11 00:00:00+00:00	1908-07-11 23:59:59+00:00	1	"' \'tajemna spółka w „Deutsches\nHaus"" schodziła się na swe <em>konspiratorsko</em>-rozbójnicze posiedzenia i tam'"
315	konspiratorski	Jagiellońska Biblioteka Cyfrowa	984176	1904-07-13 00:00:00+00:00	1904-07-13 23:59:59+00:00	1	'. Ponieważ na lekcyę było już za\npóźno, wpadł tedy do Jurka, do Stefana, chcąc w wirze\n<em>konspiratorskiej</em> akcyi'
316	konspiratorski	Jagiellońska Biblioteka Cyfrowa	1005076	1923-07-09 00:00:00+00:00	1923-07-09 23:59:59+00:00	1	'. dojdzie do wladzy i jego \nklika <em>konspiratorska</em>.. IT e!eIi ooi konspirowali przeciw ca.rowi - bon! Ale oni'
317	konspiratorski	Jagiellońska Biblioteka Cyfrowa	1003107	1892-08-19 00:00:00+00:00	1892-08-19 23:59:59+00:00	2	' kolekcyi kompromitująeych Rosy  dokumentów, przy b dzie nowy dowód jej <em>konspiratorskiej</em> dzialalności. Oto'
318	konspiratorski	Jagiellońska Biblioteka Cyfrowa	3920859	1892-08-20 00:00:00+00:00	1892-08-20 23:59:59+00:00	2	', przybędzie nowy dowód jej\n<em>konspiratorskich</em> działalności. Oto szczegóły wzmiankowanego interviev’u:\nOmawiając'
319	konspiratorski	Biblioteka Cyfrowa Uniwersytetu Łódzkiego	1565218	1938-01-01 00:00:00+00:00	1938-12-31 23:59:59+00:00	1	' józefem Piłsudskim. \n|T u w swojej pracy <em>konspiratorskiej</em> \nznajduje on niejednokrotnie punkt oparcia'
320	konspiratorski	Jagiellońska Biblioteka Cyfrowa	979506	1903-09-25 00:00:00+00:00	1903-09-25 23:59:59+00:00	1	' iśeie innych warstw społeczeństwa. Po tym wstępie wy.. \n<em>konspiratorską</em> metodą, z pomocą kilku krótkich'
321	konspiratorski	Mazowiecka Biblioteka Cyfrowa	30393	1959-01-25 00:00:00+00:00	1959-01-25 23:59:59+00:00	1	""" dla\n<em>konspiratorskiej</em> dzialalnocłci .•. ··•\nW wydanych w roku 1956 pr7.t:'z Kieniewicza 2) zeznaniach"""
322	konspiratorski	Kujawsko-Pomorska Biblioteka Cyfrowa	589960	1874-01-01 00:00:00+00:00	1874-12-31 23:59:59+00:00	1	'. nianiu obowiązków re1igijoJcb, nie zapuszczał \nsiono ducha <em>konspiratorskiego</em>, socyalistyczne 8i  w'
323	konspiratorski	Biblioteka Cyfrowa Uniwersytetu Łódzkiego	1565163	1937-01-01 00:00:00+00:00	1937-12-31 23:59:59+00:00	1	' <em>konspiratorskie</em> oraz \ninstr. A. Tomankiewicz, wybitnie \nwspółpracując. \n Po wstąpieniu adw. St. Wróblewskiego i'
324	konspiratorski	Małopolska Biblioteka Cyfrowa	574844	1933-03-01 00:00:00+00:00	1933-03-01 23:59:59+00:00	1	' w potrzebie\npieniądze, informacje, paszporty i cały\nrynsztunek <em>konspiratorski</em>? Kwalifikacje\nna wodza'
325	konspiratorski	Wielkopolska Biblioteka Cyfrowa	1253856	1926-06-18 00:00:00+00:00	1926-06-18 23:59:59+00:00	1	' nałogi <em>konspiratorskie</em>, których nigdy \nsię nie pozbędzie, bo one zbyt głęboko wkorzenily się w \njego'
326	konspiratorski	Kujawsko-Pomorska Biblioteka Cyfrowa	588173	1931-07-05 00:00:00+00:00	1931-07-05 23:59:59+00:00	1	' dZieje zrzeszeń \n<em>konspiratorskich</em>. kwiatu n-a-szej młodzieży ich powstanie. orF;anizacje i \nd2ialain-ość'
327	konspiratorski	Kujawsko-Pomorska Biblioteka Cyfrowa	692117	1885-01-01 00:00:00+00:00	1885-12-31 23:59:59+00:00	1	' zasą.dzono na 8 lat więzieniu. Także w ostatnich latach \nmiał on brać udział w licznych <em>konspiratorskich</em>'
328	konspiratorski	Bałtycka Biblioteka Cyfrowa	419035	2002-06-14 00:00:00+00:00	2002-06-14 23:59:59+00:00	1	"' prowadzi <em>konspiratorską</em> \n.."" , I działalność, mimo grożącego mu \n .\\:.:\' niebezpieczeństwa. Jego naj'"
329	konspiratorski	Świętokrzyska Biblioteka Cyfrowa	303371	1993-10-28 00:00:00+00:00	1993-10-28 23:59:59+00:00	1	'. powiadamiając \n  › @ grożącym aresztowaniu i ludzie \n  zdołali uciec. Dotyczyło to <em>konspiratorskiej</em> organizacji'
330	konspiratorski	Małopolska Biblioteka Cyfrowa	595679	1934-03-19 00:00:00+00:00	1934-03-19 23:59:59+00:00	1	' mimo trudów pełne radosnychbły- \n  dzialalność <em>konspiratorską</em>,-legjonową, jako wodza w czasie wojny'
331	konspiratorski	e-Kolekcja Czasopism Polskich	1438252	1950-01-01 00:00:00+00:00	1950-12-31 23:59:59+00:00	1	' zesłany \nzostał przez Niemców do Oświęcimia. Tutaj kontynuuje pracę <em>konspiratorską</em> i w r. 1944 zostaje'
332	konspiratorski	Małopolska Biblioteka Cyfrowa	617226	1938-05-17 00:00:00+00:00	1938-05-17 23:59:59+00:00	1	' trwale i od dawna związane jest z Józefem Piłsudskim.\nTu w swej pracy <em>konspiratorskiej</em> znajduje On'
333	konspiratorski	Małopolska Biblioteka Cyfrowa	621886	1979-12-02 00:00:00+00:00	1979-12-02 23:59:59+00:00	1	""":  \npracował, s',ara) się jak mógł, a i  \nwojował, nie bał się <em>konspiratorskiego</em> \nryzyka, wskoczył w kominek"""
334	konspiratorski	Małopolska Biblioteka Cyfrowa	687850	1945-01-01 00:00:00+00:00	1945-12-31 23:59:59+00:00	1	'). \n\n\nWPŁYW POLSKI NA ROSYJSKĄ MY$L \n<em>KONSPIRATORSKĄ</em> \nAtmosfccG, z któmj wyrosła rosyjoSka myśl kon- \n6'
335	konspiratorski	Radomska Biblioteka Cyfrowa	95609	1940-10-13 00:00:00+00:00	1940-10-13 23:59:59+00:00	1	' <em>konspiratorska</em> miną. \n- Ależ nic podobnego! Poprostu zgubiłam naparstek i nie mogę go w żaden sposób znaleźć'
336	konspiratorski	Małopolska Biblioteka Cyfrowa	593855	1947-01-01 00:00:00+00:00	1947-12-31 23:59:59+00:00	1	' _ \n  TYGODNIK rowsucmz \n  tylko przepisow—y strój <em>konspiratorski</em>: wysokie \noficerskie „buty i cywilną marynarkę'
337	konspiratorski	Jagiellońska Biblioteka Cyfrowa	993221	1910-10-14 00:00:00+00:00	1910-10-14 23:59:59+00:00	1	"""' groinego wzrokn <em>konspiratorskiego</em> dra Grabskiego. \nFanat ycy wszechpolskości zarzucali drowi \nGl biIÍskiemu"""
338	konspiratorski	Jagiellońska Biblioteka Cyfrowa	967697	1924-12-29 00:00:00+00:00	1924-12-29 23:59:59+00:00	1	' serbski <em>konspiratorskie</em> stosunki przywódców partji Radicza z rządem sowietów, czemu jednak przeczy prasa'
339	konspiratorski	Jagiellońska Biblioteka Cyfrowa	1139067	1920-01-13 00:00:00+00:00	1920-01-13 23:59:59+00:00	1	'. rOIbudlanie wśród \nneSł uCIJl.iowskich juiehś <em>konspiratorskich</em> \nin!ltynktów, lIeh canie do RiekarAoś.i wobec'
340	konspiratorski	Jagiellońska Biblioteka Cyfrowa	3879194	1904-12-04 00:00:00+00:00	1904-12-04 23:59:59+00:00	1	' <em>konspiratorską</em>. Zresztą o tej ostatniej — \nprócz kolportowania druków — było coraz bar \ndziej głucho... \nPrasa'
341	konspiratorski	Jagiellońska Biblioteka Cyfrowa	1037923	1884-02-12 00:00:00+00:00	1884-02-12 23:59:59+00:00	1	' przyjmowała się zrazu <em>konspiratorska</em> \nrobota. Z czasem jednak, przy niezłomnej \nwytrwałości agitatorów, którzy'
342	konspiratorski	Biblioteka Cyfrowa Uniwersytetu Łódzkiego	263623	1933-01-01 00:00:00+00:00	1933-12-31 23:59:59+00:00	1	'. temat rozmowy. \n mi ten i brzmienie. znlżone nagle do \nskali <em>konspiratorskiego</em> szeptu. ”~ \n -- Co nowego'
343	konspiratorski	Kujawsko-Pomorska Biblioteka Cyfrowa	581323	1927-03-30 00:00:00+00:00	1927-03-30 23:59:59+00:00	1	""" <em>konspiratorskie</em>, które dziś \nsą u władzy, p'rzez szereg łat miały \nwpływy na obsadzanie różnych stano_ \nwisk w"""
344	konspiratorski	Jagiellońska Biblioteka Cyfrowa	1085406	1921-06-05 00:00:00+00:00	1921-06-05 23:59:59+00:00	1	' której pon2idto najlepszc atuty wytra,ca m:m z reki uzurpatorski i <em>konspiratorski</em> ron antyzm. \n, W a!ka'
345	konspiratorski	Małopolska Biblioteka Cyfrowa	764393	1972-02-27 00:00:00+00:00	1972-02-27 23:59:59+00:00	1	' wiedza o ruchu \n<em>konspiratorskim</em> opiera się częścio- \nWo na umyślnie tendencyjnych zeznaniach niektórych'
346	konspiratorski	e-biblioteka Uniwersytetu Warszawskiego	447052	1912-01-01 00:00:00+00:00	1912-12-31 23:59:59+00:00	1	' szeptem i \n>!upeInio <em>konspiratorskim</em> tonem. \nA ponieważ \nJock nie dawał żadnej odpowiedzi, ruszył za \nnim'
347	konspiratorski	Jagiellońska Biblioteka Cyfrowa	3881443	1905-02-02 00:00:00+00:00	1905-02-02 23:59:59+00:00	1	' poziomie kulturalnym i że praca nad nświadomieniem metodą <em>konspiratorską</em> nie może \nwydać tych samych owoców'
348	konspiratorski	Bałtycka Biblioteka Cyfrowa	3792673	1991-10-20 00:00:00+00:00	1991-10-20 23:59:59+00:00	1	' \njednym \ntypie \nzachowa? \nobywatelskich \nwojskowo-<em>konspiratorskich</em>. \nDawno \nnie czyta?am \npisze Alina'
349	konspiratorski	Chełmska Biblioteka Cyfrowa	1527347	1935-11-09 00:00:00+00:00	1935-11-09 23:59:59+00:00	1	"'"" i ""Ziuka"", \nw czasy działalności <em>konspiratorskiej</em> w P. \nP. S. Nie są to już dziś czasy nieznane'"
350	konspiratorski	Wielkopolska Biblioteka Cyfrowa	1600323	1924-10-16 00:00:00+00:00	1924-10-16 23:59:59+00:00	1	' jakiejś tajemniczej organizacji <em>konspiratorskiej</em>, która \npowzięła sobie za zadanie zamordować b. cesarza'
351	konspiratorski	Jagiellońska Biblioteka Cyfrowa	3882726	1906-03-09 00:00:00+00:00	1906-03-09 23:59:59+00:00	1	' rękę, jako broń wielka do roboty podziemnej, <em>konspiratorskiej</em>! \nW jednym z zarządów kolejowych'
352	konspiratorski	Jagiellońska Biblioteka Cyfrowa	1147523	1912-06-05 00:00:00+00:00	1912-06-05 23:59:59+00:00	1	"' \njuż tajemny, <em>konspiratorski</em> sposób propagandy, pomijając takie pytanie ankiety: ""od jak \ndawna i jak'"
353	konspiratorski	Jagiellońska Biblioteka Cyfrowa	3880717	1904-02-12 00:00:00+00:00	1904-02-12 23:59:59+00:00	1	' tajnej, <em>konspiratorskiej</em> roboty, szermierz starej daty, nie zrozumiał tego nowego ruchu, nie mógł zżyć'
354	konspiratorski	e-biblioteka Uniwersytetu Warszawskiego	439455	1908-01-01 00:00:00+00:00	1908-12-31 23:59:59+00:00	1	"' się dosyć w"" bło \ncie żywej rewolucyi, umył ręce i wycofał się \nz roboty <em>konspiratorskiej</em>. \nKtóżby mu'"
355	konspiratorski	e-biblioteka Uniwersytetu Warszawskiego	471142	1906-01-01 00:00:00+00:00	1906-12-31 23:59:59+00:00	1	"' zażegnywały  \n„niebezpieczeństwo"". <em>Konspiratorska</em>  \ndziałalność tureckich zwolenników nowego  \nporządku nie'"
356	konspiratorski	Małopolska Biblioteka Cyfrowa	584703	1938-11-27 00:00:00+00:00	1938-11-27 23:59:59+00:00	1	' doświadczenie -<em>konspiratorskie</em> i był nie tylko z wieku, ale \nz przeżyć i przemyśleń najstarszy spośród'
357	konspiratorski	Małopolska Biblioteka Cyfrowa	692184	1977-01-01 00:00:00+00:00	1977-12-31 23:59:59+00:00	1	' rio \npieśni partyzanckiej; własnie mówił \no pierwszych  awllłzkach <em>konspiratorskich</em> na'
358	konspiratorski	e-biblioteka Uniwersytetu Warszawskiego	451217	1881-01-01 00:00:00+00:00	1881-12-31 23:59:59+00:00	1	' \n<em>konspiratorskich</em> i dyplomatycznych. Dyplomatyczne środki przywróciły im Lombardyę i \nWenecyę, kopspiratorskie'
359	konspiratorski	Jagiellońska Biblioteka Cyfrowa	1681735	1928-02-18 00:00:00+00:00	1928-02-18 23:59:59+00:00	1	"' jak się zdaje pozostawała w ścisłym związku z „<em>konspiratorską</em> pracą"" hromadowców.\nDrugi aresztowany'"
360	konspiratorski	Jagiellońska Biblioteka Cyfrowa	1154053	1864-11-27 00:00:00+00:00	1864-11-27 23:59:59+00:00	1	' dobrohyt najlepszym \nsą hamulcem p zeeiw nsiłowaniunł <em>konspiratorskim</em>, rewolucY.lnym.- Jesli zatpm król'
361	konspiratorski	e-biblioteka Uniwersytetu Warszawskiego	533220	1935-01-01 00:00:00+00:00	1935-12-31 23:59:59+00:00	1	"""', nie brak \ni tego w guście pracy <em>konspiratorskiej</em> i cierpień ideowca, jest \nwojna z nieodłącznemi"""
362	konspiratorski	e-biblioteka Uniwersytetu Warszawskiego	459991	1886-01-01 00:00:00+00:00	1886-12-31 23:59:59+00:00	1	' \nsocyalistyczno - <em>konspiratorskiego</em> gniazda w \nHamburgu, z organizacyą ua prawdę tajemną, \nna prawdę zarzucającą'
363	konspiratorski	Jagiellońska Biblioteka Cyfrowa	1151854	1882-12-30 00:00:00+00:00	1882-12-30 23:59:59+00:00	1	""" <em>konspiratorskiej</em> przeszłości, to prawda, sE'1,wistycznym jeBt dla niej samobójstwem. \n le z d u.gi.ej strony !aktem"""
364	konspiratorski	e-biblioteka Uniwersytetu Warszawskiego	450690	1879-01-01 00:00:00+00:00	1879-12-31 23:59:59+00:00	1	' \ndnych <em>konspiratorskich</em> układów przeciwko nikomu. Takie układy, jakie p. Bismarck swego \nczasu zawierał'
365	konspiratorski	Małopolska Biblioteka Cyfrowa	766915	1874-02-26 00:00:00+00:00	1874-02-26 23:59:59+00:00	1	' urok \nrycerskości z wielką dyplomatyczną zręcznością, niekiedy przechodzącą w <em>konspiratorską</em>'
366	konspiratorski	Cyfrowa Biblioteka Narodowa Polona	1374202	1917-08-01 00:00:00+00:00	1917-08-01 23:59:59+00:00	1	' odkryła tajne stowarzyszenie \n<em>konspiratorskie</em> wśród tamtejszych robotników. \nDokonano licznych aresztowań'
367	konspiratorski	Małopolska Biblioteka Cyfrowa	758055	1883-09-15 00:00:00+00:00	1883-09-15 23:59:59+00:00	1	""", bez ścij or aniz acyi, któraby przypominała \n<em>konspiratorską</em> pr'aktykę, a jedynie pod zasłoną"""
368	konspiratorski	e-biblioteka Uniwersytetu Warszawskiego	452057	1876-01-01 00:00:00+00:00	1876-12-31 23:59:59+00:00	1	' przez Ruiza Zorillę, co wcale \nnie przynosi zaszczytu jego zmysłowi <em>konspiratorskiemu</em>. Zwykle w'
369	konspiratorski	e-biblioteka Uniwersytetu Warszawskiego	463509	1868-01-01 00:00:00+00:00	1868-12-31 23:59:59+00:00	1	' groźby. Z pod jasnej i długiéj \nczupryny ponuro występowała jego twarz <em>konspiratorska</em>. Słowa jego były'
370	konspiratorski	Jagiellońska Biblioteka Cyfrowa	1077182	1900-08-17 00:00:00+00:00	1900-08-17 23:59:59+00:00	1	' \ndostr egamy w sllsiadujllcych z niem dzielnicach \ndawnej Polski. W schadzce <em>konspiratorskiej</em> w \nlasku'
371	konspiratorski	e-biblioteka Uniwersytetu Warszawskiego	4135206	1885-01-01 00:00:00+00:00	1885-12-31 23:59:59+00:00	1	' <em>konspiratorskiego</em> \npunktu widzenia. \nRefleksya tego rodzaju \nmusiałaby paraliżować ślepą odwagę,—tę najsilniejszą'
372	konspiratorski	e-biblioteka Uniwersytetu Warszawskiego	4135440	1885-01-01 00:00:00+00:00	1885-12-31 23:59:59+00:00	1	' \nprzebiegłych marynarzy. — Pomijamy liczne \n<em>konspiratorskie</em> pomysły, jakiemi się owa \nprogenies viperarum'
373	konspiratorski	e-biblioteka Uniwersytetu Warszawskiego	1637643	1872-01-01 00:00:00+00:00	1872-12-31 23:59:59+00:00	1	'. Prezydent rzeczypospolitej miał kilkakrotnie powtórzyć, że czasy polityki <em>konspiratorskiej</em>, na intrygach'
374	konspiratorski	Wielkopolska Biblioteka Cyfrowa	798291	1877-04-07 00:00:00+00:00	1877-04-07 23:59:59+00:00	1	' niby <em>konspiratorskie</em> uspo «bie-„ \ntym wyłącznie celu, aby-podtrzymywać sztu- „ \nmiennniiętną nienawiść'
375	konspiratorski	Kujawsko-Pomorska Biblioteka Cyfrowa	589056	1941-01-01 00:00:00+00:00	1941-12-31 23:59:59+00:00	1	' i <em>konspiratorskich</em> dreszczach... Wkońcu Łowczówek... Verdun... \nI na rue St. Dominique ambasada. \nA'
376	konspiratorski	Jagiellońska Biblioteka Cyfrowa	998587	1877-02-10 00:00:00+00:00	1877-02-10 23:59:59+00:00	1	' <em>konspiratorskie</em> zbrodnie Mid- \nRównie znaczną. większo&cią uchwa- hatalono przystąpić do obrad szczególowych O k 6'
377	konspiratorski	Jagiellońska Biblioteka Cyfrowa	1093993	1908-07-21 00:00:00+00:00	1908-07-21 23:59:59+00:00	1	' slokracYl w calem panstwie rosyjskiem. ze swymi <em>konspiratorskiemi</em> mieszkania- patycy socyalizmu. A tymczasem'
378	konspiratorski	Jagiellońska Biblioteka Cyfrowa	947503	1925-08-05 00:00:00+00:00	1925-08-05 23:59:59+00:00	1	' tradycyjna żyłka <em>konspiratorska</em>.\nNa to mi mój rozmówca nic nie\nodpowiedział, natomiast jął zapewniać, iż'
379	konspiratorski	Kujawsko-Pomorska Biblioteka Cyfrowa	581651	1942-01-01 00:00:00+00:00	1942-12-31 23:59:59+00:00	1	' najbardziej zawiłych, \nnie będzie można znaleźć w dokumentach i \nprotokółach. \n<em>Konspiratorska</em> geneza'
380	konspiratorski	Jagiellońska Biblioteka Cyfrowa	973670	1910-04-12 00:00:00+00:00	1910-04-12 23:59:59+00:00	1	' Brzozowski.\nBrzozowski, wogóle przyzwyczajony do załatwiania się z rzeczami w sposób <em>konspiratorski</em> i'
381	konspiratorski	Jagiellońska Biblioteka Cyfrowa	977286	1905-03-16 00:00:00+00:00	1905-03-16 23:59:59+00:00	1	' dostał się jeszcze w ręce policyi. Organizacya <em>konspiratorska</em> snać więc na\nlepszych oparta jest'
382	konspiratorski	Jagiellońska Biblioteka Cyfrowa	1111922	1871-04-27 00:00:00+00:00	1871-04-27 23:59:59+00:00	1	' przeci w delegacji i krajowi na8Ze1D1l prowadzll, \nmata lecz bardzo ruchliwa .i <em>konspiratorska</em> \ng8.rstka'
383	konspiratorski	Jagiellońska Biblioteka Cyfrowa	965924	1914-09-27 00:00:00+00:00	1914-09-27 23:59:59+00:00	1	' od wielu lat żyje na\nprzedmieściu paryskiem, oddany pracy <em>konspiratorskiej</em> ,tego usposobienia tak'
384	konspiratorski	Jagiellońska Biblioteka Cyfrowa	3927470	1900-04-24 00:00:00+00:00	1900-04-24 23:59:59+00:00	1	' ręka rozrzuca\npo kraju i zagranicą drukowane odezwy, mająoe posłużyć aa dowód, ie <em>konspiratorska</em>'
385	konspiratorski	Jagiellońska Biblioteka Cyfrowa	3922997	1905-10-10 00:00:00+00:00	1905-10-10 23:59:59+00:00	1	' więzieniu\nwyswobodził się Ziemiałkowski radykalnie z\nwięzów <em>konspiratorskiego</em> sposobu myślenia i\nw myślaoh'
386	konspiratorski	Jagiellońska Biblioteka Cyfrowa	1131157	1880-03-15 00:00:00+00:00	1880-03-15 23:59:59+00:00	1	""" książek duzwolonych 'miała miejs  Z - u d U  I n a, dorok  c ło kowi wolno spłaj a.klś znak <em>konspiratorski</em>"""
387	konspiratorski	Jagiellońska Biblioteka Cyfrowa	3918328	1897-10-12 00:00:00+00:00	1897-10-12 23:59:59+00:00	1	' <em>konspiratorskich</em>, szkodliwych dla nas\npod względem religijnym, społecznym i politycznym. Jak bardzo lud siermiężny'
388	konspiratorski	e-biblioteka Uniwersytetu Warszawskiego	472376	1910-01-01 00:00:00+00:00	1910-12-31 23:59:59+00:00	1	""",lc,dpz,a, mając.ną.pku', na skutek  \nbezimiennej denuncjacji, rzekomo <em>konspiratorskie</em> \nmieszkanie"""
389	konspiratorski	Jagiellońska Biblioteka Cyfrowa	982116	1911-04-01 00:00:00+00:00	1911-04-01 23:59:59+00:00	1	', <em>konspiratorska</em> robota Mochnackiego i wybór poety; ukraińskiego na posła ziem kresowych.\nW tym bujnym wątku'
390	konspiratorski	Jagiellońska Biblioteka Cyfrowa	977896	1897-11-09 00:00:00+00:00	1897-11-09 23:59:59+00:00	1	' annię w silne karby i raz na\nzawsze wyplenić w niej ducha <em>konspiratorskiego</em>, który jak miecz bamoklesa'
391	konspiratorski	Jagiellońska Biblioteka Cyfrowa	1018812	1914-05-26 00:00:00+00:00	1914-05-26 23:59:59+00:00	1	"' pólmroczny, <em>konspiratorski</em>"". A spiewy w \nezasie pochodu : ""jedna jedyna gmpa zacznie spiewaé ale spicwanie'"
392	konspiratorski	Jagiellońska Biblioteka Cyfrowa	3913699	1885-05-06 00:00:00+00:00	1885-05-06 23:59:59+00:00	1	' licznych <em>konspiratorskich</em> przedsiębiorstwach w Serbji.\nCzęść ekonomiczna.\nTelegramy zbożowe z dnia 3. maja'
393	konspiratorski	Jagiellońska Biblioteka Cyfrowa	953757	1908-12-24 00:00:00+00:00	1908-12-24 23:59:59+00:00	1	' zaczął się domyślać ogniska wszelkich dalszych <em>konspiratorskich</em> działalności w\nPolsce.\nOstatni z wielkich'
394	konspiratorski	Jagiellońska Biblioteka Cyfrowa	3916517	1907-02-01 00:00:00+00:00	1907-02-01 23:59:59+00:00	1	' po\n<em>konspiratorsku</em>. Jest to zaślepiać własny naród.\nNastępstwem niedostatecznego przygotowania\nsię do'
395	konspiratorski	Jagiellońska Biblioteka Cyfrowa	3914859	1901-05-19 00:00:00+00:00	1901-05-19 23:59:59+00:00	1	""", albo pod <em>konspiratorską</em> chorągwią przemycają swą ambioyę, gdy' staną\ndo praoy poselskiej, albo"""
396	konspiratorski	Jagiellońska Biblioteka Cyfrowa	3914830	1901-04-15 00:00:00+00:00	1901-04-15 23:59:59+00:00	1	' <em>konspiratorskiej</em>, okłamywania\nsamych siebie widziadłami własnej wyobraźni,\nrozwiniętej praesadnie w jednym kierunku'
397	konspiratorski	Biblioteka Cyfrowa - Regionalia Ziemi Łódzkiej	126002	1933-10-02 00:00:00+00:00	1933-10-02 23:59:59+00:00	1	' ciemności sic\nskali <em>konspiratorskiego</em> rzep tuza cudne chwile, lecz muszę zaczekać, aż mi sza stara klientka'
398	konspiratorski	Jagiellońska Biblioteka Cyfrowa	1065194	1905-02-07 00:00:00+00:00	1905-02-07 23:59:59+00:00	1	"', Przeglqdów \nwszechpolskich Up. staraj1lc siç po swojemu \nwychowaé spole(z rístwo. Tajny, <em>konspiratorski</em> ""rzé'"
399	konspiratorski	Jagiellońska Biblioteka Cyfrowa	1072408	1869-10-16 00:00:00+00:00	1869-10-16 23:59:59+00:00	1	' <em>konspiratorskim</em> 8znie)e nazwal jakis Niemiec die ministeriellen \n!7 bem: czçslO siç zdarzalo, it ktùé coå po'
400	konspiratorski	Jagiellońska Biblioteka Cyfrowa	977282	1905-03-11 00:00:00+00:00	1905-03-11 23:59:59+00:00	1	' polskiej kolonii emigracyjnej w Paryża i odsłania tajniki pracy <em>konspiratorskiej</em> młodzieży. Jesteśmy w'
401	konspiratorski	Jagiellońska Biblioteka Cyfrowa	1047686	1889-03-08 00:00:00+00:00	1889-03-08 23:59:59+00:00	1	'  <em>konspiratorskie</em> zwilizki nietylko pomi dzy mlo- i inne tigury. Miauowicie przyjechali z Wiednia \ndziezli, pomi dzy'
402	konspiratorski	Jagiellońska Biblioteka Cyfrowa	1004711	1894-06-09 00:00:00+00:00	1894-06-09 23:59:59+00:00	1	' wiernopoddancze <em>konspiratorska</em> robota. Zdemoralizowanlj: byb a dslowa uznania od licznycb deputacyj. Hipokryzya m'
403	konspiratorski	Jagiellońska Biblioteka Cyfrowa	1068117	1912-06-05 00:00:00+00:00	1912-06-05 23:59:59+00:00	1	"' taJemny, <em>konspiratorski</em> sposób propagandy, pomiJ,..jlic takie pytania ankiety: ""cd jak dawna i Jak cz sto'"
404	konspiratorski	Jagiellońska Biblioteka Cyfrowa	965242	1917-10-14 00:00:00+00:00	1917-10-14 23:59:59+00:00	1	'\n<em>Konspiratorską</em>, długą i mozolną robotę wykry- ich rozkwaterował po wsiach poblizkicli. „Za-\n|o. Przedniejszych i'
405	konspiratorski	Jagiellońska Biblioteka Cyfrowa	3920384	1889-02-08 00:00:00+00:00	1889-02-08 23:59:59+00:00	1	'\nprzejścia wycisnęły na jego entuzjastycznej duszy pewne do końca niezupełnie zatarte piętno\n<em>konspiratorskie</em>'
406	konspiratorski	Jagiellońska Biblioteka Cyfrowa	1003165	1892-10-30 00:00:00+00:00	1892-10-30 23:59:59+00:00	1	' wówczas kied} na ziemiach da \nwnei Polski <em>konspiratorskie</em> prace cel em oswobodz oia_ ojczyzoy byly'
407	konspiratorski	Jagiellońska Biblioteka Cyfrowa	998274	1895-10-17 00:00:00+00:00	1895-10-17 23:59:59+00:00	1	"' wi c ""t a kz e"" i ci, którzy przysi gają na stary demokratyczno-<em>konspiratorski</em> katechizm, wi c nie, t'"
408	konspiratorski	Jagiellońska Biblioteka Cyfrowa	1004978	1893-08-05 00:00:00+00:00	1893-08-05 23:59:59+00:00	1	""" mod ern is t ó w, którzy zagroieni \nzos(ali w swych <em>konspiratorskich</em> sztuc7.kacb. \n'rymczai;em ku"""
409	konspiratorski	Kujawsko-Pomorska Biblioteka Cyfrowa	589108	1941-01-01 00:00:00+00:00	1941-12-31 23:59:59+00:00	1	' \nwielka polska pani posiada swojc miejsce, \nswoj bilet partyjny, sw6j staz <em>konspiratorskiej</em> roboty. Nikt'
410	konspiratorski	Jagiellońska Biblioteka Cyfrowa	1065897	1909-02-21 00:00:00+00:00	1909-02-21 23:59:59+00:00	1	' wyt1Ómaczone, gdyz w \ncelach <em>konspiratorskich</em> nalezy cz sto zmie \nniaé powierzchnos6. \nNast pnie wywi zala si'
411	konspiratorski	Jagiellońska Biblioteka Cyfrowa	3927591	1900-01-14 00:00:00+00:00	1900-01-14 23:59:59+00:00	2	', która nie u na*\ntylko się objawia. W innej formie i z odmienną dążnośoią mania <em>konspiratorska</em> i'
412	konspiratorski	Jagiellońska Biblioteka Cyfrowa	1096449	1887-11-30 00:00:00+00:00	1887-11-30 23:59:59+00:00	1	' <em>konspiratorski</em>!) lull \nkierujl!:ca. si  uprzedzeuiami moze z zarz dzen wojskowych wysnuwaé wllioski p91ityczne'
413	konspiratorski	Jagiellońska Biblioteka Cyfrowa	999426	1896-04-17 00:00:00+00:00	1896-04-17 23:59:59+00:00	1	""" stndentów na \nRaukaz. \nTaki we wzgl dzie <em>konspiratorskim</em> stan zapanowal w sferze szkól Sl'ednich w Krajach"""
414	konspiratorski	Jagiellońska Biblioteka Cyfrowa	1007282	1889-07-27 00:00:00+00:00	1889-07-27 23:59:59+00:00	1	""" <em>konspiratorski</em>, latwo pl'zewidzieé, \nze prl!d, 8tlomio y. prz moc,'!!, nurtowaé b dzie \ndallfj w drodze taJneJ"""
415	konspiratorski	Jagiellońska Biblioteka Cyfrowa	1109022	1878-08-20 00:00:00+00:00	1878-08-20 23:59:59+00:00	1	"' pajaców <em>konspiratorskich</em>"" miogrodzkich; z amali Niemców spiskicb; teraz Ju ""oI rzew d e   Dr .. a.m . a ìø'"
416	konspiratorski	Jagiellońska Biblioteka Cyfrowa	1126317	1879-02-04 00:00:00+00:00	1879-02-04 23:59:59+00:00	1	"""- P rok. Pan bywałeś także w czytelni aka-' także tą uroczystością, \nlatach porzucili <em>konspiratorskie</em>"""
417	konspiratorski	Jagiellońska Biblioteka Cyfrowa	1109435	1878-05-24 00:00:00+00:00	1878-05-24 23:59:59+00:00	1	""". 23, majamdly. . wybrykiem <em>konspiratorskiego</em> swego temperamentu, k k d .' , T . Z ' I. Akcje z"""
418	konspiratorski	Jagiellońska Biblioteka Cyfrowa	1116003	1891-01-10 00:00:00+00:00	1891-01-10 23:59:59+00:00	1	' ns innych p  ktach  ach  vUJ  \ndotycbczas jeszcze charakter mnleJ lub wI ceJ <em>konspiratorski</em>. .. \nGdy'
