	word	lname	iid	duration_start	duration_end	occurences	highlighting
0	lobbować	Sejm	3617786	2003-12-19 00:00:00+00:00	2003-12-19 23:59:59+00:00	1	'To nie jest <em>lobbowanie</em>, panie marszałku.\n'
2	lobbować	Sejm	3641044	2002-04-25 00:00:00+00:00	2002-04-25 23:59:59+00:00	1	' będziemy <em>lobbować</em> w tej sprawie...\n'
3	lobbować	Sejm	3641038	2002-04-25 00:00:00+00:00	2002-04-25 23:59:59+00:00	1	' słuchał, albo nie zrozumiał, co mówiłem. Ja nie <em>lobbuję</em>...\n'
8	lobbować	Sejm	3630555	2003-02-13 00:00:00+00:00	2003-02-13 23:59:59+00:00	2	' tutaj problem. Przegraliśmy kolejną dużą inwestycję, inwestycję PSA, która była bardzo mocno <em>lobbowana</em>'
10	lobbować	Sejm	3618485	2003-12-09 00:00:00+00:00	2003-12-09 23:59:59+00:00	3	' - który z was nie <em>lobbował</em> albo nie był <em>lobbowany</em>? Bardzo niewielu byłoby takich. A ilu jest takich'
11	lobbować	Sejm	3643631	2002-02-15 00:00:00+00:00	2002-02-15 23:59:59+00:00	1	' Śląskiej Spółki Cukrowej, którzy <em>lobbują</em> na rzecz zagranicznych kontrahentów? Dziękuję.\n'
12	lobbować	Sejm	3628660	2003-03-26 00:00:00+00:00	2003-03-26 23:59:59+00:00	1	' się z zarzutem nadmiernego <em>lobbowania</em> izb urbanistów i architektów? Zapisy art. 7, art. 50 i art. 60'
13	lobbować	Sejm	3559631	2001-01-18 00:00:00+00:00	2001-01-18 23:59:59+00:00	2	'. Tymczasem to, czego żąda ksiądz Rydzyk, a pani, nie wiem, dlaczego, <em>lobbuje</em> za tym, proszę pani, to nie jest'
16	lobbować	Sejm	3641185	2002-04-26 00:00:00+00:00	2002-04-26 23:59:59+00:00	2	' zagranicznego koncernu medialnego, <em>lobbując</em> za swoimi interesami, dopuszcza się rodzaju quasi-szantażu, pisząc'
18	lobbować	Sejm	3550452	2001-09-05 00:00:00+00:00	2001-09-05 23:59:59+00:00	2	' jeśli chodzi o Sejm, to po wystąpieniu pana posła Libickiego już wiem - <em>lobbuje</em> za poprawką dotyczącą'
19	lobbować	Sejm	3498454	1993-04-01 00:00:00+00:00	1993-04-01 23:59:59+00:00	1	' znaczy, że Urząd Wojewódzki w Rzeszowie był <em>lobbowany</em> przez firmę ˝Heinz˝? (Wesołość na sali) Prosiłbym'
20	lobbować	Sejm	3498455	1993-04-01 00:00:00+00:00	1993-04-01 23:59:59+00:00	2	'Proszę pana, <em>lobbowaniem</em> nazwałem technikę zdobywania klientów, z którą w Polsce notorycznie mamy'
22	lobbować	Sejm	3525169	1996-09-11 00:00:00+00:00	1996-09-11 23:59:59+00:00	2	' głosu przez dwóch posłów ewidentnie <em>lobbujących</em> na rzecz tego wniosku. (Poruszenie na sali) Jest to'
23	lobbować	Sejm	3640719	2002-05-09 00:00:00+00:00	2002-05-09 23:59:59+00:00	2	' zarzuty, o których dzisiaj pan tutaj mówił, dotyczące <em>lobbowania</em> na rzecz różnych firm farmaceutycznych'
31	lobbować	Sejm	3559542	2001-01-18 00:00:00+00:00	2001-01-18 23:59:59+00:00	1	' włączała się w <em>lobbowanie</em> na rzecz przejęcia za darmo najlepszej budowlanej ziemi toruńskiej, wartej 15 mln'
32	lobbować	Sejm	3618840	2003-12-11 00:00:00+00:00	2003-12-11 23:59:59+00:00	1	' sekurytyzacyjnych złych wierzytelności <em>lobbowała</em> pani Alicja Kornasiewicz? I jeżeli tak, to w jakim trybie i w'
33	lobbować	Sejm	3641039	2002-04-25 00:00:00+00:00	2002-04-25 23:59:59+00:00	1	' tam służby zawodowe. Ja nie <em>lobbuję</em> na rzecz tych ludzi, tylko stanąłem w obronie tych, którzy'
34	lobbować	Sejm	3638648	2002-07-04 00:00:00+00:00	2002-07-04 23:59:59+00:00	1	' sprostować, gdyż w całym swoim wystąpieniu nie użyłam słowa, iż promuję czy <em>lobbuję</em> na rzecz super- czy'
38	lobbować	Sejm	3557265	2001-03-30 00:00:00+00:00	2001-03-30 23:59:59+00:00	1	' jest jasne stanowisko. Czy wypowiedzi różnych posłów dotyczące <em>lobbowania</em>, tworzenia nowych powiatów to'
39	lobbować	Sejm	3630849	2003-02-14 00:00:00+00:00	2003-02-14 23:59:59+00:00	1	', chce się tego w tej ustawie zabronić. Jest to nie logika, jest to <em>lobbowanie</em>. Czy to jest kolejna'
46	lobbować	Sejm	3578512	1999-05-19 00:00:00+00:00	1999-05-19 23:59:59+00:00	1	' przestawiły się na inną produkcję. Natomiast ta jedna spółka, zresztą skutecznie <em>lobbująca</em>, nie. Gdyby ten'
51	lobbować	Sejm	3618466	2003-12-09 00:00:00+00:00	2003-12-09 23:59:59+00:00	10	' prawnego korzystnego dla firmy, przedsiębiorstwa czy samorządu terytorialnego, które go nie <em>lobbują</em>, ale'
53	lobbować	Sejm	3550458	2001-09-05 00:00:00+00:00	2001-09-05 23:59:59+00:00	1	' tytułu obrażać. Sejm musi rozważyć tę propozycję.\nDziwią mnie głosy o <em>lobbowaniu</em> jednej czy drugiej'
71	lobbować	Sejm	3618473	2003-12-09 00:00:00+00:00	2003-12-09 23:59:59+00:00	1	' nieprawidłowości, jakie towarzyszą <em>lobbowaniu</em>. Ważnym elementem walki z tego rodzaju patologiami jest jawność i'
72	lobbować	Sejm	3635325	2002-10-10 00:00:00+00:00	2002-10-10 23:59:59+00:00	1	'Panie ministrze, istnieje pewnego rodzaju doświadczenie z tego <em>lobbowania</em> czy starania się o to, by'
77	lobbować	Sejm	3632324	2002-12-18 00:00:00+00:00	2002-12-18 23:59:59+00:00	4	' Ludowe <em>lobbujemy</em> na rzecz polskich rolników, <em>lobbujemy</em> na rzecz stworzenia miejsc pracy w Polsce'
79	lobbować	Biblioteka Cyfrowa Ośrodka KARTA	214258	1981-07-22 00:00:00+00:00	1981-07-22 23:59:59+00:00	1	' I rosado Zannino::.. \n  I \n  FIEZIDIUI Q \n  <em>lobbują</em> 1 uprawianiu graf-I \n  Plota- Jnltńt.. t01.618'
96	lobbować	Sejm	3618469	2003-12-09 00:00:00+00:00	2003-12-09 23:59:59+00:00	6	' właściwych przełożonych o podejmowanych wobec nich próbach <em>lobbowania</em>. Niedopełnienie tego obowiązku może'
111	lobbować	Sejm	3590778	1998-04-02 00:00:00+00:00	1998-04-02 23:59:59+00:00	1	' później z kuluarach? Otóż pamiętamy, co stało się wówczas, kiedy tak pięknie samochody <em>lobbował</em> szef'
112	lobbować	Sejm	3550459	2001-09-05 00:00:00+00:00	2001-09-05 23:59:59+00:00	1	' wymieniono jako tę, która mogłaby w tej sprawie <em>lobbować</em>, jest w porządku i nie ma co się jej obawiać'
121	lobbować	Sejm	3550457	2001-09-05 00:00:00+00:00	2001-09-05 23:59:59+00:00	2	' wygenerowania takiego systemu. Rozumiem, że pan poseł pytał, kto <em>lobbuje</em>, bo takie było pytanie i odpowiedź tak'
138	lobbować	Sejm	3625243	2003-07-11 00:00:00+00:00	2003-07-11 23:59:59+00:00	1	' regionów <em>lobbują</em> pieniądze na konkretną sprawę. Brakuje uregulowania całościowego. Zwracam się więc z'
141	lobbować	Sejm	3517753	1997-05-23 00:00:00+00:00	1997-05-23 23:59:59+00:00	1	' <em>lobbowaniu</em> posłów przez firmę Südzucker. Wymieniono tam posła Kalembę. A trzeba go tu bronić, bo ja też byłem'
143	lobbować	Sejm	3618841	2003-12-11 00:00:00+00:00	2003-12-11 23:59:59+00:00	1	' łatwo nie zrobi. To jest jedna kwestia.\nDruga kwestia. Nie wiem nic o <em>lobbowaniu</em> przez panią Alicję'
152	lobbować	Sejm	3558036	2001-02-28 00:00:00+00:00	2001-02-28 23:59:59+00:00	2	' <em>lobbowania</em>, jeśli chodzi o zaliczenie jeleniowatych do zwierząt gospodarskich. Chyba prawidłowa jest ocena'
161	lobbować	Sejm	3550460	2001-09-05 00:00:00+00:00	2001-09-05 23:59:59+00:00	1	', stwierdzam, że rząd nie był <em>lobbowany</em>, panie pośle. Jednak to nie ja powinienem odpowiadać na temat poziomu'
171	lobbować	Pierwsza polska gazeta internetowa - Donosy	3489852	2003-12-09 00:00:00+00:00	2003-12-09 23:59:59+00:00	2	' <em>lobbowania</em> i ujawnianie ich w Biuletynie Informacji Publicznej oraz obowiązek informowania przelozonych o'
200	lobbować	Sejm	3552753	2001-07-20 00:00:00+00:00	2001-07-20 23:59:59+00:00	2	' tej mównicy, <em>lobbował</em> na rzecz prywatnej telewizji, tworzonej przez jego przyjaciół politycznych'
201	lobbować	Sejm	3618468	2003-12-09 00:00:00+00:00	2003-12-09 23:59:59+00:00	2	' zainteresowane <em>lobbowaniem</em> dla siebie, czyli tak naprawdę często na rzecz swego przetrwania.\nIstnieje lobbing'
226	lobbować	Sejm	3557096	2001-03-29 00:00:00+00:00	2001-03-29 23:59:59+00:00	1	' Radio Maryja w procesie koncesyjnym, <em>lobbującym</em> na rzecz tego medialnego koncernu ojca Rydzyka.\nPanie'
227	lobbować	Sejm	3559539	2001-01-18 00:00:00+00:00	2001-01-18 23:59:59+00:00	1	' przewodniczący, że wykorzystywanie Radia Maryja do <em>lobbowania</em> dwuznacznych działań gospodarczych ks. Rydzyka'
241	lobbować	Poradnik Językowy	6254105	2001-12-31 23:00:00+00:00	2002-12-31 22:59:59+00:00	1	' — status synchronicznego \ndcrywatu słowotwórczego. Przykładowo nowe polskie ) czeskie czasowniki \n<em>lobbować</em>'
243	lobbować	Bałtycka Biblioteka Cyfrowa	421481	2003-01-02 00:00:00+00:00	2003-01-02 23:59:59+00:00	7	' prezydencki minister I <em>lobbował</em> \nza ustawą w określonym kształcie? \n- U nas się wytworzyła - nie \nwiem, jak to'
245	lobbować	Kujawsko-Pomorska Biblioteka Cyfrowa	594865	2003-01-01 00:00:00+00:00	2003-12-31 23:59:59+00:00	2	""" próbowała <em>lobbować</em> nasze środowisko \npoprzez własny udział w wyborach?.. \n«weoll'!ika»: ...ja jestem"""
251	lobbować	Sejm	3618461	2003-12-09 00:00:00+00:00	2003-12-09 23:59:59+00:00	3	' jest <em>lobbowanie</em> za uchwaleniem ustawy, która siłą rzeczy zostaje uchwalana w sposób jawny, a czym innym'
269	lobbować	Sejm	3628744	2003-03-27 00:00:00+00:00	2003-03-27 23:59:59+00:00	1	' może przejść tak sobie. Kto tu <em>lobbował</em> na ten temat? Kto chodził za ustawą? Kto zmienił tę ustawę'
276	lobbować	Sejm	3556957	2001-03-28 00:00:00+00:00	2001-03-28 23:59:59+00:00	1	', którego celem było <em>lobbowanie</em> na rzecz sprzedaży kalisko-konińskiej grupy cukrowej, części cukrowni'
323	lobbować	Śląska Biblioteka Cyfrowa	1629906	2002-01-01 00:00:00+00:00	2002-12-31 23:59:59+00:00	1	' – <em>lobbował</em> w interesie około dwustu \nczy trzystu aptek, po wyborach już nie wrócił na tę salę. A my dzisiaj'
346	lobbować	Sejm	3628754	2003-03-27 00:00:00+00:00	2003-03-27 23:59:59+00:00	4	' prominentnych polityków Platformy Obywatelskiej mówił o tym, że <em>lobbowanie</em> na rzecz produkcji biokomponentów'
379	lobbować	Palestra	3475451	2001-12-31 23:00:00+00:00	2002-12-31 22:59:59+00:00	1	' <em>lobbuje</em> na rzecz zmiany kształcenia aplikantów. Trzeba \nopracować klarowny system przyjęć na aplikację'
387	lobbować	Śląska Biblioteka Cyfrowa	1629906	2002-01-01 00:00:00+00:00	2002-12-31 23:59:59+00:00	1	'. \nNastępna rzecz. Czy to jest moralne – zwracam się do aptekarzy – aby \n<em>lobbować</em> w Sejmie za rozwiązaniami'
390	lobbować	Sejm	3630104	2003-02-28 00:00:00+00:00	2003-02-28 23:59:59+00:00	1	' tej grupy jest <em>lobbowanie</em> na rzecz przyspieszania prywatyzacji polskiego majątku, szczególnie polskiej'
406	lobbować	Cyfrowy Dolny Śląsk	3831641	2001-01-01 00:00:00+00:00	2001-12-31 23:59:59+00:00	3	', związki \nzawodowe, prasa, organizacje \nkonsumenckie czy  \nekologiczne. Np. pracodawcy od lat <em>lobbują</em> na'
437	lobbować	Sejm	3556486	2001-04-11 00:00:00+00:00	2001-04-11 23:59:59+00:00	1	' przedstawiane nie przez jakieś <em>lobbujące</em> w tej sprawie banki, ale przez nadzór bankowy. Wystąpienie'
438	lobbować	Sejm	3639920	2002-06-07 00:00:00+00:00	2002-06-07 23:59:59+00:00	1	' miałaby być pominięta możliwość <em>lobbowania</em> na rzecz partii w ramach kampanii prowadzonych w poszczególnych'
453	lobbować	Sejm	3618464	2003-12-09 00:00:00+00:00	2003-12-09 23:59:59+00:00	2	' jedwabnych garniturach, którzy potajemnie i podstępem <em>lobbują</em> posłów i decydentów w strukturach władzy'
454	lobbować	Sejm	3644100	2002-01-16 00:00:00+00:00	2002-01-16 23:59:59+00:00	2	' szansę inwentaryzować problemy, a następnie <em>lobbować</em> dwukierunkowo w stronę rządu i parlamentu na rzecz'
455	lobbować	Cyfrowy Dolny Śląsk	367135	2003-01-01 00:00:00+00:00	2003-12-31 23:59:59+00:00	2	' powrotu do starej  \nkoncepcji projektowej. \nZ kolei wiceburmistrz Henryk \nBernacki <em>lobbuje</em> o obwodnicę'
456	lobbować	Bałtycka Biblioteka Cyfrowa	419129	2002-03-16 00:00:00+00:00	2002-03-17 23:59:59+00:00	3	"' \nbędzie tak samo. Skoro np. powstał \nczasownik ,)obbować"" (ja <em>lobbuję</em>, ty \n<em>lobbujesz</em>, on <em>lobbuje</em> - takie'"
458	lobbować	Sejm	3584846	1998-10-22 00:00:00+00:00	1998-10-22 23:59:59+00:00	3	' - bez przerwy, aż do ostatniego głosowania, żeby usunąć właśnie tych wszystkich <em>lobbujących</em> specjalistów'
469	lobbować	Podlaska Biblioteka Cyfrowa	270977	2003-01-01 00:00:00+00:00	2003-12-31 23:59:59+00:00	1	', \nTeraz pozostają aby strony porozumienia silnie <em>lobbowały</em>, tak \nby skutecznie eliminować dumping w branży'
474	lobbować	Mazowieckie Czasopisma Regionalne	1710625	2001-01-01 00:00:00+00:00	2001-12-31 23:59:59+00:00	1	"' \nźródeł — głównie miejskich), jak od strony technicznej wyglądało to „<em>lobbowanie</em>"" przez miasta na rzecz'"
475	lobbować	Sejm	3567633	2000-05-26 00:00:00+00:00	2000-05-26 23:59:59+00:00	1	' Polsce jest <em>lobbować</em> ratyfikowanie protokołu z Kioto i włączenie się przez to w zapobieganie'
476	lobbować	Sejm	3618487	2003-12-09 00:00:00+00:00	2003-12-09 23:59:59+00:00	1	', którzy <em>lobbują</em> za określonym rozstrzygnięciem, od tych, którzy starają się być ekspertami, doradcami'
489	lobbować	Cyfrowy Dolny Śląsk	377251	2003-01-01 00:00:00+00:00	2003-12-31 23:59:59+00:00	1	' polityków \nwśród, których chcemy <em>lobbować</em> ważne dl a Dolnego Śląska projekty, problemy I \nIch rozwiązania'
495	lobbować	Sejm	3632320	2002-12-18 00:00:00+00:00	2002-12-18 23:59:59+00:00	2	' fakty. I proszę państwa, to wszystko, co mamy w mediach, jest to <em>lobbowanie</em> i myślę, że Izba nie ulegnie'
496	lobbować	Małopolska Biblioteka Cyfrowa	665053	1997-09-15 00:00:00+00:00	1997-09-15 23:59:59+00:00	2	' pewno będziemy swoją aktywność wykazywali w dziedzinie <em>lobbowania</em> na rzecz regionu województwa'
507	lobbować	Sejm	3627099	2003-05-08 00:00:00+00:00	2003-05-08 23:59:59+00:00	1	' tę decyzję cofnęli o 10 lat, a może jeszcze trochę, tobyśmy widzieli, kto i za czym tutaj <em>lobbował</em>'
511	lobbować	Gdańska Biblioteka Cyfrowa	1165463	2003-01-01 00:00:00+00:00	2003-12-31 23:59:59+00:00	1	' tysi1ca \nPomorzan, <em>lobbowaliśmy</em> w sprawie rozpoczęcia budowy autostrady A - 1. By3o g3ośno, kolorowo i'
531	lobbować	Sejm	3628695	2003-03-27 00:00:00+00:00	2003-03-27 23:59:59+00:00	3	' <em>lobbował</em> na rzecz polskiego rolnictwa, będę <em>lobbował</em> na rzecz stworzenia miejsc pracy, będę <em>lobbował</em> na'
534	lobbować	Śląska Biblioteka Cyfrowa	900769	2003-01-01 00:00:00+00:00	2003-12-31 23:59:59+00:00	2	' Barclkowskl też mężnie walczy. \nZ kim? Z <em>lobbującymi</em> dziennikarzami i \n<em>lobbowaniem</em> wśród dziennikarzy. O co'
535	lobbować	Śląska Biblioteka Cyfrowa	901028	2002-01-01 00:00:00+00:00	2002-12-31 23:59:59+00:00	2	' <em>lobbowaniu</em> zawsze towarzyszy podejrzenie 0 korupcj£:. \nJednak lobbing moie bye bardzo poiyteczny. Oczywiscie'
536	lobbować	Sejm	3581879	1999-01-22 00:00:00+00:00	1999-01-22 23:59:59+00:00	2	' - on czasami podczas naszych debat się pojawia - na reprezentacje dobrze <em>lobbowane</em> przez pracodawców'
563	lobbować	Sejm	3620215	2003-11-14 00:00:00+00:00	2003-11-14 23:59:59+00:00	1	' grupy <em>lobbującej</em>. A o cóż takiego tam chodziło?\nW artykule określającym, kto może utworzyć i prowadzić'
564	lobbować	Sejm	3620824	2003-10-30 00:00:00+00:00	2003-10-30 23:59:59+00:00	1	' <em>lobbującej</em> grupy? Często lekarze z danego terenu, którzy niespełnieni w zawodzie, zakładali różnego rodzaju'
565	lobbować	Sejm	3640511	2002-05-24 00:00:00+00:00	2002-05-24 23:59:59+00:00	1	' budowlanych (druk nr 452), mamy świadomość tego, że autorom omawianego projektu chodziło o <em>lobbowanie</em> na rzecz'
588	lobbować	Małopolska Biblioteka Cyfrowa	680901	1999-07-31 00:00:00+00:00	1999-07-31 23:59:59+00:00	1	' administruje tylko częścią dróg. W przypadku dróg krajowych czy autostrad \nmożemy tylko <em>lobbować</em>, naciskać i'
602	lobbować	Śląski Klub Fantastyki	2334034	2000-01-01 00:00:00+00:00	2000-12-31 23:59:59+00:00	1	' wspomniana firma mia3aby dok3adnie taki sam interes w \x84<em>lobbowaniu</em>\x94 na rzecz \nBrzeziñskiej, jak na rzecz'
626	lobbować	Gminna Biblioteka Publiczna w Raszynie	1692430	2002-12-01 00:00:00+00:00	2002-12-31 23:59:19+00:00	1	' zwalniające. \nWójtowie myślą też o budowie obwodnicy. Zapowiadają, że będą <em>lobbować</em> \nw tej sprawie u'
628	lobbować	Sejm	3559766	2001-01-10 00:00:00+00:00	2001-01-10 23:59:59+00:00	1	', tylko z faktu posiadania siły finansowej, by tak powiedzieć, umiejętności <em>lobbowania</em> tam, gdzie trzeba'
629	lobbować	Sejm	3561231	2000-12-07 00:00:00+00:00	2000-12-07 23:59:59+00:00	1	', hydrotechniczne działa już w Polsce od 45 lat, od 50 lat - choćby te słynne programy ˝Wisła˝, ˝Odra˝ i <em>lobbowanie</em>'
633	lobbować	Sejm	3620221	2003-11-14 00:00:00+00:00	2003-11-14 23:59:59+00:00	1	' nieprawda, że trzech lekarzy siedzących na galerii jest w stanie <em>lobbować</em>.\nA ja wam, panowie, przypomnę inną'
634	lobbować	Sejm	3637692	2002-07-26 00:00:00+00:00	2002-07-26 23:59:59+00:00	1	' lobbingiem, to może wreszcie zacząć <em>lobbować</em> na rzecz polskiej gospodarki i polskiego rynku pracy. Dziękuję'
638	lobbować	Sejm	3632440	2002-12-19 00:00:00+00:00	2002-12-19 23:59:59+00:00	1	'. Oczywiście starałem się jako prowadzący pracę podkomisji równoprawnie traktować i tych <em>lobbujących</em>, i tych'
662	lobbować	Sejm	3498453	1993-04-01 00:00:00+00:00	1993-04-01 23:59:59+00:00	4	' partnera, którym był ˝Heinz˝; tak jak ˝Wedel˝ miał przed ˝Pepsico˝ ˝Nestle˝. Otóż ˝Heinz˝ <em>lobbował</em>'
665	lobbować	Śląska Biblioteka Cyfrowa	899893	2001-01-01 00:00:00+00:00	2001-12-31 23:59:59+00:00	3	' dało \nto 22 mld zł zadłuzenla Dlatego \nteż nie widzę większych szans, \nby to <em>lobbowanie</em> się powiodło'
666	lobbować	Sejm	3641195	2002-04-26 00:00:00+00:00	2002-04-26 23:59:59+00:00	2	' ocen formułować publicznie.\nCzy firma Cox będzie <em>lobbowała</em> na rzecz izolacjonizmu Polski, czy będziemy'
672	lobbować	Biblioteka Cyfrowa Uniwersytetu Łódzkiego	1555589	1928-09-28 00:00:00+00:00	1928-09-28 23:59:59+00:00	1	"' okazyinie do sprzedania. \nWiad. 6 Sierpnia 16 u dozorcy \n  \'„czystość"" \n?<em>lobbowała</em> 44. telefon 87-45'"
713	lobbować	Sejm	3635329	2002-10-10 00:00:00+00:00	2002-10-10 23:59:59+00:00	1	' wiadomości i sposób dalej <em>lobbowania</em>. Nasze przedstawicielstwa zwracały się wielokrotnie też do samego'
714	lobbować	Sejm	3626439	2003-05-21 00:00:00+00:00	2003-05-21 23:59:59+00:00	1	'. Występowaliśmy jako jedna z sił, <em>lobbowaliśmy</em> na rzecz precyzowania i zaostrzenia przepisów antykorupcyjnych'
757	lobbować	Sejm	3628662	2003-03-26 00:00:00+00:00	2003-03-26 23:59:59+00:00	1	', uzupełnić to o zawód architekta, to trudno uznać, że <em>lobbujemy</em> za jednym konkretnym stowarzyszeniem'
766	lobbować	Wiadomości Brzosteckie	1451387	2002-01-01 00:00:00+00:00	2002-12-31 23:59:59+00:00	1	' hegemonią leśników, <em>lobbuje</em> \ni przeforsowuje biurokratyczne przepisy. \nUrzędnicy i politycy wszelkiej barwy'
774	lobbować	Śląska Biblioteka Cyfrowa	1629900	2003-01-01 00:00:00+00:00	2003-12-31 23:59:59+00:00	1	' się jednoczyć w walce z \nnieuczciwą konkurencją i walczyć o swoje prawa m.in. <em>lobbując</em> na rzecz'
775	lobbować	Sejm	3555589	2001-05-10 00:00:00+00:00	2001-05-10 23:59:59+00:00	1	' jest pierwsze z niebezpieczeństw. Dlaczego? Dlatego, że ustawy na dobrą sprawy <em>lobbują</em> wielkie koncerny'
778	lobbować	Sejm	3635320	2002-10-10 00:00:00+00:00	2002-10-10 23:59:59+00:00	1	' wystosowaliśmy kolejną prośbę do naszych ambasadorów, aby <em>lobbowali</em> nadal i zdali nam relację 20 października i'
788	lobbować	Cyfrowy Dolny Śląsk	367109	2003-01-01 00:00:00+00:00	2003-12-31 23:59:59+00:00	2	' wybrany, abyś \n<em>lobbował</em> nasze środowisko wśród \nludzi... \n- Zaraz, zaraz - przerwał  \nmężczyzna -jak to'
796	lobbować	Małopolska Biblioteka Cyfrowa	779627	2000-02-29 00:00:00+00:00	2000-02-29 23:59:59+00:00	1	', wspomożenie samorządowców z Kłaja w pozyskaniu terenów pod zabudowę gospodarczą, \n<em>lobbowanie</em> na rzecz rozwoju'
807	lobbować	Sejm	3624888	2003-07-08 00:00:00+00:00	2003-07-08 23:59:59+00:00	1	' państwo, część z państwa po prostu proponuje. Natomiast błędem byłoby, gdybyśmy próbowali <em>lobbować</em> tylko'
808	lobbować	Śląska Biblioteka Cyfrowa	900811	2003-01-01 00:00:00+00:00	2003-12-31 23:59:59+00:00	1	' to jego jedyny grzeszek. Cieniem na Jaskierni kładzie się jego udzial w \n<em>lobbowaniu</em> na rzecz ustawy o'
814	lobbować	Sejm	3618467	2003-12-09 00:00:00+00:00	2003-12-09 23:59:59+00:00	1	' sterują, <em>lobbują</em> i doprowadzają do sytuacji, które są korzystne dla określonych grup społecznych i'
821	lobbować	Śląska Biblioteka Cyfrowa	866431	2003-01-01 00:00:00+00:00	2003-12-31 23:59:59+00:00	1	' dobre \nprojekty, skutecznie za nimi <em>lobbować</em> i dobrze je wykonać, a następnie prawidlowo \nrozliczyć'
830	lobbować	Mazowiecka Biblioteka Cyfrowa	29737	2003-01-01 00:00:00+00:00	2003-12-31 23:59:59+00:00	1	"'\ntego projektu? Kto w dzielnicy\nWłochy pilotuje hasło ""unia europejska""? Czy ktoś z radnych <em>lobbuje</em> na'"
843	lobbować	Zielonogórska Biblioteka Cyfrowa	236945	2003-05-31 00:00:00+00:00	2003-05-31 23:59:59+00:00	1	' programu \nSocrates Erasmus (mi dzynarodowa wymiana studentow). Teraz <em>lobbują</em> na rzecz bezplatnej edukacji'
854	lobbować	Sejm	3564073	2000-09-13 00:00:00+00:00	2000-09-13 23:59:59+00:00	1	'), mogłyby uczestniczyć w pracach legislacyjnych. Parlament jest najbardziej dogodnym miejscem dla <em>lobbowania</em>'
855	lobbować	Sejm	3562900	2000-10-26 00:00:00+00:00	2000-10-26 23:59:59+00:00	1	' grup <em>lobbujących</em> konkretne interesy i różnorakich firm. Tak samo i posłowie, tak samo i dziennikarze'
856	lobbować	Sejm	3569265	2000-03-30 00:00:00+00:00	2000-03-30 23:59:59+00:00	1	' oferenta.\nWydaje się, proszę państwa, że tych zapisów, które są nieprecyzyjne, które bardzo <em>lobbują</em> jedną'
857	lobbować	Sejm	3578341	1999-06-19 00:00:00+00:00	1999-06-19 23:59:59+00:00	1	' - i <em>lobbuje</em> w klubie SLD - że musimy to oczywiście zaakceptować, to zwracam uwagę, że ilość pieniędzy'
860	lobbować	Sejm	3620804	2003-10-30 00:00:00+00:00	2003-10-30 23:59:59+00:00	1	' sformułowania, że jest to amunicja, że bardzo kosztowne jest wprowadzanie tej ustawy w życie i <em>lobbowanie</em> na jej'
872	lobbować	Biblioteka Cyfrowa Uniwersytetu Wrocławskiego	126694	2002-09-01 00:00:00+00:00	2002-09-30 23:59:59+00:00	1	' oko3o stu rektorów. \nZdaniem rektorów niezbędna jest potrzeba <em>lobbowania</em> \nna rzecz \x9crodowiska'
882	lobbować	Bałtycka Biblioteka Cyfrowa	413641	2003-07-28 00:00:00+00:00	2003-07-28 23:59:59+00:00	1	'. <em>lobbowanie</em> \nna rzecz spraw slupskich: - Formuła organizacyjna kola na razie jeszcze nie została dokladnie'
897	lobbować	Biblioteka Cyfrowa Uniwersytetu Wrocławskiego	126495	2000-10-01 00:00:00+00:00	2000-10-31 23:59:59+00:00	1	', a nie za samo \nistnienie poparte umiejętnością <em>lobbowania</em>. \nPo czwarte, trzeba wprowadzić zachęty'
907	lobbować	Sejm	3644644	2001-12-21 00:00:00+00:00	2001-12-21 23:59:59+00:00	1	' konsultować, <em>lobbować</em> - mówię o praktyce z ubiegłej kadencji - i gdyby wybory miały odbyć się na wiosnę'
908	lobbować	Sejm	3571966	1999-12-21 00:00:00+00:00	1999-12-21 23:59:59+00:00	1	' strajki. Komisja Finansów Publicznych na wniosek przedstawicieli zespołu posłów, którzy <em>lobbują</em> tę grupę'
924	lobbować	Śląska Biblioteka Cyfrowa	899893	2001-01-01 00:00:00+00:00	2001-12-31 23:59:59+00:00	2	' powinno być \n<em>lobbowane</em>, tak Jak powinna być <em>lobbowana</em> \\ \nw rozsądnym zakresie \ncała polska gospodarka \nW'
925	lobbować	Śląska Biblioteka Cyfrowa	882400	2003-01-01 00:00:00+00:00	2003-12-31 23:59:59+00:00	2	'  \nszukanie sposobów przełamania stagnacji, \n<em>lobbowanie</em> na rzecz Cieszyna w  \nKatowicach, Warszawie, a nawet'
943	lobbować	Śląska Biblioteka Cyfrowa	901027	2002-01-01 00:00:00+00:00	2002-12-31 23:59:59+00:00	2	' <em>lobbowali</em> \n  Wsrod polityków OfiVdownikiem \nzatrudniania emery tOw gorniczych byl \nRyszard Pojda, pose I'
944	lobbować	Śląska Biblioteka Cyfrowa	900647	2003-01-01 00:00:00+00:00	2003-12-31 23:59:59+00:00	1	' \nmieści się jego firma, remontował magistrat i urząd skarbowy. \nNie ma żadnych związków? - \nNie <em>lobbuję</em>'
946	lobbować	Śląska Biblioteka Cyfrowa	920778	2001-01-01 00:00:00+00:00	2001-12-31 23:59:59+00:00	1	', ale najcz sciej - cuchn[jce wltglem moce \nkatowickie, <em>lobbuj</em>[jce przeciw niezawislemu \ns[jsiadowi'
947	lobbować	Sejm	3555920	2001-04-25 00:00:00+00:00	2001-04-25 23:59:59+00:00	1	' <em>lobbowania</em>, powiem tak, że jak się nie ma nic do powiedzenia, to się mówi, co się da. Jestem posłem'
949	lobbować	Sejm	3618489	2003-12-09 00:00:00+00:00	2003-12-09 23:59:59+00:00	1	' tym artykule? Chodzi o to, by organ podejmujący rozstrzygnięcie, które dotyczy przedmiotu <em>lobbowania</em>'
950	lobbować	Sejm	3636820	2002-08-29 00:00:00+00:00	2002-08-29 23:59:59+00:00	1	' zobowiązań wobec gminy. To tyle tytułem wyjaśnienia.\nMyślę, że kolega Zarzycki powiedział, kto <em>lobbował</em>'
955	lobbować	Sejm	3564096	2000-09-13 00:00:00+00:00	2000-09-13 23:59:59+00:00	5	' projekcie ustawy możliwość <em>lobbowania</em> przeciwko danemu projektowi ustawy. Później wyjaśniło się, że to jest'
977	lobbować	Śląska Biblioteka Cyfrowa	900176	2001-01-01 00:00:00+00:00	2001-12-31 23:59:59+00:00	1	' \nhandlowiec zostanie ukarany \ngrzywną. \nPKE, ktory ma za sobą okres \nenergicznego <em>lobbowania</em> i współpracy przy'
979	lobbować	Sejm	3560942	2000-12-15 00:00:00+00:00	2000-12-15 23:59:59+00:00	1	' są i potrafią <em>lobbować</em>, kosztem tych, którzy nie mają takiej siły. To jest potrzebne. To po pierwsze'
981	lobbować	Sejm	3634119	2002-11-12 00:00:00+00:00	2002-11-12 23:59:59+00:00	1	', że nie wolno sprzedawać, ale później <em>lobbował</em>, żeby w którymś tam miejscu, nie wiem, czym'
996	lobbować	Sejm	3567380	2000-05-25 00:00:00+00:00	2000-05-25 23:59:59+00:00	3	' skreślony, ale pokazuje to, jaki jest sposób <em>lobbowania</em> pewnych rzeczy. W parlamencie są różne sposoby'
997	lobbować	Sejm	3641034	2002-04-25 00:00:00+00:00	2002-04-25 23:59:59+00:00	2	' to zbyt widoczne <em>lobbowanie</em> - którzy ze znaną żołnierzom prostolinijnością podpowiadają panu'
1024	lobbować	Cyfrowy Dolny Śląsk	3831637	2001-01-01 00:00:00+00:00	2001-12-31 23:59:59+00:00	1	' \nzwiązkowcy zabiegali od kilku \nlat. Pracodawcy <em>lobbowali</em> wśród \nreprezentujących liberalne  \npoglądy'
1035	lobbować	Cyfrowy Dolny Śląsk	366949	2003-01-01 00:00:00+00:00	2003-12-31 23:59:59+00:00	1	"' „Orlenu"" czy Rafinerii Gdańskiej i dlatego „<em>lobbują</em>"" \nmedia; aby straszyć zmotoryzowanych rodaków? O jakie'"
1037	lobbować	Sejm	3624823	2003-07-25 00:00:00+00:00	2003-07-25 23:59:59+00:00	1	' <em>lobbowania</em> ministra finansów przez ścierające się grupy interesów na rynku tytoniowym. Do tego nie można'
1042	lobbować	Śląska Biblioteka Cyfrowa	900473	2003-01-01 00:00:00+00:00	2003-12-31 23:59:59+00:00	1	' rozmawiał z Rywinem \nna lemat pomocy w <em>lobbowaniu</em> \nna rzecz ustawy o radiofonii i telewiLji. Wykluczył'
1045	lobbować	Śląska Biblioteka Cyfrowa	882400	2003-01-01 00:00:00+00:00	2003-12-31 23:59:59+00:00	1	' powiatowy, na ukończenie budowy przyszłoby czekać bardzo długo. \n<em>Lobbuje</em> w sprawie inwesty- lację dotyczącą'
1047	lobbować	Wirtualna Czytelnia Bibuły	1702626	1987-01-01 00:00:00+00:00	1987-12-31 23:59:59+00:00	1	' \n  ___-____-__-______~. ___-— _ ~ \n  wic ›› całości. \n i 7 vn Mi:-aim Kkmpian usadhiozuo <em>lobbują</em> Mmd kultowej ›› ich spokoj- \n=››yu› domu'
1048	lobbować	Sejm	3528497	1996-04-24 00:00:00+00:00	1996-04-24 23:59:59+00:00	1	' uogólniać, nie uogólniam tego, absolutnie nie, natomiast takie <em>lobbowanie</em>, w taki sposób, iż np. członek'
1050	lobbować	Sejm	3620575	2003-10-29 00:00:00+00:00	2003-10-29 23:59:59+00:00	1	' uciekają z Polski, a ten policjant, dobry policjant swego czasu, nagle <em>lobbuje</em> za takim rozwiązaniem'
1051	lobbować	Sejm	3618582	2003-12-10 00:00:00+00:00	2003-12-10 23:59:59+00:00	1	' wykorzystani, żeby te nasze stanowiska rządu <em>lobbować</em> w tym czasie. Nie chodzi o to, żeby tam tylko być, ale'
1052	lobbować	Sejm	3643677	2002-01-24 00:00:00+00:00	2002-01-24 23:59:59+00:00	1	' się ukryć, wyraźnie <em>lobbują</em>; wczoraj próbowano ze mną rozmawiać, przekonywać, bym zmienił zdanie w tej'
1053	lobbować	Sejm	3584287	1998-11-09 00:00:00+00:00	1998-11-09 23:59:59+00:00	1	' i gospodarka jest dźwignią uzdrowienia państwa, na co polemiści <em>lobbują</em> za określonymi sektorami'
1073	lobbować	Bałtycka Biblioteka Cyfrowa	420979	2003-03-14 00:00:00+00:00	2003-03-16 23:59:59+00:00	1	' otrzymał od prezydenta miasta klucze do grodu \nnad Slupią. W zamian obiecał <em>lobbować</em> na rzecz miasta. Ma'
1076	lobbować	Cyfrowy Dolny Śląsk	367134	2003-01-01 00:00:00+00:00	2003-12-31 23:59:59+00:00	1	' burmistrz Jan Dżugaj - jest \npromocja i <em>lobbowanie</em> członków. \nGmina Twardogóra dołączyła do  \ngrona 26 gmin'
1078	lobbować	Śląska Biblioteka Cyfrowa	900964	2002-01-01 00:00:00+00:00	2002-12-31 23:59:59+00:00	1	' poslow chadli \no <em>lobbowanie</em> duZych i czcsto adleg1ych ad naszej rzeczvwislości interesow. W gminie chodzi'
1093	lobbować	Małopolska Biblioteka Cyfrowa	742661	2002-05-24 00:00:00+00:00	2002-05-24 23:59:59+00:00	1	' wolno nam nie docenić tego faktu. Mam \nwiele deklaracji pomocy przy <em>lobbowaniu</em> takiego projektu, trzeba'
1094	lobbować	Bałtycka Biblioteka Cyfrowa	409768	2003-12-30 00:00:00+00:00	2003-12-30 23:59:59+00:00	1	' zreałizowany - mówi wojewoda \nJan Ryszard Kuryfczyk. - Choć nie lubię tego słowa, będę <em>lobbował</em>, gdzie tylko'
1096	lobbować	Biblioteka Cyfrowa Uniwersytetu Wrocławskiego	126204	2001-11-01 00:00:00+00:00	2001-11-30 23:59:59+00:00	1	' wybrnie z tego paradoksu. Może liczyć, że Stryjewski będzie <em>lobbował</em> na rzecz \nUniwersytetu, ale może też'
1113	lobbować	Cyfrowy Dolny Śląsk	3831636	2001-01-01 00:00:00+00:00	2001-12-31 23:59:59+00:00	1	' rzecz \nzmiany granic dotychczasowych \nstref, <em>lobbowałem</em> na rzecz  \nobjęcia ich granicami Żarowa'
1115	lobbować	Śląska Biblioteka Cyfrowa	901025	2002-01-01 00:00:00+00:00	2002-12-31 23:59:59+00:00	1	' \nna tzw. <em>lobbowanie</em> - dziwi sitr Miskiewicz. \nKarnpania kosztuje 50 tys. zl. Pieni q dze na ten cel'
1116	lobbować	Śląska Biblioteka Cyfrowa	901159	2002-01-01 00:00:00+00:00	2002-12-31 23:59:59+00:00	1	""" Sll'Iska. <em>Lobbowali</em> \nnp. na rzecz lepszego finansowania inwestycji centralnych. Posel \nZarzycki ma nadzieje"""
1117	lobbować	Śląska Biblioteka Cyfrowa	900555	2003-01-01 00:00:00+00:00	2003-12-31 23:59:59+00:00	1	"' ""śląskim fanatykiem\'; \nktóry nic łnnego nie robi tyłko <em>lobbuje</em> na rzecz swojej \nmalej ojczyzny. Ile w tym'"
1118	lobbować	Śląska Biblioteka Cyfrowa	902287	2001-01-01 00:00:00+00:00	2001-12-31 23:59:59+00:00	1	' będą <em>lobbować</em> na \nrzecz kobiet. ponad podziałami \npolitycznymi. . OPR. JAN \n  Odsetki z oszczędności'
1123	lobbować	Sejm	3531957	1995-12-01 00:00:00+00:00	1995-12-01 23:59:59+00:00	1	' <em>lobbowanie</em> spraw uczestników życia gospodarczego przed władzą wykonawczą i prawodawczą. Samorząd gospodarczy'
1124	lobbować	Sejm	3564063	2000-09-13 00:00:00+00:00	2000-09-13 23:59:59+00:00	1	', którzy <em>lobbują</em> za tym, by dane rozwiązanie, na każdym poziomie, nie zostało przyjęte, byli uznani za'
1125	lobbować	Sejm	3523793	1996-10-23 00:00:00+00:00	1996-10-23 23:59:59+00:00	1	' ludzie reprezentujący inną gałąź prawną czy <em>lobbujący</em> w jej imieniu zechcą podnieść rangę tego prawa, i'
1128	lobbować	Sejm	3644834	2001-12-13 00:00:00+00:00	2001-12-13 23:59:59+00:00	1	' rządów koalicji SLD-PSL był już od 2 lat dosyć wysoki wzrost gospodarczy, grupa posłów zaczęła <em>lobbować</em>'
1129	lobbować	Sejm	3629238	2003-03-13 00:00:00+00:00	2003-03-13 23:59:59+00:00	1	' Ubezpieczeń spowoduje powstanie mocnej organizacji <em>lobbującej</em> na rzecz zakładów ubezpieczeń. Nie byłoby w tym'
1148	lobbować	Śląska Biblioteka Cyfrowa	910294	2000-01-01 00:00:00+00:00	2000-12-31 23:59:59+00:00	1	' <em>lobbowali</em> na \nrzecz regionów, z których się wywod7ili. - Bylo to cyniczne - ocenia poseł B. \nSzweda'
1150	lobbować	Cyfrowy Dolny Śląsk	367080	2003-01-01 00:00:00+00:00	2003-12-31 23:59:59+00:00	1	' nie było \nkoncertu rockowego. I taki będzie \n27 kwietnia. Liczę, że Rada będzie \n<em>lobbować</em> na rzecz'
1155	lobbować	Bałtycka Biblioteka Cyfrowa	393298	1996-01-01 00:00:00+00:00	1996-12-31 23:59:59+00:00	2	' \n  -- \n  Rys. Zbigniew Jujka \n  . \n  RAFAl JANUS \n  MOJA KORRIDA \n  Co robi lobbysta? \n<em>Lobbuje</em>! \n  Malkontenci'
1156	lobbować	Śląska Biblioteka Cyfrowa	900630	2003-01-01 00:00:00+00:00	2003-12-31 23:59:59+00:00	1	' \nPodsiadło. Jako poseł \n<em>lobbowałem</em> w Sejmie \nna rzecz ludzi \nposzkodowanych \nprzez Trzecią Rzeszę, \nsam nie'
1161	lobbować	Bałtycka Biblioteka Cyfrowa	413365	2003-11-21 00:00:00+00:00	2003-11-23 23:59:59+00:00	1	' \nświadomie <em>lobbuje</em> w sejmie na rzecz farmy wiatrowej, w której udziały \nma jego żona. Chce doprowadzić do'
1176	lobbować	Małopolska Biblioteka Cyfrowa	733193	2003-11-30 00:00:00+00:00	2003-11-30 23:59:59+00:00	1	', animuje i <em>lobbuje</em> na \nrzecz zabezpieczenia i odbudowy zamku. \nStara się także pozyskiwać fundusze'
1188	lobbować	A Polish-Canadian press	3476528	1954-01-24 00:00:00+00:00	1954-01-24 23:59:59+00:00	1	"' \n  ! \n  ! \n  <em>lobbowanie</em>. \n\'-1 111111133 \' \n  1”. "" w I . . \n„E”—V \' ›\'-f~\'~_-~11\'33~_-, . » \'::7\'21\'313. \n  % \n  ticzyiilć'"
1195	lobbować	Sejm	3622200	2003-09-16 00:00:00+00:00	2003-09-16 23:59:59+00:00	1	'. Jedyną szansą projektu wydawałoby się zmasowane <em>lobbowanie</em> zainteresowanych instytucji finansowych, ale'
1199	lobbować	Śląska Biblioteka Cyfrowa	909641	2000-01-01 00:00:00+00:00	2000-12-31 23:59:59+00:00	1	' <em>lobbowane</em> także przez minister \nAnnę Knysok. Tymczasem polowa placowek slużby zdrowia jest w województwie'
1200	lobbować	Śląska Biblioteka Cyfrowa	899893	2001-01-01 00:00:00+00:00	2001-12-31 23:59:59+00:00	1	', jak widzą możliwości \nwspierania i <em>lobbowania</em> górnictwa węgla \nkamiennego w nowym parlamencie. Oto'
1201	lobbować	Śląska Biblioteka Cyfrowa	901017	2002-01-01 00:00:00+00:00	2002-12-31 23:59:59+00:00	1	'. Wsr6d postów jest znany z tego, ze <em>lobbuje</em> na rzecz \ngornictwa. Niektorzy wytykajij \nmu w tej trosce 0'
1207	lobbować	Sejm	3529104	1996-03-27 00:00:00+00:00	1996-03-27 23:59:59+00:00	1	' <em>lobbowaniem</em> interesów wybranych grup i zacieraniem różnic kompetencyjnych w państwie.\nNa zakończenie pragnę'
1210	lobbować	Sejm	3637792	2002-07-17 00:00:00+00:00	2002-07-17 23:59:59+00:00	1	'.\nNastępna rzecz. Czy to jest moralne - zwracam się do aptekarzy - aby <em>lobbować</em> w Sejmie za rozwiązaniami'
1211	lobbować	Sejm	3588689	1998-06-19 00:00:00+00:00	1998-06-19 23:59:59+00:00	1	' i prób <em>lobbowania</em> - oby się tak nie stało - na rzecz przesunięcia w tej chwili kompetencji w dół'
1238	lobbować	Krośnieńska Biblioteka Cyfrowa	3372671	2003-01-01 00:00:00+00:00	2003-12-31 23:59:59+00:00	1	"' ""POL- \nWAZ\': dla ktorej najkrocej mowittc byllobbyst q . <em>Lobbowanie</em>, \nto przeciez nic zlego, jeieli'"
1256	lobbować	Sejm	3628705	2003-03-27 00:00:00+00:00	2003-03-27 23:59:59+00:00	1	'. Jest zapis, który znalazł się w ustawie - i to powiem tu wyraźnie - na skutek silnego <em>lobbowania</em>, z'
1258	lobbować	Śląska Biblioteka Cyfrowa	899893	2001-01-01 00:00:00+00:00	2001-12-31 23:59:59+00:00	1	'. \nReasumując, musimy Inaczej spojrzeć na górnictwo, <em>lobbować</em> za regionem i górnictwem, ale nie może to być'
1259	lobbować	Śląska Biblioteka Cyfrowa	902213	2001-01-01 00:00:00+00:00	2001-12-31 23:59:59+00:00	1	' Micszkańcow, ktÓry od 2 lat \n<em>lobbuje</em> na rzccz przejęcia zakładowych budynków prze7 gminę \nPyskowice. Tylko'
1277	lobbować	Cyfrowy Dolny Śląsk	367043	2003-08-05 00:00:00+00:00	2003-08-05 23:59:59+00:00	1	' mieszkańców \nOstrowca wywołuje fakt, że za opcją hiszpańską najprawdopodobniej <em>lobbował</em> \nSLD-owski prezydent'
1281	lobbować	Cyfrowy Dolny Śląsk	367162	2003-01-01 00:00:00+00:00	2003-12-31 23:59:59+00:00	1	' finansowe (nie na \ndarmo <em>lobbowano</em> człowieka, by nie  \nkorzystać teraz ze szmalu na miejską kultu-; \nrę'
1283	lobbować	Cyfrowy Dolny Śląsk	368040	2001-06-19 00:00:00+00:00	2001-06-19 23:59:59+00:00	1	', choćby wobec władz \nmiasta, skuteczniej <em>lobbować</em> na rzecz tej niezorganizowanej dzisiaj grupy najbardziej'
1287	lobbować	Śląska Biblioteka Cyfrowa	901926	1998-01-01 00:00:00+00:00	1998-12-31 23:59:59+00:00	2	' jednak politycy \nwszystkich partii. Walczyli o każdą piędź ziemi. Poseł Jan Maria \nRokita (AWS) <em>lobbował</em>'
1289	lobbować	Bałtycka Biblioteka Cyfrowa	391207	1993-01-01 00:00:00+00:00	1993-12-31 23:59:59+00:00	2	"' zawodowego lub wręcz powowiska oświatowe również powinny dować lekceważenie obowiązków"". \n<em>lobbować</em>'"
1292	lobbować	Krośnieńska Biblioteka Cyfrowa	3373778	2003-01-01 00:00:00+00:00	2003-12-31 23:59:59+00:00	1	"' ""dzialania <em>lobbujące</em>"" na rzecz niektorych \nkandydatow. Powiedzial, ze \nwprawdzie dzialania takie \nSq'"
1298	lobbować	Tarnobrzeska Biblioteka Cyfrowa	3247525	1998-01-01 00:00:00+00:00	1998-12-31 23:59:59+00:00	1	'  \n  Strazackie \n<em>lobbowanie</em> \n  OSP w Konstantynowie (gm. \nDzwola) zaapelowala do radnych 0 \nsfinansowanie z'
1300	lobbować	Bałtycka Biblioteka Cyfrowa	409860	2003-08-30 00:00:00+00:00	2003-08-31 23:59:59+00:00	1	', nie \nwolno stosowaĆ chwytów reklamowych ani te:t <em>lobbować</em> \nna rzecz określonych producentów. Wartość'
1305	lobbować	Wojewódzka i Miejska Biblioteka Publiczna im. dr. Witolda Bełzy w Bydgoszczy	1517513	1928-05-02 00:00:00+00:00	1928-05-02 23:59:19+00:00	1	""", Tu wziął 'się do \n  ::<em>lobbowania</em> pierścienia. Podczas tej \npracy jego towarzyszka, oddaliła sięgdy"""
1308	lobbować	Cyfrowy Dolny Śląsk	367865	2002-09-17 00:00:00+00:00	2002-09-17 23:59:59+00:00	1	' <em>lobbowanie</em>. To ludzie doceniają tym bardziej, \n  Bolkllw przed WJborami \n  nisław Andrzejewski, burmistrz'
1309	lobbować	Cyfrowy Dolny Śląsk	367029	2003-09-23 00:00:00+00:00	2003-09-23 23:59:59+00:00	1	' \nod wielu miesięcy <em>lobbują</em> na \nrzecz FAMAGO, które daje zatrudnienie ponad 500 osobom. Miasto \nwspiera'
1310	lobbować	Cyfrowy Dolny Śląsk	368221	2001-10-09 00:00:00+00:00	2001-10-09 23:59:59+00:00	1	' dlugo i zdecydowanie \n<em>lobbowało</em> po mysi zrekompensowania jakoś strat producentom rolnym. Sejm uznał'
1312	lobbować	Śląska Biblioteka Cyfrowa	902555	2001-01-01 00:00:00+00:00	2001-12-31 23:59:59+00:00	1	' partii z Zywiecczyzny. Wczoraj w Warszawie \nprzebywał Jacek Soska, prezes \nPSL na Śląsku, który <em>lobbował</em>'
1314	lobbować	Bałtycka Biblioteka Cyfrowa	412744	2002-09-24 00:00:00+00:00	2002-09-24 23:59:59+00:00	1	' m.in.: <em>lobbowanie</em> na rzecz \nSłupska; umowa o współpracy między \nPAP a I LO; relacja z sesji Rady'
1315	lobbować	Śląska Biblioteka Cyfrowa	909680	2000-01-01 00:00:00+00:00	2000-12-31 23:59:59+00:00	1	' panów to poslowie \nz województwa śląskiego. którzy \npowinni w swojej komisji skutecznie <em>lobbować</em> na'
1316	lobbować	Sejm	3564074	2000-09-13 00:00:00+00:00	2000-09-13 23:59:59+00:00	1	' mają wiedzę czym i jak ˝<em>lobbować</em>˝ określone osoby, decydentów. Tak np. forma nakłaniania do określonego'
1324	lobbować	Cyfrowy Dolny Śląsk	367027	2003-09-30 00:00:00+00:00	2003-09-30 23:59:59+00:00	1	"' zakresie"". Dyskutowano także o problemach, z jakimi \nboryka Się FAMAGO. Samorządowcy <em>lobbowali</em> \nna rzecz'"
1328	lobbować	Bałtycka Biblioteka Cyfrowa	391418	2001-01-01 00:00:00+00:00	2001-12-31 23:59:59+00:00	1	' część dziennikarzy \n<em>lobbowała</em> za nagrodą dla Kai Paschalskiej, młodszej córki Krystyny i \n  Pawła'
1331	lobbować	Biblioteka Publiczna im. dr. Władysława Biegańskiego w Częstochowie	1421051	1984-01-01 00:00:00+00:00	1984-12-31 23:59:59+00:00	1	' \n Szybko zdobšrta braxškçyçpawodqmałążeiàbgm \ndość mierne widowfskozdapaiarie :<em>lobbowali</em> podwjna( \n  wiele'
1332	lobbować	Bałtycka Biblioteka Cyfrowa	418209	2003-03-01 00:00:00+00:00	2003-03-02 23:59:59+00:00	1	"' \nStowarzyszenie ""Na pomoc"", które \nskupia wielu lokalnych polityków \ni wpływowe osoby, które postanowiły \n<em>lobbować</em>'"
1336	lobbować	Wielkopolska Biblioteka Cyfrowa	770779	1930-11-13 00:00:00+00:00	1930-11-13 23:59:59+00:00	1	"' ocm; \n ...w r chwaloną\' w:. l\'..."",.,¶\'.\' ;""8 \n.. .znu-wht <em>lobbowała</em> \nrw noto \n  . tonio hgf \nAiron'"
1341	lobbować	Cyfrowy Dolny Śląsk	366813	2003-05-06 00:00:00+00:00	2003-05-06 23:59:59+00:00	1	' <em>lobbowali</em> przede wszystkim wiceburmistrz Bogatyni Z. Szatkowski i \ndyrektor SP ZOZ E. Zakrzewska'
1343	lobbować	Cyfrowy Dolny Śląsk	375269	2000-08-29 00:00:00+00:00	2000-08-29 23:59:59+00:00	1	', rozpocznie się <em>lobbowanie</em> oraz \nrozpaczliwa obrona, gdyż w budżecie \ntrzeba będzie dokonać jakichś przesunięć'
1347	lobbować	Śląska Biblioteka Cyfrowa	899377	2002-01-01 00:00:00+00:00	2002-12-31 23:59:59+00:00	1	"' \nopr6cz dzialania opiniotw6rczego i ""<em>lobbowania</em>"" w dobrym znaczeniu tegb okreslenia za \nkoksownictwem'"
1352	lobbować	Sejm	3564065	2000-09-13 00:00:00+00:00	2000-09-13 23:59:59+00:00	1	' mając na względzie interes własny, interes firm, w których pracowali, <em>lobbowali</em> za takim czy innym'
1354	lobbować	Sejm	3618462	2003-12-09 00:00:00+00:00	2003-12-09 23:59:59+00:00	1	' wewnętrznym regulacjom, spotykali się i <em>lobbowali</em>. Ale nawet gdyby ta ustawa wtedy obowiązywała, to coś'
1359	lobbować	Cyfrowy Dolny Śląsk	368054	2001-01-23 00:00:00+00:00	2001-01-23 23:59:59+00:00	1	' oceny, \nnatomiast pora jest dobra, żeby dolnośląscy parlamentarzyści mocniej i skuteczniej \n<em>lobbowali</em> na'
1364	lobbować	Bałtycka Biblioteka Cyfrowa	419065	2002-06-08 00:00:00+00:00	2002-06-09 23:59:59+00:00	1	', świszczy koło ucha, kręci się, \nalbo lobuje (nie mylić \nz <em>lobbowaniem</em>, ulubionym zajęciem \nsejmowych'
1365	lobbować	Bałtycka Biblioteka Cyfrowa	428979	1998-01-01 00:00:00+00:00	1998-12-31 23:59:59+00:00	1	"'. srebrne i zardzewiałe \n""kotwice"", <em>lobbuje</em> i korumpuje władzę. \nPeńśkę ostrzegał radny Jan Siedzik'"
1366	lobbować	Bałtycka Biblioteka Cyfrowa	1562605	2001-06-16 00:00:00+00:00	2001-06-17 23:59:59+00:00	1	'. \n  P oczątkowo część dziennikarzy <em>lobbowała</em> za nagrodą \ndla Kai PaschaIskiej, \nmłodszej córki Krystyny'
1368	lobbować	Cyfrowy Dolny Śląsk	375385	1999-12-21 00:00:00+00:00	1999-12-21 23:59:59+00:00	1	"' <em>lobbowanie</em> realizacji tego przedsięwzięcia. \n  (wald) \n  ZGORZELEC \nWyłoniono zwycięzców konkursu pn. ""Powiat'"
1369	lobbować	Śląska Biblioteka Cyfrowa	899439	2003-01-01 00:00:00+00:00	2003-12-31 23:59:59+00:00	1	"' \npertow wyraznie ohserwowal pan wyrazicieli jakichs "" \ngrup interesow?   \n- <em>Lobbowania</em> nie bylo. Nie ulega'"
1370	lobbować	Sejm	3551667	2001-07-24 00:00:00+00:00	2001-07-24 23:59:59+00:00	1	' czynienia z takim sporem między producentami pojazdów, wśród których jedni <em>lobbują</em> za tym, aby ten przepis'
1371	lobbować	Sejm	3573531	1999-11-19 00:00:00+00:00	1999-11-19 23:59:59+00:00	1	' strukturę jako zbędną. W ten sposób wypada z gry około 500 osób. I to oni oddziałują na was, to się <em>lobbuje</em>'
1375	lobbować	Wielkopolska Biblioteka Cyfrowa	768141	1936-09-16 00:00:00+00:00	1936-09-16 23:59:59+00:00	1	"""' \n  aanmemdiuhxrqnéagçrucnr, \n  rc maula <em>lobbowania</em>.. . \n  sy okalają twm-ne, które są ani lubo nd \nbrzydkie, poprosu: nijakie"""
1376	lobbować	Bałtycka Biblioteka Cyfrowa	420255	2003-06-24 00:00:00+00:00	2003-06-24 23:59:59+00:00	1	""" ty'TI <em>lobbują</em>. Nie wiem jed- i \nnak jak to zostanie zakończone, \nmam nadzieję, że pozytywnie. Wię"""
1377	lobbować	Cyfrowy Dolny Śląsk	366967	2003-11-11 00:00:00+00:00	2003-11-11 23:59:59+00:00	1	' tylko pracownicy zagrożonej fabryki. Na rzecz ratowania zakładu \n<em>lobbuje</em> od dłuższego czasu grupa'
1378	lobbować	Cyfrowy Dolny Śląsk	366815	2003-04-15 00:00:00+00:00	2003-04-15 23:59:59+00:00	1	' kilku lat Tomasz \nKulon i Miroslav Vlasak, \nburmistrz Zaciera, <em>lobbują</em> stosownie do swoich \nmożliwości'
1379	lobbować	Cyfrowy Dolny Śląsk	367830	2002-01-29 00:00:00+00:00	2002-01-29 23:59:59+00:00	1	' opiniotwórcze, <em>lobbujące</em> na rzecz \npoprawy warunków całego dorzecza i bez \nustanku monitorujące stan faktyczny'
1384	lobbować	Bałtycka Biblioteka Cyfrowa	420266	2003-06-10 00:00:00+00:00	2003-06-10 23:59:59+00:00	1	' się \nz władzami samorządowymi - od \nPoznania po Kołobrzeg - na wspólne <em>lobbowanie</em> na rzecz tej trasy'
1386	lobbować	Cyfrowy Dolny Śląsk	368500	2002-01-01 00:00:00+00:00	2002-12-31 23:59:59+00:00	1	' poparciem? Czy przyszli na sesję budżetową <em>lobbować</em> w sprawie \nśrodków na halę? Czy przedstawili swoją'
1388	lobbować	Bałtycka Biblioteka Cyfrowa	413373	2003-11-26 00:00:00+00:00	2003-11-26 23:59:59+00:00	1	' \nwypowiedź chciał zaprotestować, bo jego zdaniem Sieńko \nświadomie <em>lobbuje</em> w Sejmie \nna rzecz farmy wiatrowej'
1389	lobbować	Bałtycka Biblioteka Cyfrowa	409533	2003-12-05 00:00:00+00:00	2003-12-06 23:59:59+00:00	2	""" zawoła'o nawet, że Całe to <em>lobbowanie</em>, któnależy natychmiast roz- I I re jest poważnym problewiązać"""
1392	lobbować	Krośnieńska Biblioteka Cyfrowa	3373803	2003-01-01 00:00:00+00:00	2003-12-31 23:59:59+00:00	1	' \njakos to <em>lobbowanie</em> nie wychodzi. \nW Brzozowie wybrano \nniedawno, kolejny jui raz indywidualności roku'
1395	lobbować	Śląska Biblioteka Cyfrowa	899213	2003-01-01 00:00:00+00:00	2003-12-31 23:59:59+00:00	1	'. Nie \nuczestniclyla jednak w pierwszym. próbnym wybuchu bomby. Po Hiroslimie zaczęła <em>lobbować</em> na rzecz'
1396	lobbować	Śląska Biblioteka Cyfrowa	882400	2003-01-01 00:00:00+00:00	2003-12-31 23:59:59+00:00	1	' imprez dla  \nmłodzieży, zamierza też <em>lobbować</em> na \nrzecz wprowadzenia  \nmonitoringu cieszyńskiego Rynku'
1397	lobbować	Sejm	3553625	2001-06-20 00:00:00+00:00	2001-06-20 23:59:59+00:00	1	' przedsiębiorstwa Porty Lotnicze, bardzo silnej, wpływowej, silnie <em>lobbującej</em> w ugrupowaniach politycznych, mającej'
1398	lobbować	Sejm	3578337	1999-06-19 00:00:00+00:00	1999-06-19 23:59:59+00:00	1	' potem? Za czym państwo głosowaliście, za czym państwo <em>lobbowaliście</em>? Za interesami resortu. Za tym, żeby'
1399	lobbować	Sejm	3631402	2003-01-23 00:00:00+00:00	2003-01-23 23:59:59+00:00	1	' padło, że tu ktoś <em>lobbuje</em> tę sprawę.\nPytanie pana posła Cymańskiego do posła sprawozdawcy o stanowisko'
1400	lobbować	Sejm	3640074	2002-05-22 00:00:00+00:00	2002-05-22 23:59:59+00:00	1	' poświęcał 50% swego czasu na przycinanie <em>lobbowania</em> wewnątrz rady, a 50% czasu panu zostawi ta rada na to'
1402	lobbować	Bałtycka Biblioteka Cyfrowa	420835	2003-04-29 00:00:00+00:00	2003-04-29 23:59:59+00:00	1	' państwach Unii EuropeJskieJ, by te \n<em>lobbowały</em> w parlamentach swych \npaństw na rzecz szybkiej ratyfikacji'
1404	lobbować	Bałtycka Biblioteka Cyfrowa	1303816	2002-05-18 00:00:00+00:00	2002-05-19 23:59:59+00:00	1	' będą o nie walczyć, zgłaszać inicjatywy poselskie, zbierać podpisy, \n<em>lobbować</em>... Co mówią dzisiaj'
1406	lobbować	Wojewódzka i Miejska Biblioteka Publiczna im. dr. Witolda Bełzy w Bydgoszczy	1516812	1925-11-22 00:00:00+00:00	1925-11-22 23:59:19+00:00	1	"' \n<em>lobbowanie</em>"", przez defraudacje, okradanie grosza puństnowasxo i oszustwa, \nnie radzę. Proceder ten już'"
1408	lobbować	Śląska Biblioteka Cyfrowa	901651	1998-01-01 00:00:00+00:00	1998-12-31 23:59:59+00:00	1	' Tyrna (A WS) z Bielska- \nBiałej, którzy solidarnie <em>lobbowali</em> za pozostawieniem Bielska \nz'
1409	lobbować	Śląska Biblioteka Cyfrowa	900152	2001-01-01 00:00:00+00:00	2001-12-31 23:59:59+00:00	1	' Gospodarczego (organi7acji skupiającej m.in \noperatorow sieci telefonii komorkowej), \nktora <em>lobbowała</em> za'
1411	lobbować	Sejm	3555449	2001-05-10 00:00:00+00:00	2001-05-10 23:59:59+00:00	1	' sprawiedliwości.\nPanie Marszałku! Wysoki Sejmie! Uważam, że podejmowane zakulisowe próby <em>lobbowania</em>, wywierania'
1412	lobbować	Sejm	3564784	2000-09-07 00:00:00+00:00	2000-09-07 23:59:59+00:00	1	' objęte? Ministerstwo pracy <em>lobbuje</em> na rzecz jednego środowiska.\nKoszty pracy są tylko jednym z elementów'
1416	lobbować	Bałtycka Biblioteka Cyfrowa	418183	2003-03-07 00:00:00+00:00	2003-03-08 23:59:59+00:00	1	' bronią. \nMniejsze jest tylko ryzyko. \nLista zarzutów wobec potentatów farmacji jest długa: <em>lobbowanie</em>'
1417	lobbować	Bałtycka Biblioteka Cyfrowa	420283	2003-06-20 00:00:00+00:00	2003-06-22 23:59:59+00:00	1	' europejskich korytarzy transportowych, a potem razem <em>lobbować</em> na rzecz basenu \nMorza Bałtyckiego. Na seminarium'
1418	lobbować	Bałtycka Biblioteka Cyfrowa	392987	1997-01-01 00:00:00+00:00	1997-12-31 23:59:59+00:00	1	' splzężenie zwrotne na Warszawę i możemy <em>lobbować</em> na rzecz Koszalina i koszalińskich przedsiębiorców'
1421	lobbować	Bałtycka Biblioteka Cyfrowa	393466	1998-01-01 00:00:00+00:00	1998-12-31 23:59:59+00:00	1	' przyjaciół. Anonimowy \nautor sugerował również, że Holbrooke wykorzystywał swoje znajomości dla <em>lobbowania</em> na'
1424	lobbować	Bałtycka Biblioteka Cyfrowa	421273	2003-02-10 00:00:00+00:00	2003-02-10 23:59:59+00:00	1	' ktoś z kierownictwa Agory \nrozmawial z Ryw1nem na temat pomocy w <em>lobbowaniu</em> na rzecz ustawy \no'
1425	lobbować	Krośnieńska Biblioteka Cyfrowa	3372606	2003-01-01 00:00:00+00:00	2003-12-31 23:59:59+00:00	1	"' tez przypadki. gdy dziennikarze siedz q w tak zwanej ""kieszeni"" pilkarzy i <em>lobbują</em> w mediach na ich'"
1426	lobbować	Krośnieńska Biblioteka Cyfrowa	3372669	2003-01-01 00:00:00+00:00	2003-12-31 23:59:59+00:00	1	'. \nJeszcze bardziej jednak \nnaleZy si  dziwic <em>lobbowaniu</em> na \nrzecz Izolatora niektorych zurnalistow, ktorzy'
1428	lobbować	Biblioteka Cyfrowa Uniwersytetu Łódzkiego	1572025	1926-10-31 00:00:00+00:00	1926-10-31 23:59:59+00:00	1	""" \nhiiriuia \nirini \nHimi \n  ?<em>lobbowała</em> 87 \n  Grzegorz \n  Rubinstein \n  ebeolw. prew. \nPot'ady w sprawach \nadm"""
1430	lobbować	Bałtycka Biblioteka Cyfrowa	421488	2003-01-11 00:00:00+00:00	2003-01-12 23:59:59+00:00	1	"' nieuchronnie nastąpi przesluchanie Lwa Rywina. \n(I\'AI\', \n  legalne <em>lobbowanie</em>? \n  Po aferze ""Rywina"" I'"
1435	lobbować	Wielkopolska Biblioteka Cyfrowa	798787	1893-07-30 00:00:00+00:00	1893-07-30 23:59:59+00:00	1	""" <em>lobbowanie</em>: : Medoćwa'adczenie ty którzy uknśa yczki b \ninne zawieraja inter-cza. Przed”, wy mi? pierwzlzuśj"""
1436	lobbować	Sejm	3590311	1998-04-23 00:00:00+00:00	1998-04-23 23:59:59+00:00	1	' wiceprezesa Krajowego Urzędu Pracy, który <em>lobbował</em>, aby spod działania ustawy wyłączyć firmy prowadzące'
1437	lobbować	Sejm	3564868	2000-09-08 00:00:00+00:00	2000-09-08 23:59:59+00:00	1	' taką ustawą. Za jakim rozwiązaniem będzie <em>lobbował</em>? Wie, że ustawa musi wejść. Właśnie wokół takiego'
1438	lobbować	Sejm	3571117	2000-01-20 00:00:00+00:00	2000-01-20 23:59:59+00:00	1	' tak skutecznie <em>lobbującym</em> jak np. SKO, nie mieszka tu z nami, nie rozmawia ciągle, nie spotyka nas na'
1439	lobbować	Sejm	3571974	1999-12-21 00:00:00+00:00	1999-12-21 23:59:59+00:00	1	' Państwowej Straży Pożarnej, iż to grupa posłów na komisji finansów coś <em>lobbowała</em>, więc dementuję to. Wniosek'
1442	lobbować	Małopolska Biblioteka Cyfrowa	654999	1951-10-07 00:00:00+00:00	1951-10-07 23:59:59+00:00	1	' pomysłów <em>lobbowanych</em> 1 miga.-ilamyinych. mnie dramy \n& wynalazczości. Muller-Ww aparat \nne. halogen. n'
1443	lobbować	Wielkopolska Biblioteka Cyfrowa	768509	1931-02-07 00:00:00+00:00	1931-02-07 23:59:59+00:00	1	': llooleeeoy. ee eo \n  Wydewolelwo lp. Akc. Druken \n  I ;<em>lobbuje</em> G Łe \nI rokhny All@ \n  Poleko \n  -Brüning'
1446	lobbować	Śląska Biblioteka Cyfrowa	902765	1999-01-01 00:00:00+00:00	1999-12-31 23:59:59+00:00	1	' jednoczące \nmieszkańców). Mieszkańcy Ziemi \nBrzezińskiej <em>lobbują</em> gdzie mogą. \nKonsultują, spotykają się z'
1447	lobbować	Śląska Biblioteka Cyfrowa	902840	1998-01-01 00:00:00+00:00	1998-12-31 23:59:59+00:00	1	' prawa. Gdyby w Polsce \nbiznesmen wiedział, że od polityka nic nie uzyska, przestałby <em>lobbować</em>, tracić'
1448	lobbować	Sejm	3578326	1999-06-19 00:00:00+00:00	1999-06-19 23:59:59+00:00	1	' politycy, przepraszam za szczerość, tak angażują się w tę rozgrywkę rynkową, <em>lobbując</em> za jedną lub drugą'
1449	lobbować	Bałtycka Biblioteka Cyfrowa	419958	2000-01-01 00:00:00+00:00	2000-12-31 23:59:59+00:00	1	' razie \nwspólnie <em>lobbujemy</em> za drogą S6 i S22, \nwspólnie walczymy o rybołówstwo i \ngospodarkę morską, o'
1450	lobbować	Śląska Biblioteka Cyfrowa	1620356	1997-01-01 00:00:00+00:00	1997-12-31 23:59:59+00:00	1	"' <em>lobbowanie</em>"". - Mysl{?, ze werdykt bylby inny, gdyby doszlo do \ndegustacji - nie daje za wygranq \nMichel'"
1451	lobbować	Śląska Biblioteka Cyfrowa	901661	1998-01-01 00:00:00+00:00	1998-12-31 23:59:59+00:00	1	' \nurzędnicy <em>lobbowali</em> bezpośrednio u wybranych posłów. Przykładem są urzędy pracy, które \nnie znajdą się w'
1456	lobbować	Sejm	3564062	2000-09-13 00:00:00+00:00	2000-09-13 23:59:59+00:00	1	' określenie ram informowania opinii publicznej o fakcie <em>lobbowania</em> w danej sprawie i o tym, kto jest lobbystą'
1470	lobbować	Sejm	3559478	2001-01-18 00:00:00+00:00	2001-01-18 23:59:59+00:00	1	' niewykorzystywanie rozgłośni do <em>lobbowania</em> dwuznacznych działań gospodarczych.)\nI w związku z tym nie ma tu'
1476	lobbować	Sejm	3622340	2003-09-17 00:00:00+00:00	2003-09-17 23:59:59+00:00	1	X
1478	lobbować	Archiwum czasopism dla niewidomych	3930034	2002-02-01 00:00:00+00:00	2002-02-28 23:59:59+00:00	1	X
