	word	lname	iid	duration_start	duration_end	occurences	highlighting
2	makijażysta	Bałtycka Biblioteka Cyfrowa	436888	1996-04-16 00:00:00+00:00	1996-04-16 23:59:59+00:00	5	'? Jaka jest różnica \nmiędzy <em>makijażystą</em> a wizażystą? \n- Przewrotnie można powiedzieć, że był to przypadek'
3	makijażysta	Śląska Biblioteka Cyfrowa	907616	1996-01-01 00:00:00+00:00	1996-12-31 23:59:59+00:00	2	' Wellesa To \nwielka nobilitacja dla <em>makijażysty</em>, jesli może wymienic takie nazwIska! Teraz Aida \nswoje'
4	makijażysta	Małopolska Biblioteka Cyfrowa	650014	1995-08-20 00:00:00+00:00	1995-08-20 23:59:59+00:00	1	' fachowców: \n<em>makijażystów</em>, fryzjerów, stylistów, itd. To jest pewna suma \niluzji, którą oglądamy. Są'
10	makijażysta	Wielkopolska Biblioteka Cyfrowa	3254641	1996-01-12 00:00:00+00:00	1996-01-12 23:59:59+00:00	2	' „Dziewczyny Roku’95” . W sobotę 13 stycznia o godzinie 17.00 odetchną <em>makijażyści</em>, fryzjerzy \ni krawcowe, ale'
13	makijażysta	Wielkopolska Biblioteka Cyfrowa	3263510	1998-01-09 00:00:00+00:00	1998-01-09 23:59:59+00:00	1	' przed balem panie \noddają się w ręce <em>makijażysty</em>. Jak \nzrobić dobry makijaż w domu? \n- \nZaczynamy od'
14	makijażysta	Cyfrowy Dolny Śląsk	367923	2001-01-01 00:00:00+00:00	2001-12-31 23:59:59+00:00	1	'\nPrzygotowania do sesji\nfotograficznej trwały od  \nsamego rana. Sam makijaż cztery godziny. <em>Makijażyści</em> nakładali'
18	makijażysta	Wielkopolska Biblioteka Cyfrowa	3257667	1995-09-15 00:00:00+00:00	1995-09-15 23:59:59+00:00	1	' wieczoru będzie stylista \ni <em>makijażysta</em> OLAF TABACZYŃSKI, \nktóry jest mistrzem Polski makijażu'
21	makijażysta	Wielkopolska Biblioteka Cyfrowa	3249711	1996-09-13 00:00:00+00:00	1996-09-13 23:59:59+00:00	1	' <em>makijażystów</em>, wizażystów , lOp wiza żys tów \ni beauty stylistów. Akademia ma orygi n alną licencję'
23	makijażysta	Śląska Biblioteka Cyfrowa	912269	1999-01-01 00:00:00+00:00	1999-12-31 23:59:59+00:00	1	', <em>makijażystę</em>, fryzje- \n  ra, oświetleniowca itp), że ide byłoby sensu inwestować \nw całą ekipę i piękną modelkę'
25	makijażysta	Cyfrowy Dolny Śląsk	367912	2001-01-01 00:00:00+00:00	2001-12-31 23:59:59+00:00	1	'  \nstrategię promocji, podpisać\nkontrakt, wynająć studio,\noświetlenie, asystentów,\n<em>makijażystę</em>, fryzjera'
26	makijażysta	Bałtycka Biblioteka Cyfrowa	424865	1997-01-01 00:00:00+00:00	1997-12-31 23:59:59+00:00	1	'. \n- Jak udało się panu tyle osiągnąć? \nJedyny <em>makijażysta</em> Lancóme w Polsce, \nuczeń Anne Lelaud - prawej'
27	makijażysta	Bałtycka Biblioteka Cyfrowa	436767	1998-05-23 00:00:00+00:00	1998-05-24 23:59:59+00:00	1	' Warszawie. \nNiebawem otworzy własną szkołę dla stylistek i <em>makijażystów</em>. \nWielki świat, w którym się teraz'
