	word	lname	iid	duration_start	duration_end	occurences	highlighting
2	monogamiczność	Armarium. dominikańska biblioteka cyfrowa	304181	1976-01-01 00:00:00+00:00	1976-12-31 23:59:59+00:00	1	', których na taką więź nie stać.\nW tym aspekcie postulaty przedmałżeńskiej czystości, <em>monogamiczności</em> i'
3	monogamiczność	Podlaska Biblioteka Cyfrowa	269143	1913-01-01 00:00:00+00:00	1913-12-31 23:59:59+00:00	1	' szukać trzeba sposobu utrwalania małżeństw, bo że człowiek idzie ku bezwzględnej <em>monogamiczności</em> w'
4	monogamiczność	ChronoPress	3461025	1953-10-11 00:00:00+00:00	1953-10-11 23:59:59+00:00	1	' niemu. Przy ocenianiu dwóch pozostałych przypadków, to znaczy jedności (<em>monogamiczności</em>) i'
5	monogamiczność	Wielkopolska Biblioteka Cyfrowa	1269736	1931-01-01 00:00:00+00:00	1931-12-31 23:59:59+00:00	1	' <em>monogamiczność</em>, ale dopuszcza rozwód, pozwala rozwodnikom \nna nowe małżeństwo, zaleca jedynie, aby ślub odbył się'
7	monogamiczność	Armarium. dominikańska biblioteka cyfrowa	304115	1978-01-01 00:00:00+00:00	1978-12-31 23:59:59+00:00	1	' tylko dla ich\ndobra.\nZałożenie <em>monogamiczności</em> małżeństwa opartej nie tylko na wyłączności partnerstwa'
9	monogamiczność	e-biblioteka Uniwersytetu Warszawskiego	540727	1889-01-01 00:00:00+00:00	1889-12-31 23:59:59+00:00	1	' uświęcona swą stałością i <em>monogamicznością</em>. \nCo tu w tej koncepcyi po wieści o pisarski ej na pierwszy rzut'
11	monogamiczność	Małopolska Biblioteka Cyfrowa	763699	1978-07-31 00:00:00+00:00	1978-07-31 23:59:59+00:00	1	' rownieZ prdblematyk~ <em>monogamiczności</em> i nierozerwalnoS ci. \nWIERNOSC MAtlENSKA \nWiernosc je st wewn~trzD.l'
15	monogamiczność	Bałtycka Biblioteka Cyfrowa	1562021	1973-01-01 00:00:00+00:00	1973-12-31 23:59:59+00:00	1	""",aruszanie <em>monogamiczności</em> małżeństwa, stos'ow,ania antykoncepcji i przerywani.a ciąży, \nrozpowsze.chn1ienie"""
