	word	lname	iid	duration_start	duration_end	occurences	highlighting
0	niemuzykalnie	Wielkopolska Biblioteka Cyfrowa	1597119	1923-01-01 00:00:00+00:00	1923-12-31 23:59:59+00:00	1	' dziś tak był <em>niemuzykalnie</em> usposobiony, \niż zaczął warczeć żałośnie, poszczekiwać i chciał wy \nciem'
1	niemuzykalnie	Jagiellońska Biblioteka Cyfrowa	1056066	1935-01-01 00:00:00+00:00	1935-12-31 23:59:59+00:00	1	' linj  melodji <em>niemuzykalnie</em> byle zablyszczeé wysokim i dlugo przetrzymanym tonem na koñcu jakiejs frazy'
2	niemuzykalnie	Jagiellońska Biblioteka Cyfrowa	1055990	1935-01-01 00:00:00+00:00	1935-12-31 23:59:59+00:00	1	' linj  melodji <em>niemuzykalnie</em> byle zablyszczeé wysokim i dlugo przetrzymanym tonem na koñcu jakiejs frazy'
4	niemuzykalnie	Jagiellońska Biblioteka Cyfrowa	3880317	1831-10-27 00:00:00+00:00	1831-10-27 23:59:59+00:00	1	' \nrozjaśniają się przytein nuyponursze nawet \noblicza. Choćby jakkolwiek źle i <em>niemuzykalnie</em> rzępolił s k r z y'
5	niemuzykalnie	Mazowiecka Biblioteka Cyfrowa	3788956	1935-01-01 00:00:00+00:00	1935-12-31 23:59:59+00:00	1	' tysiącznika. \n „Precz z liczbami!” —— wyłem \npodobno <em>niemuzykalnie</em> — „precz \nze stokrotnym dochodem'
6	niemuzykalnie	Jagiellońska Biblioteka Cyfrowa	3864665	1926-09-15 00:00:00+00:00	1926-09-15 23:59:59+00:00	1	' tak niesmacznie i <em>niemuzykalnie</em>, że już przeciętny dyletant \nodczuwa to z przykrością; a z drugiej'
7	niemuzykalnie	Jagiellońska Biblioteka Cyfrowa	993666	1913-03-15 00:00:00+00:00	1913-03-15 23:59:59+00:00	1	'\n<em>niemuzykalnie</em>, jak zawsze śpiewa Herodes w Salome. Karykaturą ma być z umysłu\ntu to samo (np. nagłe modulacje o'
8	niemuzykalnie	e-biblioteka Uniwersytetu Warszawskiego	4106834	1842-01-01 00:00:00+00:00	1842-12-31 23:59:59+00:00	1	' nazywamy grandiositel—śpiew szlachetny, jeśli można tak zwyczajnie, <em>niemuzykalnie</em> wyrazić się, pewna duma'
9	niemuzykalnie	e-biblioteka Uniwersytetu Warszawskiego	1632386	1854-01-01 00:00:00+00:00	1854-12-31 23:59:59+00:00	1	' napisanym co do szczegółów fabrycznych, które niby tlómsczył, <em>niemuzykalnie</em> się wyrażającym ro do szczegółów'
10	niemuzykalnie	Śląska Biblioteka Cyfrowa	920709	2000-01-01 00:00:00+00:00	2000-12-31 23:59:59+00:00	1	'; \npierwsz[j nagrod  otrzymal wowczas \nWietnamczyk Dang Thai Son - niemilosiemie <em>niemuzykalnie</em> gral'
11	niemuzykalnie	Jagiellońska Biblioteka Cyfrowa	3916372	1924-07-25 00:00:00+00:00	1924-07-25 23:59:59+00:00	1	' przepisów14impostacji, emisji i t. d. śpiewa <em>niemuzykalnie</em>, nieczysto, nierytmicznie, ma1brzydki materjał głosowy, gdy'
12	niemuzykalnie	e-biblioteka Uniwersytetu Warszawskiego	516103	1857-01-01 00:00:00+00:00	1857-12-31 23:59:59+00:00	1	' \nna rozejście; od takich książek nie wolno drożyzną odstraszać. \nZakończym rzecz naszą <em>niemuzykalnie</em>'
13	niemuzykalnie	Małopolska Biblioteka Cyfrowa	761795	1979-06-10 00:00:00+00:00	1979-06-10 23:59:59+00:00	1	', \ndużo uczucia, ale <em>niemuzykalnie</em>... \nPrzecież jesteśmy Słowianie...  \nPorównajmy nas, na przykład, z'
14	niemuzykalnie	Pomorska Biblioteka Cyfrowa	43883	1936-02-21 00:00:00+00:00	1936-02-21 23:59:59+00:00	1	' raczej nie odczu1.va, śpiewa ją, przQwatnie, <em>niemuzykalnie</em>, zawodzi zazwyczaj. $piewa ją w koło \nMacieju'
15	niemuzykalnie	Biblioteka Cyfrowa - Regionalia Ziemi Łódzkiej	92000	1928-05-13 00:00:00+00:00	1928-05-13 23:59:59+00:00	1	""" Europie, niż we wszystkich paktórzy W i e r z y l i w Piłsudskiego, unie-'głośno, ale <em>niemuzykalnie</em> no tę"""
16	niemuzykalnie	Biblioteka Cyfrowa - Regionalia Ziemi Łódzkiej	92437	1928-11-20 00:00:00+00:00	1928-11-20 23:59:59+00:00	1	' smakowe trzeba dość słono opłacać od\nwierzycieli, a krzykliwie i <em>niemuzykalnie</em>. Es lebe det\ndzielnie. — Z'
17	niemuzykalnie	Jagiellońska Biblioteka Cyfrowa	1141491	1913-02-21 00:00:00+00:00	1913-02-21 23:59:59+00:00	1	' śpicwa Zdzislaw Jachimeckiową piosnkę w pierwszym akcie tak samo \n<em>niemuzykalnie</em>, jak zawsze śpiewa'
18	niemuzykalnie	Podlaska Biblioteka Cyfrowa	3779423	1932-01-01 00:00:00+00:00	1932-12-31 23:59:59+00:00	1	' przedewszystklem <em>niemuzykalnie</em>. Bez \nprostoty, naturalności, a przylem \npod względem brzmienia twardoz fatalnem'
19	niemuzykalnie	Podlaska Biblioteka Cyfrowa	3779424	1932-01-01 00:00:00+00:00	1932-12-31 23:59:59+00:00	1	' przedewszystklem <em>niemuzykalnie</em>. Bez \nprostoty, naturalności, a przylem \npod względem brzmienia twardoz fatalnem'
20	niemuzykalnie	e-biblioteka Uniwersytetu Warszawskiego	4179369	1937-01-01 00:00:00+00:00	1937-12-31 23:59:59+00:00	1	' taniec ułożony był <em>niemuzykalnie</em>, a drugi operował łatwiznami pantomlmlcznyml dla wydobycia \nkomizmu. O'
21	niemuzykalnie	Jagiellońska Biblioteka Cyfrowa	966059	1917-06-03 00:00:00+00:00	1917-06-03 23:59:59+00:00	1	' twórczym, a przedewszystkiem o uczuciach, jaj\n[nieraz zupełnie <em>niemuzykalnie</em> (str. 294), skąd ko treści i'
