	word	lname	iid	duration_start	duration_end	occurences	highlighting
0	niepodręcznikowy	Bibliologiczna Biblioteka Cyfrowa	5558	1981-01-01 00:00:00+00:00	1981-12-31 23:59:59+00:00	2	', niezbędne do nauki lub \nwykonywania zawodu. \nLiteratura <em>niepodręcznikowa</em> — przedmiot najwyższych'
1	niepodręcznikowy	Biblioteka Cyfrowa Uniwersytetu Wrocławskiego	172043	1980-01-01 00:00:00+00:00	1980-12-31 23:59:59+00:00	1	' \n<em>niepodręcznikowych</em> PZWS. Warszawa \n1971. Rac.: ..., Życie Szk. 1971 \nR.26 nr 9 s.62-63 \n  708. W sprawie'
3	niepodręcznikowy	Bibliologiczna Biblioteka Cyfrowa	1583072	1986-01-01 00:00:00+00:00	1986-12-31 23:59:59+00:00	1	' <em>niepodręcznikowych</em> Państwowych Zakładów\nWydawnictw Szkolnych / oprać. Tadeusz Chmieliński i Michał\nJagła\nale'
4	niepodręcznikowy	Pedagogiczna Biblioteka Cyfrowa	9783	1984-01-01 00:00:00+00:00	1984-12-31 23:59:59+00:00	1	' pytania ucznia, tylko taki potrafi ocenić stopieó poprawnoścl <em>niepodręcznikowej</em> odpowiedzi 1 naprowadzić'
5	niepodręcznikowy	Bibliologiczna Biblioteka Cyfrowa	5558	1981-01-01 00:00:00+00:00	1981-12-31 23:59:59+00:00	1	"' omówiona w  \nreferacie jedynie w ""aspekcie zaopatrzenia w książki <em>niepodręcznikowe</em> na \npodstawie analizy'"
9	niepodręcznikowy	Wirtualna Czytelnia Bibuły	1700873	1981-01-01 00:00:00+00:00	1981-12-31 23:59:59+00:00	1	' . Bystry czytelnik popuka się teroz w czoło geezcze \nraz. Kto ma tę <em>niepodręcznikową</em> wiedzę przekezywac'
11	niepodręcznikowy	Wielkopolska Biblioteka Cyfrowa	1232907	1936-01-01 00:00:00+00:00	1936-12-31 23:59:59+00:00	1	' domowa, <em>niepodręcznikowa</em> umożliwia dyskusję, \ndaje głębsze poznanie tła, a więc i zrozumienie epoki, uczy'
12	niepodręcznikowy	Sejm	3530916	1996-01-09 00:00:00+00:00	1996-01-09 23:59:59+00:00	1	' sprzeczności - miałem kiedyś okazję mówić o tym Wysokiej Izbie. Pewnym, <em>niepodręcznikowym</em> przykładem może być'
13	niepodręcznikowy	Biblioteka Cyfrowa Ośrodka KARTA	204391	1988-01-01 00:00:00+00:00	1988-12-31 23:59:59+00:00	1	' temperamenciç swój pierwszy <em>niepodręcznikowy</em> ładunek wiedzy czerpią często z antysemiokich broszurek, z którymi'
16	niepodręcznikowy	Chełmska Biblioteka Cyfrowa	339870	1936-01-01 00:00:00+00:00	1936-12-31 23:59:59+00:00	1	"'"". Lektura domowa, <em>niepodręcznikowa</em> umożliwia dyskusję \ndaJe głębsze poznanie tła, a więc i zrozumienie epoki'"
19	niepodręcznikowy	Świętokrzyska Biblioteka Cyfrowa	307460	1992-05-19 00:00:00+00:00	1992-05-19 23:59:59+00:00	1	' historii \nsztuki podawanąw sposób interesujący i <em>niepodręcznikowy</em>. Należałoby poprawić nieco tempo imprezy'
20	niepodręcznikowy	Mazowiecka Biblioteka Cyfrowa	32622	1981-01-01 00:00:00+00:00	1981-12-31 23:59:59+00:00	1	'  ich  wydawania  inne  wydawnictwo.  Pozostały  więc  książki  <em>niepodręcznikowe</em>  \n  i  czasopisma'
21	niepodręcznikowy	"Zachodniopomorska Biblioteka Cyfrowa ""Pomerania"""	355497	1973-01-19 00:00:00+00:00	1973-01-19 23:59:59+00:00	1	""" \npnyJaclól z warsltatów pracy, ogromnie eenl lobie kentakty I ludźmi. przynoszlłeymI Jej' <em>niepodręcznikową</em>"""
22	niepodręcznikowy	Małopolska Biblioteka Cyfrowa	630417	1970-01-01 00:00:00+00:00	1970-12-31 23:59:59+00:00	1	'   uczy zawodu \nDozwala Aledzić postęp techniczny: \nW grupie wydawnictw <em>nIepodręcznikowych</em> największą'
23	niepodręcznikowy	Podkarpacka Biblioteka Cyfrowa	1292423	1979-05-31 00:00:00+00:00	1979-05-31 23:59:59+00:00	1	""". Omawiana wystawa stanowi \nw 'Jątkową okazję do przeprowad enia lekcji histoni \nw sposob ,.<em>niepodręcznikowy</em>"""
24	niepodręcznikowy	Sejm	3583558	1998-11-25 00:00:00+00:00	1998-11-25 23:59:59+00:00	1	' o skokowym wzroście emerytur na podstawie przewidywanego wzrostu cen. Ten odważny, <em>niepodręcznikowy</em>'
25	niepodręcznikowy	Archiwum czasopism dla niewidomych	3930244	2002-10-01 00:00:00+00:00	2002-10-31 23:59:59+00:00	1	X
