	word	lname	iid	duration_start	duration_end	occurences	highlighting
8	obciach	Kujawsko-Pomorska Biblioteka Cyfrowa	595057	2000-01-01 00:00:00+00:00	2000-12-31 23:59:59+00:00	7	'Na pytania te, jak się można było spodziewać, nie \nznajdziemy odpowiedzi w książce pl. <em>Obciach</em>. Nie'
12	obciach	Repozytorium Cyfrowe Instytutów Naukowych	829451	2001-01-01 00:00:00+00:00	2001-12-31 23:59:59+00:00	7	"""bez <em>obciachu</em> / <em>obciachy</em> \n  bez <em>obciachu</em> / <em>obciachy</em> przysł 'bez zastanowienia, nie Z\\tVażając na nic"""
16	obciach	Repozytorium Cyfrowe Filmoteki Narodowej	3933971	1987-01-01 00:00:00+00:00	1987-12-31 23:59:59+00:00	1	' kamerą wideo zachęcał talentem portrecisty. Zachodnioniemiecki bez <em>obciachu</em> robił pieniądze, powiększając'
17	obciach	Biblioteka Cyfrowa Uniwersytetu Łódzkiego	1561652	1931-04-26 00:00:00+00:00	1931-04-26 23:59:59+00:00	1	' \n  lko ludność tubylcza \nale równiez ludzie „cywilizowanV Europy. » \nNa prawo: Żywe modelełw <em>obciach</em>'
22	obciach	Wejherowska Biblioteka Cyfrowa	71136	1988-01-01 00:00:00+00:00	1988-12-31 23:59:59+00:00	1	'; sujànuanngunoboœnuannxwœn \nn10 v <em>obciach</em> pwncnaamoluiek zajęcia nu hunta wm- \nVvnizku fiqnnęo. \n  \n \n'
26	obciach	Biblioteka Cyfrowa Ośrodka KARTA	208438	1981-01-01 00:00:00+00:00	1981-12-31 23:59:59+00:00	1	' śmieje pierś rozpiera duma \nBo nie jeden by na zawał serca umarł \nTu brak <em>obciachu</em> \nKto nie strzyma to do'
34	obciach	Repozytorium Cyfrowe Instytutów Naukowych	834124	1976-01-01 00:00:00+00:00	1976-12-31 23:59:59+00:00	1	"' \n  oasowiec politobchwyt górno \n<em>obciach</em> wiechobciążalność \nobciosek \nobetonowanie \nobgadywacz pot"" \no'"
37	obciach	Krośnieńska Biblioteka Cyfrowa	287975	2002-10-03 00:00:00+00:00	2002-10-03 23:59:59+00:00	2	'pravidelnć nńboźenskć obrady. Sń umiestnenć V <em>obciach</em> Bodruźal, Dobrosła- \nVa, Hunkovce, Korejovce'
43	obciach	Bialska Biblioteka Cyfrowa	19111	2002-01-01 00:00:00+00:00	2002-12-31 23:59:59+00:00	1	' mnie w niedzielne sloneczne popołudnie i \ntowarzyszył (ale <em>obciach</em>) przez bite pół godziny. Cóż zrobić'
44	obciach	Podkarpacka Biblioteka Cyfrowa	1286533	1981-01-01 00:00:00+00:00	1981-12-31 23:59:59+00:00	3	'5374. GtOWACKl JANUSZ: <em>Obciach</em>.\nTeatr im. W. Siemaszkowej, Rzeszhw.\nRec. SWIERCZEWSKA KRYSTYNA'
63	obciach	Małopolska Biblioteka Cyfrowa	592367	1858-01-01 00:00:00+00:00	1858-12-31 23:59:59+00:00	1	' wszelakie zboże urodzajny. Zbożo było \nbardzo tanie, żyta pięknego kupił kto <em>obciach</em> za poltora \ntynfa'
64	obciach	Almanach Muszyny	1722721	2003-01-01 00:00:00+00:00	2003-12-31 23:59:59+00:00	2	' enkláva. Ľudový odev je podobný odevu v okolitých šarišských <em>obciach</em>. \nZachoval sa tu archaický ženský'
69	obciach	Wielkopolska Biblioteka Cyfrowa	3814534	1985-01-01 00:00:00+00:00	1985-12-31 23:59:59+00:00	1	' \n. uczną układać pałuni, juk to czyniono wówau w kadym śledzlwie. Tymczuem skończyło się n: tych <em>obciach</em> i'
70	obciach	Almanach Muszyny	1722721	2003-01-01 00:00:00+00:00	2003-12-31 23:59:59+00:00	1	' odeve po 2. svetovej vojne v <em>obciach</em> v oblasti Starej Ľubovne, sa ľudový \nodev zachoval medzi'
72	obciach	Wielkopolska Biblioteka Cyfrowa	3814620	1986-01-01 00:00:00+00:00	1986-12-31 23:59:59+00:00	1	""" wspólnego untypolakieso lojunu. państwa naboru. stanęły ' wlepilnvoh noble <em>obciach</em>. Iluruniu Polaków monci"""
74	obciach	Repozytorium Cyfrowe Instytutów Naukowych	829451	2001-01-01 00:00:00+00:00	2001-12-31 23:59:59+00:00	1	', Kraków 1993 \n- D. Bargiełowski, Szczerze bez <em>obciachu</em>, Warszawa 1979 \n- P. Bednarski, Błękitne śniegi'
75	obciach	Krośnieńska Biblioteka Cyfrowa	287975	2002-10-03 00:00:00+00:00	2002-10-03 23:59:59+00:00	1	""" kniżnic v tych <em>obciach</em>, kde nie s1'1 zriadenć. \n  V sńćasnosti spoluprśca s C.B.D Frizsko, ktorś riadila"""
77	obciach	Wielkopolska Biblioteka Cyfrowa	3815570	1983-01-01 00:00:00+00:00	1983-12-31 23:59:59+00:00	1	'. \n ›! <em>obciach</em> n_d &nb-ą, mms .Ma-ała obfite Śnivo. nn zaprzeda- \n  : \n  \n \n'
79	obciach	Małopolska Biblioteka Cyfrowa	4076496	2002-01-01 00:00:00+00:00	2002-12-31 23:59:59+00:00	1	' - Jan Gondowicz o wystawach surrealistów \n4S Prowokacje i <em>obciachy</em> -Jarosława Krawczyka prywatna'
80	obciach	Kujawsko-Pomorska Biblioteka Cyfrowa	595057	2000-01-01 00:00:00+00:00	2000-12-31 23:59:59+00:00	2	' członków rodzin: państwa Szumskich i Weberów, nosząca tytuł <em>Obciach</em> \nZ ogromną niecierpliwością'
86	obciach	Wielkopolska Biblioteka Cyfrowa	815691	1980-01-01 00:00:00+00:00	1980-12-31 23:59:59+00:00	1	' - <em>obciach</em>. \n I jeszcze jedno - później po zamknięciu seminarium \nna nocnej biesiadzie było naprawdę wesoło i'
88	obciach	Repozytorium Cyfrowe Instytutów Naukowych	829452	2003-01-01 00:00:00+00:00	2003-12-31 23:59:59+00:00	1	'-1988, Kraków 1993 \nD. Bargiełowski, Szczerze bez <em>obciachu</em>, Warszawa 1979 \nG. Bąkiewicz, O melba'
93	obciach	Krośnieńska Biblioteka Cyfrowa	287975	2002-10-03 00:00:00+00:00	2002-10-03 23:59:59+00:00	1	'”stvu v regióne, t.j. v 76 <em>obciach</em> zabezpećuje \nkniżnićno-informaćnć slużby mobilnśrmi kniźnicami — 2'
95	obciach	Poradnik Językowy	6253523	1909-12-31 23:24:00+00:00	1910-12-31 23:23:59+00:00	1	' kobiety:. \n Str. 217: ›i dlatego między nami było inaczej, jak <em>obciach</em>. \n Szczególnym zbiegiem'
101	obciach	Podlaska Biblioteka Cyfrowa	1584972	1887-01-01 00:00:00+00:00	1887-12-31 23:59:59+00:00	1	""". polist-ch. po- \n  lu; 22-30 wydan młody _ \n'Bout-um -j hontou-<em>obciach</em> \nZeszyt 10 k., zym. ll &. \n  Ode"""
102	obciach	Wielkopolska Biblioteka Cyfrowa	3815437	1982-01-01 00:00:00+00:00	1982-12-31 23:59:59+00:00	1	' \npowszedmego, dzięki woli, pasji i geniuszowi benim” \n Bohater książki Grossmann, człowiek który w <em>obciach</em>'
122	obciach	Pomorska Biblioteka Cyfrowa	66429	1938-01-01 00:00:00+00:00	1938-12-31 23:59:59+00:00	1	""" wtedy jes lepi spajone, ta uz' \nRye' 163_ Motywy pasowe na <em>Obciach</em> każdy pawiy, żie jedna uad drugiga"""
123	obciach	Małopolska Biblioteka Cyfrowa	1588958	1930-01-01 00:00:00+00:00	1930-12-31 23:59:59+00:00	1	' jednaní \no \nleti ste veci napomáhalae / kúpali, sťa v <em>obciach</em> ÍÄnt JLvaaflicti.) \n, \nUsnesene vyhliadnuť'
124	obciach	Małopolska Biblioteka Cyfrowa	590845	1999-01-01 00:00:00+00:00	1999-12-31 23:59:59+00:00	1	'. szemrany, <em>obciach</em>, menelski i\nto w ciekawych kontekstach (menelska literatura rozrywkowa).\nJęzyk'
129	obciach	Repozytorium Cyfrowe Instytutów Naukowych	834124	1976-01-01 00:00:00+00:00	1976-12-31 23:59:59+00:00	1	' czynności, np. dorób, kołys, <em>obciach</em>, omiot \ntechn., osłuch, uwiert techn. itd., pozostałe obok nowego'
132	obciach	Śląska Biblioteka Cyfrowa	905547	2001-01-01 00:00:00+00:00	2001-12-31 23:59:59+00:00	1	"' narodopis"" 1990,38,1-2, s. 278-283. Tyz: Vyvoj\nrómskej rodiny v dvoch spiSskych <em>obciach</em> (na ziJklade vyskumu'"
133	obciach	Kujawsko-Pomorska Biblioteka Cyfrowa	595007	2001-01-01 00:00:00+00:00	2001-12-31 23:59:59+00:00	1	', 1998; Tejże, <em>Obciach</em>. Warszawa, 1999] \n- Problemy dzieci sprawnych inaczej we współczesnej prozie'
143	obciach	Małopolska Biblioteka Cyfrowa	781087	1858-01-14 00:00:00+00:00	1858-01-14 23:59:59+00:00	1	' stkich 5 miejscach ze stanem bydła liwl490 sztuk w 25 <em>obciach</em> otknęla zaraza \nsztuk, z których 55'
146	obciach	Almanach Muszyny	1722721	2003-01-01 00:00:00+00:00	2003-12-31 23:59:59+00:00	1	' 20. \nstoročia sa na tomto území diferencovalo niekoľko krojových typov. \nV pastierskych <em>obciach</em>'
147	obciach	Bałtycka Biblioteka Cyfrowa	397405	1975-01-01 00:00:00+00:00	1975-12-31 23:59:59+00:00	1	' nadlIlOrskim i wzd1:uz \nnie IV miejScoV/<em>oBciach</em> lezącyc w pas  \ngł6\\mych tras turystycznych; \n. !:l ranach'
151	obciach	Biblioteka w Raciborzu	1690568	1910-01-01 00:00:00+00:00	1910-12-31 23:59:59+00:00	1	"' . \n  /IŃĹ «f Na weszki@ przy\' ?<em>obciach</em> budowlanych i\' polnych polecam» 4 ~ „ „ \nL” ~n` v"" ` ` w _` . ul'"
152	obciach	Kujawsko-Pomorska Biblioteka Cyfrowa	654219	2001-01-01 00:00:00+00:00	2001-12-31 23:59:59+00:00	1	"' rni <em>obciach</em>"", ""fucha"", itp.). Ale Marcinkiewicz, w przeblyskach, przebija si  przez t  sztucznose i'"
161	obciach	Cyfrowa Biblioteka Narodowa Polona	1339410	1929-06-08 00:00:00+00:00	1929-06-08 23:59:59+00:00	3	' \nRypcium.. rachu... ciachu... \nSztywno, bez <em>obciachu</em>... \nW domu panią jestem ja!... \nStara wyjeżdżała, to'
163	obciach	Almanach Muszyny	1722761	2001-01-01 00:00:00+00:00	2001-12-31 23:59:59+00:00	1	' Hajtovkou), Litmanovské skalky, bradlá pri <em>obciach</em> Údol a Kyjov, \nPlaveĉské ńtrkoviská a prírodná rezervácia'
169	obciach	Repozytorium Cyfrowe Instytutów Naukowych	854242	1985-01-01 00:00:00+00:00	1985-12-31 23:59:59+00:00	1	' susednych <em>obciach</em>, medzi ktorYl1} \nt-vori hrani(Ou, napr. nielnicky potok (v H-rustine) - Lazovy potok (v'
170	obciach	Repozytorium Cyfrowe Instytutów Naukowych	854722	1989-01-01 00:00:00+00:00	1989-12-31 23:59:59+00:00	1	"' slo.v nskyełl narecI I (Bratisla""\\""\'a, 1946) vo vsetkych <em>obciach</em> lla Slo""vensku, ""... ktorych  a'"
171	obciach	Wirtualna Czytelnia Bibuły	1699880	1984-01-01 00:00:00+00:00	1984-12-31 23:59:59+00:00	1	""" ' \n';.anuewch' nr.-Mujo lig : <em>obciach</em> 0 ”mc 'lobucau nun/- \nDo bln.—nii tych w munia kit.-uj. nie z. nauki. aaby"""
172	obciach	Śląski Klub Fantastyki	2334038	1999-01-01 00:00:00+00:00	1999-12-31 23:59:59+00:00	1	'. Hetherington (kurator wystawy 60 Years of Superman w Napan Museum). \nPWC \nNieobecni nie robi1 <em>obciachu</em> \nPowie\x9cæ'
174	obciach	Śląska Biblioteka Cyfrowa	899173	2002-01-01 00:00:00+00:00	2002-12-31 23:59:59+00:00	2	'. \n28 \n  .... \n  i()RCA  \n  MUNDIAl \n  www.naszemiasto. .1 \n  KATOWICE: \n  Tragedia i <em>obciach</em> \n  M'
179	obciach	Repozytorium Cyfrowe Instytutów Naukowych	854722	1989-01-01 00:00:00+00:00	1989-12-31 23:59:59+00:00	1	' slovellskych <em>obciach</em>, hoclnotila sa tato exploratorska akcia \nako uspesny a v slavistike priam ojedinely'
180	obciach	Wirtualna Czytelnia Bibuły	1699753	1988-01-01 00:00:00+00:00	1988-12-31 23:59:59+00:00	1	' \nnetii-<em>obciach</em>. \n Strategiczny- i historyczny- cei- badsio w nie ochłonięciu: tegocoz-ano niegdyś Europą'
182	obciach	Świętokrzyska Biblioteka Cyfrowa	309315	1832-03-25 00:00:00+00:00	1832-03-25 23:59:59+00:00	1	""" <em>obcIAch</em> ••\n.\n. N r~ 15'. 58;. NeulIIan KUmo.ier. s'wit,lIienia! w Bidy Jfo g~ ałłt1wDym~ wyła-miei"""
187	obciach	Jagiellońska Biblioteka Cyfrowa	1012281	1925-01-01 00:00:00+00:00	1925-12-31 23:59:59+00:00	1	' nemovitosti v <em>obciach</em>. - Wunka: 0 nabývani \ndemovskej prislusnosti na Sleven ku a v Podkarpatskej Rusi. - St'
188	obciach	Małopolska Biblioteka Cyfrowa	618975	1998-01-01 00:00:00+00:00	1998-12-31 23:59:59+00:00	1	"' nie ma pod tym względem \nżadnych «<em>obciachów</em>»..."" \n28 \n. \n5. „Rozważanie przypadków skrajnych jest'"
189	obciach	Królestwo NMP	2665038	1875-01-01 00:00:00+00:00	1875-12-31 23:59:59+00:00	1	' \npokojowe, z kczhćm wojskiem,:łołonóm po większej części z cudzoziemców, na ze <em>obciach</em> wylądowałpod Rygą (is'
192	obciach	Śląska Biblioteka Cyfrowa	929263	1902-01-01 00:00:00+00:00	1902-12-31 23:59:59+00:00	1	""", \nemigrantów ze to, że oskarżali się na zły nikt. Porządek ns <em>obciach</em> jest. \nosobliwy. E's okęcie ›Pretoris"""
195	obciach	Biblioteka Cyfrowa Uniwersytetu Wrocławskiego	148658	1997-01-01 00:00:00+00:00	1997-12-31 23:59:59+00:00	1	' recenzyjne II \nMAJCHRZAK KONRAD - zob. Jacek Inglot: Książki pokupne X \nMAJERAN TOMASZ, Heroiczny <em>obciach</em>'
200	obciach	Śląski Klub Fantastyki	2334021	2001-01-01 00:00:00+00:00	2001-12-31 23:59:59+00:00	1	' siedź, tylko bierz udział we wszystkich \nmożliwych konkursach. <em>Obciachu</em> sobie nie narobisz, ubawisz się'
201	obciach	Śląski Klub Fantastyki	2334028	2000-01-01 00:00:00+00:00	2000-12-31 23:59:59+00:00	1	' <em>obciachu</em>, po prostu zrobisz przyzwoite czytade3ko. Parowski zdawa3 siê powiadaæ: pisz d z i w n i e. Tak'
208	obciach	Biblioteka Cyfrowa Ośrodka KARTA	213890	1981-07-30 00:00:00+00:00	1981-07-30 23:59:59+00:00	1	' ::ajdują oię v radzieckich !içzieoiaoh, <em>obciach</em> baonu-eunuch lub eq, aaaluxi v poaalovania \ngodnych'
211	obciach	Wirtualna Czytelnia Bibuły	1699055	1983-01-01 00:00:00+00:00	1983-12-31 23:59:59+00:00	1	' woje elen-e lbo. „nem-ynon gel. <em>Obciachy</em>- nom-ius. oo to 1 nr:: lou uć nono-1 epołeeonelu odporność'
214	obciach	Biblioteka Cyfrowa Uniwersytetu Warmińsko-Mazurskiego	231051	1880-01-01 00:00:00+00:00	1880-12-31 23:59:59+00:00	1	"""{szych przestrzeniach IIpra wiali.! jest w lIiclit.órych \nł1łiejscu\\\\'<em>oBciach</em> w prowincjach Nadn I1s1dch"""
215	obciach	Biblioteka Cyfrowa Uniwersytetu Wrocławskiego	148658	1997-01-01 00:00:00+00:00	1997-12-31 23:59:59+00:00	1	': Heroiczny <em>obciach</em> \nPOLECHOŃSKI KRZYSZTOF, Inf. IV 91-92 \n- zob. Alfred Doblin: Baśń o technice \n- zob. Ernst'
219	obciach	Kujawsko-Pomorska Biblioteka Cyfrowa	747839	2000-01-01 00:00:00+00:00	2000-12-31 23:59:59+00:00	2	' odej ć wraz z człowiekiem. \n  <em>Obciach</em> z programmoj \nKażdy porządny festiwal nie może obejść sie \nbez'
220	obciach	Śląska Biblioteka Cyfrowa	900473	2003-01-01 00:00:00+00:00	2003-12-31 23:59:59+00:00	2	"' przepraszamy. \nRedakcja \n""Głosu Siemianowickiego"" \n  Ale byłby <em>obciach</em>..e \n  Pociąg osobowy z Częslochowy do'"
226	obciach	Biblioteka Cyfrowa Ośrodka KARTA	213876	1980-11-28 00:00:00+00:00	1980-11-28 23:59:59+00:00	1	""": i x.:n;odo\\.y::. Unin 23'- 1.\\ br. arccztuumo L..._:oc:x_ąskłcg0. \n Po <em>obciach</em>-ch rocxnic; ni:[.OdIC"""
231	obciach	Pedagogiczna Biblioteka Cyfrowa	1537601	1984-01-01 00:00:00+00:00	1984-12-31 23:59:59+00:00	1	'170. Bargiełowski Daniel: Szczerze,bez <em>obciachu</em>. darszawa 1979, \nMies.Lit.1979 nr 11 5.127-129 \n171'
239	obciach	Mała Polska	1694399	1983-01-01 00:00:00+00:00	1983-12-31 23:59:59+00:00	1	"' \noskarzył ksiedza o przemóuionio polityczne w kości."". \n  —-— PAP zapowiedział dalsze <em>obciach</em> miesięcznych'"
240	obciach	Wirtualna Czytelnia Bibuły	1697427	1981-01-01 00:00:00+00:00	1981-12-31 23:59:59+00:00	1	' : <em>obciach</em>. Protestujeny \nrówniez przeciwko zachowam Big amurymmłdoh firm, które immanug w Zvdgslm \nRmtueckim'
241	obciach	Wirtualna Czytelnia Bibuły	1698359	1987-01-01 00:00:00+00:00	1987-12-31 23:59:59+00:00	1	' greechaoh bede nawi foleey e o <em>obciach</em> Ukraińcy. guy ty; gdy \npowie-y lobie wuje-nie: weebccnq i pro-iq c'
242	obciach	Wirtualna Czytelnia Bibuły	1695461	1985-01-01 00:00:00+00:00	1985-12-31 23:59:59+00:00	1	""" prezentuje Dziennik TV. Tu w kolejce \nludzie mówią bez <em>obciachu</em>. Zwłaszcza kobiety'i emeryci. \n Oficjalne"""
246	obciach	Repozytorium Cyfrowe Instytutów Naukowych	829451	2001-01-01 00:00:00+00:00	2001-12-31 23:59:59+00:00	1	' za aparatka, mówię ci! Z każdym pogada bez <em>obciachu</em>. EK [rozmowa, N: K II, uczennica, miasto; O: K II'
249	obciach	Biblioteka Cyfrowa Ośrodka KARTA	181230	1981-06-01 00:00:00+00:00	1981-06-30 23:59:59+00:00	1	'w712 \n  nie, nie róbmy <em>obciachu</em> - parę bużelek na wszelki wypadek zawsze pod ręką się \nprzyda'
255	obciach	Cyfrowy Dolny Śląsk	377149	2003-01-01 00:00:00+00:00	2003-12-31 23:59:59+00:00	2	"' ""<em>Obciach</em>"" Janusza Glowacklego w wykonaniu Teatru HaliBut\n13 kwietnia, godz. 19.00 SCENA TEATRALNA'"
261	obciach	Bałtycka Biblioteka Cyfrowa	428862	1999-01-01 00:00:00+00:00	1999-12-31 23:59:59+00:00	2	' popiję. Telewizorek gra, \njest miło... \n  W dresie <em>obciach</em> \nZa komuny chłopak z ciężarówki \nwyglądał jak'
269	obciach	Małopolska Biblioteka Cyfrowa	755556	2001-01-01 00:00:00+00:00	2001-12-31 23:59:59+00:00	1	' \nżadnego <em>obciachu</em> bawili się jak małe \ndzieci. Od razu lepiej się poczułam widząc tyle roześmianych i'
270	obciach	Repozytorium Cyfrowe Instytutów Naukowych	829452	2003-01-01 00:00:00+00:00	2003-12-31 23:59:59+00:00	1	' zamian miała zero \nprzyjemności i mnóstwo <em>obciachu</em>. Wprost 121 \n2003, 11 [komentarz) Mn., Tr.; o partii'
271	obciach	Repozytorium Cyfrowe Instytutów Naukowych	829452	2003-01-01 00:00:00+00:00	2003-12-31 23:59:59+00:00	1	""".]. \n6. 'tania, tandetna rzecz': - Mogłabyś. mamuśka więcej zarabiać. To <em>obciach</em> dawać córce na \nurodziny"""
272	obciach	Repozytorium Cyfrowe Instytutów Naukowych	829452	2003-01-01 00:00:00+00:00	2003-12-31 23:59:59+00:00	1	""" <em>obciach</em> dla ciebie... Now. SG, \n11 [opowiadanie. Mn.. Tr. (M. Warszawa)]. \n4. 'głupie zdarzenie': Wczoraj"""
278	obciach	Wielkopolska Biblioteka Cyfrowa	1178504	1902-05-04 00:00:00+00:00	1902-05-04 23:59:59+00:00	1	"' oddziale w ogromnych \n""\' \' I.” ""<em>obciach</em> nazbieram: mzłki wyprzedaż. \n  ,\' , \' atomami wełnianych'"
279	obciach	Wirtualna Czytelnia Bibuły	1697940	1981-01-01 00:00:00+00:00	1981-12-31 23:59:59+00:00	1	' Griazowcu. O \n<em>obciach</em> w starobielsku, Kozielsku i Ośtaszkowie - nigdy nie słyszał. Dopiero \nw kolejnej'
280	obciach	Wirtualna Czytelnia Bibuły	1699870	1988-01-01 00:00:00+00:00	1988-12-31 23:59:59+00:00	1	"' nierucho-oddech i roche-<em>obciach</em>. ""linie nie nie opioco produkt—ec"" - ""myl ni. ""\'yobrat. tobie'"
281	obciach	Wirtualna Czytelnia Bibuły	1701998	1980-01-01 00:00:00+00:00	1980-12-31 23:59:59+00:00	1	'-conan ::qu na 10 pn. noty- lord-.com. \nma loxon-anni. <em>obciach</em> tro on modowe! wlana au pon unl- \n. ”8,15'
289	obciach	Małopolska Biblioteka Cyfrowa	4076475	2002-01-01 00:00:00+00:00	2002-12-31 23:59:59+00:00	1	' zdecydowane »nie!« \ndotychczasowemu <em>obciachowi</em> \nw naszym kraju - tylko tak możemy się przeciwstawić knowaniom'
290	obciach	Małopolska Biblioteka Cyfrowa	576142	1976-01-01 00:00:00+00:00	1976-12-31 23:59:59+00:00	4	"' i nauki zabytków. \nANDRZEJ WERNIC \n  (CIĄG DALSZY ZE STR. 7) \n  Etymologia slowa ""<em>obciach</em>'"
297	obciach	Małopolska Biblioteka Cyfrowa	735269	1957-06-30 00:00:00+00:00	1957-06-30 23:59:59+00:00	1	"'"" - widziałeś kiedyś coś \ntakiego! (ogólne). \nł \'"" r \'"" I c;\' \n  . . \n  <em>OBCIACH</em> - awantura, bójka, także: głupia'"
299	obciach	Repozytorium Cyfrowe Instytutów Naukowych	829452	2003-01-01 00:00:00+00:00	2003-12-31 23:59:59+00:00	1	': jak ucieknę stamtąd i zacznę drzeć mordę, \nto po prostu będzie <em>obciach</em>. Owo O, 107 [książka'
302	obciach	Śląska Biblioteka Cyfrowa	924721	1930-01-01 00:00:00+00:00	1930-12-31 23:59:59+00:00	1	"' ""e ,,""łasn) ch nieruchom <em>obciach</em>. Gmach instytucji centralnej "" Łodzi zajmuje - pod wzgl dem celo'"
303	obciach	Wielkopolska Biblioteka Cyfrowa	1170109	1938-05-29 00:00:00+00:00	1938-05-29 23:59:59+00:00	1	"""- unwu. unikam. \nE ' ?<em>obciachy</em> {xpyxjfm ' “W ;ym-:Iäg-Txfyfn :um g..„...,... u u \n m.. 0.... linkin: a"""
305	obciach	Wielkopolska Biblioteka Cyfrowa	1210600	1922-05-14 00:00:00+00:00	1922-05-14 23:59:59+00:00	1	""": *_ '? Ba!..taguodrh ___ __._* * <em>obciach</em> 'm'” \naper ty do musu.! Ina; ' ' * .! gwintu?! .I. I. ll .o"""
306	obciach	Wirtualna Czytelnia Bibuły	1697199	1981-01-01 00:00:00+00:00	1981-12-31 23:59:59+00:00	1	"'. niedzynuoaove "" których N\'! \ncaratu: nba-cze manny by \nprnclwatawnych <em>obciach</em> policyćznych; \n”świece lutym.-rze'"
311	obciach	Podkarpacka Biblioteka Cyfrowa	1290297	1976-06-30 00:00:00+00:00	1976-06-30 23:59:59+00:00	4	"'"". \nBo ""<em>Obciach</em>"" zaczyna si4: \njut na zewn trz budynku \nteatralnego. co uwaZam za \npyszny pomysl, par'"
316	obciach	Wielkopolska Biblioteka Cyfrowa	767945	1929-09-13 00:00:00+00:00	1929-09-13 23:59:59+00:00	1	"' Ogiuueń \n..PT Inn\'. Arnica-Iolo H. n usun \n  KONKURS. \n  Wolow. !chlod Clo <em>Obciach</em>-ych w Koldo- \n  i*""ra'"
320	obciach	Świętokrzyska Biblioteka Cyfrowa	315306	1903-01-01 00:00:00+00:00	1903-12-31 23:59:59+00:00	1	"'- czynają się w zamierzchłej przeszłości. Koloro- \n"",\'<em>oBciach</em> Ameryki Południowej. Ze zrąbanych we drogie'"
326	obciach	Cyfrowy Dolny Śląsk	367017	2003-12-09 00:00:00+00:00	2003-12-09 23:59:59+00:00	2	'. \n  <em>Obciach</em> z ropą \nPan Zdzichu zawsze ma duże zapotrzebowanie na ropę. Raz, że do ciągnika, a dwa, \nże syn'
329	obciach	Wielkopolska Biblioteka Cyfrowa	817627	1933-03-23 00:00:00+00:00	1933-03-23 23:59:59+00:00	1	' bezrobociem - a wynikiem Meli vh \n:onych oru: pracownikow na uben \n  bezrohotnvth vn! :<em>obciach</em> unhiroboty'
332	obciach	Mazowiecka Biblioteka Cyfrowa	3788697	2001-01-01 00:00:00+00:00	2001-12-31 23:59:59+00:00	1	' \no czysto?? \nnaszej gminy. To, \ncyt. \n<em>obciach</em> \ndla Celestynowamówi? p. Nowak \naby tak brudno \nby?o w'
338	obciach	Świętokrzyska Biblioteka Cyfrowa	315282	1895-01-01 00:00:00+00:00	1895-12-31 23:59:59+00:00	1	' <em>oBciach</em>, a celem zadania Atenom \nciosu śmiertelnego przez podcięcie związku ich \nz Morzem Czamem, zaclepił'
339	obciach	Bałtycka Biblioteka Cyfrowa	427662	1999-01-01 00:00:00+00:00	1999-12-31 23:59:59+00:00	1	' kupiłem za 1000 złotych starego fiata \n125p. Żona: - Trochę <em>obciach</em> tym \njeździć, ale wracamy nim z pracy'
341	obciach	Świętokrzyska Biblioteka Cyfrowa	315276	1901-01-01 00:00:00+00:00	1901-12-31 23:59:59+00:00	1	' pospolitemi .są dwa gatunki: H. 10b t  8. l H. Dujardinii. Zyją na nieznanych głę- \n,<em>OBciach</em>. Wielkość'
344	obciach	Świętokrzyska Biblioteka Cyfrowa	305983	1996-03-06 00:00:00+00:00	1996-03-06 23:59:59+00:00	2	' tylko to co widzę · \nKazik powiedział bulwersujące zdanie: \n- \nByć punkowcem w latach \n90. to <em>obciach</em>'
349	obciach	Wielkopolska Biblioteka Cyfrowa	784391	1867-01-01 00:00:00+00:00	1867-12-31 23:59:59+00:00	1	"' :. _ arc\' zw . _ \n<em>obciach</em> [od:-i""; „lin,. "" \' ” s 554 a? Witimir mmm „mi listopada o godni , , „ , i ,. i'"
350	obciach	Wielkopolska Biblioteka Cyfrowa	796219	1928-04-18 00:00:00+00:00	1928-04-18 23:59:59+00:00	1	"' : \n  "" Mii SDiWiilSOiW \n  11,5 0]. \n  paruch, wolny od węgoquóv, \nroz: wagonowo i w mniejszych \n""<em>obciach</em>'"
353	obciach	Wielkopolska Biblioteka Cyfrowa	827291	1939-04-21 00:00:00+00:00	1939-04-21 23:59:59+00:00	1	"'-zy, zeby <em>obciach</em> igo amm. „||-init"". | \n  pna mmd „ \n  \n \n'"
356	obciach	Wielkopolska Biblioteka Cyfrowa	3822348	1996-07-03 00:00:00+00:00	1996-07-03 23:59:59+00:00	1	' ziemi \n<em>Obciach</em> \nPani Helena Pawłowska mieszka w bloku \nprzy ul. Wyszyńskiego 2. Jeszcze do niedawna \npod'
357	obciach	Świętokrzyska Biblioteka Cyfrowa	315277	1900-01-01 00:00:00+00:00	1900-12-31 23:59:59+00:00	1	"' . . \nwczesne\' <em>OBCIach</em>. dowodzą niewątplieZan G . J zamo no\' . G . "" . \nL k -I prowad . BCI -I. NIejeden z'"
358	obciach	Łódzka Regionalna Biblioteka Cyfrowa	1158863	1902-01-01 00:00:00+00:00	1902-12-31 23:59:59+00:00	1	""".;)\\ posiad/<em>obciach</em> bTodkowo-azjatyckich \n ID. na l klm. kw. \nOpróez tt'J;o stosune!.. ten znacznie sit"""
366	obciach	Śląska Biblioteka Cyfrowa	863639	2000-01-01 00:00:00+00:00	2000-12-31 23:59:59+00:00	1	"' dziewczyny, że samo chodzenie \nna religię to „<em>obciach</em>"". Własnej wiary \nsię wstydzić, dlaczego? Kochać trze'"
367	obciach	Podlaska Biblioteka Cyfrowa	247129	1881-01-01 00:00:00+00:00	1881-12-31 23:59:59+00:00	1	' tych <em>obciach</em> \npziustw tych w .naszych delcch tobe bratu naszamu szlom z npumiuki naszymi. buruczy z'
368	obciach	Podlaska Biblioteka Cyfrowa	247129	1881-01-01 00:00:00+00:00	1881-12-31 23:59:59+00:00	1	' <em>obciach</em> chotioł z woyskom \n  \n \n'
369	obciach	Biblioteka Cyfrowa - Regionalia Ziemi Łódzkiej	185018	1929-10-10 00:00:00+00:00	1929-10-10 23:59:59+00:00	1	""" WlwafowyE.nja) Jeitto ~rawie że jedyna miejscowość. w ok <em>oBCIach</em>\nm: .ŁOd2.i wyhltuyeh wal'u»k.c!l ~dfo"""
370	obciach	Śląska Biblioteka Cyfrowa	909976	2000-01-01 00:00:00+00:00	2000-12-31 23:59:59+00:00	1	' naprawdę działa! \n  6 TWÓJ REPORTAŻ \nJaki wiedźmin? \n  ł Ale <em>obciach</em> - mówią ci, którzy prozę An- \nS'
371	obciach	Bałtycka Biblioteka Cyfrowa	436970	1999-05-10 00:00:00+00:00	1999-05-10 23:59:59+00:00	2	"'; \' \n  ...., \n  <em>Obciach</em> z boczkiem \n  toteż praktycznie ""od zawsze"" się \nodchudza. A już zwłaszcza wtedy, \ngdy rzuca'"
374	obciach	Gdańska Biblioteka Cyfrowa	1165550	2003-01-01 00:00:00+00:00	2003-12-31 23:59:59+00:00	1	' to <em>obciach</em> na ca3ego! \nTak. Niby nie szata zdobi cz3owieka, a jednak. \nCoraz częściej nasza m3odzież'
375	obciach	Bałtycka Biblioteka Cyfrowa	409860	2003-08-30 00:00:00+00:00	2003-08-31 23:59:59+00:00	1	' oraz \nuzasadnienia jury, ie nasze piosenki mogą bez żadnego <em>obciachu</em> \nlecieć we wszystkich rozgłośniach'
378	obciach	Biblioteka Cyfrowa - Regionalia Ziemi Łódzkiej	155259	1882-01-29 00:00:00+00:00	1882-01-29 23:59:59+00:00	1	"' używaj1J: się. w chorobach ner1\'.01~!lC"",\nmdJg&WlIch , w tlIJlcgli"",<em>oBciach</em> sercowych i dróg oddecJwl1-\'ych'"
382	obciach	Śląska Biblioteka Cyfrowa	900745	2003-01-01 00:00:00+00:00	2003-12-31 23:59:59+00:00	1	' \nzarobić na wszystkim, nawet na śpiewaniu z playbacku, choć sam się temu dziwi! Dla niego to nie <em>obciach</em>'
383	obciach	Łódzka Regionalna Biblioteka Cyfrowa	1158863	1902-01-01 00:00:00+00:00	1902-12-31 23:59:59+00:00	1	"""- miejseu\\I <em>obciach</em>.  ródła wincrll,lnt:, najrozmaitciach :!8,7:!4,41:S  pudów \\\\ ęgla J...'UIliennego, szeg"""
385	obciach	Österreichische Nationalbibliothek	1693652	1824-10-10 00:00:00+00:00	1824-10-10 23:59:19+00:00	1	'! , który niegdyi !łenryka IV, ;<em>obciach</em> przyjal, gdy Monarch! NII \nguglu] u lasic Sćriars. _ \n A i manią, iz'
387	obciach	Cyfrowy Dolny Śląsk	376314	2001-01-01 00:00:00+00:00	2001-12-31 23:59:59+00:00	1	' \nZ tego słońce zrobi wióry! \nKiedy leżę w piachu, całkiem bez \n<em>obciachu</em> \nZ moim pięknym ciałem \nMyślę'
388	obciach	Tarnobrzeska Biblioteka Cyfrowa	7396	1989-01-01 00:00:00+00:00	1989-12-31 23:59:59+00:00	1	' konwencji zabawyna tę zabawę? Bez <em>obciachów</em>, stary, przecież już wszyscy zgodzili- - Jakie loty? - powtórzył'
392	obciach	Bałtycka Biblioteka Cyfrowa	420366	2003-06-06 00:00:00+00:00	2003-06-08 23:59:59+00:00	2	' dzień się na mnie za ten pomysl boczyi i grozil, że przeze mnie nie pójdzie. - Zrobisz mi <em>obciach</em>'
393	obciach	e-Kolekcja Czasopism Polskich	1435981	1919-09-01 00:00:00+00:00	1919-09-30 23:59:19+00:00	1	"' Situation of Poland as it is to-day mda- \nAutro-German Occupation"", „Pohnd as an <em>obciach</em> tothe Orman'"
394	obciach	Wielkopolska Biblioteka Cyfrowa	3263522	1998-01-02 00:00:00+00:00	1998-01-02 23:59:59+00:00	1	' nawiązujący do tradycji lat \nsiedemdziesiątych, muzyki mojego \ndzieciństwa, gigantów glam rocka, \n<em>obciachu</em>'
398	obciach	Śląska Biblioteka Cyfrowa	1623613	2002-01-01 00:00:00+00:00	2002-12-31 23:59:59+00:00	1	"' najważniejsze, ze stolicy wracaliśmy\nwieczorem. Największy jednak\n""<em>obciach</em>"" był przed Palacem\nKultury i Nauki'"
399	obciach	Wielkopolska Biblioteka Cyfrowa	787963	1886-04-17 00:00:00+00:00	1886-04-17 23:59:59+00:00	1	' drugiej zaś s ony zauważył-, ze w <em>obciach</em>, gdzie porze-cznie było stały-rn nieoma si ob oja awem, \n  nie'
403	obciach	Kujawsko-Pomorska Biblioteka Cyfrowa	747916	2001-01-01 00:00:00+00:00	2001-12-31 23:59:59+00:00	1	' <em>obciachu</em> swojemu ulubionemu lalkarzowi \nWaldemarowi Wolańskiemu z Łodzi i milczałem \njak grób na temat jego'
404	obciach	Wielkopolska Biblioteka Cyfrowa	1170616	1914-06-18 00:00:00+00:00	1914-06-18 23:59:59+00:00	1	"'. że w wielu <em>obciach</em> nosy nk: bcaa pelne. *_*"" ”\'"" \' › ann-\'un- | mn mln. \n:! › Wsz: mńgl :płuhć RM'"
405	obciach	Wielkopolska Biblioteka Cyfrowa	1168884	1938-10-27 00:00:00+00:00	1938-10-27 23:59:59+00:00	1	'- \n ubw mnleiszych ”<em>obciach</em>. \nMai Wallszow \n  pow \n11. Kotlin, \npow Ja|ociu telelon 17 \n  111111111 Linie'
407	obciach	Wirtualna Czytelnia Bibuły	1698962	1989-01-01 00:00:00+00:00	1989-12-31 23:59:59+00:00	1	' i ohouiukóu. M obowiązek nie tynk.]: nnn; \nmiana pracy. Robi-u <em>obciach</em>. do.- i dziećmi - choćby'
413	obciach	Śląska Biblioteka Cyfrowa	900859	2003-01-01 00:00:00+00:00	2003-12-31 23:59:59+00:00	1	' wziął dziadka pod ramię i \nzaczął wyprowadzać z redakcji: \n- Niech dziadek mi tu <em>obciachu</em> \nnie robi'
414	obciach	Wielkopolska Biblioteka Cyfrowa	786995	1935-04-14 00:00:00+00:00	1935-04-14 23:59:59+00:00	1	' liczy 81683 mieszk-domy. \n -- <em>Obciach</em>! Imieniu i[erszaika Pliandakle \ngow Jarocinie w „Gościu'
415	obciach	Miesięcznik Morze	1448256	1964-01-01 00:00:00+00:00	1964-12-31 23:59:59+00:00	1	'landii. a o ktorej pisalihny w „Akinni-<em>obciach</em>”. Pierwszym znakiem, \nze dzieje się coś niezwykłego'
416	obciach	Wielkopolska Biblioteka Cyfrowa	817249	1933-09-27 00:00:00+00:00	1933-09-27 23:59:59+00:00	1	""" \np hsm::.. .odr :nudzilo <em>obciach</em>!! w \nwhois won obwodu zbąszyńsklcxn m WINS \n  ““f'š'.„ši.°*zi.mäi“o"""
418	obciach	Bałtycka Biblioteka Cyfrowa	400224	1980-01-01 00:00:00+00:00	1980-12-31 23:59:59+00:00	1	""": <em>obciach</em> \n5 «comic zm.;mwadn : „ \n  Ę \n  ”1 «nad \n  Faulk» __ \nwm ibm \n  AQS'ł \n  Spałkm \n  „: .Mam. Ę \n  J"""
420	obciach	Chełmska Biblioteka Cyfrowa	339832	1943-08-22 00:00:00+00:00	1943-08-22 23:59:59+00:00	1	"'... l, \ndużych il <em>oBciach</em>, \'a w kTótkich odstl1\' \npach miQdzy """"0 bą. P,o ukaz::w i li id, \npierwszycl1'"
421	obciach	Małopolska Biblioteka Cyfrowa	4076637	2003-01-01 00:00:00+00:00	2003-12-31 23:59:59+00:00	1	', zamieniając na weselu wodę w wino. Tylko dlatego impreza nie kończy się \n<em>obciachem</em>. Liczba zwolenników Jezusa'
426	obciach	Podlaska Biblioteka Cyfrowa	3372295	1977-01-01 00:00:00+00:00	1977-12-31 23:59:59+00:00	2	' : utwory: tytułowy l napisany w formie zcenarlusza teatralnego \n„<em>Obciach</em>”. Pierwszy z nich jest hittorlz o'
429	obciach	Podlaska Biblioteka Cyfrowa	3368218	1934-01-01 00:00:00+00:00	1934-12-31 23:59:59+00:00	1	"""- wszyccy w \n<em>obciach</em> galowych Utimowala ale \nnaiwyzsr'i strat honorowa. która towarzyszyc zwloaom play"""
430	obciach	Wielkopolska Biblioteka Cyfrowa	786123	1934-08-05 00:00:00+00:00	1934-08-05 23:59:59+00:00	1	' sąsiednich, oraz współpracy w tejzkcji społeczeństwu. \n Mówiąc o <em>obciach</em> izolacyjnych premier podkreślił, \nże'
431	obciach	Kujawsko-Pomorska Biblioteka Cyfrowa	747621	2003-01-01 00:00:00+00:00	2003-12-31 23:59:59+00:00	1	"' o tym, że to chyba lekki \n""<em>obciach</em>"" w poniedziałek sprzedawać luksusoWQ konfekcję w eleganckim'"
441	obciach	Śląska Biblioteka Cyfrowa	899213	2003-01-01 00:00:00+00:00	2003-12-31 23:59:59+00:00	1	' - być silnym, \nenergicznym \n. mjuzik - muzyka \n. obora, <em>obciach</em>, kwas, przypał - wstyd \n. obrendowany'
443	obciach	Wielkopolska Biblioteka Cyfrowa	1169079	1937-04-24 00:00:00+00:00	1937-04-24 23:59:59+00:00	1	"' lodzi pc |) rhowanic nliziino › mmlne w <em>obciach</em>. nur-wmpod"" inna niane został „_ nie Sllrnmvmów Puch-mm'"
444	obciach	Wielkopolska Biblioteka Cyfrowa	1222464	1913-10-21 00:00:00+00:00	1913-10-21 23:59:59+00:00	1	'- _ _ _ _ _ _ __ . |. _ ._ Dr Ksaw ry Zakrzewski. _, tych na <em>obciach</em> polnych u agrariuszó- \n; ” która jego zdaniem odpowiad y'
446	obciach	Wirtualna Czytelnia Bibuły	1699590	1981-01-01 00:00:00+00:00	1981-12-31 23:59:59+00:00	1	"'. uchwalili m.in. vo- ””MM-""lu cenzury Obnlo wtrącił: cię. <em>obciach</em>: u Ing—my, I \n  inforanfje o \'Solitinrności'"
454	obciach	Cyfrowy Dolny Śląsk	367934	2001-01-01 00:00:00+00:00	2001-12-31 23:59:59+00:00	1	' stycznia\nprzed telewizorem zasiadła\nprawie cała wieś. - Dobrze,\nże nie było <em>obciachu</em> - mówi\npan Henryk'
456	obciach	Śląska Biblioteka Cyfrowa	909976	2000-01-01 00:00:00+00:00	2000-12-31 23:59:59+00:00	1	'Poniedziałek \nDZlEH 2 5 wrze. nia 20(}(} \n  ,. . \ntwOJ reportaz \n  Jaki \n  Ale <em>obciach</em> - mówią ci'
462	obciach	Biblioteka Publiczna im. dr. Władysława Biegańskiego w Częstochowie	1419628	1957-01-01 00:00:00+00:00	1957-12-31 23:59:59+00:00	1	""" \ndv- ñkašibä' Duchacka \n<em>Obciachy</em>-sy i \n!ciąłem \n  celem leczenia nrulbzynności serca_ siedgczgnaa"""
464	obciach	Cyfrowa Biblioteka Narodowa Polona	1339398	1929-07-13 00:00:00+00:00	1929-07-13 23:59:59+00:00	1	', \nFelek wrzeszczy zjeżdżaj łachu, \nIgnac wali bez <em>obciachu</em>, hop, siup, siupl \nKrew się leje jak deszcz z'
466	obciach	Krośnieńska Biblioteka Cyfrowa	3372702	2003-01-01 00:00:00+00:00	2003-12-31 23:59:59+00:00	1	' klopotu ani <em>obciachu</em>, tylko by/by \nzwyczaj, normalny zwyczaj: \nkradnq, a nie poiyczaj! Ale my \nnie, my'
467	obciach	Podlaska Biblioteka Cyfrowa	3368272	1934-01-01 00:00:00+00:00	1934-12-31 23:59:59+00:00	1	"' <em>obciach</em>!- kl| ie. \nJezeli iectcc udowoiony powiedz \'n n a - | \' \n  ”"" mi _ .o \n  cmd Sądze (Imago-l'"
468	obciach	Wielkopolska Biblioteka Cyfrowa	797243	1928-07-31 00:00:00+00:00	1928-07-31 23:59:59+00:00	1	""" __ midciemx \n › , logo i jego wlos ich kolegów. General nie mógł zni ćwieka-ago <em>obciach</em> :. nienia ”'d' nych"""
470	obciach	Wielkopolska Biblioteka Cyfrowa	768045	1929-09-19 00:00:00+00:00	1929-09-19 23:59:59+00:00	1	' zlmu 0 !monana r b będa u \n e DOIPZJJIHO m. cmentarz na \n  <em>obciach</em>! k. wiecznie \n  Napad baodyldw'
472	obciach	Kujawsko-Pomorska Biblioteka Cyfrowa	3342763	1986-01-01 00:00:00+00:00	1986-12-31 23:59:59+00:00	1	' ławce szkolnej, a teraz w zakładzie sięganie po książkę, nie uchodzi, co, za <em>obciach</em> u kolegów, a w domu'
474	obciach	Bałtycka Biblioteka Cyfrowa	3792951	1994-02-26 00:00:00+00:00	1994-02-27 23:59:59+00:00	1	' poczerwieniał Mundek ze złości, bo to przecież w sklepie pełno \nludzi, a tu mu <em>obciach</em> robią. \n- \nZa takiego'
475	obciach	Wojewódzka i Miejska Biblioteka Publiczna im. dr. Witolda Bełzy w Bydgoszczy	1518193	1930-12-16 00:00:00+00:00	1930-12-16 23:59:19+00:00	1	' systenmxytuüm ` d333 \n  ::w \n:a \na \n  mxęcršm i mwmw tywnaścłnwmhł \n  Fęäašgêmwmeša. \nKomšh-J <em>obciach</em>; `FHD'
478	obciach	Małopolska Biblioteka Cyfrowa	592577	1957-10-20 00:00:00+00:00	1957-10-20 23:59:59+00:00	1	', Łańcucka Wola). \n<em>OBCIACH</em> - wstyd, kompromitacja. (Nad. W. Łuc, \nZąbkowice). \n  PERSONALNY NAD WI- \nSŁĄ - w'
479	obciach	Kujawsko-Pomorska Biblioteka Cyfrowa	747907	1998-01-01 00:00:00+00:00	1998-12-31 23:59:59+00:00	1	' przy innych oka7jach, Pr;,ynajmniej nie ma <em>obciachu</em> (jak bywało), \nże pomyli kompozytorów albo wyśle'
480	obciach	Śląska Biblioteka Cyfrowa	900703	2003-01-01 00:00:00+00:00	2003-12-31 23:59:59+00:00	1	'? \n- Ale <em>obciach</em> I - Anka nie dawała za wygraną. - Słyszał dziadek, żeby do teatru chodzić z \ndziadkiem? Co'
484	obciach	Wielkopolska Biblioteka Cyfrowa	761134	1939-08-17 00:00:00+00:00	1939-08-17 23:59:59+00:00	1	', ukochany bm, stry] i szwagier, - P- . \n  . mle. pona. - zaniu 0rd‹r- <em>Obciach</em> rolni! \n  anan 1e bm. o god'
491	obciach	Śląska Biblioteka Cyfrowa	909947	2000-01-01 00:00:00+00:00	2000-12-31 23:59:59+00:00	1	"' l prleprosinami. \nPosledlem na spotkanie tylko IlIatego, żeby \nnie robić ""<em>obciachu</em>"" Małgosi. która'"
492	obciach	Cyfrowy Dolny Śląsk	377151	2003-01-01 00:00:00+00:00	2003-12-31 23:59:59+00:00	1	"'-tanecznej "" Kłapouch"" \n13 czerwca, godz . 19.00 ZAKOŃCZENIE SEZONU \nOB. CIACH - spektakl wg sztuki ""<em>Obciach</em>'"
495	obciach	Bałtycka Biblioteka Cyfrowa	391688	2001-01-01 00:00:00+00:00	2001-12-31 23:59:59+00:00	1	"' \nsami (pół biedy), ale narobili niezłego \n""<em>obciachu</em>"" nam wszystkim. W \nspotkaniu uczestniczyli bowiem'"
496	obciach	Świętokrzyska Biblioteka Cyfrowa	306008	1996-02-22 00:00:00+00:00	1996-02-22 23:59:59+00:00	1	', abdykacja, koral,\nirJda, salut, posiadacz, ankra ,\n<em>obciach</em> , sknera, ordynat\n\nhttp://sbc.wbp.kielce.pl/\nII'
497	obciach	Cyfrowy Dolny Śląsk	377148	2003-01-01 00:00:00+00:00	2003-12-31 23:59:59+00:00	1	"' otwarta spektaklu\nwg sztuki ""<em>Obciach</em>"" J. Głowackiego - Teatr HaliBut\n:;\n21 marca, godz. 10.00\nE\nPOWITANIE'"
500	obciach	Bałtycka Biblioteka Cyfrowa	421477	2003-01-24 00:00:00+00:00	2003-01-26 23:59:59+00:00	1	' <em>obciachu</em> \n  Nie musisz żyć \nz poczuciem winy \nw kwietniu 1987 roku (kolory na \n20-letniej głowie dobrze już'
512	obciach	Małopolska Biblioteka Cyfrowa	752407	1904-12-10 00:00:00+00:00	1904-12-10 23:59:59+00:00	1	""", wiercenie studzien i nslawum \n'. i lesznie mechaniczne. Oświetlenie \n<em>obciach</em> nie \n  .W Beyer i Spotka"""
513	obciach	Śląska Biblioteka Cyfrowa	910317	2000-01-01 00:00:00+00:00	2000-12-31 23:59:59+00:00	1	"' racji \ndokonywanych zakupów. Na desce \nnie można jeździć w narciarskich \npiankach, bo to jest ""<em>obciach</em>'"
514	obciach	e-Kolekcja Czasopism Polskich	1436957	1930-01-01 00:00:00+00:00	1930-12-31 23:59:59+00:00	1	' |zur na środku pomocy; zarówno w. \ndelenzywie. jak i w <em>obciach</em> cien. \nzywnych spelnial on swe zadania'
515	obciach	Chełmska Biblioteka Cyfrowa	331886	1986-05-10 00:00:00+00:00	1986-05-10 23:59:59+00:00	1	"'"" \npaTtamentu, ZaopatTzeniowiec stwi(!rdzil, że ;e$t zupełny <em>obciach</em>. Oznaczalo to \n1D slangu ogóZnc.sanat{W1J'"
516	obciach	Świętokrzyska Biblioteka Cyfrowa	306006	1996-02-26 00:00:00+00:00	1996-02-26 23:59:59+00:00	1	', ubijak, lalkarz, dzida, ro-\n\n1\nAl\n\n2\n\n3\n\n4\n\n5\n\n6\n\ndzajnik, smród, Yamin, slipy, posiadacz, tango, <em>obciach</em>'
518	obciach	Cyfrowa Biblioteka Narodowa Polona	1339850	1932-08-27 00:00:00+00:00	1932-08-27 23:59:59+00:00	1	"'. Nawalał się. by go żona \nprzed „trybunał teściowy"" nie postawiła, więc bez \n<em>obciachu</em> zwinął w kulkę'"
521	obciach	Tarnowska Biblioteka Cyfrowa	217147	1896-01-01 00:00:00+00:00	1896-12-31 23:59:59+00:00	1	"', jakkolwiek treści pow8tnej  \njak najlepsze wywarł na członkach ""Ojczyny"" i licznie zgromadzonych .<em>oBciach</em> wr'"
522	obciach	Bałtycka Biblioteka Cyfrowa	418579	2002-08-24 00:00:00+00:00	2002-08-25 23:59:59+00:00	1	' paradzie wojów szkockich. Słowem, <em>obciach</em> na całą Europę. Chciałoby się powiedzieć: jaki mecz taka relacja'
523	obciach	Tarnowska Biblioteka Cyfrowa	217058	1980-01-01 00:00:00+00:00	1980-12-31 23:59:59+00:00	1	' \n!nożna bez <em>obciachu</em> mówić o nowych, oryginalnych tendencjach, \nkierunkach, formach \ni ideach. \nWiatr'
526	obciach	Biblioteka Publiczna im. dr. Władysława Biegańskiego w Częstochowie	1421078	1985-01-01 00:00:00+00:00	1985-12-31 23:59:59+00:00	1	""" odwiedzi naszych zachodnich sąsiadów. Kryteria 'dopuszcmjące do udziału w <em>obciach</em> \nzagranicznych preferują"""
527	obciach	e-Kolekcja Czasopism Polskich	1435796	1919-02-01 00:00:00+00:00	1919-02-28 23:59:19+00:00	1	' rzyflaki Edward. \n1. r.; oidedmwzki Jm, zmarł; Wójcik <em>obciach</em>. 5 %p, \nr: Wohnczyk Andrzej, ng.; Wittner'
530	obciach	Wielkopolska Biblioteka Cyfrowa	797575	1928-11-19 00:00:00+00:00	1928-11-19 23:59:59+00:00	1	' burza omas—| \nków. W przemo niu ewem pod-| \nniósł iż po uroc <em>obciach</em> ku czciL \nChrystusa Króla le naród'
531	obciach	Biblioteka Cyfrowa Uniwersytetu Łódzkiego	1555624	1928-08-27 00:00:00+00:00	1928-08-27 23:59:59+00:00	1	'. Zaskakujac przy \nwagon dodatkowy. przyczem uległ na \nszczęście tylko <em>obciach</em>: dwoch pal w, ,_ \nu reki oraz'
532	obciach	Pomorska Biblioteka Cyfrowa	57020	1969-01-01 00:00:00+00:00	1969-12-31 23:59:59+00:00	1	"'! \nKtóryś Z ""żaczkowiezów"" rzuca do mnie wyrozumiale: \n- Stary, nie ma się co krępować, tylko bez <em>obciachów</em>'"
533	obciach	Bałtycka Biblioteka Cyfrowa	409728	2003-12-24 00:00:00+00:00	2003-12-26 23:59:59+00:00	1	' \nokreślenie uznalbym za skrajny \n<em>obciach</em>, dziś jednak wiem, że \nstworzenie ladnej piosenki z dającą się'
536	obciach	Śląska Biblioteka Cyfrowa	920476	1995-01-01 00:00:00+00:00	1995-12-31 23:59:59+00:00	1	' czasem \nwięź ich nieco osłabła, bo Jorg nie honorując zasady lojalności bez <em>obciachu</em> podkradał Frydkowi'
537	obciach	Kujawsko-Pomorska Biblioteka Cyfrowa	3809918	1908-01-01 00:00:00+00:00	1939-12-31 23:59:59+00:00	1	""" pih. spawykocim. \na'. . \nMichu numer <em>obciach</em> i «m _ - _ \nRudnica: umnkw: Konrad PM:. ' o"""
541	obciach	Wielkopolska Biblioteka Cyfrowa	1222664	1914-01-06 00:00:00+00:00	1914-01-06 23:59:59+00:00	1	""". _ \n  mmmow. Mining-ov 65- I \nmmm „umnie Pensional ||I|I Przyjezdnych \n5 ”akai : - pokoje' <em>obciach</em> moblowmo"""
542	obciach	Biblioteka w Raciborzu	1692068	1920-01-01 00:00:00+00:00	1920-12-31 23:59:59+00:00	1	"', r, hund i ą \nKo enha ra 2. s\' * g q że ^ H dta] \' „mówi ..Heimałsłrcuui <em>Obciach</em> ier"". rzybył na'"
543	obciach	Kujawsko-Pomorska Biblioteka Cyfrowa	669935	1924-11-22 00:00:00+00:00	1924-11-22 23:59:59+00:00	1	"' utrzymania billl: \nl}... miejaoo"",<em>oBciach</em> 1. \nklasy .\' . \n2) w miejscowościach II. \nklasy.,.... \n3) w'"
544	obciach	Bałtycka Biblioteka Cyfrowa	436355	1996-11-02 00:00:00+00:00	1996-11-03 23:59:59+00:00	1	"'""? \npieczywa? Nikodem wkurzył się na Co to oznacza, Halinko? Oznacza \nsklepową za ten <em>obciach</em>. Ale znów to, że'"
549	obciach	Krośnieńska Biblioteka Cyfrowa	288683	1982-01-01 00:00:00+00:00	1982-12-31 23:59:59+00:00	1	' dr \ntego. bo byłby to <em>obciach</em> wobec niego lub grupy. Może ci nie wyszło za \npierwszvm razem? _Może'
550	obciach	Małopolska Biblioteka Cyfrowa	603099	1977-01-01 00:00:00+00:00	1977-12-31 23:59:59+00:00	1	' koloniom: lulmim \n„ _ Bobto. Whlnhw uchu:drn I Alfred Iluk Mira nutella PZPS <em>Obciach</em> u:. (. \nwewn. Sli, Mt'
554	obciach	Bałtycka Biblioteka Cyfrowa	421310	2003-02-26 00:00:00+00:00	2003-02-26 23:59:59+00:00	1	', Darek \njest spragniony czułości. Lubi \nsię przytulać (dla chłopca w jego wieku to <em>obciach</em>). Trzyma \nsię'
555	obciach	Bałtycka Biblioteka Cyfrowa	391380	2001-01-01 00:00:00+00:00	2001-12-31 23:59:59+00:00	1	' \nróżowościach. Nie, <em>obciach</em> kompletny. Dlatego straciłem i już się \nfarbują. Mam nadzieję, że na tyle \nmocno'
556	obciach	Śląska Biblioteka Cyfrowa	907859	1996-01-01 00:00:00+00:00	1996-12-31 23:59:59+00:00	2	' <em>obciach</em> \n  Rozmowa z PIOTREM KlAmM, \nwokalistq zespołu Róie Europy \n  - Przez dwa lata nie było zbyt'
557	obciach	e-Kolekcja Czasopism Polskich	1436167	1929-05-01 00:00:00+00:00	1929-05-31 23:59:19+00:00	1	""" :. \n  Spam” Drawn] 1'. A. Ew. Mnrdn Nr. _5'253 \n  ”W obu! <em>obciach</em>! ' \n 1 S wozduh .hrądn : aru \n annlrzylęa"""
558	obciach	Bałtycka Biblioteka Cyfrowa	435871	1995-07-15 00:00:00+00:00	1995-07-16 23:59:59+00:00	1	', czyli.. . \n  chcę - ucina konduktorka. - Masz \nswój bilet? To siedź cicho i <em>obciachu</em> nie róbl - strofuje'
559	obciach	Podlaska Biblioteka Cyfrowa	3367533	1934-01-01 00:00:00+00:00	1934-12-31 23:59:59+00:00	1	""" \n  CZY \nIMONJALNA <em>OBCIACH</em> 14m” \nM0 10 C \n  za 45 gr. Ant jedna sztuka bidi'zny \nnie patrze baa-leżeć aby"""
560	obciach	Bałtycka Biblioteka Cyfrowa	419384	2000-01-01 00:00:00+00:00	2000-12-31 23:59:59+00:00	1	' wielbicie:li. - Kiedyś myślałam, że to <em>obciach</em> \nprzyznawać się do tego, ale ten zespółmi się podoba. Okrzyki'
562	obciach	Wojewódzka i Miejska Biblioteka Publiczna im. dr. Witolda Bełzy w Bydgoszczy	1515171	1920-05-20 00:00:00+00:00	1920-05-20 23:59:19+00:00	1	""" celem pomocy \nw. !<em>Obciach</em> rolnych. Wedlug Dziennika \nRozkazów, Wojskowych z 'dnia 22 marca \n11920 lichV"""
564	obciach	Bałtycka Biblioteka Cyfrowa	1564261	2000-10-28 00:00:00+00:00	2000-10-29 23:59:59+00:00	1	' jak ustaliłem z tajemniczym głosem - kurtka i ... \ndusza na ramieniu. Boże, ale będzie <em>obciach</em>, jeżeli'
566	obciach	Wielkopolska Biblioteka Cyfrowa	1169389	1937-07-31 00:00:00+00:00	1937-07-31 23:59:59+00:00	1	'! bylo Inri?. _ \n  . ` Pab i \nAmxowyrh w <em>obciach</em> i w Chorrłrowle: \nn !nini rrnnnl. S! N \n nin 2l! N'
567	obciach	Wielkopolska Biblioteka Cyfrowa	1181887	1902-03-16 00:00:00+00:00	1902-03-16 23:59:59+00:00	1	': popis wwlm:do <em>obciach</em> \n  imu. początkowych niższych kin, nr:: puyi \nmnie tlkowych n: et: ncyq i w chr'
568	obciach	Wielkopolska Biblioteka Cyfrowa	1177548	1939-06-20 00:00:00+00:00	1939-06-20 23:59:59+00:00	1	"""&w'la \nwraln ją do swej sypjglnil \nkewals _iei być <em>obciach</em> przyw do \n613073011 50511 Gda? mmą aieoei |x"""
570	obciach	Śląska Biblioteka Cyfrowa	882323	2000-01-01 00:00:00+00:00	2000-12-31 23:59:59+00:00	1	"'. \nJazda naszym autem to jednak \nprawdziwy „szpan"", a nie \n„<em>obciach</em> "", jak zwykłym,  \nseryjnym „maluchem'"
571	obciach	Bałtycka Biblioteka Cyfrowa	424291	1994-01-01 00:00:00+00:00	1994-12-31 23:59:59+00:00	1	"' się bali. Nikt nie powinien stmci{, bo byłby ""<em>obciach</em>"" na cały \nświat... (mb) \n\n\nWypadła z autobusu'"
576	obciach	Biblioteka Cyfrowa Uniwersytetu Łódzkiego	255171	1876-01-01 00:00:00+00:00	1876-12-31 23:59:59+00:00	1	' to, rozproszy, zczez- \n,xq Będą potem chodzili po jałmużnie, z herbem \nna <em>obciach</em>... Dobrze że tamci'
578	obciach	Świętokrzyska Biblioteka Cyfrowa	305860	1996-05-27 00:00:00+00:00	1996-05-27 23:59:59+00:00	1	' <em>obciach</em>. Widzę\npo innych: zabiegaj, proś, łaś się\n- to nie dla mnie.\nOlga (PŚ): - Przyłączam się.\nPo co mi'
579	obciach	Biblioteka Cyfrowa - Regionalia Ziemi Łódzkiej	4046519	1961-12-03 00:00:00+00:00	1961-12-03 23:59:59+00:00	1	"' — autora „zdemaskowano“. Bał się „<em>obciachu</em>"" i śmiechu \nznajomych, stąd to ukrywanie. \nDziś nikt nie dworuje'"
581	obciach	Biblioteka Publiczna im. dr. Władysława Biegańskiego w Częstochowie	1424591	1920-01-01 00:00:00+00:00	1920-12-31 23:59:59+00:00	1	""" ' \n  Z różnych mo: dochodzą n: :hej \n<em>obciach</em>!, „n- ysie-alazek sie B0 :mo: \neyggpáv. kfónfnœhödü' niennah"""
582	obciach	Biblioteka Publiczna im. dr. Władysława Biegańskiego w Częstochowie	1420862	1981-01-01 00:00:00+00:00	1981-12-31 23:59:59+00:00	1	"' \n\'naleźy wanim zmienić, by \npartięjwzmocnić, \'jak\' t \n""hód innych, <em>obciachy</em> \n  statucie znależć asumpt do_'"
583	obciach	Podlaska Biblioteka Cyfrowa	3367740	1933-01-01 00:00:00+00:00	1933-12-31 23:59:59+00:00	1	' _miały w dal— \nszym claim na ezzystencii prac. \n  panstw. \n damen Dbzłosek o \nzarnlcrzonem <em>obciach</em>: olac'
584	obciach	Biblioteka Cyfrowa Uniwersytetu Łódzkiego	1564832	1918-01-01 00:00:00+00:00	1923-12-31 23:59:59+00:00	1	' ani \n@tuttb emeż beinnbeten ?Berttaneś geteqeit. ŚDCI \n  nr- : \n& \n9111 \n911%: \nMnicha, <em>Obciach</em>-e unb'
585	obciach	Pomorska Biblioteka Cyfrowa	60019	2000-01-01 00:00:00+00:00	2000-12-31 23:59:59+00:00	1	' oddychaniem Do tego \ndudniąca muzyka - broń Boże nie taneczna. bo to <em>obciach</em>, a \npoza tym tańczyć i tak nie'
586	obciach	Pomorska Biblioteka Cyfrowa	62177	1928-01-25 00:00:00+00:00	1928-01-25 23:59:59+00:00	1	""" l'ac11Unko <em>obciach</em>, włl!oa języklCm \npolskim ; ..;emieckim I) ' \nszukuf wty I celu po!'. dy \nad \\lli 11 i"""
588	obciach	Bałtycka Biblioteka Cyfrowa	409920	2003-09-12 00:00:00+00:00	2003-09-14 23:59:59+00:00	1	"' \ndaleko. Nieco \n<em>obciach</em> owo wyszła im tylko ballada ""Haunted"". \nTo pierwsza \npłyta nag ra- \n. na z'"
589	obciach	Bałtycka Biblioteka Cyfrowa	420264	2003-06-12 00:00:00+00:00	2003-06-12 23:59:59+00:00	1	' pierwszym turystom. \nInnego zdania jest pan Stanislaw, właściciel trzyletniego \nopla. - <em>Obciach</em> na cały kraj'
590	obciach	Wielkopolska Biblioteka Cyfrowa	753088	1930-11-09 00:00:00+00:00	1930-11-09 23:59:59+00:00	1	' nowauyehn} zalem Irodnwli ` \n  wiel. \n  mvn:. \n  ieei :a Pornon: nnw: nader udine: \nTak :arno :nnw: <em>obciach</em>'
591	obciach	Bałtycka Biblioteka Cyfrowa	391601	1999-01-01 00:00:00+00:00	1999-12-31 23:59:59+00:00	1	' \nsię, więc przemogłam <em>obciach</em>, że \nwnawiał się ze mną w kawiarni w \nmundurze lvlO. \n. Szef szpitala'
592	obciach	Bałtycka Biblioteka Cyfrowa	1303791	2002-06-01 00:00:00+00:00	2002-06-02 23:59:59+00:00	1	' żyje, chodzi, \noddycha... I jeszcze robi mu <em>obciach</em>, że go Frasyniuk niby uderzył. \nW prawdzie leciutko'
593	obciach	Śląska Biblioteka Cyfrowa	901482	2001-01-01 00:00:00+00:00	2001-12-31 23:59:59+00:00	1	' <em>obciach</em>. To oczywiste. że w takiej sytuacji radny czuje się skrępowany i nie chce pokazywać całej masy der'
594	obciach	Wielkopolska Biblioteka Cyfrowa	770069	1932-02-02 00:00:00+00:00	1932-02-02 23:59:59+00:00	1	'! \ndiuąolarminwwych <em>obciach</em> \n.mości llhri, i.- \n  i x \n6h \n:c: \nPrz \n  we \n  ynlilninllvtu- \n  w Anuil na r. \nuch n r'
595	obciach	Jagiellońska Biblioteka Cyfrowa	1026109	1926-06-06 00:00:00+00:00	1926-06-06 23:59:59+00:00	1	""" hteratarni Slwloimi i <em>obciach</em>, lapownictwie. kubaniarzach, cymi. Mówi rzadko. ale ZWWS\\l.e j'f:- \nIS\\zladhie"""
597	obciach	Bałtycka Biblioteka Cyfrowa	393335	1996-01-01 00:00:00+00:00	1996-12-31 23:59:59+00:00	1	"'  :;:,.::,"" "":"": \n   : \n    :  \n  dów do zawodów. Jak spanikują, jest <em>obciach</em>. Albo ze złości poryczą się. Kiedyś \nsztafetę miały'"
598	obciach	Bałtycka Biblioteka Cyfrowa	433603	1994-10-29 00:00:00+00:00	1994-10-29 23:59:59+00:00	1	' czy \nwuj jest trochę niebezpieczny. \nWypije parę głębszych i wyklepie. Narobi <em>obciachu</em> przy \ncałej'
599	obciach	Cyfrowy Dolny Śląsk	377503	1999-01-01 00:00:00+00:00	1999-12-31 23:59:59+00:00	1	' <em>obciachu</em> (Sid Ringsby - bass, Willy \nBendiksen - drull1s). Instrumenty klawi szo we na pl ycie stud yjnej'
600	obciach	Małopolska Biblioteka Cyfrowa	604827	1980-06-25 00:00:00+00:00	1980-06-25 23:59:59+00:00	1	' kinie. uni. <em>obciach</em> \nmdm. Mike. Dla eunuch dzieci W \nwnuśmy wymeukę do Krakowa nattii»? \nmang pływmmm'
603	obciach	Bałtycka Biblioteka Cyfrowa	419538	2000-01-01 00:00:00+00:00	2000-12-31 23:59:59+00:00	1	' wyobraża \ntaki <em>obciach</em>? \nDla ich młodszych kolegów i koleżanek jedyną alternatywą podwórkowego trzepaka'
604	obciach	Bałtycka Biblioteka Cyfrowa	436654	1998-01-17 00:00:00+00:00	1998-01-18 23:59:59+00:00	1	' pan Zdzisław. - Porozrzucam w różne zakamarki. Największy <em>obciach</em> jak kieszonkowiec \nobrobi'
605	obciach	Bałtycka Biblioteka Cyfrowa	420190	2002-10-04 00:00:00+00:00	2002-10-06 23:59:59+00:00	1	' skarpetki. To byl symbol <em>obciachu</em> z początku lat 90., kiedy \nzaczęła się rodzić polska klasa \nśrednia. Teraz'
606	obciach	Biblioteka Cyfrowa Uniwersytetu Łódzkiego	1564836	1918-01-01 00:00:00+00:00	1923-12-31 23:59:59+00:00	1	' 1939. \n  Ile: Romminar bet Stub! [abs \n  <em>Obciach</em> tn einem izomer mianem \n  __3u meinen'
608	obciach	Bałtycka Biblioteka Cyfrowa	1562803	2001-05-26 00:00:00+00:00	2001-05-27 23:59:59+00:00	1	'. - Nie będzie mi <em>obciachu</em> robił. \n  Wojna \ntrzydziestoletnia \nGrabowski wie swoje. Jest przekonany, że'
611	obciach	Śląska Biblioteka Cyfrowa	902209	2001-01-01 00:00:00+00:00	2001-12-31 23:59:59+00:00	1	"""'.c pod nogi i <em>obciach</em> będ/ie na cały kraj. Do tego w tystko jak iywe kołrctkc pogotowia tak Imaj"""
612	obciach	Podkarpacka Biblioteka Cyfrowa	1287645	1958-07-31 00:00:00+00:00	1958-07-31 23:59:59+00:00	1	"' <em>obciachu</em>"" wychodzi do \nprzyległego pokoju. \nTu z wSZ:fstkimi akcesoriami potrzebnymi do ekspertyzy czeka'"
613	obciach	Wielkopolska Biblioteka Cyfrowa	753974	1929-04-17 00:00:00+00:00	1929-04-17 23:59:59+00:00	1	"' zwiedzil xo n: wlasnym <em>obciach</em>. których mn 2"" u \' \'°\' "" * "", \', ^ \nW soil ic! znaidlrh sie IZIEIIDIIIIü. h6'"
614	obciach	Małopolska Biblioteka Cyfrowa	661435	1877-11-30 00:00:00+00:00	1877-11-30 23:59:59+00:00	1	', \n  wcierpieniach nerwowych \n znych, tudzież p_ółstronnych kcierpieniach twarzy, \nenmatycznyc <em>obciach</em> zebów'
615	obciach	Wielkopolska Biblioteka Cyfrowa	817677	1933-03-10 00:00:00+00:00	1933-03-10 23:59:59+00:00	1	' urinam, liceu. \n Obol: ›ali nounctl :niano ...<em>obciach</em> ;qn y ma \nodbywały si! poganinem Rady Nunnari'
617	obciach	Bałtycka Biblioteka Cyfrowa	391119	1999-01-01 00:00:00+00:00	1999-12-31 23:59:59+00:00	1	' i \newidentny <em>obciach</em>. Ale kto mógł w końcu wtedy przypuszczać, że kiedyś nadejdzie era disco polo'
618	obciach	Podlaska Biblioteka Cyfrowa	277971	1962-01-01 00:00:00+00:00	1962-12-31 23:59:59+00:00	1	' ugnaobudzila :tratwami drugi, \nkurwami <em>obciach</em> i miodu. \n  Mun tylko ;mumię do \nswwillty. Nl ale) klonu'
620	obciach	Tarnobrzeska Biblioteka Cyfrowa	7122	1985-01-01 00:00:00+00:00	1985-12-31 23:59:59+00:00	1	' <em>obciachu</em>: słuchaj no pan, kierowniku. tradmy do pana zaufanie. A dlaczego? A dłatego, żeś \npan s  je8zcz  z'
621	obciach	Wielkopolska Biblioteka Cyfrowa	765906	1937-10-13 00:00:00+00:00	1937-10-13 23:59:59+00:00	1	"""' <em>obciach</em> \nnych róznymi dodatkowymi koutlmizwiazanymi r. konsuwncjç dnwnych \nciioduikow i wybranych komór"""
622	obciach	Chełmska Biblioteka Cyfrowa	330328	1982-05-08 00:00:00+00:00	1982-05-08 23:59:59+00:00	1	'. \n- No to <em>obciach</em>. Kiepsko --martwI się \ni Zenek. Heniek też się martwi. Ogólnie \nsię martwimy. Tyle'
623	obciach	Biblioteka Cyfrowa - Regionalia Ziemi Łódzkiej	4048689	1970-04-12 00:00:00+00:00	1970-04-12 23:59:59+00:00	1	' \nstary Mańka nie zgodził się na <em>obciach</em> nogi jedynakowi, \nwięc na \ntrzeci dzień leżał już w trumnie. \nA'
624	obciach	Biblioteka Publiczna im. dr. Władysława Biegańskiego w Częstochowie	1424778	1920-01-01 00:00:00+00:00	1920-12-31 23:59:59+00:00	1	""" „<em>Obciach</em>, Morgztg.” przyczyną \ntej dymisji jest rzekomo stronnicza postęp ' wojsk francuskich wobec"""
625	obciach	"Zachodniopomorska Biblioteka Cyfrowa ""Pomerania"""	359918	1977-09-17 00:00:00+00:00	1977-09-17 23:59:59+00:00	1	"' kliętyca"" Szukszyna, ..<em>ObcIach</em>"" \nGłowackie.o, ""MOIt"" Czechaidu, ""Jak \nalę kochaj, w wyżuych \'sferach'"
626	obciach	Bałtycka Biblioteka Cyfrowa	428921	1998-01-01 00:00:00+00:00	1998-12-31 23:59:59+00:00	1	' przyjenmej muzyki pop na najwyższym światowym poziomie, której można słuchać \nbez żadnego <em>obciachu</em>. \nPodczas'
628	obciach	Bałtycka Biblioteka Cyfrowa	423991	1994-01-01 00:00:00+00:00	1994-12-31 23:59:59+00:00	1	'... \n  Poszedł za kratki, lecz bez <em>obciachu</em> - \nWyszedł za kaucją i zwiał na Zachód. \n  Stamtąd, do sądu, jak'
630	obciach	Krośnieńska Biblioteka Cyfrowa	3373778	2003-01-01 00:00:00+00:00	2003-12-31 23:59:59+00:00	1	' wyrafinowanym feminizmie jawi si  \nwr cz jako domena nieapetycznych prostakow, zupelny \n<em>obciach</em>. Podczas'
631	obciach	Wielkopolska Biblioteka Cyfrowa	771055	1932-12-16 00:00:00+00:00	1932-12-16 23:59:59+00:00	1	' do „ ,_ \nMull Mumii:. uwaha (SX9. Mru \n@XII miriel: do eoi: mniemam: II hm! \n  (MMM w <em>obciach</em> rr'
632	obciach	Wielkopolska Biblioteka Cyfrowa	769777	1936-04-23 00:00:00+00:00	1936-04-23 23:59:59+00:00	1	'; rozpoznała pod pnicimi w ciom \n!<em>obciach</em> czula wyrnánic gladkie, megdnwc \nlcntld. Cztery czy pięć tych krętków'
633	obciach	Wielkopolska Biblioteka Cyfrowa	809467	1902-01-19 00:00:00+00:00	1902-01-19 23:59:59+00:00	1	'. J to rzecz \nwid zpesób ale omawiafjak to pan manna \n<em>obciach</em> naprzeciwlziebie. Ale to_jeet zu- \n  z'
634	obciach	Biblioteka Cyfrowa Uniwersytetu Łódzkiego	1556884	1919-06-13 00:00:00+00:00	1919-06-13 23:59:59+00:00	1	')—ezpimnm dla calego \nspoleczenstwa, dlatego skłoniły mówcą iklub \njego dupci-uczenia \nbezpośre nio <em>obciach</em>'
637	obciach	A Polish-Canadian press	3477015	1960-06-08 00:00:00+00:00	1960-06-08 23:59:59+00:00	1	'. \nOpłaty w prywatnych <em>Obciach</em> czę-”. \n  - czaJ_w1nnv wziać ubior na \n  czy-” \n  obozow ktore dostepne sąjj'
638	obciach	Cyfrowy Dolny Śląsk	375673	2000-05-02 00:00:00+00:00	2000-05-02 23:59:59+00:00	1	"'. \nKsięgarnia ..AGORA"", BOłesławiec, Rynek 28: \n1. Kinga Dunin: ""<em>Obciach</em>"", wab. 2. Marta \nKoch: ""Byłam z'"
639	obciach	Cyfrowy Dolny Śląsk	373981	1987-06-03 00:00:00+00:00	1987-06-03 23:59:59+00:00	1	"' ""Polfie"". Grabarze straszme \npiją - odpowiedlz:ial - a poza tym to przeciet <em>obciach</em> zdecydowal sie Da'"
640	obciach	Jagiellońska Biblioteka Cyfrowa	1158225	1921-07-17 00:00:00+00:00	1921-07-17 23:59:59+00:00	1	"' Admin. \n.,Gońca Krak."" \n-l.A8TĘPCOW i ajentów \nwe wszystkich miejsco- \n\\\\><em>oBciach</em> Zachodniej Mało.. \ntlO'"
641	obciach	Podkarpacka Biblioteka Cyfrowa	1287645	1958-07-31 00:00:00+00:00	1958-07-31 23:59:59+00:00	1	"' \nwszystko bez najmniejs ego ,.<em>obciachu</em>"". Franciszek \nS, nie zdaje sobie nawpt  pra"",; \', że każdy jego krok'"
642	obciach	Wielkopolska Biblioteka Cyfrowa	1210444	1922-08-31 00:00:00+00:00	1922-08-31 23:59:59+00:00	1	"' mnie Cb ”<em>obciach</em> W~ WIW mie pami, einem mieszka BLISKO umebl. 81:30wa 29007. "" \n  . . , -\'-r › |. \n26'"
643	obciach	Podkarpacka Biblioteka Cyfrowa	1287440	1960-01-01 00:00:00+00:00	1960-12-31 23:59:59+00:00	1	"' się sposób bycl-a ,.lrolegów\'"" \nprzy stoliku. ot, tak bez żadnej <em>obciachy</em> - pomyjlał zgodzili się aby'"
644	obciach	Małopolska Biblioteka Cyfrowa	674581	1974-07-07 00:00:00+00:00	1974-07-07 23:59:59+00:00	1	"'"" Różewicza (reż. \nTadeusz Mmc), ""<em>Obciach</em>"" Janusza \nGłowackiego (reż. Andrzej Łapicki). \n""Misterium'"
646	obciach	Bałtycka Biblioteka Cyfrowa	420095	2000-01-01 00:00:00+00:00	2000-12-31 23:59:59+00:00	1	""". Afimo to obmacał mnie. Jes::c::e 11' dO/1/u nie mogiem \ndoj.\\:ć do siebie, Narobił mi <em>obciachu</em> \npr::..v"""
649	obciach	e-Kolekcja Czasopism Polskich	1436772	1928-01-01 00:00:00+00:00	1928-12-31 23:59:59+00:00	1	"' ac \n1: „mkl ""byla \'Clllł\'m mamie w | nm.: <em>obciach</em> ""\' \nNi ||: nien _\' ze ietklewce \n  na tem polu'"
650	obciach	e-Kolekcja Czasopism Polskich	1436688	1927-01-01 00:00:00+00:00	1927-12-31 23:59:59+00:00	1	'-dniu. \n  WW \n  Gier Ruchowych \n  <em>obciach</em> Mal-mou nn ałq Pohla \n  lwzeclw :nmlarmn P. Z L A. i uchwa'
651	obciach	e-Kolekcja Czasopism Polskich	1437514	1935-01-01 00:00:00+00:00	1935-12-31 23:59:59+00:00	1	""" do !lcble I Do kll'kl Ildnle \normrowudmuycb <em>obciach</em> wyldwnyul:. AIS cdn). ilo lodnl |od-l od"""
652	obciach	A Polish-Canadian press	3478575	1978-05-24 00:00:00+00:00	1978-05-24 23:59:59+00:00	1	"' \n„<em>obciach</em>! oo W :ĘF avg!) c.. Do:—ądań BI!!!-o \'I\' ""cz-"" \nwyjazdu do-› \'Khnady. Przy! ! ,k 2- ine ((\':o\'ą9'"
653	obciach	Śląska Biblioteka Cyfrowa	909326	1995-01-01 00:00:00+00:00	1995-12-31 23:59:59+00:00	1	' Warszawy, do ministerstwa. Powiedział: jak będziesz w stolicy, to bez <em>obciachów</em> zaglądaj do mnie'
654	obciach	Podlaska Biblioteka Cyfrowa	3371955	1976-01-01 00:00:00+00:00	1976-12-31 23:59:59+00:00	1	"' \n"" Białymstoku. ul. Wea "" \nOGŁASZA DODATKOWE ZAPIS! mmm \n  «.nupierwzzyoboarokezkolnz lnu/Www \n  gnoju <em>obciach</em>'"
655	obciach	Pomorska Biblioteka Cyfrowa	41864	1932-05-13 00:00:00+00:00	1932-05-13 23:59:59+00:00	1	""" dz'siaj t,,!ko \ndomu. gdy? o o50blh.. <em>obciach</em> na Zielone Świ:!t, \nrzowi Ligi Narodów nie doznała o tyle na"""
656	obciach	Wielkopolska Biblioteka Cyfrowa	752914	1930-10-14 00:00:00+00:00	1930-10-14 23:59:59+00:00	1	"' Puckiego Szkolnictwa kamicą"". nn konto r. K. o. \n21995. Kamilah <em>Obciach</em> Słocin Wal- \n  ldpSzhiłçPollIką'"
657	obciach	Podlaska Biblioteka Cyfrowa	1586061	1936-01-01 00:00:00+00:00	1936-12-31 23:59:59+00:00	1	"' miund”. Mult xnatwn ""nl- \n`uhx iui u( ndhvły, w nickló- \n`wella <em>obciach</em> w niedadclç od` \n`będa sn'"
659	obciach	Wielkopolska Biblioteka Cyfrowa	768853	1931-03-28 00:00:00+00:00	1931-03-28 23:59:59+00:00	1	"' aironarh byly lili P"" \nuprawna_ prrygotowano pod “mik \n i oto :nalotu aio w <em>obciach</em> I*** \nokiem Podwñrla'"
660	obciach	Kujawsko-Pomorska Biblioteka Cyfrowa	3809353	1908-01-01 00:00:00+00:00	1939-12-31 23:59:59+00:00	1	'... \n  ! \n  był aiw <em>obciach</em> daje 23. bm. & zali-lezą Esej \n  policyjnym. . „ \n—— akordzie”: Śmieszkenja goepodyni'
661	obciach	Cyfrowy Dolny Śląsk	375458	1980-01-01 00:00:00+00:00	1980-12-31 23:59:59+00:00	1	""" całego <em>obciachu</em> i .tak sama siebie zapytuję w' myśli czy ta' Iza też już \npij,ma, czy wstydu nie ma w"""
662	obciach	Śląska Biblioteka Cyfrowa	1621682	1997-01-01 00:00:00+00:00	1997-12-31 23:59:59+00:00	1	"'... \nCzasem był kłopot z cenzurą: \n- Robiłem - wspomina Świerzy \n- plakat do sztuki ""<em>Obciach</em>"" \nGłowackiego i'"
663	obciach	Małopolska Biblioteka Cyfrowa	576142	1976-01-01 00:00:00+00:00	1976-12-31 23:59:59+00:00	1	"' ilustrują \ntrafnie dwie równie kontrastowe \npropozycje: ""Achilleis"" Wyspiańskiego i ""<em>Obciach</em>"" Janusza'"
664	obciach	Bałtycka Biblioteka Cyfrowa	428921	1998-01-01 00:00:00+00:00	1998-12-31 23:59:59+00:00	1	"'. Jako jeden z nielicznych w Polsce \npotrafi bez ""<em>obciachu</em>"" korzystać z zachodnich wzorców. N a płycie'"
665	obciach	Bałtycka Biblioteka Cyfrowa	419901	2000-01-01 00:00:00+00:00	2000-12-31 23:59:59+00:00	1	"'::ają, \nże to <em>obciach</em> pokazać się na ulicy w butach \nz naszywką"" światowej"" firmy - przecież pól \nmiasta'"
666	obciach	Małopolska Biblioteka Cyfrowa	762385	1980-01-01 00:00:00+00:00	1980-12-31 23:59:59+00:00	1	' razem. \n- A ty co teraz piszesz, synku? \nOdpowied7iał bez <em>obciachu</em>, widor7ł1ie nie od dl.iś szykował się'
668	obciach	Podlaska Biblioteka Cyfrowa	1583962	1967-01-01 00:00:00+00:00	1967-12-31 23:59:59+00:00	1	' 11.01. godz. 8.00 do iGJX. br. godz. 15.00 w \n.. <em>obciach</em>: Kożyno. Stopniu, Lachy. llorodczyn, lira'
669	obciach	Gdańska Biblioteka Cyfrowa	1165604	1950-01-01 00:00:00+00:00	1950-12-31 23:59:59+00:00	1	'* \nvoboinicao wladza odpowiadają wia \ndonokiami o !<em>obciach</em> minumum \nnaci lonan. \n Oman Snqailaiycuiof Pami .INI'
670	obciach	Podlaska Biblioteka Cyfrowa	1586086	1966-03-03 00:00:00+00:00	1966-03-03 23:59:59+00:00	1	"' podkreślił nestępnie szeroki rom ój działalnoś- \nCl 3-2-1! \n qu\'CJ \n  Na koloniach i ""<em>obciach</em> orga'"
671	obciach	Małopolska Biblioteka Cyfrowa	675071	1964-01-01 00:00:00+00:00	1964-12-31 23:59:59+00:00	1	""" maczał rę<.'€ we \nkrwi na frontach wojny i bez <em>obciachy</em> 7nosił moje oskarżycielskie \nspojrzenie"""
672	obciach	Biblioteka Cyfrowa Uniwersytetu Łódzkiego	263659	1934-01-01 00:00:00+00:00	1934-12-31 23:59:59+00:00	1	' <em>obciach</em> cywilne] armii Ic \n5:16] w stanach zauiwdnicli. Szewcy polscy \nw Cliippewa mają teraz pracy na'
673	obciach	Biblioteka Cyfrowa Uniwersytetu Łódzkiego	264419	1933-01-01 00:00:00+00:00	1933-12-31 23:59:59+00:00	1	' opinię o \n  <em>OBCIACH</em> REKLAMY NOWOCZESNĘL \nWiadomo, że w Ameryce, w ojczyźnie takzwanej \n~-nowoczesnej'
674	obciach	Biblioteka Cyfrowa Uniwersytetu Łódzkiego	1564320	1939-01-01 00:00:00+00:00	1939-12-31 23:59:59+00:00	1	'. \n* . * \n Liczba robotników, zatrudnionych na \n[<em>Obciach</em> publicznych, prowadzonych przez \nasto w okresie dwóch'
675	obciach	Bałtycka Biblioteka Cyfrowa	419337	1990-01-01 00:00:00+00:00	1990-12-31 23:59:59+00:00	1	'. \n- Żeby nie było <em>obciachu</em>, to pokażę papiery- powiedział detektyw i podał \nstarszemu, podobnemu do'
676	obciach	Podlaska Biblioteka Cyfrowa	3372316	1978-01-01 00:00:00+00:00	1978-12-31 23:59:59+00:00	1	"' ukrywane \n  4273254- ..w \n  kOśCl pongdl 2.. ""il?! dolarźgv 5,7123 W <em>Obciach</em> bawełny. Po- dobroczynnym i'"
678	obciach	A Polish-Canadian press	3476251	1948-01-25 00:00:00+00:00	1948-01-25 23:59:59+00:00	1	"""- <em>obciach</em>-.- Oraz \n  ›en St.~ W'cstl \n  UWAGA WETERAN] ĘĘ \nOkaZJa MONTE CASSINO tom 3. \n  351110 -tOĘmĘ 1"""
679	obciach	Jagiellońska Biblioteka Cyfrowa	1129562	1899-03-31 00:00:00+00:00	1899-03-31 23:59:59+00:00	1	' powyższych nieruchom <em>oBciach</em> bądź licytacya bylaby niedopuszczalną, należy zgłoobecnie już istnieją, bądż w'
680	obciach	Jagiellońska Biblioteka Cyfrowa	1143212	1887-05-26 00:00:00+00:00	1887-05-26 23:59:59+00:00	1	' <em>OBcIach</em> w Rossyi. Wiadomości, jakich dzy 8tacyami Uherca i Lisko - Łukawica na \n, taą od wk dz. gube:nial'
681	obciach	A Polish-Canadian press	3477664	1967-11-22 00:00:00+00:00	1967-11-22 23:59:59+00:00	1	"',-\' ,Kanadyjc\'zy~, \n  \'_kó\'w, znaczenie.: Polonii hamil-, ., <em>Obciach</em> \n  tkic\'h,posun1cciach widzimy \n""›z\'awśz\'c'"
682	obciach	Bałtycka Biblioteka Cyfrowa	393353	1996-01-01 00:00:00+00:00	1996-12-31 23:59:59+00:00	1	"' istota sprowad:ała sir do ::astępowania owych"" 0.0."" ró:nymi synonimami. typu ""ogromn)\' <em>obciach</em>"" czy'"
683	obciach	Bałtycka Biblioteka Cyfrowa	419876	2000-01-01 00:00:00+00:00	2000-12-31 23:59:59+00:00	1	""" przeżył piel1vszy bar McDonald's \nw Warszawie? Dzi,{: młodzi Polacy uważają, \nże to <em>obciach</em> pokazać się na"""
684	obciach	Wielkopolska Biblioteka Cyfrowa	768561	1931-01-19 00:00:00+00:00	1931-01-19 23:59:59+00:00	1	'. \nGoriiwy. obowiazkowy i polan zapału v avym zawodzie a zarazaia aprawirdiiwy i uprzejmy v <em>obciach</em>: \ng'
685	obciach	Jagiellońska Biblioteka Cyfrowa	1117375	1888-05-03 00:00:00+00:00	1888-05-03 23:59:59+00:00	1	"""!<em>oBciach</em> dr, \nNi8lniec, W.toch, Rumunji I na Wschód, a \nw Austro-Wçgrzech teu gatuneli: ipe- \n':jalme"""
686	obciach	Jagiellońska Biblioteka Cyfrowa	1075384	1869-02-26 00:00:00+00:00	1869-02-26 23:59:59+00:00	1	' przypad <em>oBciach</em> uznane sl} dot,  ZR 86Jlepa:zy \nsrodek lekullki. Szczególnle skuteczne i \nZlslu/tujljce DA'
687	obciach	A Polish-Canadian press	3476513	1953-10-11 00:00:00+00:00	1953-10-11 23:59:59+00:00	1	""" obsunięcie sie ”5113 \nły 11.-”kopalni Sisco Hetals.'- <em>Obciach</em>, \nOnt sp. Ch'uchla przyjechał” 'do' \nKanady 20"""
688	obciach	Małopolska Biblioteka Cyfrowa	780618	1983-01-01 00:00:00+00:00	1983-12-31 23:59:59+00:00	1	' tytułem „W \nrVJ’ . Radykalizm tytułu zapowiadał, że PT. Redaktorzy nie mają tzw, <em>obciachów</em> \nw mówieniu'
689	obciach	Bałtycka Biblioteka Cyfrowa	405540	1966-08-20 00:00:00+00:00	1966-08-20 23:59:59+00:00	1	' ojcowie miasta Sopotu \nboją się strasznie <em>obciachu</em>, \nbo chcą uniknąć znowu kłopotu \nZ gziuraw! W oPerIJ'
690	obciach	Podlaska Biblioteka Cyfrowa	3782047	1983-01-01 00:00:00+00:00	1983-12-31 23:59:59+00:00	1	'— \nszy „<em>obciach</em>”—-zarośnięty chwastami klomb, \nktóry miał zdobić a szpeci. \n  .,... Nie wierzę, że nie'
691	obciach	Podlaska Biblioteka Cyfrowa	1585536	1932-01-01 00:00:00+00:00	1932-12-31 23:59:59+00:00	1	"' całego \n„imperium byrvhłn\'rm w (Jurado. Ale «› \nlac-«\'nie. jak <em>obciach</em>-:)! angirhki ""urnie!"" \nhandlu'"
692	obciach	A Polish-Canadian press	3476220	1947-06-08 00:00:00+00:00	1947-06-08 23:59:59+00:00	1	""" \ntrach. Kiedy jednak przebywały w <em>Obciach</em> w Niemczech, \n:be'zd'óm'n'e sieroty i wyglądały poratowania"""
693	obciach	Jagiellońska Biblioteka Cyfrowa	1144977	1919-11-15 00:00:00+00:00	1919-11-15 23:59:59+00:00	1	"""'!:<em>oBciach</em> par1.8.m nt8rny, .1r 8Hcyjny- jak to się m6wi c aJ będzie armia  asla.. N!e dop Ś I ! \ntarna"""
694	obciach	Małopolska Biblioteka Cyfrowa	651402	1977-01-01 00:00:00+00:00	1977-12-31 23:59:59+00:00	1	"' ""Rysiek"" zwoływał par\'y- \n7.Ołntów gwizdkiem, be7. <em>obciachu</em>. \nNiosło się na pół wsi. Po dwóch minutach'"
695	obciach	Jagiellońska Biblioteka Cyfrowa	1114415	1881-06-05 00:00:00+00:00	1881-06-05 23:59:59+00:00	1	' 60 ct. C P · & C \n. Za  irieJlla I pro,w:iJl.cji w wielkich. i dro ny h i <em>oBCiach</em> zala.twiaj, .i  jak'
696	obciach	Bałtycka Biblioteka Cyfrowa	391419	1950-06-13 00:00:00+00:00	1950-06-13 23:59:59+00:00	1	"' <em>obciach</em> w go m, /dpot1`ZPbU\\""łilllŁ{Ch *ospali l \' H \'„ ,ę \niiiich. Komitet ten xxjl-.mił piegcligvm roku'"
697	obciach	Bałtycka Biblioteka Cyfrowa	424123	1992-01-01 00:00:00+00:00	1992-12-31 23:59:59+00:00	1	' je sobie odkupił. \n- Jakiś <em>obciach</em>? \n- To fałszywki. Oryginały mam odzie indzie;. (c.d.n.) \n   \n \n'
698	obciach	Bałtycka Biblioteka Cyfrowa	406003	1966-02-11 00:00:00+00:00	1966-02-11 23:59:59+00:00	1	""" to praw- C y , Reszte , c11C q ŻC011 na straszn y <em>obciach</em>, J 'ak. sio ' azd ' I j CSRS W \n'< ciekał"""
699	obciach	Podkarpacka Biblioteka Cyfrowa	1290302	1976-11-30 00:00:00+00:00	1976-11-30 23:59:59+00:00	1	"' naradzie \npod uwage: ..Cena"" Millera, ..<em>Obciach</em>"" \nGlowaekie,go ()raz ..Dwa. teatry"" Szaniawskiego. I'"
700	obciach	Małopolska Biblioteka Cyfrowa	745893	1984-01-01 00:00:00+00:00	1984-12-31 23:59:59+00:00	1	"'"", ..<em>Obciachu</em>"", ""Achilleis"", \n..Pannie młodej z ""Wesela,,"", ..Janie Karolu Wścieklicy"" I innych. Nie pretendując'"
701	obciach	Małopolska Biblioteka Cyfrowa	765428	1984-01-01 00:00:00+00:00	1984-12-31 23:59:59+00:00	1	"' Jaannę"", ""Szewców"", \n.,Kniazia Potiomkina"", ,.Zycie snem"", ,.Ryszaltia II"". ..<em>Obciach</em>"", ..Pana Tadeusza'"
702	obciach	Podlaska Biblioteka Cyfrowa	3781810	1984-01-01 00:00:00+00:00	1984-12-31 23:59:59+00:00	1	"' tutai sie śmieia z zachodnich \n..<em>obciachów</em>"". Mianowicie uruchomiono mieszalnie nasz. \nedzie wvtwarza sie'"
703	obciach	Podkarpacka Biblioteka Cyfrowa	1290296	1976-05-31 00:00:00+00:00	1976-05-31 23:59:59+00:00	1	"' Glowackiego - \n""<em>ObCiach</em>"". Jest to groteska napisana na temat niebezpiecznej pustki wewn trznej, kt6ra'"
704	obciach	Bałtycka Biblioteka Cyfrowa	419982	2000-01-01 00:00:00+00:00	2000-12-31 23:59:59+00:00	1	"' . t flYi I ł \n.,. ,.,.,1 . E \n ;. ;.,. . "",-<   \n.f \n  absurdy i <em>obciachy</em> .\'Iq możliwe wszędzie. Mo::e'"
705	obciach	Podlaska Biblioteka Cyfrowa	3782019	1983-01-01 00:00:00+00:00	1983-12-31 23:59:59+00:00	1	' przy— \nsłowiowy kot. Jest ci strasznie, ale bron Boże nie przyznajesz się do tego, bo to byłby <em>obciach</em>'
706	obciach	Biblioteka Cyfrowa Uniwersytetu Łódzkiego	1555080	1948-01-01 00:00:00+00:00	1948-12-31 23:59:59+00:00	1	""" <em>OBCIACH</em>” \n  Iii/ył]. Państwowy lnstytut 'tlrlyilaiii'niczy \n  Vk'Ii'inzillt'j \ndcnta U S, A. Figihkllna"""
707	obciach	Małopolska Biblioteka Cyfrowa	757343	1885-08-23 00:00:00+00:00	1885-08-23 23:59:59+00:00	1	', wszystkie łóżka są już zajt \n«<em>obciach</em> płacono od łóżka 03 złr. 0oddzalo- \n„ym z 0 milę Hnlinie zakwaterowało'
708	obciach	Podkarpacka Biblioteka Cyfrowa	1290595	1977-11-30 00:00:00+00:00	1977-11-30 23:59:59+00:00	1	"' rezyserii Krystyny Meissner, kt6r q rzeszowska publicznose pami ta ze swietnej inscenizacji ""<em>Obciachu</em>"" ,T'"
709	obciach	Śląska Biblioteka Cyfrowa	902780	1998-01-01 00:00:00+00:00	1998-12-31 23:59:59+00:00	1	"' Szczygłowi, \nskądinąd bardzo dobremu poloniście i styliście - wówczas nie byłoby aż takiego ""<em>obciachu</em>'"
710	obciach	Jagiellońska Biblioteka Cyfrowa	1082396	1871-04-17 00:00:00+00:00	1871-04-17 23:59:59+00:00	1	' zboìowe \nw mniejszych i\\<em>oBciach</em> tll do Lwowa nad8yla.ne  JADe \noplaty dyrekaje zarządów kolei'
711	obciach	Śląska Biblioteka Cyfrowa	1622524	1992-01-01 00:00:00+00:00	1992-12-31 23:59:59+00:00	1	'? \nDziadele oczywiście za dwa tygodnie! \nTym razem bez <em>obciachów</em> napiszę - do usłyszenia! \n  Od 6 listopada do'
712	obciach	Śląska Biblioteka Cyfrowa	1622672	1992-01-01 00:00:00+00:00	1992-12-31 23:59:59+00:00	1	', \n,jedną zagraniczną, wyniki i nagrody w sylwestrowym numerze gazety. Ludzie głosujcie, bo będzie <em>obciach</em>'
713	obciach	Wielkopolska Biblioteka Cyfrowa	1221952	1937-04-11 00:00:00+00:00	1937-04-11 23:59:59+00:00	1	""" Szymonowi-kino \n : Poznania do Wanzawy. Na mntkich' \n<em>obciach</em>. na któych zatrzymywal ale po- \n. d. Mpio-any o"""
714	obciach	Podlaska Biblioteka Cyfrowa	3780975	1981-01-01 00:00:00+00:00	1981-12-31 23:59:59+00:00	1	"'... . „""..., bozońnonm dunk wznnokt bummn W „:de <em>obciach</em>! & \n mundur”: 1 2.314 Nsu umunwcow wkomponu- ctu- :.:urc :: . Pm'"
715	obciach	Podkarpacka Biblioteka Cyfrowa	1290297	1976-06-30 00:00:00+00:00	1976-06-30 23:59:59+00:00	1	' - \n<em>Obciach</em> - godz. 19 \n  MUZEUM \n  Muzeum Okr<:gowe w RzesZ.:1wie. ul. 3 Ma.is - czynne \nw godz od 10 - 18'
716	obciach	Podkarpacka Biblioteka Cyfrowa	1290297	1976-06-30 00:00:00+00:00	1976-06-30 23:59:59+00:00	1	'. \nSiemaszkowej - Achilleis godz. 17. Mala Scena - <em>Obciach</em> - godz. 20 (tylko dla \ndoroslych) \n  MUZEUM \n  Muzeum'
717	obciach	Podkarpacka Biblioteka Cyfrowa	1290296	1976-05-31 00:00:00+00:00	1976-05-31 23:59:59+00:00	1	' scena - \n<em>Obciach</em> - godz. 18 \n  MUZEUM \n  Muzeum Okr«:gowe w Rze- \nI!zowie, ul. 3 Maja - czynne \nW godz'
718	obciach	Kujawsko-Pomorska Biblioteka Cyfrowa	562435	1961-01-01 00:00:00+00:00	1961-12-31 23:59:59+00:00	1	"' rodzinny, wyzbyl 6i  \n<em>obciachu</em> nie r6b, do pierruuna. oogactw, oddajQ.c wszystko co posia- \n""Koronacja'"
719	obciach	Archiwum czasopism dla niewidomych	3930247	2003-02-01 00:00:00+00:00	2003-02-28 23:59:59+00:00	7	X
720	obciach	Podlaska Biblioteka Cyfrowa	3372230	1977-01-01 00:00:00+00:00	1977-12-31 23:59:59+00:00	1	' spędza że na ko- \n. lonlach, wczasach [ róż. \n  zego rodzaju <em>obciach</em>. Nie \nwszyscy jednak wyjeżdżają'
721	obciach	Podlaska Biblioteka Cyfrowa	3371416	1980-01-01 00:00:00+00:00	1980-12-31 23:59:59+00:00	1	"'..., \n  ”<em>Obciach</em> n.., ma (ni.. \n  01 Towarow- 211 00.03: WarSzawop \ntou"". RSWJ..Prasa-Kslażka Ruch Białystok ul'"
722	obciach	Kujawsko-Pomorska Biblioteka Cyfrowa	614645	1972-01-01 00:00:00+00:00	1972-12-31 23:59:59+00:00	1	' szkoła tylko dla swoich. <em>obciachu</em> żeby nie było... Pan \nrozumie? Dyrektor kombinat , pierwszy sekretarz'
723	obciach	Wielkopolska Biblioteka Cyfrowa	812275	1932-05-04 00:00:00+00:00	1932-05-04 23:59:59+00:00	1	"' \ngólnych oaicdli. \nPropklodaora wybral dm"" nnj \nMk.. zachowujac oba tt-trnyo w nat \nmek „<em>obciach</em>. Widzimy'"
724	obciach	A Polish-Canadian press	3476532	1954-02-21 00:00:00+00:00	1954-02-21 23:59:59+00:00	1	""" \n  59.01) \n  ' by i wycieńczc \n  kończył '(e \n<em>Obciach</em> un'ir'y'le \n  wechtragany \n  \n \n"""
725	obciach	Podkarpacka Biblioteka Cyfrowa	1290297	1976-06-30 00:00:00+00:00	1976-06-30 23:59:59+00:00	1	"' \nSiemaszkowej - Mala \n<em>Obciach</em> - godz. 18 \n  !m. W. \nScena - \n  MUZEUM \n  Muzeum Okr""gowe w Rzeazowie, u1. 3 Maja'"
726	obciach	Podkarpacka Biblioteka Cyfrowa	1290297	1976-06-30 00:00:00+00:00	1976-06-30 23:59:59+00:00	1	' - Aehlllets - \n,od.. 17, mala aeena - <em>Obciach</em> - godz. 10 (tylko dla \ndorOlilych) \n  MUZEUM \n  Mur.eurn'
727	obciach	Cyfrowy Dolny Śląsk	370543	1966-01-01 00:00:00+00:00	1966-12-31 23:59:59+00:00	1	""" owady, nich - gadać bez <em>obciachy</em> jak \nNaturalnie pokojowyn'1. bezmyślnie na smugi cieni luźno _ Patrz"""
728	obciach	Bałtycka Biblioteka Cyfrowa	3794031	1991-04-05 00:00:00+00:00	1991-04-05 23:59:59+00:00	1	' nieprawomy?lne \ninformacje \nwyg?aszano \ntam \nobszernie \ni bez \n<em>obciachu</em>. \nTeraz \nopmiotwórcza \nrola \nprzedzia'
729	obciach	Podkarpacka Biblioteka Cyfrowa	1290297	1976-06-30 00:00:00+00:00	1976-06-30 23:59:59+00:00	1	'-50 \n326-10 \n347-77 \n  TEATR \n  Paf1stwowy Teatr im. W. \nSiemas!;kowej - mala scena \n- <em>Obciach</em> - god'
730	obciach	Cyfrowy Dolny Śląsk	372250	1970-09-17 00:00:00+00:00	1970-09-17 23:59:59+00:00	1	"'- \n-karże ia. Przecież to jasne, że \njuż po pierwszym razie nie :nołem robić <em>obciachy</em>"", tłumaczy \nsędziemu'"
731	obciach	Jagiellońska Biblioteka Cyfrowa	1082063	1903-07-22 00:00:00+00:00	1903-07-22 23:59:59+00:00	1	"' iarowem \n.....11 (w miejsco""<em>oBciach</em> Die poeiadajllcych luowni). \n  c).h.:y.e 8k.i.!þ IIr\'u.b  :i Sk'"
732	obciach	Jagiellońska Biblioteka Cyfrowa	1091007	1885-01-23 00:00:00+00:00	1885-01-23 23:59:59+00:00	1	' h sp zyjaj cych okolicl <em>oBciach</em> takle do ze strony rosyjskiej, bo wypada 1 niego, Ie Ro- losem zap'
733	obciach	Podlaska Biblioteka Cyfrowa	248962	1959-01-01 00:00:00+00:00	1959-12-31 23:59:59+00:00	1	'. ll-Oi. \n ych slawek nn <em>obciach</em> ZMS-mm \nl: !Id \n  B. L Grat. \nñ! \n  9 \nnapiąstka. Wystarczyła jed'
737	obciach	Archiwum czasopism dla niewidomych	3930230	2001-08-01 00:00:00+00:00	2001-08-31 23:59:59+00:00	1	X
738	obciach	Archiwum czasopism dla niewidomych	3930243	2002-09-01 00:00:00+00:00	2002-09-30 23:59:59+00:00	1	X
739	obciach	Archiwum czasopism dla niewidomych	3930249	2003-04-01 00:00:00+00:00	2003-04-30 23:59:59+00:00	1	"' też mogą? Po co ten patos. Ale <em>obciach</em>! Zabić, zadeptać, zapluć - to internauci z ""Gazetowego"" forum'"
740	obciach	Archiwum czasopism dla niewidomych	3930254	2003-09-01 00:00:00+00:00	2003-09-30 23:59:59+00:00	1	', że coś jest nie tak, trzeba reagować natychmiast. Nastolatki zazwyczaj uważają za <em>obciach</em> skarżenie'
741	obciach	Archiwum czasopism dla niewidomych	3930287	1999-07-01 00:00:00+00:00	1999-07-31 23:59:59+00:00	1	X
