	word	lname	iid	duration_start	duration_end	occurences	highlighting
65	opcjonalnie	Urząd Patentowy RP	2417240	2003-09-30 00:00:00+00:00	2003-09-30 23:59:59+00:00	1	', <em>opcjonalnie</em> montowany w obudowie 1. \nDUPUY EQUIPEMENTS SARL \niełnomocnik \nAndrzej Kacperski \nrzecznik'
83	opcjonalnie	Dziennik Ustaw Rzeczypospolitej Polskiej	1757595	1999-03-18 00:00:00+00:00	1999-03-18 23:59:59+00:00	1	' \n(<em>opcjonalnie</em>) \nPodpis właściciela: \nPoz. 289 \n\n \n'
121	opcjonalnie	Dziennik Ustaw Rzeczypospolitej Polskiej	1757595	1999-03-18 00:00:00+00:00	1999-03-18 23:59:59+00:00	1	' ubezpieczenia \n(<em>opcjonalnie</em>) \nPoz. 289 \nZałącznik nr 3 \nI \n·1 \n\n \n'
487	opcjonalnie	Urząd Patentowy RP	2550886	2002-12-31 00:00:00+00:00	2002-12-31 23:59:59+00:00	8	' włókienniczego może być nie większy niż około 3 denier, a <em>opcjonalnie</em> nie większy niż \nokoło 2,5 denier. \nW'
515	opcjonalnie	Księgozbiór Wirtualny Federacji Bibliotek Kościelnych FIDES	16850	2001-01-01 00:00:00+00:00	2001-12-31 23:59:59+00:00	2	' egzemplarza] (NP)\n(Obecnie pole stosowane <em>opcjonalnie</em>.) ,\n\nWskaźniki:\nPierwszy - istnienie w zbiorach'
563	opcjonalnie	Urząd Patentowy RP	2544244	2000-03-31 00:00:00+00:00	2000-03-31 23:59:59+00:00	6	' około 200 mg, a <em>opcjonalnie</em> ma wskaźnik \nsztywności co najmniej około 400 mg. \nJeżeli jednak'
657	opcjonalnie	Dolnośląska Biblioteka Cyfrowa	537346	1999-01-01 00:00:00+00:00	1999-12-31 23:59:59+00:00	2	' kierujące wiązkę światła, Om — obiektyw mikroskopowy (<em>opcjonalnie</em>), \nPd (Sz) - przysłona dyfrakcyjna (lub'
690	opcjonalnie	Urząd Patentowy RP	2544244	2000-03-31 00:00:00+00:00	2000-03-31 23:59:59+00:00	6	' procent długości 94 obszaru 92 \nna wolnym końcu płata bocznego 90, a <em>opcjonalnie</em> długość ta może wynosić'
691	opcjonalnie	Urząd Patentowy RP	2550886	2002-12-31 00:00:00+00:00	2002-12-31 23:59:59+00:00	6	' włókna o numeracji ciężarowej według denier poniżej około 3 den, a <em>opcjonalnie</em> włókna o wartościach'
824	opcjonalnie	Dziennik Ustaw Rzeczypospolitej Polskiej	1782363	2001-11-05 00:00:00+00:00	2001-11-05 23:59:59+00:00	1	'∏owych \n7N \n3 podpis elektroniczny \nPodpis elektroniczny (<em>opcjonalnie</em>) \n128 X \nVIII. Sposób tworzenia'
914	opcjonalnie	Historia Informatyki	3475309	1984-12-31 23:00:00+00:00	1985-12-31 22:59:59+00:00	2	' \nBf-stykowym typu Eltra 881.037.... \n<em>opcjonalnie</em> Centronics « V-24U lub \nDolny V-24, \nBufor danych'
926	opcjonalnie	Urząd Patentowy RP	2544244	2000-03-31 00:00:00+00:00	2000-03-31 23:59:59+00:00	5	' mocujący 44 ma wskaźnik sztywności nie mniejszy niż około 10 mg, a <em>opcjonalnie</em> jego wskaźnik sztywności'
927	opcjonalnie	Urząd Patentowy RP	2550886	2002-12-31 00:00:00+00:00	2002-12-31 23:59:59+00:00	5	'184 812 \n19 \nktóra wynosi najmniej około 2 mm, a <em>opcjonalnie</em> nie mniej niż około 4 mm. W następnych'
934	opcjonalnie	Urząd Patentowy RP	2545681	2000-10-31 00:00:00+00:00	2000-10-31 23:59:59+00:00	1	'opuszczające strefę 12a przechodząprzez strefę redukcyjną 14 i <em>opcjonalnie</em> zastosowany kocioł \n22'
978	opcjonalnie	Historia Informatyki	3475275	1990-01-31 23:00:00+00:00	1990-02-28 22:59:59+00:00	2	""" przeznaczonym do \npracy w sieci. <em>Opcjonalnie</em> można do niego dołączyć pamięć masową. \nW por'ównaniu z modelami 3"""
1014	opcjonalnie	Urząd Patentowy RP	2546228	2000-12-29 00:00:00+00:00	2000-12-29 23:59:59+00:00	4	' arkusza, by utworzyć drugi człon i uszczelnienie nie zagiętych \nkrawędzi. Proces ten może <em>opcjonalnie</em>'
1033	opcjonalnie	Urząd Patentowy RP	2532184	1995-03-31 00:00:00+00:00	1995-03-31 23:59:59+00:00	1	' analizatora sygnałów 4 oraz <em>opcjonalnie</em> mogą być przepisane z \npamięci operacyjnej analizatora 4 na dysk'
1034	opcjonalnie	Bałtycka Biblioteka Cyfrowa	391592	1999-01-01 00:00:00+00:00	1999-12-31 23:59:59+00:00	1	"'"". \n, ! \n  boczne drzwi, kontrolowaną strefę \n  zgniotu, oraz, <em>opcjonalnie</em>, ABS, \n  które zapewnią Wam'"
1083	opcjonalnie	Bałtycka Biblioteka Cyfrowa	428927	1999-01-01 00:00:00+00:00	1999-12-31 23:59:59+00:00	1	'- \n  trołowaną strefę zgniotu oraz \n  <em>opcjonalnie</em> ABS. Nowy Fiat Siena. \n  To uczucie zawsze będzie z Tobą'
1262	opcjonalnie	Urząd Patentowy RP	2550886	2002-12-31 00:00:00+00:00	2002-12-31 23:59:59+00:00	4	'. <em>Opcjonalnie</em>, wstawka nożna może być połączona bezpośrednio lub pośrednio z wyznaczonym obszarem powierzchni'
1310	opcjonalnie	Urząd Patentowy RP	2547975	2001-10-31 00:00:00+00:00	2001-10-31 23:59:59+00:00	1	' <em>opcjonalnie</em> ustawia jego wartość na „nieokreśloną”, może być użyta zamiast instrukcji pozornej, \nktóra'
1323	opcjonalnie	Podlaska Biblioteka Cyfrowa	282153	2002-01-01 00:00:00+00:00	2002-12-31 23:59:59+00:00	1	' biblioteki; \no 3 profesorów; \no 3 studentów. \n• Podkomisja (<em>opcjonalnie</em>): \no 1 dla kaŜdego rodzaju'
1329	opcjonalnie	Urząd Patentowy RP	2340830	2003-11-30 00:00:00+00:00	2003-11-30 23:59:59+00:00	1	' pobocznic y paskam i foli i odblaskowej , na d słupkie m były \n<em>opcjonalnie</em> mocowan e znak i drogowe'
1333	opcjonalnie	Urząd Patentowy RP	2541473	1998-12-31 00:00:00+00:00	1998-12-31 23:59:59+00:00	1	' prądowych 34, 36, 38, \n234, 236, 238 albo <em>opcjonalnie</em> końcówek do podzespołów alternatywnych, na przykład'
1400	opcjonalnie	Urząd Patentowy RP	2548021	2001-10-31 00:00:00+00:00	2001-10-31 23:59:59+00:00	2	', <em>opcjonalnie</em> z domieszką zasady w celu wychwycenia tworzącego się podczas reakcji kwasu. \n12 \n181947 \nZwiązki o'
1541	opcjonalnie	Urząd Patentowy RP	2539127	1998-01-30 00:00:00+00:00	1998-01-30 23:59:59+00:00	3	' całej linii podstawowej 12, <em>opcjonalnie</em> na części wzajemnie do siebie zwróconych \nwzajemnie powierzchni'
1555	opcjonalnie	Historia Informatyki	3474663	1973-10-31 23:00:00+00:00	1973-11-30 22:59:59+00:00	1	' dynamicznej obsługi buforów /<em>opcjonalnie</em>/ \nV hierarchii oprogramowania moduły dzielą si^ na taski. \nTaski są'
1556	opcjonalnie	Historia Informatyki	3474827	1994-11-13 23:00:00+00:00	1994-11-14 22:59:59+00:00	1	"' (<em>opcjonalnie</em> 500 MB lub 1,2 GB) \nStacja dyskietek. 3,5 "" \nPort równoległy \nPort SCSI \nMonitor VGA \nSieć'"
1557	opcjonalnie	Historia Informatyki	3475057	1976-12-31 23:00:00+00:00	1977-01-31 22:59:59+00:00	1	' pakietów HIPO - wstępny pakiet projektowy, szczegółowy pakiet \nprojektowy oraz <em>opcjonalnie</em> trzeci pakiet'
1634	opcjonalnie	Cyfrowy Dolny Śląsk	368785	1994-02-10 00:00:00+00:00	1994-02-10 23:59:59+00:00	2	'. \n\n\n- Ploter - <em>opcjonalnie</em>. \n- Drukarka graficma - <em>opcjonalnie</em>. \n- Klucz sprzętowy (ang. Hardware Lock'
1643	opcjonalnie	Urząd Patentowy RP	2551922	2003-08-29 00:00:00+00:00	2003-08-29 23:59:59+00:00	3	' utrzymującą dawki estrogenu i progestagenu, która to powierzchnia <em>opcjonalnie</em> zawiera także oznaczenia, które'
1655	opcjonalnie	Urząd Patentowy RP	2545850	2000-10-31 00:00:00+00:00	2000-10-31 23:59:59+00:00	3	'. na swojej krawędzi 36. <em>Opcjonalnie</em>, jeżeli kształt formy jest \nskomplikowany i zawiera struktury'
1656	opcjonalnie	Urząd Patentowy RP	2544244	2000-03-31 00:00:00+00:00	2000-03-31 23:59:59+00:00	3	' wartość z przedziału 1 do 89 stopni, a <em>opcjonalnie</em> jest w przedziale około \n1 do 44 stopnie. \nW kolejnych'
1657	opcjonalnie	Urząd Patentowy RP	2547883	2001-09-28 00:00:00+00:00	2001-09-28 23:59:59+00:00	3	' wodę warstwy od szczeliny i <em>opcjonalnie</em> przymocować te końce do zewnętrznej strony izolującej cieplnie'
1660	opcjonalnie	Urząd Patentowy RP	2548071	2001-10-31 00:00:00+00:00	2001-10-31 23:59:59+00:00	3	' materiałem nie-krystalicznym o dużej masie cząsteczkowej i <em>opcjonalnie</em> \nbarwnikiem, na której nałożona jest'
1661	opcjonalnie	Urząd Patentowy RP	2549659	2002-06-28 00:00:00+00:00	2002-06-28 23:59:59+00:00	3	' zawiera kilka heteroatomów, m o g ą być \none identyczne. \nZwiązki cykliczne <em>opcjonalnie</em> tworzą system'
1662	opcjonalnie	Urząd Patentowy RP	2550886	2002-12-31 00:00:00+00:00	2002-12-31 23:59:59+00:00	3	', biegnące w przybliżeniu równolegle do siebie, ale <em>opcjonalnie</em> elementy te m o gą też być \nrozmieszczone w'
1663	opcjonalnie	Urząd Patentowy RP	2550886	2002-12-31 00:00:00+00:00	2002-12-31 23:59:59+00:00	3	', a <em>opcjonalnie</em> nie \nwiększa niż około 70 procent całkowitej długości wyrobu. \nKażda wstawkowa sekcja'
1829	opcjonalnie	Bibliologiczna Biblioteka Cyfrowa	5394	2000-01-01 00:00:00+00:00	2000-12-31 23:59:59+00:00	1	' poczty elektronicznej, <em>opcjonalnie</em> poprzedzonego \nimieniem i/lub nazwisl<iem. Uwzględniono również'
1836	opcjonalnie	Urząd Patentowy RP	2530322	1994-07-29 00:00:00+00:00	1994-07-29 23:59:59+00:00	1	' przystosowany na jednym końcu do zapłonu \nwtórnego materiału wybuchowego środkiem zapłonowym, <em>opcjonalnie</em>'
1837	opcjonalnie	Urząd Patentowy RP	2539064	1998-01-30 00:00:00+00:00	1998-01-30 23:59:59+00:00	1	' \ntym , że filtrat, powstający podczas pierwszego etapu ultrafiltrowania, <em>opcjonalnie</em>, wraz z \nczęścią'
1899	opcjonalnie	Urząd Patentowy RP	2547283	2001-06-29 00:00:00+00:00	2001-06-29 23:59:59+00:00	2	' część \nchromu zawartego w stali nierdzewnej tworzy azotek chromu. <em>Opcjonalnie</em> jak o domieszkę w'
1901	opcjonalnie	Dziennik Ustaw Rzeczypospolitej Polskiej	1756758	1999-10-07 00:00:00+00:00	1999-10-07 23:59:59+00:00	2	' (~) Kontrolka Określona Gdzie (:l) \nrujące / wskaźnik symbolem ( l ) \n<em>opcjonalnie</em> symbolem (1) \n<em>opcjonalnie</em> (l'
1902	opcjonalnie	Dziennik Ustaw Rzeczypospolitej Polskiej	1756758	1999-10-07 00:00:00+00:00	1999-10-07 23:59:59+00:00	2	' Określona Gdzie (2) \nrujące / wskaźnik symbolem (I) \n<em>opcjonalnie</em> symbolem (I ) \n<em>opcjonalnie</em> (I ) \n(I) \nl'
2129	opcjonalnie	Urząd Patentowy RP	2544244	2000-03-31 00:00:00+00:00	2000-03-31 23:59:59+00:00	3	' \n(mg). <em>Opcjonalnie</em>, sztywność materiału, z jakiego są wykonane płaty boczne 90, wynosi nie \nwięcej niż'
2130	opcjonalnie	Urząd Patentowy RP	2544244	2000-03-31 00:00:00+00:00	2000-03-31 23:59:59+00:00	3	' <em>opcjonalnie</em> jest nie mniejsza niż około 1,5 cm. W innych \nprzykładach wykonania wyrobu według wynalazku'
2132	opcjonalnie	Urząd Patentowy RP	2545459	2000-08-31 00:00:00+00:00	2000-08-31 23:59:59+00:00	1	' \npigmenty \n<em>opcjonalnie</em> \nWytłaczarka ślimakowa ma stosunek długości do średnicy L/D wynoszący 8 i średnicę'
2133	opcjonalnie	Urząd Patentowy RP	2550886	2002-12-31 00:00:00+00:00	2002-12-31 23:59:59+00:00	3	'20 \n184 812 \nniż około 7 mm, a <em>opcjonalnie</em> jest nie większa niż około 1 mm. W kolejnym aspekcie'
2134	opcjonalnie	Urząd Patentowy RP	2550886	2002-12-31 00:00:00+00:00	2002-12-31 23:59:59+00:00	3	' użytkownika można też <em>opcjonalnie</em> przeznaczyć warstwę barierową 134. W arstwa barierowa 134 wstawki może być'
2135	opcjonalnie	Urząd Patentowy RP	2550886	2002-12-31 00:00:00+00:00	2002-12-31 23:59:59+00:00	3	' elastomerowymi elementami 68 może wynosić nie mniej niż około 3 mm, \na <em>opcjonalnie</em> może wynosić nie mniej niż'
2136	opcjonalnie	Urząd Patentowy RP	2550886	2002-12-31 00:00:00+00:00	2002-12-31 23:59:59+00:00	3	' zawierać, <em>opcjonalnie</em>, mieszankę różnych włókien, przy czym długości włókien w ramach wybranych wstęg'
2137	opcjonalnie	Urząd Patentowy RP	2550886	2002-12-31 00:00:00+00:00	2002-12-31 23:59:59+00:00	3	' podkładowej 30. <em>Opcjonalnie</em>, wstawka nożna może być przymocowana funkcjonalnie do skierowanej do wewnątrz'
2138	opcjonalnie	Urząd Patentowy RP	2551718	2003-06-30 00:00:00+00:00	2003-06-30 23:59:59+00:00	3	' <em>opcjonalnie</em> wykorzystywane. Na przykład, jak pokazano na fig. 12D, dwa gniazda pakietów baterii 515a i 515b są'
2185	opcjonalnie	Kujawsko-Pomorska Biblioteka Cyfrowa	588101	1996-01-01 00:00:00+00:00	1996-12-31 23:59:59+00:00	1	' GB każdy oraz \n- <em>opcjonalnie</em>: system chłodzenia lub dodatkowa szafka mieszcząca \nnawet systemy o'
2262	opcjonalnie	Biblioteka Cyfrowa Instytutu Łączności	2785	2001-01-01 00:00:00+00:00	2001-12-31 23:59:59+00:00	2	' centralnego systemu nadzoru (interfejs oferowany <em>opcjonalnie</em>, np. w rozwiązaniu IŁ [21]);\n\n–\n\nsygnalizacji'
2521	opcjonalnie	Biblioteka Cyfrowa Instytutu Łączności	1526685	1983-01-01 00:00:00+00:00	1983-12-31 23:59:59+00:00	1	' tę usłu~ \ngę. Służy do tego blok ruchu półautomatycznego dołączany <em>opcjonalnie</em> do pola komutacyjnego'
2525	opcjonalnie	Bibliologiczna Biblioteka Cyfrowa	5394	2000-01-01 00:00:00+00:00	2000-12-31 23:59:59+00:00	1	' adres podanyjest w deklaracjach NOTATION^) \n- tytuł, data wydania i wytwórnia \n- <em>opcjonalnie</em> muzycy'
2538	opcjonalnie	Historia Informatyki	3475275	1990-01-31 23:00:00+00:00	1990-02-28 22:59:59+00:00	1	' \nzapewnia sprawność rzedu 1.5 MIPS (1.5 miliona rozkazów na \nsekunde). <em>Opcjonalnie</em> modele tej serii mogą'
2581	opcjonalnie	Urząd Patentowy RP	2548146	2001-10-31 00:00:00+00:00	2001-10-31 23:59:59+00:00	2	' warstwę gumowanej tkaniny, posiadającej końce zakręcone wokół drutówek, oraz <em>opcjonalnie</em> inne elementy'
2598	opcjonalnie	Biblioteka Cyfrowa Politechniki Śląskiej	222136	1996-01-01 00:00:00+00:00	1996-12-31 23:59:59+00:00	2	' (<em>opcjonalnie</em>) i komunikacja łączem szeregowym (<em>opcjonalnie</em>).\n\nCały algorytm sterowania tyrystorów jest'
2613	opcjonalnie	Dolnośląska Biblioteka Cyfrowa	537362	2001-01-01 00:00:00+00:00	2001-12-31 23:59:59+00:00	1	' sprzężenie pojemnościowe i  \nindukcyjne (<em>opcjonalnie</em>) generatora wytwarzającego umowny sygnał testujący z'
2805	opcjonalnie	Bibliologiczna Biblioteka Cyfrowa	5620	1996-01-01 00:00:00+00:00	1996-12-31 23:59:59+00:00	1	', <em>opcjonalnie</em> dołączane do mikrokomputera. Bardzo przydatnym \n116 \n\n '
2808	opcjonalnie	Biblioteka Cyfrowa Instytutu Łączności	1526632	1986-01-01 00:00:00+00:00	1986-12-31 23:59:59+00:00	1	""". \n ~ Pamięć masowa: <em>opcjonalnie</em> 1 jednostka napędowa dysku ela— \nstycznego 360 Kbajtów, 5 1/4 calaf ' \n  3.5.h"""
2825	opcjonalnie	Komputer	3496923	1989-06-01 00:00:00+00:00	1989-06-30 23:59:59+00:00	1	', możliwość zastosowania koprocesora arytmetycznego, napędy 5,25” 720 KB itwardy dysk 40 MB, \n<em>Opcjonalnie</em>'
2826	opcjonalnie	Historia Informatyki	3474787	1977-12-31 23:00:00+00:00	1978-01-31 22:59:59+00:00	1	""" mikroprogroaóu (<em>opcjonalnie</em>). \nmvięć bperocvjna. _. ' ' ' \n~ zintegrduane kenoły. \n  . \n. \n  ov'logicznych 1"""
2827	opcjonalnie	Historia Informatyki	3474976	1973-04-10 23:00:00+00:00	1973-04-11 22:59:59+00:00	1	' minimalne stacji). \n<em>Opcjonalnie</em> j.s. może być wyposażona w pamięć buforową o pojemności \ndo 128 znaków 8'
2841	opcjonalnie	Urząd Patentowy RP	2550352	2002-09-30 00:00:00+00:00	2002-09-30 23:59:59+00:00	2	' \npowlekający, korzystnie polimer tworzący warstwę, ewentualnie środek utwardzający \ni <em>opcjonalnie</em> jeden lub'
2875	opcjonalnie	Urząd Patentowy RP	2551597	2003-05-30 00:00:00+00:00	2003-05-30 23:59:59+00:00	2	', pirol, \ntiofen, 9(10//)-akrydon, fenoksazyna, i fenotiazyna, z których każdy może być <em>opcjonalnie</em>'
2904	opcjonalnie	Urząd Patentowy RP	2551911	2003-08-29 00:00:00+00:00	2003-08-29 23:59:59+00:00	1	' <em>opcjonalnie</em> zawiera sprężynę, znamienny tym, że zębata prowadnica zawiera o b rzeża górne (11) i dolne (12'
