	word	lname	iid	duration_start	duration_end	occurences	highlighting
4	oscarowy	Małopolska Biblioteka Cyfrowa	698215	1999-02-07 00:00:00+00:00	1999-02-07 23:59:59+00:00	2	' \noraz do sponsorow transmisji telewizyjnej z prezentacji laureatow Oscara. \nAutorem <em>oscarowego</em> plakatu'
8	oscarowy	Śląska Biblioteka Cyfrowa	900537	2003-01-01 00:00:00+00:00	2003-12-31 23:59:59+00:00	7	' niedzielnej \ngali wciąż jeszcze nie są \npewni, czy ceremonia \n<em>oscarowa</em>, ktorej termin już dawno wyznaczono nie'
10	oscarowy	Śląska Biblioteka Cyfrowa	900457	2003-01-01 00:00:00+00:00	2003-12-31 23:59:59+00:00	8	' jeśli będzie wojna \n  O rganizatorzy zbliżającej \nsię szybko gali <em>oscarowej</em> \ntwierdzą, że przeprowadzą'
11	oscarowy	Wielkopolska Biblioteka Cyfrowa	816787	1985-01-01 00:00:00+00:00	1985-12-31 23:59:59+00:00	1	' Hendrykowski - Hollywood a kino światowe (zagraniczne \nfilmy z Oscarem) . \n<em>Oscarowe</em> założenia i kryteria'
15	oscarowy	Śląska Biblioteka Cyfrowa	901153	2002-01-01 00:00:00+00:00	2002-12-31 23:59:59+00:00	9	"' Plerscleni"" jest najwlQkszct \nfaworytkct zblizajctcej się <em>oscarowej</em> gall. \nObraz nominowano do nagrod az w 13'"
16	oscarowy	Śląska Biblioteka Cyfrowa	901147	2002-01-01 00:00:00+00:00	2002-12-31 23:59:59+00:00	8	""" <em>oscarowych</em> najlepszij aktorkq zeszlego \nroku Amerykanski Instytut FilrTlO\\'<Y (AFt) agiosil Sissy Spacek, za"""
17	oscarowy	Śląska Biblioteka Cyfrowa	909917	2000-01-01 00:00:00+00:00	2000-12-31 23:59:59+00:00	7	' \nkilkudziesięciu złotych statuetek \n- zbliżająca się <em>oscarowa</em> noc \nbędzie finałem najbardziej \npechowego w historii'
19	oscarowy	Wielkopolska Biblioteka Cyfrowa	816787	1985-01-01 00:00:00+00:00	1985-12-31 23:59:59+00:00	2	'. Dlatego też <em>Oscarowe</em> zmagania przez długi czas pozostawały wewnętrzną sprawą Amerykanów i okazjonalnie'
22	oscarowy	Małopolska Biblioteka Cyfrowa	592091	2000-04-09 00:00:00+00:00	2000-04-09 23:59:59+00:00	3	"' przedwiosenne bo ""Barwy tropiku"".., \n  \':- \n  - \n  - \n  Oscary bez zaskoczeń \n  <em>Oscarowa</em> noc potwierdziła, że'"
25	oscarowy	Śląska Biblioteka Cyfrowa	909912	2000-01-01 00:00:00+00:00	2000-12-31 23:59:59+00:00	8	' mszy w KorazIm. \n  <em>Oscarowa</em> wojna w Ameryce \n  Stało się to co zapowiadaliśmy wczoraj. Kolejna burza'
27	oscarowy	Śląska Biblioteka Cyfrowa	899146	2002-01-01 00:00:00+00:00	2002-12-31 23:59:59+00:00	6	'18 \n  KUlTURA \n  www.naszemlasto.pl \n  Weekend Z <em>oscarowymi</em> film ami \n  I \n  . , \nlen \n  . \nIn \n  O'
33	oscarowy	Cyfrowy Dolny Śląsk	366927	2003-01-01 00:00:00+00:00	2003-12-31 23:59:59+00:00	1	'  \nkońca kadencji - karierę \nradnego. \n2 <em>Oscarowa</em> \nKapituła \nStanęło na naszym.  \nKapituła, a nie Rada'
35	oscarowy	Wielkopolska Biblioteka Cyfrowa	816787	1985-01-01 00:00:00+00:00	1985-12-31 23:59:59+00:00	2	""" reprezentowana w <em>Oscarowych</em> werdyktach, ale \nw takiej mierze i W takich starannie W_VV»/aŻOI1}.'(Żh proporcjach"""
36	oscarowy	Wielkopolska Biblioteka Cyfrowa	816787	1985-01-01 00:00:00+00:00	1985-12-31 23:59:59+00:00	2	"' w rolę \n„filmu <em>Oscarowego</em>"". Inny co prawda był sens tego pojęcia w roku 1957, \nkiedy wygrywała LA'"
37	oscarowy	Wielkopolska Biblioteka Cyfrowa	816787	1985-01-01 00:00:00+00:00	1985-12-31 23:59:59+00:00	2	"' aksjologiczna"". <em>Oscarowe</em> werdykty - będące za \nkażdym razem wynikiem statystycznego kompromisu, za sprawą'"
43	oscarowy	Małopolska Biblioteka Cyfrowa	594326	2000-11-05 00:00:00+00:00	2000-11-05 23:59:59+00:00	1	' nigdy nie brakuje wśród \ngwiazd przechadzających się po czerwonych \ndywanach w trakcie gali <em>oscarowej</em>'
47	oscarowy	Małopolska Biblioteka Cyfrowa	597828	1999-03-21 00:00:00+00:00	1999-03-21 23:59:59+00:00	3	' jest wielkim nieobecnym \nw tegorocznych <em>oscarowych</em> szrankach. Z zainteresowaniem oczekuje si  natomiast'
49	oscarowy	Radomska Biblioteka Cyfrowa	82542	2000-01-01 00:00:00+00:00	2000-12-31 23:59:59+00:00	4	' \ndolarów. Trafił bowiem na śmietniku na niezwykłe znalezisko: skradzione na dwa \ntygodnie przed <em>oscarową</em>'
56	oscarowy	Małopolska Biblioteka Cyfrowa	593403	1996-05-12 00:00:00+00:00	1996-05-12 23:59:59+00:00	3	"'), · \n...... :,,, \n  ,., \n  .,  \n  }, ..\\ : \n  ,\\ ,I\' \n  ,.,,- \n, "" \n  J _  .   \n  .... \' \n  <em>Oscarowe</em> menu \nPo ceremonii rozdania Oscarow odbyla si'"
57	oscarowy	Śląska Biblioteka Cyfrowa	899589	2002-01-01 00:00:00+00:00	2002-12-31 23:59:59+00:00	6	' uroczystosc \n<em>oscarowa</em> odbywala 51., w clenlu \nwrzesnlowego zamachu terrorystycznego na USA. Nawi1}zywal do'
58	oscarowy	Śląska Biblioteka Cyfrowa	902020	1999-01-01 00:00:00+00:00	1999-12-31 23:59:59+00:00	3	"' wśród nominacji <em>oscarowych</em>. \n  \'""""O \n  . \n  tym idzie również na polską część ekipy. \nNagrodzono'"
62	oscarowy	Śląska Biblioteka Cyfrowa	900422	2003-01-01 00:00:00+00:00	2003-12-31 23:59:59+00:00	3	""" \n  .. \n  .. \n    \n  , \n\\ \n  . \n  -- \n   ... \n  <em>Oscarowy</em> \nskandalista \n  , \n  Studio Miramax sfInansuje produkcję nowego filmu Michaela \nMoore'a"""
64	oscarowy	Śląska Biblioteka Cyfrowa	866373	2003-01-01 00:00:00+00:00	2003-12-31 23:59:59+00:00	3	'K tokolwiek ogl,!dal transmisjt: \nz <em>oscarowej</em> gali (na zywo, b,!di \nz poslizgiem) nie m6g1 nie'
66	oscarowy	Śląska Biblioteka Cyfrowa	902257	2001-01-01 00:00:00+00:00	2001-12-31 23:59:59+00:00	2	' za postać dr. Wllbura Larcha. Przeciwnicy aborcji pikietowali dom aktora w czasie <em>oscarowej</em>'
68	oscarowy	Śląska Biblioteka Cyfrowa	866315	2003-01-01 00:00:00+00:00	2003-12-31 23:59:59+00:00	2	' roku) \nmial na koncie nominacj  do \nOscara. Nieco pOiniej nominacja \n<em>Oscarowa</em> spotkala talde Idziaka'
70	oscarowy	Archiwum Miesięcznika Znak	1447429	1995-12-01 00:00:00+00:00	1995-12-31 23:59:19+00:00	1	' ich zwiqzek. Wielki \n<em>Oscarowy</em> sukces szlachetnej w tonie LiSly Schindlera (1994) Stevena \nSpielberga'
71	oscarowy	Archiwum Miesięcznika Znak	1447267	2001-08-01 00:00:00+00:00	2001-08-31 23:59:19+00:00	1	"' gwiazd popu, dia klasyki i dia neoawangardy, dia kina \n""<em>oscarowego</em>"" i ""alternatywnego"". 0 kazdym z tych'"
75	oscarowy	Małopolska Biblioteka Cyfrowa	688747	2003-01-01 00:00:00+00:00	2003-12-31 23:59:59+00:00	1	' kobiety, trzy wielkie aktorki i trzy wspaniale kreacje w filmie, który jest <em>oscarowym</em> pewniakiem. I może'
77	oscarowy	Śląska Biblioteka Cyfrowa	912269	1999-01-01 00:00:00+00:00	1999-12-31 23:59:59+00:00	3	' przygotowaną piękną \nsuknię, ale czegoś brakowało. Sty- \n   .. \n  Na trzy tygodnie przed <em>oscarową</em> galą w'
78	oscarowy	Śląska Biblioteka Cyfrowa	900655	2003-01-01 00:00:00+00:00	2003-12-31 23:59:59+00:00	3	'Meryl Streep mole stracić te! \ndwie <em>oscarowe</em> nominacje. \n  FLESZ \n  I \n, \n  f \n  \n  Takle stroje na'
79	oscarowy	Małopolska Biblioteka Cyfrowa	643079	1998-03-22 00:00:00+00:00	1998-03-22 23:59:59+00:00	3	', \nprzyznanego za najlepszą rolę drugoplanową. \n<em>Oscarowy</em> czempion to Walt Disney, który aż \n25-krotnie odbierał'
81	oscarowy	Śląska Biblioteka Cyfrowa	899213	2003-01-01 00:00:00+00:00	2003-12-31 23:59:59+00:00	2	' <em>oscarowych</em> w 75-letniej historii \nzłotej statuetki. Wyglądało tak jakby ten największy bankiet show-businessu'
83	oscarowy	Małopolska Biblioteka Cyfrowa	699956	2003-08-31 00:00:00+00:00	2003-08-31 23:59:59+00:00	1	"' \n<em>Oscarowa</em>"" . \n. Rodzinne zawody pływackie na basenie w Centrum Wodnym ""Camena"" . \n. Prezentacja spektakli'"
86	oscarowy	Cyfrowy Dolny Śląsk	374073	1995-01-01 00:00:00+00:00	1995-12-31 23:59:59+00:00	1	"'\n„Przystanek Alaska""?\n3. Kto był autorem <em>oscarowej</em> piosenki do „Króla Lwa""?\n*\nWśród prawidłowych odpowiedzi'"
90	oscarowy	Śląska Biblioteka Cyfrowa	902665	2002-01-01 00:00:00+00:00	2002-12-31 23:59:59+00:00	3	""" angielszczyzna od razu dobrze sie kojarzy. <em>Oscarowo</em>, \nfilmowo i dumnie.  nCj nazwiskowych przerrry'Slen"""
92	oscarowy	Małopolska Biblioteka Cyfrowa	779123	1993-04-25 00:00:00+00:00	1993-04-25 23:59:59+00:00	2	"'. Gdy 20 stycznia w dniu \njego urodzin zadzwonił zza oceanu telefon \nz ży czeniami i nowiną ""<em>oscarową</em>'"
94	oscarowy	Śląska Biblioteka Cyfrowa	900522	2003-01-01 00:00:00+00:00	2003-12-31 23:59:59+00:00	1	'. \nRoman Polański próbował aż \ncztery razy. \n  <em>Oscarowa</em> gala > 16-17 \n   \n '
100	oscarowy	Małopolska Biblioteka Cyfrowa	755773	1996-03-24 00:00:00+00:00	1996-03-24 23:59:59+00:00	2	' 2, \nGhost, Pretty Woman i Powrot Batmana. W latach 80 powodzenie takich <em>oscarowych</em> filmow j ak: Rain'
101	oscarowy	Wielkopolska Biblioteka Cyfrowa	816787	1985-01-01 00:00:00+00:00	1985-12-31 23:59:59+00:00	1	'. Nie pozostaje to bez wplywu na dalszą <em>Oscarową</em> karierę utworów spoza angielskiego kręgu językowego'
102	oscarowy	Wielkopolska Biblioteka Cyfrowa	816787	1985-01-01 00:00:00+00:00	1985-12-31 23:59:59+00:00	1	' KOLORZE. <em>Oscarowy</em> sukces dzieło Annauda zawdzięcza w znacznej mierze talentom handlowo-reklamowym swego'
106	oscarowy	Cyfrowy Dolny Śląsk	374065	1995-01-01 00:00:00+00:00	1995-12-31 23:59:59+00:00	1	' wtedy, gdy popadnie\non w konflikt z prawem. Za kamerą mamy <em>Oscarowego</em>\nniegdyś reżysera kameralnych'
110	oscarowy	Biblioteka w Raciborzu	1691443	1916-01-01 00:00:00+00:00	1916-12-31 23:59:59+00:00	1	""" i i , \n- -iPo obuittumch „ \nstwo iwvtrwaioććinmvch .woislunry \n-. ' ązieńpeien :<em>oscarową</em> Li . \nce"""
114	oscarowy	Małopolska Biblioteka Cyfrowa	770916	1999-10-17 00:00:00+00:00	1999-10-17 23:59:59+00:00	2	' filmow w szranki kolejnej - juz 72. edycji <em>oscarowej</em>. Muszą \ndotrzec do Hollywood do 11istopada'
115	oscarowy	Małopolska Biblioteka Cyfrowa	625307	1999-04-04 00:00:00+00:00	1999-04-04 23:59:59+00:00	2	"' <em>oscarowych</em> faworytów. Ale niewielu podejrzewato, ze nagrodzony \nwczesniej kilkoma Ztotymi Globami ""Zakochany'"
116	oscarowy	Wielkopolska Biblioteka Cyfrowa	816787	1985-01-01 00:00:00+00:00	1985-12-31 23:59:59+00:00	1	"' tylko jurorzy, ale i sami zainteresowani także mają pewną wizję „filmu <em>Oscarowego</em>"" i na niej opierają'"
117	oscarowy	Wielkopolska Biblioteka Cyfrowa	816787	1985-01-01 00:00:00+00:00	1985-12-31 23:59:59+00:00	1	' początku spełnia <em>Oscarowy</em> konkurs na najlepszy film obcojęzyczny, polega na asymilowaniu wybranych'
118	oscarowy	Biblioteka Cyfrowa Uniwersytetu Warmińsko-Mazurskiego	230696	1937-01-01 00:00:00+00:00	1937-12-31 23:59:59+00:00	1	'Str. l78 \n  BABTNIK ?<em>oscarowy</em> \n  :i Sprawozdanie Komisji Rewizyjnej \nzłożone przez p. Drozdowskiego'
121	oscarowy	Śląska Biblioteka Cyfrowa	901923	1998-01-01 00:00:00+00:00	1998-12-31 23:59:59+00:00	2	"' - \nBowman zrealizował około 25 \nodcinków \n""Z Archiwum \nX"". Film zapewne nie <em>oscarowy</em>, nie znajdzie się wśród'"
122	oscarowy	Śląska Biblioteka Cyfrowa	900707	2003-01-01 00:00:00+00:00	2003-12-31 23:59:59+00:00	2	' po raz ósmy 76. gala <em>oscarowa</em> odbędzie się 29 lutego. \nNominacje <em>oscarowe</em> poznamy 27 \nstycznia'
125	oscarowy	Małopolska Biblioteka Cyfrowa	4076682	2003-01-01 00:00:00+00:00	2003-12-31 23:59:59+00:00	1	'WYJĄTKÓW \nPREZENT \nliIm„jVCi> \n<em>Oscarowa</em> klasyka \nświatowego kina \nfilm FORTEPIAN \nna VCD \nW'
127	oscarowy	Śląska Biblioteka Cyfrowa	900522	2003-01-01 00:00:00+00:00	2003-12-31 23:59:59+00:00	2	"' skomentował trzy Oscary dla ""Pianisty"" Roman Polański, \nktóry nie mógł był pojechać na <em>oscarową</em> galę do Los'"
129	oscarowy	Śląska Biblioteka Cyfrowa	900475	2003-01-01 00:00:00+00:00	2003-12-31 23:59:59+00:00	2	"'. \nBezsprzecmie <em>oscarowym</em> faworylem w tym roku jesl ""Chicago"" nominowane al w 13 kategoriach_ Gdyby ""Chicago'"
130	oscarowy	Bałtycka Biblioteka Cyfrowa	429019	1998-01-01 00:00:00+00:00	1998-12-31 23:59:59+00:00	2	' w <em>oscarowych</em> rozgrywkach. - W roku uhiegłym zwyciężył przecież, (zdobywając 9 Oscarów) słabszy'
131	oscarowy	Cyfrowy Dolny Śląsk	366927	2003-01-01 00:00:00+00:00	2003-12-31 23:59:59+00:00	2	'. min: \n-9°C \nWiatr ptd-wsch \n2ro/s \n<em>Oscarowa</em> \nKapituła \nNagrody Miasta Oleśnicy \nbędzie przyznawać'
134	oscarowy	Małopolska Biblioteka Cyfrowa	617282	2000-04-23 00:00:00+00:00	2000-04-23 23:59:59+00:00	1	' dostanie premii · kulturalno-oświatowy · \npodwodny kapitan Jacąues · <em>Oscarowa</em> \ngwiazda Whoopi · ma psa i'
135	oscarowy	Wojewódzka i Miejska Biblioteka Publiczna im. dr. Witolda Bełzy w Bydgoszczy	1517420	1928-01-11 00:00:00+00:00	1928-01-11 23:59:19+00:00	1	""" %%%33 %%%—$.; ' \n  Dula H Skiclub. br. o na w mrchhm p; \na! <em>Oscarowe</em>; nr. :: [skład inn. \n  %:iurafa"""
139	oscarowy	Śląski Klub Fantastyki	2333996	2003-01-01 00:00:00+00:00	2003-12-31 23:59:59+00:00	1	' \nprzygotowane było pięknie, jak gala <em>Oscarowa</em>. Po bokach sceny stały dwie dwumetrowe, złociste kopie statuetek'
140	oscarowy	Małopolska Biblioteka Cyfrowa	631575	2000-12-10 00:00:00+00:00	2000-12-10 23:59:59+00:00	1	' polska sztuka zaistniala po- si  do konkurencji <em>oscarowej</em> filmy, kt6za Iokalnymi srodowiskami. Bo lokal'
146	oscarowy	Cyfrowy Dolny Śląsk	366957	2003-01-01 00:00:00+00:00	2003-12-31 23:59:59+00:00	2	' nowych \numiejętności. \nBeata Burdka, \nDorota Furman \nW kinie grają \nPrzed <em>Oscarową</em> nocą \nJuż się'
148	oscarowy	Małopolska Biblioteka Cyfrowa	743650	1999-10-10 00:00:00+00:00	1999-10-10 23:59:59+00:00	2	' <em>oscarowej</em>! U zrodla, czyli w hollywoodzkiej Akademii Filmowej, dowiaduj  si , \nze uroczystose wn;czania'
149	oscarowy	Śląska Biblioteka Cyfrowa	901170	2002-01-01 00:00:00+00:00	2002-12-31 23:59:59+00:00	2	"' Malinek"" zostanie ogloszona oficjalnie lllutego, na dzien przez odtajnieniem listy nominacji \n<em>oscarowych</em>'"
150	oscarowy	Śląska Biblioteka Cyfrowa	901152	2002-01-01 00:00:00+00:00	2002-12-31 23:59:59+00:00	2	"' ""Zlotych Globow"" \nto najczQsclej pewnl kandydacl do nomlnacJI <em>oscarowych</em>. \n""Z!ote Globy\'2001. uroczyScie wr'"
153	oscarowy	Biblioteka Cyfrowa Uniwersytetu Wrocławskiego	141612	1921-12-03 00:00:00+00:00	1921-12-03 23:59:59+00:00	1	' on boo \n  _ »<em>oscarową</em> m. m, Rottotvlç'
154	oscarowy	Małopolska Biblioteka Cyfrowa	628756	1998-11-22 00:00:00+00:00	1998-11-22 23:59:59+00:00	1	', Gliwice; Bogusła- \n14 imię <em>oscarowej</em> pani 10 hala, h w niej 25, 25, 25, wa Heliasz, Bydgoszcz; Lech \n14'
155	oscarowy	Bałtycka Biblioteka Cyfrowa	394953	2000-01-01 00:00:00+00:00	2000-12-31 23:59:59+00:00	1	' plaże w gdyńskim teatrze, pelplińskie klimaty \nPasierbowych konkursów <em>Oscarowe</em> Grassjady, Nowakowe'
158	oscarowy	Małopolska Biblioteka Cyfrowa	580032	1999-10-31 00:00:00+00:00	1999-10-31 23:59:59+00:00	1	' artykulem 9 tkliwosc + czulostkowosc nina Wojewoda, Oswi cim; Kry- \n15 wyrownal <em>Oscarowy</em> 14 dzwi czy w'
160	oscarowy	Österreichische Nationalbibliothek	1693593	1824-05-23 00:00:00+00:00	1824-05-23 23:59:19+00:00	1	""" i o a r y. Cino bham \n<em>Oscarowej</em>'. ;his za (od. a wiecu. e1 osL u.6 łie. o :S.5 lloyd. kolumny. mp4"""
162	oscarowy	Małopolska Biblioteka Cyfrowa	643079	1998-03-22 00:00:00+00:00	1998-03-22 23:59:59+00:00	1	' wspomnianego Roosevelt Hotel. Uczestniczyło 250 osób, \nktóre zapłaciły po 10 dolarów. \nPoczątkowo <em>oscarowe</em>'
165	oscarowy	Bałtycka Biblioteka Cyfrowa	1303773	2000-04-01 00:00:00+00:00	2000-04-02 23:59:59+00:00	4	'? \n  Okazuje się, że niektóre gwiazdy \nwcale nie darzą zbytnim poważaniem \n<em>oscarowego</em> staruszka. Piosenkarka'
167	oscarowy	Cyfrowy Dolny Śląsk	366997	2003-01-01 00:00:00+00:00	2003-12-31 23:59:59+00:00	2	' pacjenta. Takich  \nprzykładów jest jeszcze wiele, ale to wcale \nnie znaczy, że przed-<em>oscarowe</em>'
168	oscarowy	Śląska Biblioteka Cyfrowa	901843	1999-01-01 00:00:00+00:00	1999-12-31 23:59:59+00:00	2	"' \n  <em>Oscarowy</em> \nzawrót głowy \n  ""Ognlem I mleczem"" Jerzego \nHoffmana to drugi obok ""Pana \nTadeusza"" polski film'"
169	oscarowy	Śląska Biblioteka Cyfrowa	901043	2002-01-01 00:00:00+00:00	2002-12-31 23:59:59+00:00	2	', \n  przez dziennikarzy-specjalistow \nwalczij potem 0 <em>oscarowe</em> statuetki. Pflypomnijmy, ze w zesz/ym roku'
170	oscarowy	Śląska Biblioteka Cyfrowa	899583	2002-01-01 00:00:00+00:00	2002-12-31 23:59:59+00:00	2	"'. _ \n  Zaglqdanie w przyszfosc \nor(   ..... .. - \' \n.  """"   \n-- \n  I I \n  , \n  .  \\, \n  niedzielnej gali <em>oscarowej</em>'"
171	oscarowy	Śląska Biblioteka Cyfrowa	900524	2003-01-01 00:00:00+00:00	2003-12-31 23:59:59+00:00	2	' los Angeles rozpocznie się kolejna <em>oscarowa</em> gala. Od siedemdziesięciu pięciu lat \norganizowana'
183	oscarowy	Małopolska Biblioteka Cyfrowa	594119	2000-07-23 00:00:00+00:00	2000-07-23 23:59:59+00:00	1	"""' ego na podobieństwo <em>oscarowej</em> ceremonii - stanowi trofeum dla laureatów festiwalu. Wręczana od pięciu"""
185	oscarowy	Bałtycka Biblioteka Cyfrowa	1562545	2002-04-16 00:00:00+00:00	2002-04-16 23:59:59+00:00	3	"' \nUSA i myślami są już przy następnym filmie. Natomiast rozreklamowana <em>oscarową</em> nominacją \n""Męska sprawa'"
186	oscarowy	Śląska Biblioteka Cyfrowa	902071	1999-01-01 00:00:00+00:00	1999-12-31 23:59:59+00:00	3	'. <em>Oscarowym</em> reżyserem został natomiast już po raz \nkolejny Steven Spielberg, ostatnio \nściskał w ręku Oscara w'
190	oscarowy	Bałtycka Biblioteka Cyfrowa	420893	2003-03-25 00:00:00+00:00	2003-03-25 23:59:59+00:00	1	"')ianista"", To jedna \nz trLech statuetek, które tilm otrl.ymul IJodcl.uS <em>oscarowej</em>  uli. Romun Polański nie'"
191	oscarowy	Małopolska Biblioteka Cyfrowa	765889	2000-02-13 00:00:00+00:00	2000-02-13 23:59:59+00:00	1	"' Akadelnii Filrnowej. Już słychać, że ów plakat, dokulnentujący ""Inagiczną "" ceremonię <em>oscarową</em> roku'"
192	oscarowy	Małopolska Biblioteka Cyfrowa	656844	1998-04-12 00:00:00+00:00	1998-04-12 23:59:59+00:00	1	' wcześniej \nprzez 21 lat pracującemu w policji \nLos Angeles. W zapewnieniu bezpieczeństwa <em>oscarowej</em> imprezie'
194	oscarowy	Śląska Biblioteka Cyfrowa	899596	2002-01-01 00:00:00+00:00	2002-12-31 23:59:59+00:00	1	', ktora \nod dzie sie w przeddzieri <em>oscarowej</em> gali, 23 marca'
196	oscarowy	Cyfrowy Dolny Śląsk	368440	2002-01-01 00:00:00+00:00	2002-12-31 23:59:59+00:00	1	'. 3 sierpnia o \n21 w kinie letnim zobaczymy  \n<em>oscarowego</em> Gladiatora Ridleya  \nScotta. Przeszkodzić nam'
198	oscarowy	Śląska Biblioteka Cyfrowa	882336	1999-01-01 00:00:00+00:00	1999-12-31 23:59:59+00:00	2	"', wartości i \nświatopogląd. <em>Oscarowy</em> \n""Sklep przy głównej ulicy"" J. \nKadara i E.Kłosa porusza  \nproblemy'"
201	oscarowy	Małopolska Biblioteka Cyfrowa	583266	2000-11-12 00:00:00+00:00	2000-11-12 23:59:59+00:00	1	' \nStormy Monday, reż. Mike \nFiggis, Wielka Brytania, 1987. \nDebiut kinowy twórcy \npóźniejszego,<em>oscarowego</em>'
202	oscarowy	Małopolska Biblioteka Cyfrowa	638957	1928-09-23 00:00:00+00:00	1928-09-23 23:59:59+00:00	1	'\nKurek w Poroninie. 4572g\n6033 k\nRENAULT\nSAMOCHODY 6SOS9WE, <em>OSCAROWE</em>\nPOŻARNICZE, SANITARNE, TRAKTORY'
203	oscarowy	Małopolska Biblioteka Cyfrowa	688033	2000-03-19 00:00:00+00:00	2000-03-19 23:59:59+00:00	1	' szpaltach zaprezentowalisn1Y <em>oscarowy</em> plakal roku 2000 (wr<;czanie statuetek w niedziel<; 26 marca). \nCena'
204	oscarowy	Małopolska Biblioteka Cyfrowa	766154	1996-04-30 00:00:00+00:00	1996-04-30 23:59:59+00:00	1	'<em>OSCAROWE</em> SZALEŃSTWO \nad ranem w ostatni wtorek marca cierpiący na b zsenno   mogl  wysłuchać w'
207	oscarowy	Kujawsko-Pomorska Biblioteka Cyfrowa	561585	1998-01-01 00:00:00+00:00	1998-01-31 23:59:59+00:00	1	'  rodkami. Takie bylo <em>Oscarowe</em> \nTango. ]ednak w USA wykorzystuj c poetyk  rozwini tego tam wideo-artu i'
209	oscarowy	Śląska Biblioteka Cyfrowa	900765	2003-01-01 00:00:00+00:00	2003-12-31 23:59:59+00:00	1	"' do nich. ""Ostatni samurąj"" jest uwaLany za jednego z \nfaworytów do <em>oscarowych</em> nagród. \nNa polskich'"
210	oscarowy	Śląska Biblioteka Cyfrowa	900455	2003-01-01 00:00:00+00:00	2003-12-31 23:59:59+00:00	1	"', \nzabawny prezenter <em>oscarowych</em> ceremonii. \nDo polskich kin wchodzi naj nowszy film \nCrystala ""Nawrót'"
212	oscarowy	Małopolska Biblioteka Cyfrowa	631575	2000-12-10 00:00:00+00:00	2000-12-10 23:59:59+00:00	1	' \nay dewocyjne zrz dzenie. Prawdziwq ozdob q tego \ndzietka jest jednak <em>oscarowa</em> rola Michaela Caina'
215	oscarowy	Tarnobrzeska Biblioteka Cyfrowa	5986	2001-01-01 00:00:00+00:00	2001-12-31 23:59:59+00:00	1	' - projekcjc dla najmlodszych. W kazdy \nponicdzialek lipca projekcje filmow <em>oscarowych</em>, a w kazdy poniedzialek'
216	oscarowy	Śląska Biblioteka Cyfrowa	900776	2003-01-01 00:00:00+00:00	2003-12-31 23:59:59+00:00	1	'. Ananova, \nszyhko okazalo się jednak, że to \nstacja M1V zrobila psikus <em>oscarowej</em> aktorce, kręcąc przy'
221	oscarowy	Świętokrzyska Biblioteka Cyfrowa	305116	1992-07-07 00:00:00+00:00	1992-07-07 23:59:59+00:00	2	' \npiakaty z filmu „Terminator 2”. \n  <em>OSCAROWE</em> POLONICA \n  Pierwszym Polakiem zdobywcą Oscara był Bronislaw'
222	oscarowy	Śląska Biblioteka Cyfrowa	900450	2003-01-01 00:00:00+00:00	2003-12-31 23:59:59+00:00	1	"' <em>oscarowego</em> po roli w ""Pięknym umyśle"". Po wydarzeniach z 11 września jury AMPAS przyznaly złotą statuetkę'"
223	oscarowy	Kujawsko-Pomorska Biblioteka Cyfrowa	563654	1996-01-01 00:00:00+00:00	1996-01-31 23:59:59+00:00	1	'- \n  42 \n  znanie mu nagrody Amerykanskiego Stowarzyszenia Operator6w (ASC). W kategorii \n<em>Oscarowej</em>'
227	oscarowy	Małopolska Biblioteka Cyfrowa	614548	1998-07-19 00:00:00+00:00	1998-07-19 23:59:59+00:00	1	"' z <em>oscarowym</em> ""LePiej bye n;e moze\'? Okozuje si  jednak, ze dyskretne nowiqzonio w scenogra i'"
234	oscarowy	Śląska Biblioteka Cyfrowa	900449	2003-01-01 00:00:00+00:00	2003-12-31 23:59:59+00:00	1	"'"". Nagroda Tony, Em  j kilka nominacji <em>oscarowych</em>. \n  48. urodziny świętuje Bruce Willis (wł. \nWalter Bruce'"
235	oscarowy	Śląska Biblioteka Cyfrowa	900693	2003-01-01 00:00:00+00:00	2003-12-31 23:59:59+00:00	1	"'"" i <em>oscarowy</em> ""Helikopter w \nogniu"", do którego Ldjęcia realizował \nPolak Sławomir Idl\'iak. List  101'"
236	oscarowy	Śląska Biblioteka Cyfrowa	900489	2003-01-01 00:00:00+00:00	2003-12-31 23:59:59+00:00	1	' \n  Niewątpliwie ten film lo <em>oscarowy</em> \nfaworyt. Nominowano go oz w 13 \nkalegoriach! Jest rok 1929. Chicago'
237	oscarowy	Podlaska Biblioteka Cyfrowa	258878	1859-01-01 00:00:00+00:00	1859-12-31 23:59:59+00:00	1	"'. rzabywającego, oraz 2. Roche <em>Oscarowy</em> Menoubińską, iyńówkę, przckupkçi""bułck z M. Ealwaryi \n  rzedgiwymiarem'"
243	oscarowy	Śląska Biblioteka Cyfrowa	902646	2001-01-01 00:00:00+00:00	2001-12-31 23:59:59+00:00	2	"' cyklu prezentacji czeskiego kina ""<em>oscarowego</em>"". W programie dwa filmy: ""Pali się mOJa panno"" Milosa'"
244	oscarowy	Bałtycka Biblioteka Cyfrowa	421309	2003-02-22 00:00:00+00:00	2003-02-23 23:59:59+00:00	2	"' prawdopodobnie zwycięzcą <em>oscarowej</em> nocy. \nDrugie miejsce w rankingu zajmuje film ""Gangi Nowego Jorku"" \n(dziesięć'"
245	oscarowy	Wielkopolska Biblioteka Cyfrowa	3278873	1998-12-24 00:00:00+00:00	1998-12-24 23:59:59+00:00	1	"' Amy, znana \nnam z <em>Oscarowej</em> roli w “Fortepianie"". I tyle. Mało zdarza się \nostatnio takich filmów, a'"
246	oscarowy	Śląska Biblioteka Cyfrowa	900474	2003-01-01 00:00:00+00:00	2003-12-31 23:59:59+00:00	1	"'"" Slephana Daldry\'ego otrzymala już niedawno Zloty Glob i \njesl jedną z glownych faworytek \n<em>oscarowych</em>'"
247	oscarowy	Śląska Biblioteka Cyfrowa	900522	2003-01-01 00:00:00+00:00	2003-12-31 23:59:59+00:00	1	' \n  W internetowej sondLie \nna temat najlepszych \nsukienek wszechczasów z ceremonii <em>oscarowych</em>, \nwygrała'
248	oscarowy	Małopolska Biblioteka Cyfrowa	611614	2000-02-27 00:00:00+00:00	2000-02-27 23:59:59+00:00	1	' <em>oscarową</em> uroczystość. Z Paryża przysłano jej \ni dziewczynkom cztery toalety - o wartości ponad 20 tysięcy'
250	oscarowy	Małopolska Biblioteka Cyfrowa	656844	1998-04-12 00:00:00+00:00	1998-04-12 23:59:59+00:00	1	"' scenariusz do ""Listonosza"" Kevina \nCostnera - filmu ogłoszonego w przeddzień <em>oscarowej</em> uroczystości'"
252	oscarowy	Małopolska Biblioteka Cyfrowa	743124	1998-09-27 00:00:00+00:00	1998-09-27 23:59:59+00:00	1	' Spielberga \nnie wzruszyl ostatnio Amerykanskiej Akademii Filmowej i przepadl na <em>oscarowym</em> targowisku. \n] ego'
254	oscarowy	Małopolska Biblioteka Cyfrowa	589305	1992-03-15 00:00:00+00:00	1992-03-15 23:59:59+00:00	1	"' w kilku miejscach. A jednak \n- po zabezpieczeniu ręki - udałem się na uroczystość ""<em>Oscarową</em>'"
255	oscarowy	Śląska Biblioteka Cyfrowa	909917	2000-01-01 00:00:00+00:00	2000-12-31 23:59:59+00:00	1	' \n    \n  \n  \nł2 \n  . \n  \\ f \n    \n  ., \n  Zbliżająca się <em>oscarowa</em> noc dostarczy emocji \nwszystkim Polakom. Reżyser'
257	oscarowy	Śląska Biblioteka Cyfrowa	900889	2003-01-01 00:00:00+00:00	2003-12-31 23:59:59+00:00	1	"' biblijnego \nMojżesza był nieodpowiedni z \npowodów religijnych, a z <em>oscarowych</em> ""Godzin"" wycięto \nwszystkie'"
258	oscarowy	Małopolska Biblioteka Cyfrowa	580434	1998-03-01 00:00:00+00:00	1998-03-01 23:59:59+00:00	1	"', Janusz Kamiński. \nTo zresztą jedyne polskie nazwisko na \n<em>oscarowej</em> liśeie. ""HISTORIE MIŁOSNE"" \nJerzego'"
259	oscarowy	Śląska Biblioteka Cyfrowa	920690	1998-01-01 00:00:00+00:00	1998-12-31 23:59:59+00:00	1	"'"") uzyskaly nominacje \n<em>Oscarowe</em>. Wreszcie za ""Kol "" nagrodzono Sveraka Oscarem w kategorii \nnajlepszego filmu'"
260	oscarowy	Śląska Biblioteka Cyfrowa	900440	2003-01-01 00:00:00+00:00	2003-12-31 23:59:59+00:00	1	"' ""kolorowym kobietom"" Halle Berry, \nnagrodzona za rolę w filmie ""Czekając na wyrok"". \nTegoroczna \n<em>oscarowa</em>'"
268	oscarowy	Małopolska Biblioteka Cyfrowa	617282	2000-04-23 00:00:00+00:00	2000-04-23 23:59:59+00:00	1	'. & Mrs, Burnham. Co prawda, jej rola w <em>oscarowej</em> ceremonii ograniczyła się \ndo sekwencji prezenterskiej'
272	oscarowy	Małopolska Biblioteka Cyfrowa	774265	1998-10-04 00:00:00+00:00	1998-10-04 23:59:59+00:00	1	' Pavillion w Los Angeles. \nOgotem 24-krotnie wtasnie tam odbywata si  ceremonia <em>oscarowa</em>; w 1997 r. \ni w 1998'
274	oscarowy	Cyfrowy Dolny Śląsk	366949	2003-01-01 00:00:00+00:00	2003-12-31 23:59:59+00:00	1	' stosowną  \noprawę. Daleko im co prawda do <em>oscarowej</em> gali, ale dla uatrakcyjnienia \nwydarzenia użyli'
275	oscarowy	Śląska Biblioteka Cyfrowa	900473	2003-01-01 00:00:00+00:00	2003-12-31 23:59:59+00:00	1	"' ""Dzikości serca"". Zloty Glob \nza wystąp w miniserialu ""Afterburn"" I \nnominacja <em>oscarowa</em> za .Pnącą rózę'"
276	oscarowy	Śląska Biblioteka Cyfrowa	900703	2003-01-01 00:00:00+00:00	2003-12-31 23:59:59+00:00	1	' kilkumiesięc7nY cykl imprez o podobnym charakterze, \nktóry zakończony zostanie <em>oscarową</em> galą. \nNajlepszym serialem'
279	oscarowy	Bałtycka Biblioteka Cyfrowa	428900	1999-01-01 00:00:00+00:00	1999-12-31 23:59:59+00:00	1	' zekranizowanego dzieła Sienkiewicza, choć szykują się hity. W kwietniu obejrzymy \n<em>oscarowe</em> produkcje: od dziś'
280	oscarowy	Małopolska Biblioteka Cyfrowa	576240	2003-07-31 00:00:00+00:00	2003-07-31 23:59:59+00:00	1	"'. - nagroda specjalna Jury FPFF Gdynia za \nfilm ""Panny z Wilka"" i kolejna <em>oscarowa</em> nominaqa, \n1981r. - Złota'"
281	oscarowy	Śląska Biblioteka Cyfrowa	901632	1999-01-01 00:00:00+00:00	1999-12-31 23:59:59+00:00	1	' Oscara. \nPoprledni <em>oscarowy</em> rekord, ustanowiony w 1996 roku, wynosi I \n607.500 dolarów. Za taką kwotę'
282	oscarowy	Śląska Biblioteka Cyfrowa	900704	2003-01-01 00:00:00+00:00	2003-12-31 23:59:59+00:00	1	' jako <em>oscarową</em>, \nscenograf Andrzej Przedworski, \na taKże reżyser Jan Jakub Kolski. Wśród komentarzy do'
284	oscarowy	Małopolska Biblioteka Cyfrowa	660909	2000-03-05 00:00:00+00:00	2000-03-05 23:59:59+00:00	1	"' zafundował nam w jednej \nz sekw ncj i epi tet - ""Polak półgłówek""...). Film staje w <em>oscarowe</em> szranki, \nale'"
285	oscarowy	Śląska Biblioteka Cyfrowa	900983	2002-01-01 00:00:00+00:00	2002-12-31 23:59:59+00:00	1	' <em>oscarowe</em> typy mog& \nzglaszae surfuji)cy po sicci. Na ralie wynika I. niego, Ie faworytem \nwSl.ystkich jcst'
286	oscarowy	Radomska Biblioteka Cyfrowa	82542	2000-01-01 00:00:00+00:00	2000-12-31 23:59:59+00:00	1	"' spośród <em>oscarowych</em> laureatów to \nwieczne ekranowe szlagiery, tak zwane ""evergreeny"". \nTo filmy wracające'"
288	oscarowy	Cyfrowy Dolny Śląsk	368490	2002-01-01 00:00:00+00:00	2002-12-31 23:59:59+00:00	1	'  \noczekiwanym tytułem był Hannibal w \nreżyserii Ridleya Scotta, twórcy \n<em>oscarowego</em> Gladiatora. Ta  \nhollywoodzka'
289	oscarowy	Śląska Biblioteka Cyfrowa	900714	2003-01-01 00:00:00+00:00	2003-12-31 23:59:59+00:00	2	' opinią publiczną. Moore jako jedyny w czasie tegorocznej gali \n<em>oscarowej</em> wywołał niezły skandal, krzycząc'
290	oscarowy	Bałtycka Biblioteka Cyfrowa	419654	2001-01-01 00:00:00+00:00	2001-12-31 23:59:59+00:00	2	' szczególnych emocji mówi również o swoich \n<em>oscarowych</em> marzeniach, choć ponoć, kiedy po raz trzeci nie zdobył'
291	oscarowy	Bałtycka Biblioteka Cyfrowa	420990	2003-03-22 00:00:00+00:00	2003-03-23 23:59:59+00:00	2	"'"". \n  Fot. PAP \n  W nocy z niedzieli na poniedziałek \npolskiego czasu dowiemy się, kto \nwyjdzie z <em>oscarowej</em>'"
293	oscarowy	Małopolska Biblioteka Cyfrowa	611614	2000-02-27 00:00:00+00:00	2000-02-27 23:59:59+00:00	1	' już trwają \nprzygotowania. <em>Oscarowy</em> pozłacany przedmiot pożądania trafił, jak dotąd, do blisko \n3 tys'
297	oscarowy	Śląska Biblioteka Cyfrowa	920672	2001-01-01 00:00:00+00:00	2001-12-31 23:59:59+00:00	1	' im. \nL. Janaeka. Kolejne dni przyniosly \nprezentacjc; czeskiego kina <em>Oscarowego</em> czyli projekcjc'
301	oscarowy	Cyfrowy Dolny Śląsk	366805	2003-04-01 00:00:00+00:00	2003-04-01 23:59:59+00:00	1	' bowiem do... <em>oscarowej</em> gali. Były \nwięc fragmenty nominowanych spektakli wyświetlane na telebimie i'
303	oscarowy	Cyfrowy Dolny Śląsk	366857	2003-02-18 00:00:00+00:00	2003-02-18 23:59:59+00:00	1	"' tychże solistow znalazły się słynne ""Piosenki <em>oscarowe</em>"" Orkiestrę Filharmonii Dolnośląskiej poprowadzi'"
304	oscarowy	Cyfrowy Dolny Śląsk	366997	2003-01-01 00:00:00+00:00	2003-12-31 23:59:59+00:00	1	', krótki występ dał \nJestem sobie Karolinka, faj duli, faj duli, faj... \nszaniem wyników - „w <em>oscarowej</em>'
305	oscarowy	Śląska Biblioteka Cyfrowa	910161	1998-01-01 00:00:00+00:00	1998-12-31 23:59:59+00:00	1	' swojego młodzieńczego \nbuntu. W roli żony Chrisa, Marion \nzobaczymy Emily Watson, słynną \npo <em>Oscarowym</em>'
308	oscarowy	Śląska Biblioteka Cyfrowa	900537	2003-01-01 00:00:00+00:00	2003-12-31 23:59:59+00:00	1	"', Zebrza: 3 ""\'-Je 3 \n  www.lnv..tbank,pl Infollnla: 08016677 B8 \n    \n  - \n  Jeden z <em>oscarowych</em> kandydatów'"
309	oscarowy	Śląska Biblioteka Cyfrowa	901011	2002-01-01 00:00:00+00:00	2002-12-31 23:59:59+00:00	1	"', filmie familijnym czy \nscience fiction. Nominacja \n<em>oscarowa</em> za ""swiat wedlug Garpa"". Niezty czarny'"
310	oscarowy	Śląska Biblioteka Cyfrowa	900451	2003-01-01 00:00:00+00:00	2003-12-31 23:59:59+00:00	1	' Halliwell zobaczymy 23 marca na <em>oscarowej</em> gall. \nJako prezenterkę'
312	oscarowy	Śląska Biblioteka Cyfrowa	900978	2002-01-01 00:00:00+00:00	2002-12-31 23:59:59+00:00	1	' slynnego <em>oscarowego</em> \nfllmu Roberta Zemecklsa. \nWidac teraz Zemeckisowi trafila siE: czekoladka 0 gorzkim'
313	oscarowy	Małopolska Biblioteka Cyfrowa	571480	1995-01-01 00:00:00+00:00	1995-12-31 23:59:59+00:00	1	' — miesiąc tak wielu świątecznych dni i czytajmy ,,<em>oscarowego</em> laureata \nCzesława Miłosza — bo warto! \n(AWl'
314	oscarowy	Śląska Biblioteka Cyfrowa	901000	2002-01-01 00:00:00+00:00	2002-12-31 23:59:59+00:00	1	"' .In&Out"" (druga nominacja <em>Oscarowa</em>) \ni ""UciekajCjcej pannie mtodej"" \n(z Juli<i Roberts). _ \n  W kilku'"
315	oscarowy	Śląska Biblioteka Cyfrowa	901016	2002-01-01 00:00:00+00:00	2002-12-31 23:59:59+00:00	1	"' \n.Misjl na Marsa"". Rezyser ""Dead Man Walking"" (nominacja \n<em>oscarowa</em> za reZyseri ). . \n  STRONI; REDAGUJE'"
316	oscarowy	Śląska Biblioteka Cyfrowa	901028	2002-01-01 00:00:00+00:00	2002-12-31 23:59:59+00:00	1	"' glosnym ""Szostym zmysle"", za ktory M. Night Shyama- \nIan otrzymal az 6 <em>oscarowych</em> \nnominacji, reiyser tego'"
324	oscarowy	Radomska Biblioteka Cyfrowa	82566	2003-01-01 00:00:00+00:00	2003-12-31 23:59:59+00:00	1	"' uniwersalny, jak w ""Edim"", \nz którym to filmem polska kinematografia wiązała <em>oscarowe</em> nadzieje. ""Edi"" Oscara'"
325	oscarowy	Radomska Biblioteka Cyfrowa	82582	2000-01-01 00:00:00+00:00	2000-12-31 23:59:59+00:00	1	' Cannes ma być \ndla Europejczyków konkursem \nważniejszym od <em>oscarowej</em> gali. Ma \nwalczyć z amerykanizacją'
327	oscarowy	Małopolska Biblioteka Cyfrowa	4076126	2001-01-01 00:00:00+00:00	2001-12-31 23:59:59+00:00	1	'” , nr 183/93). \nHomoseksualność głównego bohatera <em>Oscarowej</em> \n„ Filad elfii” J . Demme’a (1993), która'
328	oscarowy	Małopolska Biblioteka Cyfrowa	4076669	2003-01-01 00:00:00+00:00	2003-12-31 23:59:59+00:00	1	' przepukliny od dźwigania <em>oscarowego</em> żelastwa. Trudno, \nco robić... To zresztą nie nasze zmartwienie, my możemy'
332	oscarowy	Bałtycka Biblioteka Cyfrowa	1562737	2001-05-10 00:00:00+00:00	2001-05-10 23:59:59+00:00	2	' szczególnych emocj-i mówi \nrównież o swoich <em>oscarowych</em> marzeniach, choć ponoć, kiedy po raz \ntrzeci nie zdobył'
334	oscarowy	Bałtycka Biblioteka Cyfrowa	421286	2003-02-13 00:00:00+00:00	2003-02-13 23:59:59+00:00	2	"' \n""Piamsta"" nominowany jest \ndo Oscara, a Lech Rywin bardzo \nchce jechać na <em>oscarową</em> galę. \nSpelnienie jego'"
336	oscarowy	Radomska Biblioteka Cyfrowa	82567	2002-01-01 00:00:00+00:00	2002-12-31 23:59:59+00:00	1	' do <em>oscarowych</em> \narcydzieł. Na porządku dziennym są chybotliwe i skaczące ujęcia kamerą z ręki'
339	oscarowy	Bałtycka Biblioteka Cyfrowa	3791257	1994-01-08 00:00:00+00:00	1994-01-09 23:59:59+00:00	1	"' zapowiedziom nie ukazały sięnakasetach: „<em>oscarowy</em>"" film \n„Bez przebaczenia"", ani też „Park \nJurajski'"
346	oscarowy	Śląska Biblioteka Cyfrowa	900493	2003-01-01 00:00:00+00:00	2003-12-31 23:59:59+00:00	1	' \nprzygotowanie do imprezy \n<em>oscarowej</em>, silne wsparcie \ndla tego filmu. Niestety, nie \nma to związku z kondycją'
348	oscarowy	Śląska Biblioteka Cyfrowa	900713	2003-01-01 00:00:00+00:00	2003-12-31 23:59:59+00:00	1	"' godz. 22.15 \n- film <em>oscarowy</em> ""Zabawy z bronią"" To koprodukcja kanadyjsko-amerykańsko-niemiecka. W'"
349	oscarowy	Śląska Biblioteka Cyfrowa	903609	1994-10-27 00:00:00+00:00	1994-10-27 23:59:59+00:00	1	""", kt6ry przez krytyków ,ed- \n  n09'06nle zallczany jesl do <em>oscarowych</em> faworytów \nHanks kreuje w mm"""
350	oscarowy	Śląska Biblioteka Cyfrowa	901895	1998-01-01 00:00:00+00:00	1998-12-31 23:59:59+00:00	1	' ten film to produkt. hollywoodzki i <em>oscarowy</em>, ale \nprzyznam, że po obejrzeniu go boję \nsię jeszcze'
351	oscarowy	Śląska Biblioteka Cyfrowa	900475	2003-01-01 00:00:00+00:00	2003-12-31 23:59:59+00:00	1	' - wyznał \naktor. Obowiązki gospodarza podczas <em>oscarowej</em> gali są niełatwe. \n- Cudownie jest pracować \nz kimś'
352	oscarowy	Śląska Biblioteka Cyfrowa	900535	2003-01-01 00:00:00+00:00	2003-12-31 23:59:59+00:00	1	' życzenie. \nW premierowym na kasecie thrillerze \nerotycznym .Niewierna’ Adriana Lyna \n(jednym z <em>oscarowych</em>'
353	oscarowy	Śląska Biblioteka Cyfrowa	920837	1997-01-01 00:00:00+00:00	1997-12-31 23:59:59+00:00	1	' z czeskocieszynskiego \nGimnazjum Polskiego w roku \n1980 obejrzec zdj te co dopiero \nz p6lki <em>oscarowe</em>'
355	oscarowy	Śląska Biblioteka Cyfrowa	901466	1999-01-01 00:00:00+00:00	1999-12-31 23:59:59+00:00	1	"' \n<em>oscarowe</em> ""Pociągi pod specjalnym nadzorem"", potem ""Kapryśne lato"" i na koniec ""Skowronki na uwięzi"". Przed'"
358	oscarowy	Śląska Biblioteka Cyfrowa	901820	1999-01-01 00:00:00+00:00	1999-12-31 23:59:59+00:00	1	"' też stanąl za kamerą prlY \n<em>oscarowej</em> ..Rozważnej i romdntycznej"" \nAnga Lee. Producenci wykazali'"
359	oscarowy	Śląska Biblioteka Cyfrowa	1624038	1997-01-01 00:00:00+00:00	1997-12-31 23:59:59+00:00	1	"'\nPierwsza\' liga\nUtrzymany w komediowym\nklimacie film zrealizowal autor <em>oscarowego</em> scenariusza\n""Ządla"" (1973'"
360	oscarowy	Śląska Biblioteka Cyfrowa	1624162	1995-01-01 00:00:00+00:00	1995-12-31 23:59:59+00:00	1	' Bancroft i Patty Duke (na zdj ciu) <em>oscarowe</em> laury w roku 1962. \nCudotworczyni; rei.: Arthur Penn; wyk'
365	oscarowy	Małopolska Biblioteka Cyfrowa	612151	1987-12-06 00:00:00+00:00	1987-12-06 23:59:59+00:00	1	' kategorii <em>oscarowej</em> za dokonania w dziedzinie Charakteryzacji i związanymt z nią efektami specjalnymi'
366	oscarowy	Podlaska Biblioteka Cyfrowa	281382	1892-01-01 00:00:00+00:00	1892-12-31 23:59:59+00:00	1	', kminie kop. eo, za! Eru, istniejących nn prowincji lob w krdrejkolwiek miejscowości <em>Oscarowa</em>, n. i \nkop'
367	oscarowy	Bałtycka Biblioteka Cyfrowa	418638	2002-07-12 00:00:00+00:00	2002-07-14 23:59:59+00:00	1	', powinien koniecznie zobaczyć. \nObsada <em>oscarowa</em>: Dan Aykroyd, Helen \nHunt, Charlize Theron. \nSobota, godz'
369	oscarowy	Cyfrowy Dolny Śląsk	367100	2003-01-01 00:00:00+00:00	2003-12-31 23:59:59+00:00	1	'  \nlondyńskim brzmieniu.  \nPolecamy też <em>oscarowy</em> film. \nNajlepszy film roku \nZapraszamy do Multipleksu Cineraa'
370	oscarowy	Bałtycka Biblioteka Cyfrowa	391332	2001-01-01 00:00:00+00:00	2001-12-31 23:59:59+00:00	1	"', został nazwany \n""<em>oscarową</em> suknią eleganckiego transwestyty"". W czołówce źle ubranych \nznalazła się też'"
371	oscarowy	Śląska Biblioteka Cyfrowa	900916	2003-01-01 00:00:00+00:00	2003-12-31 23:59:59+00:00	1	"' ponoć łagodzi obyczaje. Dwie gir1eski \nz <em>oscarowego</em> musicalu .Chlcago"" Roba Marshalla co prawda \ncieszą'"
372	oscarowy	Małopolska Biblioteka Cyfrowa	4076687	2003-01-01 00:00:00+00:00	2003-12-31 23:59:59+00:00	1	'f \ni \nl \nm \nROBERT \nMARSHALL \nNA MĘSKICH \nTRUPACH \nWSKRZESIŁ \nMUSICAL \nI NAKRĘCIŁ \n<em>OSCAROWEGO</em>'
375	oscarowy	Śląska Biblioteka Cyfrowa	1620306	1997-01-01 00:00:00+00:00	1997-12-31 23:59:59+00:00	3	"' Wajdy oraz \n""Wielki Szu"" Sylwestra Ch\\!ciilskiego (30 marca, godz. \n20.30). (AMK) \n  PO <em>oscarowych</em>'"
383	oscarowy	Wojewódzka i Miejska Biblioteka Publiczna im. dr. Witolda Bełzy w Bydgoszczy	1517663	1928-10-31 00:00:00+00:00	1928-10-31 23:59:19+00:00	1	"', .łnworowskicgo. zwlaszrza (Illr\'ršjlv po \nprzcm-anym strajku w Lodzi i wzr-""L- \n  ""fi \n;na \n  @<em>oscarową</em> idiomy'"
384	oscarowy	Cyfrowy Dolny Śląsk	368537	2002-01-01 00:00:00+00:00	2002-12-31 23:59:59+00:00	1	' miał nawet <em>oscarowy</em>  \nPiękny umysł Rona Howarda.  \nWątpliwości oleśniccy kinomani nie mieli  \ntakże w'
388	oscarowy	Wielkopolska Biblioteka Cyfrowa	3827166	1997-04-11 00:00:00+00:00	1997-04-11 23:59:59+00:00	1	"' zakończenie zaskoczy wszystkich... Bardzo duża w tym zasługa „<em>Oscarowego</em>"" scenariusza autorstwa \nChristophera'"
389	oscarowy	Śląska Biblioteka Cyfrowa	909937	2000-01-01 00:00:00+00:00	2000-12-31 23:59:59+00:00	1	', że zaginęło 40 <em>oscarowych</em> figurek. Żadna \nz nich nie miała jeszcze przymocowanych tabłiczek z'
391	oscarowy	Śląska Biblioteka Cyfrowa	901029	2002-01-01 00:00:00+00:00	2002-12-31 23:59:59+00:00	1	' teatralnej. Z wdzi kiem i humorem prowadzita \ntez <em>oscarowe</em> gale. _ \n  sprawdzie czy uda sie nowym neuronom'
392	oscarowy	Śląska Biblioteka Cyfrowa	901045	2002-01-01 00:00:00+00:00	2002-12-31 23:59:59+00:00	1	"'. Pami tamy go z ""Abyss"", ""Firmy"", \n.Jwlerdzy"", ""Apollo 13"" I ostatnio <em>oscarowego</em> \n""Pi knegotlmyslu"". Gdy'"
393	oscarowy	Śląska Biblioteka Cyfrowa	902217	2001-01-01 00:00:00+00:00	2001-12-31 23:59:59+00:00	1	"'. \nin. komedii z Marilyn Monroe ""Pol \nżartem, pół serio"", czy <em>oscarowego</em> .Bulwaru Zachodzącego Słońca'"
394	oscarowy	Śląska Biblioteka Cyfrowa	901823	1999-01-01 00:00:00+00:00	1999-12-31 23:59:59+00:00	1	' producencką Nagrodę Im. Tahlberga, wręczaną \ntakże na <em>oscarowej</em> uroczystości. Ja \nnajbardziej cenię jego'
395	oscarowy	Śląska Biblioteka Cyfrowa	910319	2000-01-01 00:00:00+00:00	2000-12-31 23:59:59+00:00	1	' nagrodę prlyznan4 mu przez Polaków. - <em>Oscarowej</em> \nstatuetki Amerykan<;kiej Akademii nie dal7.ę !>zczegolnym'
397	oscarowy	Śląska Biblioteka Cyfrowa	902665	2002-01-01 00:00:00+00:00	2002-12-31 23:59:59+00:00	1	"' <em>oscarowe</em>) powinny zerknCjc w czwartek na obraz \n""Madeleine 1999"" z VerCj Briole (TVP2. 00.10). Klimat mniej'"
399	oscarowy	Śląska Biblioteka Cyfrowa	901826	1999-01-01 00:00:00+00:00	1999-12-31 23:59:59+00:00	1	'. Widz \nłapie się czasami na oglądaniu obrazu jak <em>Oscarowej</em> gali, czekając na pojawienie się kolejnej'
401	oscarowy	Cyfrowy Dolny Śląsk	376368	2001-01-01 00:00:00+00:00	2001-12-31 23:59:59+00:00	1	'  \nprzyszłorocznych nominacji <em>oscarowych</em> dla \nnajlepszego aktora. Dobrze by się \nstało, gdyby Freeman dostał tę'
402	oscarowy	Śląska Biblioteka Cyfrowa	902616	2001-01-01 00:00:00+00:00	2001-12-31 23:59:59+00:00	1	"' festiwalu \nodbędzie się trzecie spotkanie z czeskim kinem ""<em>oscarowym</em>"". O godz. 18 \n  \'i, \n  -ił'"
403	oscarowy	Śląska Biblioteka Cyfrowa	1624082	1996-01-01 00:00:00+00:00	1996-12-31 23:59:59+00:00	1	"' \nsi  w Iiollywood <em>oscarowymi</em> \nfilrnami ""A wanlura arahska"" \ni ""Na Zachodl\'ic hel\' .IInian"", \nkrytycc'"
407	oscarowy	Śląska Biblioteka Cyfrowa	882323	2000-01-01 00:00:00+00:00	2000-12-31 23:59:59+00:00	1	"'. „Brackie \nlato"". W programie m.in.: ""<em>Oscarowe</em> Show"" Andrzeja  \nRosiewicza, ""Big Band"" Edy Surmana, \ngrupa'"
408	oscarowy	Śląska Biblioteka Cyfrowa	909911	2000-01-01 00:00:00+00:00	2000-12-31 23:59:59+00:00	1	' polskości, że na <em>oscarowej</em> \ngali zdecydowal się przemówić w r0dzimym języku, nie starając się robić'
409	oscarowy	Cyfrowy Dolny Śląsk	367094	2003-01-01 00:00:00+00:00	2003-12-31 23:59:59+00:00	1	' miał nawet <em>oscarowy</em>  \nPiękny umysł Rona Howarda.  \nWątpliwości oleśniccy kinomani nie mieli  \ntakże w'
415	oscarowy	Biblioteka Publiczna im. dr. Władysława Biegańskiego w Częstochowie	1418975	1930-01-01 00:00:00+00:00	1930-12-31 23:59:59+00:00	1	' _. <em>oscarowy</em>; \n  „ _Magistrat miasta Częstochowy odda ~z przetargu wykonanie \n  Oferty w zalakowanych kopertach'
418	oscarowy	Małopolska Biblioteka Cyfrowa	780690	1994-10-02 00:00:00+00:00	1994-10-02 23:59:59+00:00	1	' wyniki <em>oscarowych</em> \nzmagań. Opieczętowanych kopert z nazwiskami zwycięzców strzeżono co najmniej tak jak'
419	oscarowy	Cyfrowy Dolny Śląsk	377473	1999-01-01 00:00:00+00:00	1999-12-31 23:59:59+00:00	1	"""· DonnclI.\nTITANIC - USA - 1998\nUbiegloroczny Iri umfator <em>Oscarowy</em>. Wi elki I'O l1Ians. bu rzu wicikich n n"""
420	oscarowy	Cyfrowy Dolny Śląsk	366949	2003-01-01 00:00:00+00:00	2003-12-31 23:59:59+00:00	1	'. Możliwość wygrania  \nzestawów kosmetyków! \nWeź udział w wielkim konkursie <em>oscarowym</em>! Wytypuj zwycięzców'
421	oscarowy	Śląska Biblioteka Cyfrowa	900661	2003-01-01 00:00:00+00:00	2003-12-31 23:59:59+00:00	1	' <em>oscarowe</em>. Tym razem jednak zwycięzcom wręczano złote kubki pełne popcornu zamiast statuetek ze stojącym na'
422	oscarowy	Śląska Biblioteka Cyfrowa	902477	2001-01-01 00:00:00+00:00	2001-12-31 23:59:59+00:00	1	"' Globem"". \nFilm Milosa Formana przed \n<em>oscarową</em> ceremonią byl uwdŻany \nza jeden z najbliiszych nagrodowej'"
423	oscarowy	Śląska Biblioteka Cyfrowa	901483	2001-01-01 00:00:00+00:00	2001-12-31 23:59:59+00:00	1	"'; \n<em>oscarowej</em> ceremonii. \nBy mÓc w prclencie otr/ymać od rcdakcji ""Trybuny Sląskicj"" jcdną / trl.ech kasct wideo'"
426	oscarowy	Małopolska Biblioteka Cyfrowa	660975	1976-01-01 00:00:00+00:00	1976-12-31 23:59:59+00:00	1	' \nnieludzk q polityk  swego rządu w \nstosunku do gn bionych Indian. \nNic wi c dziwnego, ze rezyser <em>oscarowej</em>'
428	oscarowy	Śląska Biblioteka Cyfrowa	909947	2000-01-01 00:00:00+00:00	2000-12-31 23:59:59+00:00	1	' nominowano do kilku <em>oscarowych</em> nagród \nw tym roku, w tym m.in. dla odtwarzającego rolę dr. Winganda'
429	oscarowy	Cyfrowy Dolny Śląsk	368430	2002-01-01 00:00:00+00:00	2002-12-31 23:59:59+00:00	1	' Multipleksu  \nzapraszamy na <em>oscarowe</em> filmy, laure- \nZ Hallera do Hiszpanii \nKupić mieszkanie i pojechać \nza'
430	oscarowy	Bałtycka Biblioteka Cyfrowa	436814	1999-04-14 00:00:00+00:00	1999-04-14 23:59:59+00:00	1	"' Filharmonicznej pod dyrekcją Zubina Mehty. Twórca \n<em>oscarowej</em> ""Madame Rosy"" z SImone Signoret, Moshe Mizrahi'"
431	oscarowy	Bałtycka Biblioteka Cyfrowa	436934	1999-02-05 00:00:00+00:00	1999-02-05 23:59:59+00:00	1	"' ""La Bonne \nAnnee"" z 1973 roku Claude\'a \nLeloucha. W filmie Johna \nG Avildsena (<em>oscarowy</em> \n""Rocky'"
433	oscarowy	Śląska Biblioteka Cyfrowa	909912	2000-01-01 00:00:00+00:00	2000-12-31 23:59:59+00:00	1	' za całoksztalt twórczości \nTrzy filmy Andrzeja Wajdy otrzymały <em>oscarowe</em> nominacje: \n.Zlema obiecana'
434	oscarowy	Małopolska Biblioteka Cyfrowa	4076692	2003-01-01 00:00:00+00:00	2003-12-31 23:59:59+00:00	1	""" \nDlSCOVERY, 18 .00 \nj ZOSTAWIĆ LAS VEGAS \nDramat, jego bohaterem jest Ben \n<em>Oscarowa</em> rola Nicolasa Cage'a"""
437	oscarowy	Biblioteka Publiczna im. dr. Władysława Biegańskiego w Częstochowie	1419111	1906-01-01 00:00:00+00:00	1906-12-31 23:59:59+00:00	1	""" !t8857 331m3' \n i równocześnie . “JGFF” md* \nwal <em>oscarowy</em> tron Hollüüdkwm: d . \n l rzymo meow? “Plmüüm- I"""
438	oscarowy	Małopolska Biblioteka Cyfrowa	583002	1986-03-23 00:00:00+00:00	1986-03-23 23:59:59+00:00	1	'. Jak duże są te \nwydatki? Nakłady ZW ią7,a ne z samym wieczorem \n<em>oscarowym</em> wynoszą około \nmiliona'
440	oscarowy	Bałtycka Biblioteka Cyfrowa	410024	2003-10-03 00:00:00+00:00	2003-10-05 23:59:59+00:00	1	"' później (29 lutego) odbędzie się wielka gala \n<em>oscarowa</em>. \nNajpoważniejszym kontrkandydatem ""Pornografii'"
442	oscarowy	Bałtycka Biblioteka Cyfrowa	1564801	2000-05-23 00:00:00+00:00	2000-05-23 23:59:59+00:00	1	"'\' "" \n..      - \n\'\\\'- \n"" \'I . \n  Karolina Wajda, córka aktorki \nBeaty Tyszkiewicz i <em>oscarowego</em> \nreżysera Andrzeja Wajdy, nie'"
445	oscarowy	Śląska Biblioteka Cyfrowa	912269	1999-01-01 00:00:00+00:00	1999-12-31 23:59:59+00:00	1	' nazwisk. Znani są z fantastycznie skrojonych sukienek, jedną z nich \nna <em>oscarową</em> galę założyła \naktorka'
446	oscarowy	Śląska Biblioteka Cyfrowa	900689	2003-01-01 00:00:00+00:00	2003-12-31 23:59:59+00:00	1	'. \nUczuleni na nagrody pamiętają \ngo jako niedawnego faworyta \n<em>oscarowego</em>. Szukający sensacji \nnie zapomną o'
448	oscarowy	Śląska Biblioteka Cyfrowa	902052	1999-01-01 00:00:00+00:00	1999-12-31 23:59:59+00:00	1	"'. Ostatni raz mogli zarobić w czasie projekcji <em>oscarowego</em> ,Jitanica"" oraz \npierwszej części ""Killera'"
449	oscarowy	Śląska Biblioteka Cyfrowa	902736	1999-01-01 00:00:00+00:00	1999-12-31 23:59:59+00:00	1	"' kukułczym gniazdem"" i ""Malvin i Howard"". \nTo właśnie on napisał scenariusz do <em>oscarowego</em> ""Zapachu kobiety'"
454	oscarowy	Cyfrowy Dolny Śląsk	367074	2003-01-01 00:00:00+00:00	2003-12-31 23:59:59+00:00	1	' krytykom, ale to nie \nprzeszkodziło mu w zdobyciu  \nszerokiej publiczności i <em>oscarowego</em> \nsukcesu. Grająca w'
455	oscarowy	Bałtycka Biblioteka Cyfrowa	419374	2000-01-01 00:00:00+00:00	2000-12-31 23:59:59+00:00	1	"' <em>oscarowym</em> blasku - do \nmojej listy dołączył trzeci film: \n""American Bcauty"" w reżysclii debiutującego Sama'"
456	oscarowy	Cyfrowy Dolny Śląsk	368398	2002-01-01 00:00:00+00:00	2002-12-31 23:59:59+00:00	1	'. \nPoza wspaniałymi <em>Oscarowymi</em> \nprzebojami na uwagę zasłużyły \nTam i z powrotem Wojciecha  \nWójcika'
461	oscarowy	Biblioteka Publiczna im. dr. Władysława Biegańskiego w Częstochowie	1420505	1974-01-01 00:00:00+00:00	1974-12-31 23:59:59+00:00	1	""" \nwzornictwa (którym kieruje mgr 30933W@ › \ncharaziak) 'z pomocą brygady <em>Oscarowa</em> \nChmielarza (25 lat pracy w"""
462	oscarowy	Biblioteka Publiczna im. dr. Władysława Biegańskiego w Częstochowie	1420211	1968-01-01 00:00:00+00:00	1968-12-31 23:59:59+00:00	1	': zdobylaslblno Zarawska. at. innne \nior działu postępu .cchniczhego \nLubliniec: <em>Oscarowa</em> \nszwaczka'
463	oscarowy	Bałtycka Biblioteka Cyfrowa	431917	2000-02-11 00:00:00+00:00	2000-02-11 23:59:59+00:00	1	"' role \nM. Keaton (Batman"", Powrót \nBatmana"", Miłosne wybory"") i \nT. Garr (<em>oscarowa</em> rola w Tootsie'"
464	oscarowy	Bałtycka Biblioteka Cyfrowa	431963	2000-01-21 00:00:00+00:00	2000-01-21 23:59:59+00:00	1	"' \nstatuetka Oscara zostanie uroczyście wręczona reżyserowi 26 marca, podczas ""<em>oscarowej</em> nocy"" w Los \nAngeles'"
468	oscarowy	Śląska Biblioteka Cyfrowa	902649	2001-01-01 00:00:00+00:00	2001-12-31 23:59:59+00:00	1	' wydaucniem /.arÓwno artystycmym,jak i komercyjnym. _ REQ \n  Prezentacja <em>oscarowego</em> \nkina czeskiego \n  13.11'
469	oscarowy	Śląska Biblioteka Cyfrowa	902019	1999-01-01 00:00:00+00:00	1999-12-31 23:59:59+00:00	1	"' mylić \nz ""Lepiej by.ć nie może"" <em>oscarowym</em> filmem z Jackiem Nicholsonem) napisał \n  . "". _-.1!111'"
470	oscarowy	Gdańska Biblioteka Cyfrowa	1165817	1950-01-01 00:00:00+00:00	1950-12-31 23:59:59+00:00	1	'.. na: „smar-A ..T.4 ~ .. . . v .. c u“`afär\\ l.- c- vn~ ›~ „..- 7 . n ` \ndich A <em>oscarową</em>-won na urn'
471	oscarowy	Śląska Biblioteka Cyfrowa	882336	1999-01-01 00:00:00+00:00	1999-12-31 23:59:59+00:00	1	"'"".  \nWybrano <em>oscarowego</em> ""Kolę"" i  \nkultowy już film ""Guzikowcy"". W \nPiwnicy Pod Targową odbędą \nsię dyskusje z'"
472	oscarowy	Małopolska Biblioteka Cyfrowa	660975	1976-01-01 00:00:00+00:00	1976-12-31 23:59:59+00:00	1	"' konca sarna \nuroczystosc. \n  I \n""<em>Oscarowa</em>"" gorClczka zaczyna si  \nco roku jui we wrzesniu i osiClga'"
474	oscarowy	Cyfrowy Dolny Śląsk	375608	1998-05-12 00:00:00+00:00	1998-05-12 23:59:59+00:00	1	' Basinger. Sensacyjny. <em>Oscarowy</em> laureat w \ndwóch kategoriach: dla aktorki drugoplanowej i \nza scenariusz'
475	oscarowy	Małopolska Biblioteka Cyfrowa	4076172	2001-01-01 00:00:00+00:00	2001-12-31 23:59:59+00:00	1	"' pisma „Ogo- \n®®® \nniok"" i przemówienie „<em>oscarowe</em>"". W sumie nic nowego, cierpliwie gromadzone wypisy'"
477	oscarowy	Biblioteka Publiczna im. dr. Władysława Biegańskiego w Częstochowie	1426732	1930-01-01 00:00:00+00:00	1930-12-31 23:59:59+00:00	1	""" 5 złotych. \n  przemas <em>oscarowy</em>. \n  ddo -,' \n_ d000 in!, n ustawieniem \nhstonowycb, oraz ułozeniu"""
478	oscarowy	Bałtycka Biblioteka Cyfrowa	429181	1998-01-01 00:00:00+00:00	1998-12-31 23:59:59+00:00	1	"' popularnością. Potwierdza to stosunkowo niska frekwencja na pokazach. takich <em>oscarowych</em> nowości, jak ""Lepiej być'"
479	oscarowy	Bałtycka Biblioteka Cyfrowa	419009	2000-01-01 00:00:00+00:00	2000-12-31 23:59:59+00:00	1	"' drobiazgi narysowane pre- \n  Przed kilku laty triumfatorem <em>oscarowej</em> gali był film ""Milczenie owiec'"
480	oscarowy	Wielkopolska Biblioteka Cyfrowa	3821876	2000-10-20 00:00:00+00:00	2000-10-20 23:59:59+00:00	1	' Coenów, \ntwórców <em>Oscarowego</em> „Fargo”. W rolach \ngłównych John Turturro i John Goodman. \nKarnety na'
482	oscarowy	Bałtycka Biblioteka Cyfrowa	436232	1999-09-23 00:00:00+00:00	1999-09-23 23:59:59+00:00	1	"'"" oraz <em>oscarowego</em> ""Zostawić Las Vegas"". \nNick Kaminsky pisujący artykuły na temat architektury przyjeżdża'"
483	oscarowy	Bałtycka Biblioteka Cyfrowa	437136	1999-07-19 00:00:00+00:00	1999-07-19 23:59:59+00:00	1	' prestiżowa \nimpreza. Można ją porównać z galą \n<em>oscarową</em> - powiedział Michał \nKrechowiecki, prezes Wydawnictwa'
484	oscarowy	Wielkopolska Biblioteka Cyfrowa	769119	1936-01-15 00:00:00+00:00	1936-01-15 23:59:59+00:00	1	"'.; :<em>oscarowy</em> navp- ą ą_ \ną ą w Tr"" . . ą ą ą ą nrnsrwwm... ""Efx-fé: ą \ną ąN- w: \'th\' ą a w ` 1m- r.. tren-nin'"
485	oscarowy	Śląska Biblioteka Cyfrowa	899589	2002-01-01 00:00:00+00:00	2002-12-31 23:59:59+00:00	1	'. Wolnoscl 6, tel. \n271-51-24) - Requiem dla snu \n(15 USA 18.00) Przeglljd fiImow <em>oscarowych</em>: Moulin Rouge'
486	oscarowy	Śląska Biblioteka Cyfrowa	899591	2002-01-01 00:00:00+00:00	2002-12-31 23:59:59+00:00	1	'); \n  oMarzenle (pl. Wolności 6, tel. \n271-51-24) — Requiem dla snu \n( 15 USA 18.00) Przegląd filmów \n<em>oscarowych</em>'
490	oscarowy	Bałtycka Biblioteka Cyfrowa	420975	2003-03-11 00:00:00+00:00	2003-03-11 23:59:59+00:00	1	"' największe \nszanse <em>oscarowe</em> i wyprzedza pozostałe cztery dzieła - ""T he Hours"", \n""Gangi Nowego Jorku'"
491	oscarowy	Bałtycka Biblioteka Cyfrowa	421823	2002-12-04 00:00:00+00:00	2002-12-04 23:59:59+00:00	1	', ktora zostame \nwręczona 23 marca przyszłego roku \nw los Angeles podczas 75. g 1I \n<em>oscarowej</em>'
492	oscarowy	Bałtycka Biblioteka Cyfrowa	398826	2003-01-01 00:00:00+00:00	2003-12-31 23:59:59+00:00	1	""" nagrody), poprzez <em>oscarowy</em> 1/ Traffic': \naż po niedawną ekranizację I/Solarisl/ Lema. Każdy kolejny film"""
493	oscarowy	Bałtycka Biblioteka Cyfrowa	427654	1999-01-01 00:00:00+00:00	1999-12-31 23:59:59+00:00	1	"' jest ""Pan Tadeusz"" Andrzeja Wajdy. Komisja <em>Oscarowa</em> \nprzy Komitecie Kinematografii de.. \ncyzję w tej'"
496	oscarowy	Biblioteka Publiczna im. dr. Władysława Biegańskiego w Częstochowie	1423197	1915-01-01 00:00:00+00:00	1915-12-31 23:59:59+00:00	1	'. , \n Milicja miejska zatrzymała Zofię \nSowę, która na ul. !<em>oscarowej</em> usiłowała sprzedac 4 kury, z prawe'
497	oscarowy	Bałtycka Biblioteka Cyfrowa	429245	1999-01-01 00:00:00+00:00	1999-12-31 23:59:59+00:00	1	', wcześniej ulubiony aktor Jima Jannusha, okazał się tu sprawnym tw6rcą, operującym tragikomedią z <em>oscarowym</em>'
498	oscarowy	Bałtycka Biblioteka Cyfrowa	436813	1999-04-13 00:00:00+00:00	1999-04-13 23:59:59+00:00	1	"' wysłuchania \nznakomitych kompozycji utworów z ""<em>oscarowej</em>"" czołówki świata w wykonaniu i pod \ndYrekcją mistrzów'"
499	oscarowy	Bałtycka Biblioteka Cyfrowa	436996	1999-06-02 00:00:00+00:00	1999-06-03 23:59:59+00:00	1	"' ""<em>Oscarowej</em>"". A w \njeszcze dalszej przyszłości może \n""dorobimy się"" Akademii Filmol \nwej - wyraził swoje'"
500	oscarowy	Cyfrowy Dolny Śląsk	375545	1997-05-20 00:00:00+00:00	1997-05-20 23:59:59+00:00	1	'. Najsfynniejsza - <em>oscarowa</em> rola Kevina Costnera? \n2. Robert De Niro odegraf wczesnlej \nrolt; psychopaty. W jaklm'
501	oscarowy	Śląska Biblioteka Cyfrowa	909885	2000-01-01 00:00:00+00:00	2000-12-31 23:59:59+00:00	1	"' nie zobaczy I tegoroc/nych <em>oscarowych</em> filmów, lo może \nsię jeszc7e na nie wybrać do kina ""Wisła"" w'"
502	oscarowy	Śląska Biblioteka Cyfrowa	909961	2000-01-01 00:00:00+00:00	2000-12-31 23:59:59+00:00	1	"'\': Wystarczy odpowiedzieć na pytanie: \n  . Kto zaśpiewał <em>oscarową</em> piosenkę \n""When You Belive"", która była nie'"
503	oscarowy	Śląska Biblioteka Cyfrowa	899583	2002-01-01 00:00:00+00:00	2002-12-31 23:59:59+00:00	1	' \npol. 9.45 17.30) Maraton <em>Oscarowy</em> sob. 22.45: Amelia (15 fr.) \nHelikopter w ogniu (15 USA) \nWladca'
504	oscarowy	Śląska Biblioteka Cyfrowa	901472	1999-01-01 00:00:00+00:00	1999-12-31 23:59:59+00:00	1	"' zmierzchu do ŚWitU"" Salma \nHayek i pamiętany z <em>oscarowych</em> .TaJemnic los Angeles\' \nRussell Crowe. \nKomedia'"
505	oscarowy	Śląska Biblioteka Cyfrowa	909876	2000-01-01 00:00:00+00:00	2000-12-31 23:59:59+00:00	1	' \ni nominacja <em>oscarowa</em>. Film ważny ale \nprzygnębiający. _ AS \n  -- \nJI \n  KATOWICE: \ne Kosmos (teL 584'
506	oscarowy	Śląska Biblioteka Cyfrowa	906772	1997-04-30 00:00:00+00:00	1997-04-30 23:59:59+00:00	1	' <em>oscarowego</em> sukcesu poprzednika ..Imperium..... \nkl6re tym razem wyrezyserowallrv,n Kershner \notrzymaio tylko'
509	oscarowy	Śląska Biblioteka Cyfrowa	902811	1998-01-01 00:00:00+00:00	1998-12-31 23:59:59+00:00	1	' siekierą i nożem ranił trzy \nLOS ANGELES. Jurorzy nie oparli się potędze <em>Oscarowy</em> konkurs obchodził w tym'
512	oscarowy	Bałtycka Biblioteka Cyfrowa	410298	2003-10-22 00:00:00+00:00	2003-10-22 23:59:59+00:00	1	' lista filmów jest opublikowana na <em>oscarowych</em> \nstronach internetowych - pod adresem www.oscars.org'
513	oscarowy	Śląska Biblioteka Cyfrowa	909390	1995-01-01 00:00:00+00:00	1995-12-31 23:59:59+00:00	1	"' Europy"". \nW <em>oscarowej</em> rywalizacji \nreżyserów K. Kieślowski \nznalazł si  w niezwykle zacnym \ntowarzystwie'"
514	oscarowy	Śląska Biblioteka Cyfrowa	1621742	1997-01-01 00:00:00+00:00	1997-12-31 23:59:59+00:00	1	""" uroczystością <em>oscarową</em> MI'l był operowany na wyrostek, ale w ten \n  - \nI I   \n  \n  43.100 TYCHY, ul. Edukacji 48"""
515	oscarowy	Bałtycka Biblioteka Cyfrowa	429337	1999-01-01 00:00:00+00:00	1999-12-31 23:59:59+00:00	1	"' pomyłki. \nNajwięcej i największe wpadki wykryto w <em>oscarowej</em> produkcji ""Braveheart"" z Melem Gibsonem w roli'"
516	oscarowy	Bałtycka Biblioteka Cyfrowa	406361	1993-08-07 00:00:00+00:00	1993-08-08 23:59:59+00:00	1	"' namawiam, by nie wypożyczać kasety \n""Bez wybaczenia"" bo piraci pod \ntakim tytułem wydali <em>oscarowy</em> \nfilm'"
517	oscarowy	Bałtycka Biblioteka Cyfrowa	406429	1993-11-13 00:00:00+00:00	1993-11-14 23:59:59+00:00	1	"' kolei czołowe \nmiejsca na liście pozostają bez \nzmian. ""<em>Oscarowy</em>"" film francuski, \nze znakomią Catherine'"
518	oscarowy	Bałtycka Biblioteka Cyfrowa	431919	2000-02-19 00:00:00+00:00	2000-02-20 23:59:59+00:00	1	' kopert na modłę <em>oscarową</em> było tylko \nelementem choreografii dla publiczności w Teatrze Polskim i \nprzed'
519	oscarowy	Krośnieńska Biblioteka Cyfrowa	3373569	2002-01-01 00:00:00+00:00	2002-12-31 23:59:59+00:00	1	""". \nDlatego nie zniewa/a \nmnie przepi kny <em>oscarowy</em> \nusmiech kontestuj'1cego w filmie polsk q rzeczywistost"""
520	oscarowy	Wielkopolska Biblioteka Cyfrowa	783930	1937-06-04 00:00:00+00:00	1937-06-04 23:59:59+00:00	1	', <em>Oscarowa</em> na Anuna. dr Fudunescu (Rumunia) \nun Eentcna-Doamneui, Sławiński na Domino, Zwierzchowska na'
522	oscarowy	Bałtycka Biblioteka Cyfrowa	437092	1999-03-16 00:00:00+00:00	1999-03-16 23:59:59+00:00	1	"' głównej postaci, \n67 -letni wówczas Rod Steiger \n(""Al Capone"", ""Na nabrzeżach"", \n"" Waterloo"", <em>oscarowa</em>'"
523	oscarowy	Bałtycka Biblioteka Cyfrowa	432796	1999-12-01 00:00:00+00:00	1999-12-01 23:59:59+00:00	1	"', którzy całkowicie zdominowali \nekran. Tom Hanks (<em>oscarowe</em> \nkreacje w ""Filadelfii"" i ""Forest \nGump'"
524	oscarowy	Bałtycka Biblioteka Cyfrowa	1566789	2001-09-28 00:00:00+00:00	2001-09-28 23:59:59+00:00	1	"' Mike\'a Figgisa, \npóźniejszego twórcy <em>Oscarowego</em> ""Zostawić Las Vegas"", porównywano wielokrotnie do \n""Mony'"
525	oscarowy	Świętokrzyska Biblioteka Cyfrowa	320101	1940-04-26 00:00:00+00:00	1940-04-26 23:59:59+00:00	1	' kwietnia. 4-; .Na \ndzeniu izby <em>oscarowej</em> w. Bremszange \ntejże omówił eytuacjegt-Yoh ñfirm: i \nskich. które'
526	oscarowy	Bałtycka Biblioteka Cyfrowa	1564313	2000-10-20 00:00:00+00:00	2000-10-20 23:59:59+00:00	1	"' autor <em>oscarowego</em> \nscenariusza ""Midnight Express"" \n(1978) Alana Parkera. Prestiżowa nagroda utorowała mu'"
527	oscarowy	Bałtycka Biblioteka Cyfrowa	1564449	2001-07-20 00:00:00+00:00	2001-07-20 23:59:59+00:00	1	"' swój \nwielki talent aktorski <em>oscarowymi</em> \nrolami w ""Filadelfii"" i ""Forreście \nGumpie"". W sentymentalnej'"
528	oscarowy	Śląska Biblioteka Cyfrowa	901823	1999-01-01 00:00:00+00:00	1999-12-31 23:59:59+00:00	1	"' <em>oscarowe</em> niespodzianki jak: włoskie ""Iycie jest piękne"", albo sk.mddliJ\'\\.I. ICe w fOrmic perelki duńskie'"
529	oscarowy	Wielkopolska Biblioteka Cyfrowa	760658	1938-11-24 00:00:00+00:00	1938-11-24 23:59:59+00:00	1	' dobry sti-oż do- \n mowy_ <em>Oscarowa</em> 10 - 2 \nzd: 19 \n  Korzystna lokata \n Dnia 17 grudnia 1938 r. o 801i'
530	oscarowy	Śląska Biblioteka Cyfrowa	900524	2003-01-01 00:00:00+00:00	2003-12-31 23:59:59+00:00	1	' ścią <em>oscarowej</em> nocy. Blok \nQUIZ muzyczny 18:30 Panorama 17:30 Kuner krolestwo. film przygodoy,y 20:30'
534	oscarowy	Cyfrowy Dolny Śląsk	375498	1996-05-14 00:00:00+00:00	1996-05-14 23:59:59+00:00	1	"'. Dwie ""<em>oscarowe</em>"" role T. Hanksa. \nOdpowiedzi z konkursu nr 15: (np. ""Zelig"", ""Annie Hall""; Mia Farrow'"
535	oscarowy	Bałtycka Biblioteka Cyfrowa	419686	2001-01-01 00:00:00+00:00	2001-12-31 23:59:59+00:00	1	' zdania w tej sprawie. \n(pol) \n  Historia polskich Oscarów \nw <em>oscarowych</em> rywalizacjach sporo było polskich'
536	oscarowy	Bałtycka Biblioteka Cyfrowa	410418	2003-10-25 00:00:00+00:00	2003-10-26 23:59:59+00:00	1	' domowy adres kopie filmów \nubiegających się o nominacje <em>oscarowe</em>. Hollywoodzkie wytwórnie \nfilmowe'
538	oscarowy	Biblioteka Publiczna im. dr. Władysława Biegańskiego w Częstochowie	1426622	1930-01-01 00:00:00+00:00	1930-12-31 23:59:59+00:00	1	"' s ortowem kl. „Warta"" przy ul, <em>oscarowej</em> 22 odbywały się zawody w piłkę nożną, ata \nnowince pierwszą'"
539	oscarowy	Bałtycka Biblioteka Cyfrowa	421285	2003-02-17 00:00:00+00:00	2003-02-17 23:59:59+00:00	1	' galę <em>oscarową</em>. On prawdopodobnie nie wrÓCilby do Polski i tez byłby \nbezkamy. \n    \nSI \no \nG \n  ir \ns'
540	oscarowy	Wielkopolska Biblioteka Cyfrowa	783890	1937-10-10 00:00:00+00:00	1937-10-10 23:59:59+00:00	1	"' przez 3: p. Barbara Knollpwiila un wa . \n„Moi-ua"", p, Antonina <em>Oscarowa</em> na WaL_ ..Dion . n. _lidartynii'"
541	oscarowy	Bałtycka Biblioteka Cyfrowa	1564795	2000-05-29 00:00:00+00:00	2000-05-29 23:59:59+00:00	1	"' Danii i wychowanego we \nFrancji Gabriela Axela, twórcę \n<em>Oscarowej</em> ""Uczty Babette"", opowieść o dziejach'"
542	oscarowy	Bałtycka Biblioteka Cyfrowa	390541	1995-01-01 00:00:00+00:00	1995-12-31 23:59:59+00:00	1	"' wręczane były w stylu ""<em>oscarowym</em>"". Było fantastycznie, poznałem \nróżnych wspaniałych ludzi i przeżywałem'"
543	oscarowy	Bałtycka Biblioteka Cyfrowa	1565537	2001-03-16 00:00:00+00:00	2001-03-16 23:59:59+00:00	1	"' za ""Alicja już tu nie \nmieszka""), Anne Bancroft (pamiętna pani Robinson z ""Absolwenta"", <em>oscarowa</em> rola'"
544	oscarowy	Wielkopolska Biblioteka Cyfrowa	765383	1938-12-27 00:00:00+00:00	1938-12-27 23:59:59+00:00	1	' Lplnixšlüämü Łuk ae swia- \n  uuuon <em>oscarowy</em>. \n  P o d R eg ła zn i. \nTrener: - Moze pani spróbuje założyć narty'
545	oscarowy	Śląska Biblioteka Cyfrowa	910221	2000-01-01 00:00:00+00:00	2000-12-31 23:59:59+00:00	1	"' uc/estnikow ""<em>Oscarowej</em> \n  nocy"" przewidziano wicie niespodl.ianek i konkursÓw ora7 smac7ny \npocl'"
548	oscarowy	Bałtycka Biblioteka Cyfrowa	419407	2000-01-01 00:00:00+00:00	2000-12-31 23:59:59+00:00	1	' ponowne odkrycie wieńczy całą opowieść. \nŁatwo tu również o skojarzenia z \nniedawnym <em>oscarowym</em> przebojem'
549	oscarowy	Bałtycka Biblioteka Cyfrowa	419531	2000-01-01 00:00:00+00:00	2000-12-31 23:59:59+00:00	1	' Marek Aureliusz. Wie, że \njego dni są policzone. Zna też na tyle \nKommudusa (chyba <em>oscarowa</em> rola'
550	oscarowy	Bałtycka Biblioteka Cyfrowa	431415	2000-03-27 00:00:00+00:00	2000-03-27 23:59:59+00:00	1	' Magazyn Teatru Otwartego I \n  20.10 Kulisy <em>oscarowej</em> nocy - film   \ni dok. 3.00 Zakończenie prog. 1.40'
552	oscarowy	Bałtycka Biblioteka Cyfrowa	418674	2000-01-01 00:00:00+00:00	2000-12-31 23:59:59+00:00	1	' oczy szeroko otwarte: \nKulisy <em>oscarowej</em> nocy - film dok. \n21.15 Teatr Telewizji: Bigda idzie! \n- sztuka'
553	oscarowy	Bałtycka Biblioteka Cyfrowa	419490	2000-01-01 00:00:00+00:00	2000-12-31 23:59:59+00:00	1	' Mistrzowijuż od pewnego czasu, choć ostatnio przyćmiło ją rozpętane przez media <em>oscarowe</em> szaleństwo. Filmowcy'
554	oscarowy	Cyfrowy Dolny Śląsk	377150	2003-01-01 00:00:00+00:00	2003-12-31 23:59:59+00:00	1	"'""; Czajkowski - Koncert skrzypcowy D-dur\n8 maja, g. 9.00 I 11.00 <em>OSCAROWA</em> MUZYKA FILMOWA koncerty dla młodzieży'"
555	oscarowy	Bałtycka Biblioteka Cyfrowa	419345	1990-01-01 00:00:00+00:00	1990-12-31 23:59:59+00:00	1	"' ostatnich dwu- \n  ""<em>Oscarowe</em>"" znaczki \nZ okazji tegorocznej, już 62. ceremonii wręczenia ""Oscarów'"
556	oscarowy	Śląska Biblioteka Cyfrowa	1621725	1997-01-01 00:00:00+00:00	1997-12-31 23:59:59+00:00	1	', \nsłynna \nz <em>oscarowej</em> \nko- \n  r \n  jawia się anioł, wydaje się zupełnie idiotyczny, tym bardziej \nże nie ma'
557	oscarowy	Małopolska Biblioteka Cyfrowa	775507	1989-01-01 00:00:00+00:00	1989-12-31 23:59:59+00:00	1	' powodzeniem \nDUE-  n Horf:TJan, przyciągając \ntłumy nie tylko miarą <em>Oscarowego</em> sukcesu. Jego .pos6b bycia \nna'
558	oscarowy	Tarnobrzeska Biblioteka Cyfrowa	3247427	1996-01-01 00:00:00+00:00	1996-12-31 23:59:59+00:00	1	"' historia, ale tei trzej ""<em>oscarowi</em>"" \naktorzy. W r6d nich kr61em jest oczywi cie wci!li niezawodny Szkot'"
559	oscarowy	Małopolska Biblioteka Cyfrowa	659404	1986-01-01 00:00:00+00:00	1986-12-31 23:59:59+00:00	1	' \nwycenili swego <em>oscarowego</em> medalistę tak wysoko, że nie podołamy_: \nJeszcze w tym roku nie. \n  Na temat swej'
560	oscarowy	Małopolska Biblioteka Cyfrowa	777276	1983-01-01 00:00:00+00:00	1983-12-31 23:59:59+00:00	1	' ludności, \nktórą uczył posługiwania się kamerą, z czego później zrodziła się \nidea jego <em>Oscarowego</em> dzieła'
561	oscarowy	Podkarpacka Biblioteka Cyfrowa	1287484	1963-08-31 00:00:00+00:00	1963-08-31 23:59:59+00:00	2	""":'iINOWSKIEJ \n<em>OSCAROWI</em> NIEMEYEROWI \nW środę odbyła sie w BrasIlii \nuroczys-tooł! wreczenia Miedzynarodowej"""
562	oscarowy	Małopolska Biblioteka Cyfrowa	671067	1994-05-01 00:00:00+00:00	1994-05-01 23:59:59+00:00	1	' Spa.go. ROlę \ngospodarza tego najsłynniejszego od 30 la.t przyjęcia <em>Oscarowego</em> dla grona wybranych'
563	oscarowy	Wielkopolska Biblioteka Cyfrowa	784233	1937-05-09 00:00:00+00:00	1937-05-09 23:59:59+00:00	1	' \nprzebyli parcours bez błędu, a. to: p. Krzysztofowicz \n(Lwów). p. <em>Oscarowa</em> (Łódż), inż. Grabianowski'
564	oscarowy	Bałtycka Biblioteka Cyfrowa	400038	1989-01-01 00:00:00+00:00	1989-12-31 23:59:59+00:00	1	"' Słupsk oraz Arturek Łasica ul. Niemcewicza \n21/9, 76-200 Słupsk. \n  Po <em>oscarowym</em> sukcesie w filmie \n""Wall'"
565	oscarowy	Małopolska Biblioteka Cyfrowa	4073676	1986-01-01 00:00:00+00:00	1986-12-31 23:59:59+00:00	1	"'"" w filmie „Perły na \ndnie” , w rok później zrealizowali wspólnie słynne, <em>Oscarowe</em> \n„ Póciągi pod'"
566	oscarowy	Śląska Biblioteka Cyfrowa	1620324	1997-01-01 00:00:00+00:00	1997-12-31 23:59:59+00:00	1	""" <em>oscarowym</em> riego Menzla i aktor na dodostaje pierwszego Oscara nagradzapiu czasami dopa- kladkt'. Obaj"""
567	oscarowy	Małopolska Biblioteka Cyfrowa	716205	1983-01-01 00:00:00+00:00	1983-12-31 23:59:59+00:00	1	' \nuczestniczy rów nież <em>Oscarowa</em> \nmuzyka sławnego Burta Bacharacha ze słynną odtąd piosenką o \n„deszczu kapiącym'
568	oscarowy	Małopolska Biblioteka Cyfrowa	740284	1988-01-01 00:00:00+00:00	1988-12-31 23:59:59+00:00	1	' -&y l j w slęgarł,u o \ntradyQji. Zyl z.aledJw1e 54 lata. \n. \n  TernpeTa1tu.ra przed-.<em>oscarowa</em> \nro nic'
569	oscarowy	Małopolska Biblioteka Cyfrowa	700268	1983-01-01 00:00:00+00:00	1983-12-31 23:59:59+00:00	1	' mają do za- \nJL rzucenia Stevenowi Spielbergowi, że jeśli już — \npo kasowych i <em>Oscarowych</em> sukcesach'
570	oscarowy	Bałtycka Biblioteka Cyfrowa	1562805	2001-05-24 00:00:00+00:00	2001-05-24 23:59:59+00:00	1	'), Solecki (CES), Włodyka \nltorrn). (wok) \n  <em>Oscarowy</em> Woods \nW Monte Carlo rozdano Sportowe \nOscary'
571	oscarowy	Śląska Biblioteka Cyfrowa	910517	1998-01-01 00:00:00+00:00	1998-12-31 23:59:59+00:00	1	"', pokazując ślimaki \nna drodze, pająka, albo jak \nw <em>oscarowym</em> ""Koli"" po prostu \npraskie gołębie. \nOt nad'"
573	oscarowy	Małopolska Biblioteka Cyfrowa	659545	1989-07-09 00:00:00+00:00	1989-07-09 23:59:59+00:00	1	' filmu. zaprezentował kilka . najlepiej ubranyeh uczestniczek \n<em>oscarowej</em> gaU. Konkretnie: Slgurney Weaver'
575	oscarowy	Małopolska Biblioteka Cyfrowa	614839	1989-01-01 00:00:00+00:00	1989-12-31 23:59:59+00:00	1	"""-' ..  e!ltią?). . W kMdYł-- . . dzl k  \nlywOOd najsłynniejsu 'nagrodY' C:lnnes.. tera;r; d;r;lękl <em>OscarowI</em>"""
576	oscarowy	Śląska Biblioteka Cyfrowa	902733	1999-01-01 00:00:00+00:00	1999-12-31 23:59:59+00:00	1	' się temu ponad \nmiliard telewidzów w ponad 100 \nkrajach. Pod względem oglądalności z <em>oscarowym</em> show'
577	oscarowy	Śląska Biblioteka Cyfrowa	902829	1998-01-01 00:00:00+00:00	1998-12-31 23:59:59+00:00	1	', czego dowodem jest grad <em>oscarowych</em> nominacji. Zainteresowaniem dorównuje największemu filmowemu'
578	oscarowy	Śląska Biblioteka Cyfrowa	910135	1998-01-01 00:00:00+00:00	1998-12-31 23:59:59+00:00	1	' \n<em>oscarowymi</em>: Lepiej być nie może \n(15 USA 20.00); \n BRZESZCZE: \n Wisła — Mortal Kombat 2 (12 USA \n20.00'
579	oscarowy	Śląska Biblioteka Cyfrowa	901768	1998-01-01 00:00:00+00:00	1998-12-31 23:59:59+00:00	1	' napięcie filmu utrzymuje się przez \ndwie godziny bez zarzutu. \nFilm nie ma <em>oscarowych</em> ambicji, \nale'
580	oscarowy	Śląska Biblioteka Cyfrowa	902811	1998-01-01 00:00:00+00:00	1998-12-31 23:59:59+00:00	1	"' \n  Celine Dion - odtwórczym <em>oscarowej</em> piosenki z "" Titanica"". Fot. PAP/CAF \n  na których często bywają też'"
581	oscarowy	Śląska Biblioteka Cyfrowa	912234	1994-01-01 00:00:00+00:00	1994-12-31 23:59:59+00:00	1	"'... \n  Film ""W imię ojca"" należy do pechowców: w tegorocznej rywalizacji o <em>oscarowe</em> statuetki nominowano go aż'"
582	oscarowy	Bałtycka Biblioteka Cyfrowa	3794123	1991-04-12 00:00:00+00:00	1991-04-12 23:59:59+00:00	1	' \npierwsze \ncz??ci \nfilmu \nda- \n?y iOO milionów \nz:vsku, \nnaj \nnowsza \nod \nrazu \nwystnr \ntowa?a \nw \n<em>Oscarowej</em>'
583	oscarowy	Śląska Biblioteka Cyfrowa	1621696	1997-01-01 00:00:00+00:00	1997-12-31 23:59:59+00:00	1	"' bezwzględnego prezydenta. ..Władza \nabsolutna"" przypomina trochę <em>oscarowy</em> \nfilm Eastwooda ..Bez przebaczenia"", w'"
584	oscarowy	Śląska Biblioteka Cyfrowa	1622355	1992-01-01 00:00:00+00:00	1992-12-31 23:59:59+00:00	1	"' \nciagot dydaktycznych. \nA może właśnie dlat\':l:o \n,.Książę przypływów"" maJąc \ntyle nominacji ,.<em>oscarowych</em>'"
585	oscarowy	Śląska Biblioteka Cyfrowa	911612	1994-01-01 00:00:00+00:00	1994-12-31 23:59:59+00:00	1	' polskIe) \npremIerze wIOsną br., zamm jeszcze hlm ten zebrał tyle <em>oscarowych</em> laurow, ale zamteresowame \nową'
586	oscarowy	Bałtycka Biblioteka Cyfrowa	3792337	1990-09-20 00:00:00+00:00	1990-09-20 23:59:59+00:00	1	"' \nszpitalu \np""""chiatrycznymprzC\'d \nwojn?. \nw \n<;tarym \n0- \nNie da s:? \nu \'kry t: \nnOwa \n""<em>oscarowa</em>"" \nfo::-mu?a'"
587	oscarowy	Bałtycka Biblioteka Cyfrowa	3793997	1991-03-15 00:00:00+00:00	1991-03-15 23:59:59+00:00	1	' \nzdaIllem, \nme \nby lo te J na]wyzszeJ \n<em>oscarowej</em> \nploby, \nchoc \nOs \ncary \nrozaano \ntu hOJme. \nDrugi \nurzek'
