	word	lname	iid	duration_start	duration_end	occurences	highlighting
2	ćwierćprawda	Małopolska Biblioteka Cyfrowa	731430	1973-01-01 00:00:00+00:00	1973-12-31 23:59:59+00:00	1	"' antykomunistyczną — bełkot pół i <em>ćwierćprawd</em> o bezmiernym ogromie zła"".\nBezmierny jest ogrom zła wyrządzanego'"
4	ćwierćprawda	Repozytorium Cyfrowe Instytutów Naukowych	857024	1998-01-01 00:00:00+00:00	1998-12-31 23:59:59+00:00	1	'. ćwierćintelektualista, ćwierćkierowca, ćwierćperspektywa, <em>ćwierćprawda</em>, ćwierćprodukt, ćwierćprogram, \nćwierćreforma'
7	ćwierćprawda	Armarium. dominikańska biblioteka cyfrowa	302992	1994-01-01 00:00:00+00:00	1994-12-31 23:59:59+00:00	1	' oczach ktoś ich okłamuje, mówi im półprawdy i <em>ćwierćprawdy</em>, podlizując się młodym, dając im to, co lekkie'
8	ćwierćprawda	Wirtualna Czytelnia Bibuły	1699378	1987-01-01 00:00:00+00:00	1987-12-31 23:59:59+00:00	1	' skończy się na wym-uczeniu półgębkiem <em>ćwierćprawdy</em> \ngdy cała jest wszystkim znana i gdy będzie to pro'
9	ćwierćprawda	Biblioteka Cyfrowa Ośrodka KARTA	205119	1978-01-01 00:00:00+00:00	1978-12-31 23:59:59+00:00	1	"' tam aą najgłębeze prawdy.Wtedy człowiek \nnie da nię ""uprowadzi “ pólprewdcm,<em>ćwierćprawdom</em>'"
10	ćwierćprawda	Wielkopolska Biblioteka Cyfrowa	3814770	1981-01-01 00:00:00+00:00	1981-12-31 23:59:59+00:00	1	'wulg. \n  „- \n  a jeśli ktoś raz wkracza na drogę pół- i <em>ćwierćprawd</em>, to nieuchronnie zostaje'
11	ćwierćprawda	Zielonogórska Biblioteka Cyfrowa	239912	1988-01-01 00:00:00+00:00	1988-12-31 23:59:59+00:00	1	' jego. \n  IV \n  Dwudziesta rocznica Marca rzygneła w prasie półprawdami. <em>ćwierćprawdami</em>. ochłapkami'
13	ćwierćprawda	Wirtualna Czytelnia Bibuły	1699063	1987-01-01 00:00:00+00:00	1987-12-31 23:59:59+00:00	1	' <em>ćwierćprawdy</em>. -x o ty- tez nale pamiętać. czytajac tę książkę. \n  I jeszcze jedna refleksja. Bezpretensjonalne'
14	ćwierćprawda	Wirtualna Czytelnia Bibuły	1702856	1988-01-01 00:00:00+00:00	1988-12-31 23:59:59+00:00	1	'- \n  IV \n  Dwudziesta rocznica Marca rzygneła w prasie półprawdami, <em>ćwierćprawdami</em>, ochłapkami prawdy. Cóż'
15	ćwierćprawda	Kujawsko-Pomorska Biblioteka Cyfrowa	664240	1995-01-01 00:00:00+00:00	1995-12-31 23:59:59+00:00	1	' postulatom. \nAle byłaby to półprawda (a może nawet \ntylko <em>ćwierćprawda</em>). Nic nie wskazuje na \nto, by radni'
16	ćwierćprawda	Biblioteka Cyfrowa Ośrodka KARTA	205279	1980-01-01 00:00:00+00:00	1980-12-31 23:59:59+00:00	1	' prawdzie ma byc naszą_ odpowiedzią \nna zakłamanie, na te póšprawdy czy <em>ćwierćprawdy</em>, tak samo nasze męstwo'
17	ćwierćprawda	Biblioteka Cyfrowa Ośrodka KARTA	212919	1978-01-01 00:00:00+00:00	1978-12-31 23:59:59+00:00	1	"' wokół wspólnych pozytywnych ce1ów"". \n Oto wierutne kłamstwa wysnute z nieuczciwych <em>ćwierćprawd</em>, z'"
18	ćwierćprawda	Wirtualna Czytelnia Bibuły	1702033	1981-01-01 00:00:00+00:00	1981-12-31 23:59:59+00:00	1	""" wszystkich luk w historycznej świadomości społecze'f' ztwa \n ›ol ego oraz prostowznie półprawd, <em>ćwierćprawd</em>"""
23	ćwierćprawda	Wielkopolska Biblioteka Cyfrowa	1598918	1910-08-28 00:00:00+00:00	1910-08-28 23:59:59+00:00	1	' \npółprawdą, <em>ćwierćprawdą</em> a więc i półfałszem a choćby i ćwierćfalszem. Jednostronność. Teraz czas spojrzeć na'
25	ćwierćprawda	Świętokrzyska Biblioteka Cyfrowa	1528644	1976-04-01 00:00:00+00:00	1976-04-30 23:59:59+00:00	1	""" \nza wiele konkretności, te oprócz \nprawd oczywistych tyle w njjm \npół'prawd,' <em>ćwierćprawd</em>, ba, a~uzji"""
27	ćwierćprawda	Małopolska Biblioteka Cyfrowa	703097	1992-05-10 00:00:00+00:00	1992-05-10 23:59:59+00:00	1	"'"" pomaszerowali na północ, \naby nieść wolność krajom bałtyckim. \nI na dodatek dwie <em>ćwierćprawdy</em>, wyjęte \ntym razem'"
29	ćwierćprawda	Wielkopolska Biblioteka Cyfrowa	3282333	1993-12-19 00:00:00+00:00	1993-12-19 23:59:59+00:00	1	' można \nmanipulować historią, jak można \nprzedstawiać w mistrzowski sposób \npółprawdę, <em>ćwierćprawdę</em> lub'
30	ćwierćprawda	Mazowiecka Biblioteka Cyfrowa	32365	1987-01-01 00:00:00+00:00	1987-12-31 23:59:59+00:00	1	'  kłamstwa,  pół-  i  \n<em>ćwierćprawdy</em>  aplikowane  wszędzie  i  wszystkim.  Bursa  był  może  tym  jedynym'
31	ćwierćprawda	Wielkopolska Biblioteka Cyfrowa	3819545	2000-08-09 00:00:00+00:00	2000-08-09 23:59:59+00:00	1	""" nazywani mu- \n:r.ykmni mckowymi. To dość ryzykowna \n<em>ćwierćprawda</em> o rock'n'mllu, ale pozwala \nniektórym"""
32	ćwierćprawda	Cyfrowy Dolny Śląsk	367771	2002-01-01 00:00:00+00:00	2002-12-31 23:59:59+00:00	1	"' wszystko zakładają, że ich agresja, cynizm,\nprzeplatane z „<em>ćwierćprawdami</em>"" lub nieprawdą, ubrane\nw brutalny'"
33	ćwierćprawda	Cyfrowy Dolny Śląsk	375523	1996-06-18 00:00:00+00:00	1996-06-18 23:59:59+00:00	1	' głównym organizatorze Osiedlowym Domu Kultury - co jest \n<em>ćwierćprawdą</em>, jako że ODK był ważnym, \nale tylko'
34	ćwierćprawda	Bałtycka Biblioteka Cyfrowa	430411	1998-01-01 00:00:00+00:00	1998-12-31 23:59:59+00:00	1	"', lecz ""<em>ćwierćprawdy</em>"" podawane przez rybaków w \ncelu zatajenia rzeczywistych połowów. \nAle zarazem - to'"
35	ćwierćprawda	Śląska Biblioteka Cyfrowa	1627061	1993-01-01 00:00:00+00:00	1993-12-31 23:59:59+00:00	1	""" głównym zajęciem - rzucanie błotem i operowanie'\n<em>ćwierćprawdami</em>. Bronię prymatu etyki nad ekonomią"""
36	ćwierćprawda	Tarnobrzeska Biblioteka Cyfrowa	7353	1990-01-01 00:00:00+00:00	1990-12-31 23:59:59+00:00	1	' aktualne, ale nie \nużywać półprawd czy <em>ćwierćprawd</em>. Trzeba opierać się \nna jakichś zdrowych zasadach'
38	ćwierćprawda	Mazowiecka Biblioteka Cyfrowa	36727	1966-01-01 00:00:00+00:00	1966-12-31 23:59:59+00:00	1	"' drugich (propagatorów ""kultury picia"")? Nadal\nJesteśmy na ""etapie oportunizmu"" i <em>ćwierćprawd</em>. Czy\nta'"
39	ćwierćprawda	Bałtycka Biblioteka Cyfrowa	424015	1994-01-01 00:00:00+00:00	1994-12-31 23:59:59+00:00	1	' \ndemagogią i prezentuje pół- i <em>ćwierćprawdy</em>. \nNie od rzeczy będzie więc przypomnieć słowa prof. Ewy'
41	ćwierćprawda	Bałtycka Biblioteka Cyfrowa	3792766	1991-07-14 00:00:00+00:00	1991-07-14 23:59:59+00:00	1	' \n<em>ćwierćprawdy</em> zbyt łatwo przechodzą \ndziś przez usta wczorajszych Cyceronów i Katonów. Onegdajszym posiadaczom'
42	ćwierćprawda	Małopolska Biblioteka Cyfrowa	748315	1955-10-30 00:00:00+00:00	1955-10-30 23:59:59+00:00	1	', \npółprawdi <em>ćwierćprawd</em> Tematy może \nporusza nowe -— lecz gruntuje je na \nsłurych zasadach. Bowiem Druga Re'
43	ćwierćprawda	Małopolska Biblioteka Cyfrowa	697534	1970-09-26 00:00:00+00:00	1970-09-26 23:59:59+00:00	1	' dezinformacji. Jako typowej <em>ćwierćprawdy</em>. wprowadzając w błąd czytelników i co najmniej niejasnej w \nswoich'
44	ćwierćprawda	Śląska Biblioteka Cyfrowa	912677	1996-01-01 00:00:00+00:00	1996-12-31 23:59:59+00:00	1	"' którym wykorzystywane są \npublicznie ""nieprawdy, półprawdy, <em>ćwierćprawdy</em>"". \nUmożliwiłaby ona również'"
45	ćwierćprawda	Sejm	3519472	1997-03-20 00:00:00+00:00	1997-03-20 23:59:59+00:00	1	', gdy na temat sytuacji Stoczni Gdańskiej publicznie wypowiada się nie tylko półprawdy i <em>ćwierćprawdy</em>'
46	ćwierćprawda	Małopolska Biblioteka Cyfrowa	607289	1984-01-01 00:00:00+00:00	1984-12-31 23:59:59+00:00	1	"' pytalI bądź :na wnioski. iż \nbył \' to ..fasadowe związki reżimowe"", \nco jest <em>ćwierćprawdą</em>, gorszą od'"
47	ćwierćprawda	Radomska Biblioteka Cyfrowa	1548018	1965-04-30 00:00:00+00:00	1965-04-30 23:59:59+00:00	1	' potocznych że ..j£>śll idzie o Niemcy, to o- Ten .,mRłv. :zarozumiały kOT!<em>ćwierćprawd</em> rodem z telewizjI'
48	ćwierćprawda	Radomska Biblioteka Cyfrowa	1548019	1965-05-01 00:00:00+00:00	1965-05-01 23:59:59+00:00	1	"' potocznych źe ..j£>śll idzie o Niemcy. to o- Ten "" mały. zarozumiały kOT!<em>ćwierćprawd</em> rodem z telewizjI'"
